phonomètre	PHONOMÈTRE\n fo-no-mè-tr' s. m.\nTerme de physique. Instrument propre à mesurer l'intensité du son ou de\nla voix.\n\nÉTYMOLOGIE\nDu grec, voix, et, mesure.
phonométrie	PHONOMÉTRIE\n fo-no-mé-trie s. f.\nTerme de physique. Art de mesurer les sons, de se servir du phonomètre.
phonométrique	PHONOMÉTRIQUE\n fo-no-mé-tri-k' adj.\nQui concerne le phonomètre ou la phonométrie.
phonospasmie	PHONOSPASMIE\n fo-no-spa-smie s. f.\nTerme de médecine. Spasmes ou convulsions qui saisissent au moment de\nl'émission de la voix.\n\nÉTYMOLOGIE\nDu grec, voix, et spasme.
phonème	PHONÈME\n fo-nè-m' s. m.\nTerme de linguistique. Bruit articulé, son articulé quelconque, voyelle\nou consonne.\nM. Coudereau range les phonèmes : 1° d'après l'organe mobile qui les\nproduit ; 2° d'après le point où cet organe s'applique, L. HAVET, Rev.\ncrit. 1 avr. 1876, p. 249.\n\nÉTYMOLOGIE\nLe grec se traduit par, émission de voix.
phonético-symbolique	PHONÉTICO-SYMBOLIQUE\n fo-né-ti-ko-sin-boli-k' adj.\nSe dit d'hiéroglyphes composés de caractères phonétiques et de\ncaractères symboliques, employés ensemble ou alternativement.\n\nÉTYMOLOGIE\nPhonétique, et symbolique.
phonétique	PHONÉTIQUE\n fo-né-ti-k' adj.\n\n1° Terme didactique.. Qui se rapporte à la voix.\nÉcriture phonétique, se dit de l'écriture dont les éléments représentent\ndes voix ou des articulations, par ex. l'écriture alphabétique.\n\n2° S. f. La phonétique, l'ensemble des sons d'une langue.\nOn le fait quelquefois synonyme de phonologie.\n\nÉTYMOLOGIE\nEn grec, qui a rapport à la voix (voy. PHONIQUE).
phonétiquement	PHONÉTIQUEMENT\n fo-né-ti-ke-man adv.\nTerme de grammaire. En représentant des sons.
phonétisme	PHONÉTISME\n fo-né-ti-sm' s. m.\nPeinture des sons, manière de représenter les idées en représentant les\nsons.
phoque	PHOQUE\n fo-k' s. m.\nQuadrupède amphibie, couvert de poils et à pattes très courtes, qu'on\ntrouve vers les pôles.\nLes phoques font la principale ressource des Groenlandais, et c'est par\ncette raison qu'ils s'exercent à la chasse de ces animaux, et que celui\nqui réussit le mieux acquiert autant de gloire que s'il s'était\ndistingué dans un combat, BUFF., Quadrup. t. XI, p. 178.\n\nÉTYMOLOGIE
phoranthe	PHORANTHE\n fo-ran-t' s. m.\nTerme de botanique. Évasement du pédoncule qui porte les fleurs dans les\nplantes composées.\n\nÉTYMOLOGIE\nDu grec, qui porte, et, fleur.
phore	PHORE\n fo-r' s. m.\nGenre d'insectes diptères, nommé aussi trinerve.
phormion ou phormium	PHORMION ou PHORMIUM\n for-mi-on ou formi-om' s. m.\nGenre de liliacées, qui se compose d'une seule espèce, le phormium\ntenax, Forster, connu sous le nom de lin de la Nouvelle-Zélande.\n\nÉTYMOLOGIE\nDu grec, natte, et, filet. Nom d'une plante grecque.
phoronomie	PHORONOMIE\n fo-ro-no-mie s. f.\nScience des lois de l'équilibre et du mouvement des corps ; mot qu'on a\nproposé pour remplacer mécanique.\n\nÉTYMOLOGIE\nDu grec, action de porter, et, loi.
phosgène	PHOSGÈNE\n fos'-jè-n' adj. m.\nTerme de chimie. Le gaz phosgène, le gaz oxychloride carbonique, ainsi\ndit parce qu'il résulte de l'action des rayons solaires sur un mélange à\nparties égales de gaz chlore et de gaz oxyde de carbone.\n\nÉTYMOLOGIE\nDu grec, lumière, et, engendré.
phosphate	PHOSPHATE\n fo-sfa-t' s. m.\nTerme de chimie. Genre de sels formés par la combinaison de l'acide\nphosphorique avec les bases.\n\nÉTYMOLOGIE\nVoy. PHOSPHORE.
phosphatique	PHOSPHATIQUE\n fo-sfa-ti-k' adj.\nTerme de chimie. Qui est formé de phosphate.\nAcide phosphatique, acide qui est un mélange d'acide phosphoreux et\nd'acide phosphorique.\nTerme de médecine. Concrétions phosphatiques, concrétions composées de\nphosphates qui se forment dans le corps.
phosphaté, ée	PHOSPHATÉ, ÉE\n fo-sfa-té, tée adj.\nTerme de chimie. Qui est à l'état de phosphate.\nS. f. pl. Terme de minéralogie. Les phosphatées, ordre de roches\npierreuses.
phosphite	PHOSPHITE\n fo-sfi-t' s. m.\nTerme de chimie. Genre de sels qui sont produits par la combinaison de\nl'acide phosphoreux avec les bases.
phosphoglycérate	PHOSPHOGLYCÉRATE\n fo-sfo-gli-sé-ra-t' s. m.\nTerme de chimie. Nom générique des sels que forme l'acide\nphosphoglycérique avec les bases.
phosphoglycérique	PHOSPHOGLYCÉRIQUE\n fo-sfo-gli-sé-ri-k' adj.\nTerme de chimie. Acide phosphoglycérique, acide qui se forme lorsqu'on\nmêle la glycérine à l'acide phosphorique anhydre ou hydraté.
phosphore	PHOSPHORE\n fo-sfo-r' s. m.\n\n1° Corps simple, non métallique, combustible, brûlant avec flamme au\ncontact de l'air, lumineux dans l'obscurité ; il fut trouvé d'abord dans\nl'urine ; on l'extrait aujourd'hui des os.\nC'est un alchimiste de Hambourg, nommé Brandt, qui, en cherchant la\npierre philosophale qu'il ne trouva pas, fit par hasard, en 1669, la\ndécouverte du phosphore qu'il ne cherchait point, FOURCROY, Connaiss.\nchim. t. I, p. 185, dans POUGENS.\nPhosphore rouge ou amorphe, préparation qui s'obtient en soumettant\npendant plusieurs jours le phosphore ordinaire à une température élevée,\nc'est-à-dire voisine de son point d'ébullition ; en cet état, le\nphosphore n'est plus vénéneux.\n\n2° Nom de divers corps brillants dans l'obscurité.\nLes phosphores faisaient alors du bruit ; Christian Adolphe Balduinus et\nKunkel, chimiste de l'électeur de Saxe, en avaient trouvé un différent\net nouveau chacun de leur côté, FONTEN., Homberg.\nPhosphore de Kunkel s'est dit longtemps du phosphore, parce qu'un\nchimiste nommé Kunkel parvint à extraire cette substance de l'urine en\n1674.\nPhosphore de Baudoin, azotate de chaux calciné.\nPhosphore de Homberg, chlorure de calcium fondu au feu.\nPhosphore de Bologne, galette de poudre de sulfate de baryte.\nPar extension.\nEt dans l'ombre des bois ces phosphores vivants {les insectes brillants}\nBrillent sur les rameaux balancés par les vents, ST-LAMB., Sais. II.\nFig.\nL'un veut qu'on l'aime et l'autre qu'on l'admire ; L'un se fait craindre\net l'autre nous attire ; L'un est le phosphore brillant Qui luit sans\néchauffer...., DELILLE, Convers. II.\n\n3° Fig. Lueur.\nAlors tout s'éteignit, flammes, rires, phosphore, Tout, et le lendemain\non trouva dès l'aurore Les deux gens d'armes morts sur la statue assis,\nV. HUGO, Ball. VIII.\n\nÉTYMOLOGIE\nLat. phosphorus, du grec, l'étoile du matin, du grec, lumière (voy.\nPHOTO...), et, qui porte.
phosphorer	PHOSPHORER\n fo-sfo-ré v. a.\nAjouter du phosphore.\nLes inventeurs ont été conduits à phosphorer l'alliage de cuivre et\nd'étain, H. DE PARVILLE, Journ. offic. 8 sept. 1871, p. 3307, 1re col.
phosphorescence	PHOSPHORESCENCE\n fo-sfo-rè-ssan-s' s. f.\n\n1° Propriété qu'ont certains corps de briller dans l'obscurité, sans\nrépandre de chaleur sensible, d'un éclat plus ou moins vif, à la manière\ndu phosphore. La phosphorescence des vers luisants.\nPhénomène remarquable qui a lieu la nuit sur l'Océan et qui est dû à la\nprésence d'animaux inférieurs vivant par milliers suspendus à la surface\ndes eaux.\n\n2° Propriété qu'ont certains corps de devenir lumineux, sans qu'il y ait\ncombustion, lorsqu'on les frotte, ou qu'on les chauffe, ou qu'on les\nsoumet à une décharge électrique.\nCette phosphorescence {des spaths pesants} les approche des diamants et\ndes pierres précieuses qui reçoivent, conservent et rendent dans les\nténèbres la lumière du soleil et même celle du jour, BUFF., Min. t. VII,\np. 341.\n\nÉTYMOLOGIE\nPhosphorescent.
phosphorescent, ente	PHOSPHORESCENT, ENTE\n fo-sfo-rè-ssan, ssan-t' adj.\nQui jouit de la phosphorescence. Un grand nombre de corps sont\nspontanément phosphorescents : le bois pourri, certains insectes\n(lampyre, scolopendre), beaucoup de crustacés et de mollusques marins ;\nquelques plantes (bissus phosphorescens, euphorbia phosphorea), le sucre\nquand on le casse dans l'obscurité, etc.\n\nÉTYMOLOGIE\nPhosphore.
phosphoreux	PHOSPHOREUX\n fo-sfo-reû adj. m.\nTerme de chimie. Acide phosphoreux, acide formé par la combustion lente\ndu phosphore.
phosphorides	PHOSPHORIDES\n fo-sfo-ri-d' s. m. pl.\nFamille de minéraux comprenant ceux dans la composition desquels il\nentre du phosphore.\n\nÉTYMOLOGIE\nPhosphore.
phosphoriphore	PHOSPHORIPHORE\n fo-sfo-ri-fo-r' adj.\nTerme de zoologie. Se dit de divers animaux qui ont une partie\nphosphorescente.\n\nÉTYMOLOGIE\nPhosphore, et du grec, qui porte.
phosphorique	PHOSPHORIQUE\n fo-sfo-ri-k' adj.\n\n1° Qui appartient au phosphore, où il entre du phosphore.\nBriquet phosphorique, petit flacon rempli de phosphore et dans lequel on\nplonge une allumette soufrée qu'on frotte ensuite sur un bouchon, afin\nd'obtenir de la lumière.\nBougies phosphoriques, petits tubes de verre scellés aux deux bouts et\nrenfermant une petite mèche enduite de phosphore qui s'enflamme quand on\nbrise le verre.\n\n2° Terme de chimie. Acide phosphorique, acide formé par la combustion\nrapide et complète du phosphore.\n\n3° Qui est en rapport avec le phosphore. Les paralysies phosphoriques,\nparalysies que cause le phosphore.\n\n4° Qui brille à la façon du phosphore.\nIl {Beccari} trouva que les surfaces rudes devenaient plus phosphoriques\nque celles qui étaient polies, parce qu'il y a moins de rayons\nréfléchis, J. SENNEBIER, Ess. art d'observ. t. III, p. 68, dans POUGENS.\n\nÉTYMOLOGIE\nPhosphore.
phosphorisation	PHOSPHORISATION\n fo-sfo-ri-za-sion s. f.\n\n1° Terme de chimie. Action de mettre à l'état de phosphate, de rendre\nphosphorique.\n\n2° Terme de physiologie. Influence du phosphate calcaire dans l'économie\nanimale ; sa formation.
phosphoriser	PHOSPHORISER\n fo-sfo-ri-zé v. a.\nRendre phosphorique.\nMettre à l'état de phosphate.
phosphorisme	PHOSPHORISME\n fo-sfo-ri-sm' s. m.\n\n1° Ancien synonyme de phosphorescence.\nLe fait bien avéré du phosphorisme et de la combustibilité du diamant,\nBUFF., Min. t. VII, p. 368.\n\n2° Terme de médecine. L'intoxication par le phosphore et ses accidents\naigus ou chroniques.
phosphoriste	PHOSPHORISTE\n fo-sfo-ri-st' s. m.\nNom donné en Suède, vers la fin du XVIIIe siècle, à un groupe de\nlittérateurs qui réagissaient contre l'influence française, alors\ndominante dans tout le Nord ; ainsi dits d'après le journal Phosphorus.
phosphorite	PHOSPHORITE\n fo-sfo-ri-t' s. f.\nTerme de minéralogie. Phosphate de chaux naturel.
phosphoroscope	PHOSPHOROSCOPE\n fo-sfo-ro-sko-p' s. m.\nInstrument destiné à observer la phosphorescence très courte qui se\nmanifeste sur beaucoup de substances après qu'elles ont été exposées à\nl'insolation.\n\nÉTYMOLOGIE\nPhosphore, et du grec, examiner.
phosphoré, ée	PHOSPHORÉ, ÉE\n fo-sfo-ré, rée adj.\nTerme de chimie. Qui contient du phosphore. Gaz hydrogène phosphoré.\nPâte phosphorée, pâte employée pour la destruction des animaux\nnuisibles.
phosphovinate	PHOSPHOVINATE\n fo-sfo-vi-na-t' s. m.\nNom générique des sels produits par la combinaison, avec les bases, de\nl'acide phosphovinique.
phosphovinique	PHOSPHOVINIQUE\n fo-sfo-vi-ni-k' adj. m.\nTerme de chimie. Acide phosphovinique, acide composé d'acide\nphosphorique et des éléments de l'alcool.\n\nÉTYMOLOGIE\nPhosphore, et vin.
phosphure	PHOSPHURE\n fo-sfu-r' s. m.\nTerme de chimie. Combinaison, en proportions définies, du phosphore avec\nun autre corps simple, principalement avec un métal.
phosphuré, ée	PHOSPHURÉ, ÉE\n fo-sfu-ré, rée adj.\nTerme de chimie. Qui contient du phosphore à l'état de combinaison.
phosphène	PHOSPHÈNE\n fo-sfè-n' s. m.\nNom donné aux images lumineuses produites par une compression qui,\npratiquée sur l'oeil, se transmet à la rétine.\n\nÉTYMOLOGIE\nDu grec, lumière, et, briller.
photinien	PHOTINIEN\n fo-ti-niin s. m.\nMembre d'une secte du 4e siècle, qui prétendait que le Saint-Esprit\nn'était point une personne divine, et que Jésus était le fils de Joseph.\n\nÉTYMOLOGIE\nPhotin, évêque en Pannonie.
photizite	PHOTIZITE\n fo-ti-zi-t' s. f.\nTerme de minéralogie. Silicate de magnésie.
photo-	PHOTO-\nÉlément de composition signifiant lumière.
photo-électrique	PHOTO-ÉLECTRIQUE\n fo-to-é-lè-ktri-k' adj.\nQui donne de la lumière par l'électricité. Lampe photo-électrique.\n\nÉTYMOLOGIE\nPhoto..., et électrique.
photochimie	PHOTOCHIMIE\n fo-to-chi-mie s. f.\nScience qui étudie les actions chimiques de la lumière.
photochimique	PHOTOCHIMIQUE\n fo-to-chi-mi-k' adj.\nQui se rapporte à l'action chimique de la lumière.\nForce photochimique, , Acad. des sc. Comptes rend. t. LXXVI, p. 764.\n\nÉTYMOLOGIE\nPhoto..., et chimique.
photochromatique	PHOTOCHROMATIQUE\n fo-to-kro-ma-ti-k' adj.\nQui est relatif à la production des couleurs par la photographie.\n\nÉTYMOLOGIE\nPhoto..., et du grec, couleur.
photochromatiquement	PHOTOCHROMATIQUEMENT\n fo-to-kro-ma-tike-man adv.\nD'une manière photochromatique.\nLe sous-chlorure d'argent photochromatiquement impressionnable,\nBECQUEREL, Acad. des sc. Comptes rendus, t. LXI, p. 1113.
photochromie	PHOTOCHROMIE\n fo-to-kro-mie s. f.\nProcédé de photographie par lequel on reproduit la couleur des objets.\nC'est sur une presse autotypique, appartenant aux ateliers de\nphotochromie du Moniteur universel,... qu'auront lieu ces expériences\n{d'impressions mécaniques aux encres grasses}, , Journ. offic. 31 mai\n1876, p. 3731, 1re col.\nProgrès considérables accomplis dans l'art tout nouveau de la\nphotochromie, , ib. 6 avril 1877, p. 2635, 2e col.\n\nÉTYMOLOGIE\nPhoto..., et du grec, couleur.
photochromique	PHOTOCHROMIQUE\n fo-to-kro-mi-k' adj.\nQui a rapport à la photochromie, synonyme de photochromatique, qui est\nau Dictionnaire.\nImpressions photochromiques, , Journ. offic. 6 avr. 1877, p. 2635, 2e\npage.
photodoscope	PHOTODOSCOPE\n fo-to-do-sko-p' s. m.\nTerme de physique. Appareil propre à examiner la lumière.\nLe spectre solaire est le photodoscope le plus délicat que l'on puisse\nimaginer dans l'état actuel de la science, ZANTEDESCHI, Presse scient.\n1862, t. I, p. 167.\n\nÉTYMOLOGIE\nDu grec, lumineux, et du grec, examiner.
photoglyptie	PHOTOGLYPTIE\n fo-to-gli-ptie s. f.\nArt de la gravure par la lumière, Journ. offic. 29 sept. 1872, p. 2645,\n3e col.\n\nÉTYMOLOGIE\nDu grec, lumière, et, ciseler.
photogrammétrie	PHOTOGRAMMÉTRIE\n fo-to-gra-mmé-trie s. f.\nApplication de la photographie au lever des plans.\nUn autre procédé de photogrammétrie, inventé par Chevallier, exige un\ninstrument particulier, H. VOGEL, la Photographie, Biblioth. scient.\ninternationale, Paris, 1876, p. 127.\n\nÉTYMOLOGIE\nPhoto..., du grec, dessin, et, mesure.
photographe	PHOTOGRAPHE\n fo-to-gra-f' s. m.\nCelui qui s'occupe de photographie.\n\nÉTYMOLOGIE\nPhoto..., et du grec, représenter.
photographie	PHOTOGRAPHIE\n fo-to-gra-fie s. f.\nProcédé au moyen duquel on fixe sur une plaque sensible, à l'aide de la\nlumière l'image des corps qu'on place devant l'objectif d'une chambre\nobscure. Il est fondé sur les propriétés chimiques dont jouissent\nquelques rayons de la lumière, qui leur permettent d'agir sur certains\ncorps très sensibles à leur action.\n\nSUPPLÉMENT AU DICTIONNAIRE\nPHOTOGRAPHIE. Ajoutez :\n\n2° Épreuve photographique. Une belle photographie.
photographique	PHOTOGRAPHIQUE\n fo-to-gra-fi-k' adj.\nQui appartient à la photographie ; dont elle se sert, ou qui est produit\npar elle.
photographiquement	PHOTOGRAPHIQUEMENT\n fo-to-gra-fi-ke-man adv.\nPar les procédés photographiques.
photogravure	PHOTOGRAVURE\n fo-to-gra-vu-r' s. f.\n\n1° Gravure faite par un procédé photographique.\nDeux publications de la Société des anciens textes, les Chansons du XVe\nsiècle et l'Album contenant la photogravure des plus anciens monuments\nde la langue française, , Revue des langues romanes, 2e série, t. II, p.\n111.\nElle {la mappemonde d'Ortélius} a été reproduite intégralement par les\nmaîtres de la photogravure moderne, les frères Dujardin, , Journ. offic.\n7 mars 1874, p. 1794, 2e col.\nIl {M. L. Delisle} a choisi dans ce manuscrit six feuillets qui,\nreproduits par la photogravure, nous montrent différentes sortes\nd'écriture et surtout la transition entre ces écritures différentes, ,\nRevue historique, t. I, p. 308.\n\n2° Procédé à l'aide duquel on obtient ces gravures.
photogène	PHOTOGÈNE\n fo-to-jè-n' s. m.\nNom donné à l'huile d'éclairage.\n\nÉTYMOLOGIE\nPhoto..., et le suffixe ....gène.
photogénique	PHOTOGÉNIQUE\n fo-to-jé-ni-k' adj.\n\n1° Qui produit des images par la lumière. Rayons photogéniques.\nLes belles épreuves {d'une éclipse solaire} qui ont été adressées à\nl'Académie par don Aguilar et le P. Secchi ne laissent aucun doute sur\nl'action photogénique des protubérances et de l'auréole, , Acad. des sc.\nComptes rendus, t. LI, p. 993.\n\n2° Qui vient bien par la photographie. Une robe blanche n'est pas\nphotogénique.
photohéliographe	PHOTOHÉLIOGRAPHE\n fo-to-é-li-o-gra-f' s. m.\nInstrument inventé par M. Warren de la Rue et destiné à la reproduction\nrégulière de l'image solaire.\nLe soleil forme dans le plan focal du photohéliographe une image d'un\ndemi-pouce (0m, 013) de diamètre, , Journ. offic. 12 mai 1874, p. 3219,\n2e col.\nChaque station principale possédera.... un photohéliographe, un\ninstrument des passages..., , ib.\n\nÉTYMOLOGIE\nDu grec, lumière, soleil, et, décrire.
photolithographie	PHOTOLITHOGRAPHIE\n fo-to-li-to-gra-fie s. f.\nProcédé par lequel on décalque sur la pierre une épreuve photographique\nque l'on encre ensuite.\n\nÉTYMOLOGIE\nDu grec, lumière, pierre, et , représenter.
photolithographier	PHOTOLITHOGRAPHIER\n fo-to-li-to-gra-fi-é v. n.\nOpérer la photolithographie, Journ. offic. 15 juillet 1872, p. 4828, 2e\ncol.
photologie	PHOTOLOGIE\n fo-to-lo-jie s. f.\nTraité ou histoire de la lumière.\n\nÉTYMOLOGIE\nPhoto..., et , traité.
photomagnétique	PHOTOMAGNÉTIQUE\n fo-to-ma-gné-ti-k' adj.\nTerme de physique. Phénomènes photomagnétiques, phénomènes tenant à la\npropriété qu'ont quelques-uns des rayons du spectre solaire (le vert, le\nbleu et le violet) de communiquer la vertu magnétique à des aiguilles\nd'acier.\n\nÉTYMOLOGIE\nPhoto..., et magnétique.
photomicrographie	PHOTOMICROGRAPHIE\n fo-to-mi-kro-gra-fie s. f.\nMicrographie faite à l'aide de la lumière, Journ. offic. 25 juill. 1872,\np. 5090, 2e col.\n\nÉTYMOLOGIE\nPhoto..., et micrographie.
photomicrographique	PHOTOMICROGRAPHIQUE\n fo-to-mi-kro-grafi-k' adj.\nQui a rapport à la photomicrographie.\nM. J. Girard transmet le résultat de ses recherches photomicrographiques\nsur les effets de la réduction des sels d'argent dans les épreuves\nphotographiques, , Journ. offic. 6 oct. 1876, p. 7350, 2e col.
photomètre	PHOTOMÈTRE\n fo-to-mè-tr' s. m.\nTerme de physique. Instrument propre à évaluer l'intensité de la lumière\nque projette un foyer.\n\nÉTYMOLOGIE\nPhoto..., et du grec, mesure.
photométrie	PHOTOMÉTRIE\n fo-to-mé-trie s. f.\nBranche de la physique qui s'occupe des moyens de mesurer l'intensité de\nla lumière.
photométrique	PHOTOMÉTRIQUE\n fo-to-mé-tri-k' adj.\nQui a rapport à la photométrie.
photophobe	PHOTOPHOBE\n fo-to-fo-b' adj.\nTerme de médecine. Qui craint la lumière.\n\nÉTYMOLOGIE\nPhoto..., et du grec, craindre.
photophoble	PHOTOPHOBLE\n fo-to-fo-bie s. f.\nTerme de médecine. Crainte de la lumière, aversion pour la lumière,\nsymptôme propre à diverses affections nerveuses, et surtout aux\ninflammations de l'oeil.
photopsie	PHOTOPSIE\n fo-to-psie s. f.\nTerme de médecine. Lésion du sens de la vue dans laquelle on croit voir\ndes traînées lumineuses.\n\nÉTYMOLOGIE\nPhoto..., et du grec, vue.
photoscopique	PHOTOSCOPIQUE\n fo-to-sco-pi-k' adj.\nChez les invertébrés, yeux photoscopiques, yeux aptes à donner seulement\nla sensation générale de la lumière et de l'obscurité, par opposition à\nyeux idoscopiques, JOURDAIN, Acad. des sc. Comptes rendus, t. LX, p.\n103.\n\nÉTYMOLOGIE\nPhoto..., et du grec, voir.
photosculpture	PHOTOSCULPTURE\n fo-to-skul-tu-r' s. f.\nSorte de sculpture qui donne une statuette de la personne qui pose, en\nen prenant différents profils par la photographie ; procédé fondé sur ce\nprincipe que tous les profils réunis d'un corps en donnent le relief.\n\nÉTYMOLOGIE\nPhoto..., et sculpture.
photosphère	PHOTOSPHÈRE\n fo-to-sfè-r' s. f.\nTerme d'astronomie. Atmosphère lumineuse par elle-même qui appartient au\nglobe du soleil, et de laquelle la lumière et la chaleur rayonnent dans\nl'espace.\n\nÉTYMOLOGIE\nPhoto..., et sphère.
photosphérique	PHOTOSPHÉRIQUE\n fo-to-sfé-ri-k' adj.\nQui a rapport à une photosphère. Les facules du soleil sont des courants\nde matière photosphérique.
phototypie	PHOTOTYPIE\n fo-to-ti-pie s. f.\nReproduction typographique des photographies.\n\nÉTYMOLOGIE\nDu grec, lumière, et, type.
phototypographie	PHOTOTYPOGRAPHIE\n fo-to-ti-po-gra-fie s. f.\nProcédé pour photographier une planche imprimée.\n\nÉTYMOLOGIE\nPhoto..., et typographie.
phototypographique	PHOTOTYPOGRAPHIQUE\n fo-to-ti-po-gra-fi-k' adj.\nQui a rapport à la phototypographie.\nCe volume, qui contient 150 grandes planches phototypographiques,\nfac-simile des plus belles dentelles de toutes les époques et de tous\nles pays, est aussi intéressant que somptueux, , Journ. offic. 24 déc.\n1875, p. 10784, 3e col.
photozincographie	PHOTOZINCOGRAPHIE\n fo-to-zin-ko-gra-fie s. f.\nArt de produire des fac-simile photographiques d'un sujet tel qu'un\nmanuscrit, une carte, une gravure au trait, et de les transporter\nensuite sur zinc, de manière à pouvoir multiplier les épreuves de la\nmême manière qu'un dessin sur pierre lithographique ou sur zinc.\nDe tous ces procédés, la photozincographie est le moins coûteux à coup\nsûr, dès qu'il s'agit seulement de reproduire du noir sur du blanc....\nla photozincographie a eu son rôle pendant la dernière guerre, , Journ.\noffic. 16 sept. 1873, p. 5909, 1re col.
phragme	PHRAGME\n fra-gm' s. m.\nTerme de botanique. Cloison transversale d'un fruit.\nTerme d'entomologie. Cloison qui ferme l'orifice postérieur du prothorax\ndans certains insectes.\n\nÉTYMOLOGIE\nDu grec, cloison.
phrasaire	PHRASAIRE\n fra-zè-r' s. m.\nTerme de grammaire. Se dit quelquefois d'un petit livre qui contient des\nphrases très courtes, pour apprendre à lire aux enfants.
phrase	PHRASE\n fra-z' s. f.\n\n1° Assemblage de mots formant un sens complet, distingué de la\nproposition en ce que la phrase est surtout considérée grammaticalement,\net la proposition, logiquement.\nOn proposa une distribution des meilleurs auteurs à tous les\nacadémiciens, pour en tirer les phrases et les élégances de la langue,\nPELLISSON, Hist. Acad. III.\nDe quel front aujourd'hui vient-il, sur nos brisées, Se revêtir encor de\nnos phrases usées ?, BOILEAU, Épître 1.\nL'on écrit régulièrement depuis vingt années : l'on est esclave de la\nconstruction ; l'on a enrichi la langue de nouveaux mots, secoué le joug\ndu latinisme et réduit le style à la phrase purement française, LA\nBRUY., I.\nLe tour de phrase, toujours le même et toujours uniforme, déplaît\nextrêmement, MONTESQ., Goût, Contrastes.\nQuelques écrivains qui, dans chaque phrase, mettent toujours le\ncommencement en contraste avec la fin par des antithèses continuelles,\ntels que saint Augustin et quelques-uns de nos modernes, comme\nSaint-Évremond, MONTESQ., ib.\nPhrase faite, façon de parler consacrée par l'usage.\nIl y a un certain nombre de phrases toutes faites que l'on prend comme\ndans un magasin, et dont on se sert pour se féliciter les uns les autres\nsur les événements, LA BRUY., VIII.\nUn commis à la phrase, censeur.\nDans Paris quelquefois un commis à la phrase Me dit..., VOLT., Ép. c.\nFig. Varier la phrase, ne pas faire exactement la même chose.\nL'abbé Tétu est retourné en Touraine... et, pour varier un peu la\nphrase, il a mené à ce second voyage toute la case {maison} de\nRichelieu, SÉV., 14 oct. 1671.\n\n2° Particulièrement, des phrases, de grandes phrases, des paroles\nemphatiques, affectées. Un faiseur de phrases.\nUn discours ferme et serré, sans aucun lieu commun, sans épithète, sans\nce que nous appelons des phrases, VOLT., Jenni, 4.\nVous savez penser ; les autres font des phrases ; ils sont tous les\nélèves du père Nicodème, qui disait à Jeannot : Fais des phrases,\nJeannot, ma douleur t'en conjure, VOLT., Lett. la Harpe, 25 févr. 1772.\nDe grandes phrases, en disant qu'il n'en fait pas, PICARD, Vieille\ntante, II, 6.\nFaire des phrases, signifie aussi : parler beaucoup et ne rien faire\nd'effectif.\n\n3° Se dit de la tournure d'écrire particulière à une langue. La phrase\ngrecque a de l'harmonie, la phrase latine a de la majesté.\n\n4° Phrase botanique, description d'une plante qui en présente tous les\ncaractères dans une phrase très courte.\n\n5° Par analogie, phrase musicale, suite de sons musicaux avec un arrêt\nou repos après le dernier, présentant à l'oreille un rhythme semblable à\ncelui d'une phrase parlée. La phrase est plus courte que la mélodie.\nPhrase, fragment de mélodie qui a ordinairement pour fragment\ncorrespondant une autre phrase d'un nombre égal de mesures, de même\nrhythme et de même caractère, FÉTIS, Dictionnaire de musique, dans La\nmusique mise à la portée de tout le monde.\n\nHISTORIQUE\nXVIe s.\nIgnorant des frases et vocables qui servent aux choses plus communes,\nMONT., I, 103.\n\nÉTYMOLOGIE\nDu grec, parler, moyen de montrer ; signifie donc proprement se\nmanifester.\n\nSUPPLÉMENT AU DICTIONNAIRE\nPHRASE. Ajoutez : - REM. Il semble que phrases, au pluriel, au sens de\nparoles emphatiques, affectées, était nouveau dans le courant du XVIIe\nsiècle.\nDu moins on serait tenté de l'inférer de cet exemple : Il a aussi pour\ncontraire un certain style enflé et bouffi, qui fait semblant de dire de\ngrandes choses et ne dit rien : le phébus qui va toujours sur des\néchasses, ce qu'on appelle galimatias, ou, par un terme nouveau,\nphrases, et autres styles à perte de vue, DE COURTIN, la Civilité\nfrançoise, p. 182, Paris, 1695.
phraser	PHRASER\n fra-zé\n1° V. n. Faire des phrases.\nCouper son style par phrases.\nV. a. Articuler les membres d'une phrase, en lisant ou en déclamant.\n\n2° V. n. Terme de musique. Faire des phrases, des suites régulières et\ncomplètes de chant ou d'harmonie.\nChanter avec l'expression convenable.\nV. a. Phraser la musique, bien marquer chaque phrase d'un morceau de\nmusique. Le maître de ballets qui ignorera la musique phrasera mal les\nairs. NOVERRE, Lett. sur la danse, p. 73, dans POUGENS.\n\nÉTYMOLOGIE\nPhrase.
phraserie	PHRASERIE\n fra-ze-rie s. f.\nHabitude ou manie de faire des phrases qui, sous la multitude des mots,\nne contiennent que des banalités ou des non-sens.\n\nÉTYMOLOGIE\nPhrasier. Au lieu du mot phraserie, on dit souvent aujourd'hui\nphraséologie ; c'est à tort, la phraséologie est la partie de la\ngrammaire qui traite de la construction des phrases.
phraseur	PHRASEUR\n fra-zeur s. m.\nTerme familier. Faiseur de phrases, bavard.\nVous vous laissez conduire par des phraseurs et de grands diseurs de\nriens, BABOEUF, Pièces, I, 156.\nFabvier me disait un jour : Vos phraseurs gâtent tout, P. L. COUR.,\nLivret.\n\nÉTYMOLOGIE\nPhraser.
phrasier	PHRASIER\n fra-zié ; l'r ne se prononce pas et ne se lie pas ; au pluriel, l's se\nlie : des fra-zié-z ennuyeux s. m.\n\n1° Faiseur de phrases, parleur affecté.\nAdj.\nLa du Rocher était plus phrasière que jamais, GENLIS, Mères riv. t. I,\np. 91, dans POUGENS.\n\n2° Écrivain verbeux, sonore et vide.\nCes contes ne sont bons que pour être commentés... par ce phrasier\nd'Houteville, VOLT., Taureau, 9.\nLes deux volumes sont apparemment de quelque phrasier de collége qui ne\nsait pas qu'une histoire n'est pas une amplification de rhétorique, LA\nHARPE, Correspondance littéraire, Lett. 186.\n\nÉTYMOLOGIE\nPhrase.
phrasé, ée	PHRASÉ, ÉE\n fra-zé, zée part. passé de phraser\n\n1° Coupé par phrases. Style phrasé, bien phrasé.\n\n2° Se dit, dans un sens analogue, de la musique.\nOn commence à sentir que le charme de l'air, phrasé à l'italienne,\nmanque à la scène de l'Opéra français pour l'animer et l'embellir,\nMARMONTEL, Oeuv. t. v, p. 105.\nS. m. Le phrasé, manière de disposer, de couper les phrases musicales.
phraséologie	PHRASÉOLOGIE\n fra-zé-o-lo-jie s. f.\n\n1° L'étude et la connaissance de la phrase et, par conséquent, une\npartie très importante de la grammaire (peu usité en ce sens).\n\n2° Construction de phrase particulière à une langue ou à un écrivain.\nLa phraséologie annamitique n'est pas conforme en tout à la phraséologie\nchinoise, ABEL REMUSAT, Instit. Mém. inscr. et belles-lett. t. VIII, p.\n47.\n\n3° Se prend quelquefois en mauvaise part pour exprimer des discours\ncreux et vides de sens. Ce n'est que de la phraséologie.\n\nÉTYMOLOGIE\nDu grec, phrase, et, manière
phraséologique	PHRASÉOLOGIQUE\n fra-zé-o-lo-ji-k' adj.\nQui a rapport à la phraséologie.\nAccent phraséologique, accent tonique qui appartient non au mot, mais à\nla phrase.\nTerme de musique. Rhythme phraséologique, dit aussi carrure de phrases,\nconsistant dans le retour périodique d'un certain nombre de mesures\ndisposées symétriquement, COUSSEMAKER.
phratrie	PHRATRIE\n fra-trie s. f.\nÀ Athènes, sous division des quatre tribus, dont chacune contenait trois\nphratries, tandis que la phratrie contenait trente races ou gents.\n\nÉTYMOLOGIE\nDu grec, frère (voy. FRÈRE).
phrygane	PHRYGANE\n fri-ga-n' s. f.\nGenre d'insectes de l'ordre des névroptères. La phrygane poilue, commune\naux environs de Paris.\n\nÉTYMOLOGIE\nDu grec, bois sec.
phrygien, enne	PHRYGIEN, ENNE\n fri-ji-in, è-n' adj.\nTerme d'antiquité. Qui appartient à la Phrygie ou à ses habitants.\nTerme de musique ancienne. Mode phrygien, mode fier et guerrier qui\noccupait le milieu entre le lydien et le dorien.\nBonnet phrygien, bonnet dont le sommet retombe un peu en avant. Il se\ndit du bonnet de la Liberté.\nPierre phrygienne, nom d'une pierre dont les teinturiers se servent ;\nelle est blanche avec de petits cercles de la même couleur.
phryné	PHRYNÉ\n fri-né s. f.\nNom d'une célèbre courtisane grecque.\nMais laissons la philosophie, et revenons à Phryné, BARTHÉL.,\nAnacharsis, 61.\nS'emploie pour désigner une femme de moeurs dissolues.\nAux temps les plus féconds en Phrynés, en Laïs..., BOILEAU, Sat. X.
phrénique	PHRÉNIQUE\n fré-ni-k' adj.\n\n1° Terme d'anatomie. Qui a rapport au diaphragme. Centre phrénique,\nl'aponévrose centrale du diaphragme.\n\n2° Terme de physiologie. Qui appartient à l'intelligence, à la pensée.\n\nÉTYMOLOGIE\nDu grec, diaphragme et intelligence, parce que les anciens plaçaient\nd'ordinaire le siége de l'intelligence à la région diaphragmatique. On\nrattache le grec, dont le sens primitif est diaphragme, au grec,\nséparer, barrer.
phrénite	PHRÉNITE\n fré-ni-t' s. f.\nTerme de médecine. Inflammation du diaphragme.\n\nÉTYMOLOGIE\nDu grec, diaphragme, et la finale médicale ite indiquant inflammation.
phrénitis	PHRÉNITIS\n fré-ni-tis' s. f.\nNom donné par les médecins grecs à une fièvre rémittente, caractérisée\npar le délire et la carphologie.\n\nÉTYMOLOGIE\nDu grec, intelligence.
phréno-gastrique	PHRÉNO-GASTRIQUE\n fré-no-ga-stri-k' adj.\nTerme d'anatomie. Qui appartient à l'estomac et au diaphragme.\nLigament phréno-gastrique, repli du péritoine allant de l'estomac au\ndiaphragme.\n\nÉTYMOLOGIE\nDu grec diaphragme, et gastrique.
phréno-glottisme	PHRÉNO-GLOTTISME\n fré-no-glo-tti-sm' s. m.\nTerme de médecine. Spasme de la glotte et du diaphragme, sorte de\nnévrose.\n\nÉTYMOLOGIE\nDu grec, diaphragme, et, langue.
phréno-splénique	PHRÉNO-SPLÉNIQUE\n fré-no-sple-ni-k' adj.\nTerme d'anatomie. Qui appartient au diaphragme et à la rate.\nLigament phréno-splénique, repli péritonéal étendu de la rate au\ndiaphragme.\n\nÉTYMOLOGIE\nDu grec, diaphragme, et splénique.
phrénologie	PHRÉNOLOGIE\n fré-no-lo-jie s. f.\nHypothèse physiologique de Gall, dans laquelle il considère le cerveau\ncomme constitué par de nombreuses parties ou organes, dont chacun sert à\nune affection, à un instinct, à une faculté particulière.\n\nÉTYMOLOGIE\nDu grec, intelligence, et, traité.
phrénologique	PHRÉNOLOGIQUE\n fré-no-lo-ji-k' adj.\nQui appartient à la phrénologie\nQui s'occupe de phrénologie. Société phrénologique.
phrénologiquement	PHRÉNOLOGIQUEMENT\n fré-no-lo-ji-ke-man adv.\nEn phrénologie ; d'une manière phrénologique.
phrénologiste	PHRÉNOLOGISTE\n fré-no-lo-ji-st' s. m.\nCelui qui s'occupe de phrénologie.\nPartisan de la phrénologie.
phrénologue	PHRÉNOLOGUE\n fré-no-lo-gh' s. m.\nSynonyme de phrénologiste.
phrénopathie	PHRÉNOPATHIE\n fré-no-pa-tie s. f.\nTerme de médecine. Lésion des facultés intellectuelles.\n\nÉTYMOLOGIE\nDu grec, intelligence, et, maladie.
phrénésie et phrénétique	PHRÉNÉSIE et PHRÉNÉTIQUE\nVoy. FRÉNÉSIE, FRÉNÉTIQUE.
phtalamide	PHTALAMIDE\n fta-la-mi-d', s. f. ou PHTALAMIQUE (fta-la-mi-k')\n adj.\nAcide obtenu en dissolvant dans l'ammoniaque l'acide phtalique anhydre ;\nil renferme de l'azote.
phtalate	PHTALATE\n fta-la-t' s. m.\nSels formés par l'acide phtalique.
phtalique	PHTALIQUE\n fta-li-k' adj.\nAcide phtalique, acide ternaire résultant de l'action de l'acide\nnitrique sur la naphtaline et d'autres matières organiques.
phtanite	PHTANITE\n fta-ni-t' s. f.\nTerme de minéralogie. Espèce de serpentine ophiolithique, c'est-à-dire\nassociée au diallage, qui est apparue pendant la période éocène et\ncrétacée supérieure.\nCes couches {dans les sondages pour le chemin sous-marin entre la France\net l'Angleterre} se sont présentées sous forme de sables.... accompagnés\nd'argiles réfractaires,... grès rouge, calcaire carbonifère, phtanite,\nsans aucune roche de l'étage houiller, H. DE PARVILLE, Journ. offic. 8\njuin 1877, p. 4259, 2e col.
phthiriase	PHTHIRIASE\n fti-ri-a-z' s. f.\nou PHTHIRIASIS (fti-ri-a-zis'), s. m. Terme de médecine. Maladie\npédiculaire.\nMaladie des végétaux dans laquelle ils sont couverts d'insectes\nextrêmement petits.\n\nHISTORIQUE\nXVIe s.\nCeux qui sont vexés de phthiriasis, c'est à dire de maladie de pouls,\nPARÉ, VI, 23.\n\nÉTYMOLOGIE\nDu grec , pou ; comparez au grec, corrompre.
phthirophage	PHTHIROPHAGE\n fti-ro-fa-j' adj.\nTerme de zoologie. Qui mange des poux.\n\nÉTYMOLOGIE\nDu grec, pou, et phage.
phthisie	PHTHISIE\n fti-zie s. f.\n\n1° Terme de médecine. Consomption lente.\nIl définissait la vieillesse, une phthisie naturelle qui nous dessèche\net nous consume, LE SAGE, Gil Bl. II, 3.\n\n2° Phthisie pulmonaire, ou, simplement, phthisie, affection tuberculeuse\ndes poumons.\n\n3° Phthisie laryngée, laryngite chronique.\nPhthisie trachéale, maladie qui présente la plupart des symptômes de la\nphthisie pulmonaire, et qui est produite par une inflammation chronique\nde la trachée, avec ulcération et désorganisation de la membrane\nmuqueuse de ce conduit.\n\n4° Phthisie dorsale, carie vertébrale.\nPhthisie mésentérique, synonyme de carreau.\n\nHISTORIQUE\nXVIe s.\nLes noms mesme, de quoy ils {nos paysans} appellent les maladies, et\naddoulcissent et amollissent l'aspreté : la phthisie, c'est la toux pour\neulx, MONT., IV, 197.\n\nÉTYMOLOGIE\nDu grec, consomption, de, détruire.
phthisiologie	PHTHISIOLOGIE\n fti-zi-o-lo-jie s. f.\nTraité sur la phthisie ; théorie de la phthisie.\n\nÉTYMOLOGIE\nDu grec, phthisie, et, traité.
phthisiophobie	PHTHISIOPHOBIE\n fti-zi-o-fo-bie s. f.\nTerme de médecine. Ensemble des phénomènes que présentent les individus\nqui se croient atteints de phthisie.\n\nÉTYMOLOGIE\nDu grec, phthisie, et, crainte.
phthisique	PHTHISIQUE\n fti-zi-k' adj.\nQui est atteint de phthisie.\nSubstantivement. Un phthisique. Une phthisique.\n\nHISTORIQUE\nXIIIe s.\nEle porroit faire l'oume devenir etike et tesike, ALEBRANT, f° 9.\nEt fu si tisique et si sec. que à poine pooit il crachier, , Miracl. St\nLoys, p. 135.\n\nÉTYMOLOGIE\nDu grec, phthisie.
phthisurie	PHTHISURIE\n fti-zu-rie s. f.\nTerme de médecine. Dépérissement causé par une sécrétion excessive\nd'urine, et surtout d'urine sucrée.\n\nÉTYMOLOGIE\nDu grec, consomption, et, urine.
phthore	PHTHORE\n fto-r' s. m.\nTerme de chimie. Nom qu'on donne quelquefois au fluor, parce qu'il\ndétruit tous les vases dans lesquels on cherche à le retenir.\n\nÉTYMOLOGIE\nDu grec, détruire.
phthorides	PHTHORIDES\n fto-ri-d' s. m. pl.\nFamille de minéraux qui contiennent du phthore.
phu	PHU\n fu s. m.\nNom vulgaire et spécifique de la valériane phu.
phycis	PHYCIS\n fi-sis' s. m.\nPoisson du genre des blennies, qu'on nomme vulgairement mole.
phycite	PHYCITE\n fi-si-t' s. f.\nTerme de chimie. Substance cristalline trouvée dans une algue, le\nprotococcus vulgaris.\n\nÉTYMOLOGIE\nDu grec, algue.
phycocyane	PHYCOCYANE\n fi-ko-si-a-n' s. m.\nTerme de chimie. Matière colorante bleuâtre retirée de certaines algues.\n\nÉTYMOLOGIE\nDu grec, algue, et, bleu.
phycolichens	PHYCOLICHENS\n fi-ko-li-kèn' s. m. pl.\nGroupe de lichens, comprenant ceux qui se rapprochent des algues.\n\nÉTYMOLOGIE\nDu grec, algue, et lichen.
phycologie	PHYCOLOGIE\n fi-ko-lo-jie s. f.\nPartie de la botanique qui traite des algues ou phycées.\n\nÉTYMOLOGIE\nDu grec, algue, et , traité.
phycopsis	PHYCOPSIS\n fi-ko-psis' s. m.\nOrseille phycopsis, sorte d'orseille.\nLe sultan du Maroc vient d'autoriser l'exportation de l'orseille\nphycopsis sous la condition du payement d'un droit d'environ 7 francs 90\ncentimes par 100 kilogrammes, , Journ. offic. 27 sept. 1875, p. 8411, 3e\ncol.\n\nÉTYMOLOGIE\nDu grec, fucus, et, apparence.
phycoïdées	PHYCOÏDÉES\n fi-ko-i-dée s. f. pl.\nTribu des phycées, qui ne renferme guère que des algues marines.\n\nÉTYMOLOGIE\nDu grec, algue.
phycées	PHYCÉES\n fi-sée s. f. pl.\nClasse de plantes acotylédones, vivant dans les eaux douces ou salées,\nd'une organisation très simple, de forme extrêmement variée, dont les\norganes fécondateurs sont des corpuscules mobiles.\n\nÉTYMOLOGIE\nDu grec, algue.
phylactère	PHYLACTÈRE\n fi-la-ktè-r' s. m.\n\n1° Petit morceau de peau ou de parchemin que les Juifs s'attachaient au\nbras ou au front, et sur lequel étaient écrits des passages de\nl'Écriture.\nIl est très vrai qu'Isis et Osiris ne leur ont jamais servi de rien {aux\nÉgyptiens}, non plus que les phylactères des pharisiens ne leur ont\nservi contre les Romains, VOLT., Mél. hist. 8e niaiserie.\n\n2° En général, nom donné par les anciens aux amulettes qu'ils portaient\nsur eux pour se préserver de quelque mal.\n\nHISTORIQUE\nXIIe s.\nDesous il out un filatire Tout le meillor qu'il pot eslire, , Rou, dans\nDU CANGE.\nPhylacteria, filatieres et autres saintuaires, VOLT., ib.\nXIVe s.\nLe precieux corps de nostre Seigneur que l'en met en ces eglises en\nvaisselle d'or et d'argent pour la necessité des malades, hors des\nphilatieres le gettoient, puis le fouloient entre leurs pieds, , Chron.\nde St Denys, t. II, f° 6, dans LACURNE.\n\nÉTYMOLOGIE\nDu grec, amulette, du grec, garder, préserver.
phylarchie	PHYLARCHIE\n fi-lar-chie s. f.\nDignité de phylarque
phylarque	PHYLARQUE\n fi-lar-k' s. m.\nTerme d'antiquité. Chef de tribu ; magistrat athénien.\n\nÉTYMOLOGIE\nDu grec, tribu, et, commander ; du grec, race, genre.
phyllade	PHYLLADE\n fil-la-d' s. m.\nTerme de minéralogie. Genre de roches feuilletées.\n\nÉTYMOLOGIE\nDu grec, feuille.
phylladique	PHYLLADIQUE\n fil-la-di-k' adj.\nQui a le caractère du phyllade. Roches phylladiques.
phyllanthe	PHYLLANTHE\n fil-lan-t' adj.\nTerme de botanique. Dont les fleurs poussent sur les feuilles.\nS. m. Genre de la famille des euphorbiacées caractérisé par cette\nparticularité.\n\nÉTYMOLOGIE\nPhyllo..., et du grec, fleur.
phyllie	PHYLLIE\n fil-lie s. f.\nGenre d'insectes orthoptères, famille des spectres.\nLes phyllies habitent les parties méridionales de l'Inde, les îles de la\nSonde, les Moluques.... il y a quelques années, des phyllies apportées à\nParis vécurent plusieurs mois au jardin d'acclimatation du bois de\nBoulogne, causant la surprise des visiteurs, E. BLANCHARD, Rev. des\nDeux-Mondes, 1er août 1874, p. 594.\n\nÉTYMOLOGIE\nDu grec, feuille, à cause que ces insectes ont le corps très aplati.
phyllithe	PHYLLITHE\n fil-li-t' s. m.\nTerme d'histoire naturelle. Feuille pétrifiée ou pierre qui porte des\nempreintes de feuilles.\n\nÉTYMOLOGIE\nPhyllo..., et du grec, pierre.
phyllo-	PHYLLO-\npréfixe\nPréfixe qui signifie feuille et qui vient du grec.
phyllobranche	PHYLLOBRANCHE\n fil-lo-bran-ch' adj.\nTerme de zoologie. Qui a les branchies en forme de feuilles.\n\nÉTYMOLOGIE\nPhyllo..., et branchies.
phylloclade	PHYLLOCLADE\n fil-lo-kla-d' s. m.\nTerme de botanique. Synonyme de phyllode ou cladode.\n\nÉTYMOLOGIE\nDu grec, feuille, et, branche.
phyllode	PHYLLODE\n fil-lo-d' s. m.\nTerme de botanique. Pétiole très élargi prenant l'apparence d'une\nfeuille.\n\nÉTYMOLOGIE\nDu grec, qui ressemble à une feuille.
phylloderme ou phyllodermé, ée	PHYLLODERME ou PHYLLODERMÉ, ÉE\n fil-lo-dèr-m' ou fil-lo-dèr-mé, mée adj.\nSe dit d'un champignon dont la membrane fructifère est plissée en\nfeuillets.\n\nÉTYMOLOGIE\nPhyllo..., et du grec, peau.
phyllolobé, ée	PHYLLOLOBÉ, ÉE\n fil-lo-lo-bé, bée adj.\nTerme de botanique. Qui a des cotylédons foliacés.\n\nÉTYMOLOGIE\nPhyllo..., et lobe.
phyllomanie	PHYLLOMANIE\n fil-lo-ma-nie s. f.\nTerme de botanique. État d'une plante qui pousse trop de feuilles ; état\nqui devient une maladie ou annonce un défaut de culture, quand il s'agit\nde végétaux dont on recherche les fleurs ou les fruits.\n\nÉTYMOLOGIE\nPhyllo..., et manie.
phyllome	PHYLLOME\n fil-lo-m' s. m.\nTerme de botanique. Ensemble des germes destinés à produire les feuilles\nqui sortiront du bourgeon.\n\nÉTYMOLOGIE\nDu grec, feuille.
phyllophage	PHYLLOPHAGE\n fil-lo-fa-j' adj.\nTerme de zoologie. Qui vit de feuilles.\n\nÉTYMOLOGIE\nPhyllo..., et phage.
phyllorhétine	PHYLLORHÉTINE\n fil-lo-ré-ti-n' s. f.\nSubstance cristalline extraite des débris de sapins renfermés dans les\ntourbières du Danemark.\n\nÉTYMOLOGIE\nPhyllo. ., et du grec, résine.
phyllosome	PHYLLOSOME\n fil-lo-so-m' s. m.\nLarve de la langouste, qui fut prise longtemps pour un genre particulier\nde crustacés.\n\nÉTYMOLOGIE\nPhyllo..., et du grec, corps ; ainsi dit à cause de son corps déprimé et\nmince comme une feuille.
phyllostome	PHYLLOSTOME\n fil-lo-sto-m' s. m.\nNom d'un genre de grands chiroptères pourvus de deux crêtes nasales\nmembraneuses en forme de feuille ou de lame, qui mangent des insectes,\nmais attaquent aussi les grands mammifères endormis pour en sucer le\nsang ; genre établi par Ét. Geoffroy Saint-Hilaire.\n\nÉTYMOLOGIE\nPhyllo..., et du grec, bouche.
phyllotaxie	PHYLLOTAXIE\n fil-lo-ta-ksie s. f.\nPartie des l'organographie végétale qui a pour objet la disposition,\nl'arrangement des feuilles autour de la tige.\n\nÉTYMOLOGIE\nPhyllo..., et du grec, arrangement.
phylloxanthine	PHYLLOXANTHINE\n fil-lo-ksan-ti-n' s. f.\nTerme de chimie.\nPrincipe jaune qui entre dans la chlorophylle, , Journ. offic. 10 mai\n1877, p. 3480, 2e col.\n\nÉTYMOLOGIE\nDu grec, feuille, et, jaune.
phylloxère	PHYLLOXÈRE\n fil-lo-ksè-r' adj.\nQui appartient au phylloxéra.\nLe développement de la maladie phylloxère, , Journ. offic. 9 juill.\n1874, p. 4778, 1re col.
phylloxéra	PHYLLOXÉRA\n fil-lo-ksé-ra s. m.\nGenre d'insectes dont une espèce, le phylloxera vastatrix, attaque la\nracine de la vigne et la fait périr.\nM. Planchon, professeur à Montpellier, après avoir décrit ce nouvel\nennemi de la vigne {1865}, lui donna le nom de rhizaphis vastatrix et\nplus tard celui de phylloxera vastatrix qu'il a conservé ; on a\nrapproché ce puceron d'un autre insecte découvert en Amérique en 1854,\nle pemphigus vitifolia, que l'on ne rencontrait que sur les feuilles de\nla vigne ; d'où le nom impropre de phylloxéra qui signifie parasite des\nfeuilles, alors qu'en réalité on ne le trouve guère que sur les\nracines..., H. DE PARVILLE, Journ. offic. 25 juin 1873, p. 4186, 3e col.\n\nREMARQUE\nEn francisant ce mot, il faut mettre un accent aigu sur xé pour\nconserver la concordance avec phylloxéré et phylloxérien.\n\nÉTYMOLOGIE\nOn ne voit pas trop comment phylloxera peut vouloir dire parasite des\nfeuilles. Le mot est composé du grec, feuille, et, sec, et signifie\nfeuille sèche.
phylloxérien, ienne	PHYLLOXÉRIEN, IENNE\n fil - lo - ksé-riin, riè-n' adj.\nQui est relatif au phylloxéra.\nM. Laliman, habile observateur des phénomènes phylloxériens, , Journ.\noffic. 20 oct. 1871, p. 4068, 3e col.\nM. Girard est persuadé que la marche moins rapide de l'invasion\nphylloxérienne, à mesure que les vignobles sont plus septentrionaux,\ntient uniquement à une hivernation de plus longue durée..., H. DE\nPARVILLE, Journ. offic. 29 oct. 1874, p. 7263.
phylloxérique	PHYLLOXÉRIQUE\n fil-lo-ksé-ri-k' adj.\nQui a rapport au phylloxéra. M. le comte de la Vergne fait une\ncommunication sur la situation actuelle de l'invasion phylloxérique dans\nle sud-ouest, Bullet. de la Société centrale d'agric. 1875, p. 118
phylloxéré, ée	PHYLLOXÉRÉ, ÉE\n fil-lo-ksé-ré, rée adj.\nQui est attaqué par le phylloxera vastatrix.\nExpériences faites à Montpellier sur des vignes phylloxérées, avec le\ncoaltar, ROMMIER, Acad. des sc. Comptes rend. t. LXXIX, p. 775.\nLorsqu'une vigne phylloxérée est grassement fumée, on la voit quelques\nmois plus tard reprendre de la force, H. DE PARVILLE, Journ. offic. 4\ndéc. 1873, p. 7449, 3e col.
phylloïde	PHYLLOÏDE\n fil-lo-i-d' adj.\nTerme de botanique. Se dit des parties des plantes qui ont la forme de\nfeuilles.\n\nÉTYMOLOGIE\nPhyllo..., et du grec, forme.
phyllule	PHYLLULE\n fil-lu-l' s. f.\nTerme de botanique. Cicatrice que laisse chaque feuille après sa chute.\n\nÉTYMOLOGIE\nPhyllo..., et du grec, cicatrice.
phylogénie	PHYLOGÉNIE\n fi-lo-jé-nie s. f.\nSe dit, dans le transformisme, de l'évolution d'une tribu, d'une classe.\nLa grande loi de l'évolution.... se manifeste également si nous\nconsidérons à part une classe de végétaux ou d'animaux : c'est la\nphylogénie ; et enfin elle se révèle dans chaque individu particulier,\npuisqu'il gravit un certain nombre d'échelons pour atteindre celui où se\ntrouve l'être qui lui a donné naissance : c'est l'ontogénie, CH.\nMARTINS, Rev. des Deux-Mondes, 15 févr. 1876, p. 768.\n\nÉTYMOLOGIE\nDu grec, tribu, race, et le suffixe génie (voy. ce mot).
phylogéniste	PHYLOGÉNISTE\n fi-lo-jé-ni-st' s. m.\nPartisan de la doctrine qui admet que le transformisme s'opère de tribu\nen tribu, Acad. des sc. Comptes rend. t. LXXXI, p. 473.
phymatine	PHYMATINE\n fi-ma-ti-n' s. f.\nTerme de chimie. Substance organique particulière qui existe dans les\ntubercules et leur est propre.\n\nÉTYMOLOGIE\nDu grec, tubercule, du grec, naître.
phymatose	PHYMATOSE\n fi-ma-tô-z' s. f.\nTerme de médecine. Affection tuberculeuse.\n\nÉTYMOLOGIE\nDu grec, tubercule.
phymatoïde	PHYMATOÏDE\n fi-ma-to-i-d' adj.\nTerme d'anatomie pathologique. Se dit de tissus morbides qui ont une\ncouleur jaune terne, analogue à celle du tubercule.\n\nÉTYMOLOGIE\nDu grec, tubercule, et, forme.
physale	PHYSALE\n fi-za-l' s. m.\nEspèce de cachalot.\n\nÉTYMOLOGIE\nVoy. PHYSÉTÈRE.
physalide	PHYSALIDE\n fi-za-li-d' s. f.\nGenre de la famille des solanées. Une seule espèce croît en Europe ;\nc'est le coqueret, physalis alkekengi, L.\n\nÉTYMOLOGIE\nDu grec, vent, vésicule, à cause de la dilatation vésiculiforme du\ncalice de la plante.
physalie	PHYSALIE\n fi-sa-lie s. f.\nNom donné par les naturalistes à une espèce de polypes non sédentaires\n(acalèphes).\n\nÉTYMOLOGIE\nDu grec, vessie, du grec, air, souffle.
physaline	PHYSALINE\n fi-za-li-n' s. f.\nPrincipe amer du physalis alkekengi, proposé comme succédané de la\nquinine.
physalite	PHYSALITE\n fi-za-li-t' s. f.\nTerme de minéralogie. Variété de topaze.
physconie	PHYSCONIE\n fi-sko-nie s. f.\nTerme de médecine. Tuméfaction dure et volumineuse bornée à une partie\nde l'abdomen, et qui n'est ni sonore ni accompagnée de fluctuation.\n\nÉTYMOLOGIE\nDu grec, ventre.
physicien	PHYSICIEN\n fi-zi-si-in s. m.\n\n1° Celui qui s'occupe de physique.\nPeut-être jamais aucun physicien n'a porté à un aussi haut degré\nl'entière exclusion de tout système, de toute hypothèse, CONDORCET,\nMargraaf.\n\n2° Dans les colléges, un écolier étudiant en physique.\n\n3° Au moyen âge, nom du médecin.\n\nHISTORIQUE\nXIIIe s.\nEt por ce out aucune fois li avocat et li fusicien grans saleres à poi\nde paine {pour peu de peine}, BEAUMANOIR, XXIX, 20.\nXVe s.\nJe vous prye qu'il vous plaise avoir mes deux niepces pour\nrecommandées ; je ne suis pas physicien ; mais il me semble qu'on ne les\ndoyt point garder de boyre entre deux heures, Lettre de Louis XI, ,\nBibl. des chartes, 4e série, t. I, p. 26.\n\nÉTYMOLOGIE\nProv. phisician ; ital. fisiciano ; angl. physician, médecin ; de\nphysique, qui se disait anciennement au sens de médecine.
physico-mathématique	PHYSICO-MATHÉMATIQUE\n fi-zi-ko-ma-té-mati-k' adj.\nQui a rapport à la physique et aux mathématiques. Les sciences\nphysico-mathématiques.
physico-mécanique	PHYSICO-MÉCANIQUE\n fi-zi-ko-mé-ka-ni-k' adj.\nQui tient de la physique et de la mécanique.\nOn a trouvé parmi ses papiers {de F. de Bremond} une traduction toute\nprête à paraître des expériences physico-mécaniques d'Hawksbee, et une\nhistoire complète de celles de l'électricité, MAIRAN, Éloges, Bremond.
physio-	PHYSIO-\npréfixe\nPréfixe qui signifie nature, et qui vient du grec (voy. PHYSIQUE).
physiocrate	PHYSIOCRATE\n fi-zi-o-kra-t' s. m.\nNom donné à Quesnay et à son école, qui, au milieu du XVIIIe siècle,\ntracèrent les premiers linéaments de l'économie politique, et\nreconnurent l'existence des lois naturelles dans cet ordre de\nphénomènes.\n\nÉTYMOLOGIE\nPhysio..., et du grec, puissance, à cause qu'ils croyaient que toutes\nles richesses étaient produites par la nature, c'est-à-dire par\nl'agriculture.
physiocratie	PHYSIOCRATIE\n fi-zi-o-kra-sie s. f.\nDoctrine des physiocrates.
physiocratique	PHYSIOCRATIQUE\n fi-zi-o-kra-ti-k' adj.\nQui tient à la physiocratie.
physiognomonie	PHYSIOGNOMONIE\n fi-zi-ogh-no-mo-nie s. f.\nArt de juger le caractère, les inclinations par l'inspection du visage.\nTraité sur cette matière. La Physiognomonie de Porta.\n\nREMARQUE\nOn trouve physiognomie dans G. Naudé : Deux livres qui nous restent de\nla physiognomie, Apologie.\n\nÉTYMOLOGIE\nDu grec, nature, et, qui sait.
physiognomonique	PHYSIOGNOMONIQUE\n fi-zi-ogh-no-mo-ni-k' adj.\nQui appartient, qui a rapport à la physiognomonie.\nS. f. La Physiognomonique, titre d'un traité attribué à Aristote.
physiognomoniste	PHYSIOGNOMONISTE\n fi-zi-ogh-no-mo-ni-st' s. m.\nCelui qui pratique la physiognomonie.\nFeignez la colère, nous disent les physiognomonistes, et vous éprouverez\ninvolontairement un sentiment de colère, P. JANET, Rev. des Deux-Mondes,\n15 sept. 1875, p. 287.\n\nÉTYMOLOGIE\nVoy. PHYSIOGNOMONIQUE.
physiographe	PHYSIOGRAPHE\n fi-zi-o-gra-f' s. m.\nCelui qui s'occupe de physiographie.\n\nÉTYMOLOGIE\nPhysio..., et du grec, décrire.
physiographie	PHYSIOGRAPHIE\n fi-zi-o-gra-fie s. f.\nTerme didactique.. Description des productions de la nature.\n\nÉTYMOLOGIE\nPhysiographe.
physiographique	PHYSIOGRAPHIQUE\n fi-zi-o-gra-fi-k' adj.\nQui a rapport à la physiographie.
physiologie	PHYSIOLOGIE\n fi-zi-o-lo-jie s. f.\n\n1° Terme didactique.. Science qui fait partie de la biologie et qui\ntraite des fonctions des organes dans les êtres vivants, végétaux et\nanimaux. Physiologie animale. Physiologie végétale. Physiologie\ncomparée.\nLa physiologie, cette partie de la médecine qui, pénétrant dans la\nstructure intime des parties du corps, y cherche par quelles lois\nl'homme se forme, se développe, croît, vit, reproduit son semblable,\ndépérit et meurt, CONDORCET, Haller.\nPhysiologie générale, celle qui, sans faire d'application à aucune\nespèce vivante déterminée, traite d'une manière philosophique et\nabstraite des phénomènes de la vie.\nPhysiologie spéciale, celle qui, prenant pour sujet d'étude une espèce\nvivante distincte, décrit le mécanisme de la vie dans cette espèce\nseule.\n\n2° Ouvrage qui traite de cette science. La Physiologie de Müller.\n\nHISTORIQUE\nXVIe s.\nLa consideration des choses naturelles appartient à la premiere partie\nde medecine, dite physiologie, PARÉ, Introd. 3.\n\nÉTYMOLOGIE\nDu grec, nature, et, doctrine.
physiologique	PHYSIOLOGIQUE\n fi-zi-o-lo-ji-k' adj.\nQui appartient à la physiologie.\n\nÉTYMOLOGIE\n(voy. PHYSIOLOGIE).
physiologiste	PHYSIOLOGISTE\n fi-zi-o-lo-ji-st' s. f.\nCelui qui s'occupe de physiologie.
physionomie	PHYSIONOMIE\n fi-zi-o-no-mie s. f.\n\n1° L'air, les traits du visage.\nOn ne peut faire une bonne physionomie qu'en accordant toutes nos\ncontrariétés, PASC., Pens. XVI, 10 bis, éd. HAVET.\nS'il {un jeune homme de bonne figure disant des sottises} m'eût donne\ndes coups de massue sur la tête, il ne m'aurait pas plus affligée ; je\njurai de ne me plus fier aux physionomies, SÉV., 233.\nLa physionomie n'est pas une règle donnée pour juger des hommes ; elle\nnous peut servir de conjecture, LA BRUY., XII.\nUne physionomie qui promet une âme et qui ne ment pas, J. J. ROUSS., Ém.\nV.\nOn disait à l'un d'entre eux {homme de la cour} : On ne vous a point vu\nà la cour depuis la mort du roi ; il répondit : C'est que je n'ai point\nencore trouvé ma physionomie d'avénement, DIDEROT, Claude et Nér. I, 34.\nPersonne n'a plus que lui la physionomie de son âme, DIDEROT, Salon de\n1767, Oeuv. t. XIV, p. 40, dans POUGENS.\nPhysionomie heureuse, résultat de tous les traits d'une personne, qui\nprévient en faveur de son caractère.\nMauvaise physionomie, physionomie qui annonce la méchanceté.\nQui es-tu donc, vieux romain {Caton} ? tu as la physionomie mauvaise, un\nvisage dur et rébarbatif, FÉN., t. XIX, p. 278.\nOn trouve toujours la physionomie mauvaise à un homme qui a fait une\nméchante action, VOLT., Mél. litt. Lett. à M le prince de***, lett. X.\n\n2° Absolument. Certain air de vivacité et d'agrément répandu\nhabituellement sur le visage.\nJamais aucun visage de femme n'a tant mérité que le sien, qu'on se\nservît de ce terme de physionomie pour le définir et pour exprimer tout\nce qu'on en pensait en bien, MARIVAUX, Marianne, 4e part.\nOn croit que la physionomie n'est qu'un simple développement de traits\ndéjà marqués par la nature ; pour moi, je penserais qu'outre ce\ndéveloppement, les traits du visage d'un homme viennent insensiblement à\nse former et à prendre de la physionomie par l'impression fréquente et\nhabituelle de certaines affections de l'âme, J. J. ROUSS., Ém. IV.\nNous serions fort embarrassés de dire bien précisément ce que c'est que\nd'avoir de la physionomie, DIDEROT, Lett. sur les aveugles.\nIl se dit aussi des animaux.\nLe lion fait mouvoir la peau de sa face, ce qui ajoute beaucoup à sa\nphysionomie, BUFF., Morceaux choisis, p. 217.\n\n3° Aspect particulier qui, pour chaque être vivant, résulte de\nl'ensemble de ses parties tant intérieures qu'extérieures.\nCe qu'on peut appeler la physionomie dans tous les êtres vivants, dépend\nde l'aspect que leur tête présente lorsqu'on les regarde de face, BUFF.,\nOis. t. XIII, p. 162.\n\n4° Fig. Caractère qui distingue certaines choses de toutes les autres.\nCe pays a une physionomie particulière.\n\n5° Art de juger, par les traits du visage, quel est le caractère d'une\npersonne.\nOu toutes les règles de la métoposcopie et de la physionomie sont\nfausses, ou il devait être pendu, HAUTEROCHE, Crispin méd. II, 4.\n\nHISTORIQUE\nXIIIe s.\nIl ont moult de sages d'un art que l'on appelle phisonomie : c'est de\ncognoistre les personnes, de quelle maniere et de quelle qualité elles\nsont, MARC POL, p. 619.\nXIVe s.\nCelle {une devineresse} perceut sa chiere {la face de Bertrand} et ses\nmains regarda, La maniere de lui, et très bien l'avisa, Et sa phizonomie\ntrès bien considera, , Guesclin. 105.\nXIVe s.\nOr, me plaist de viser, et raison m'y instruit, la phinozomie et\npersonne du susdit noble sage prince, CHRIST. DE PISAN, Charles V, I, 7.\nSi veit {elle vit} que sa philozomie donnoit à cognoistre que...., ,\nPerceforest, t. II, f° 137.\nXVIe s.\nBon cueur, bon corps, bonne phizionomie, Boire matin, fuïr noise et\ntanson, MAROT, Enfants sans soucy.\n\nÉTYMOLOGIE\nAltération de physiognomonie ; prov. phizonomia ; esp. et ital.\nfisonomia.
physionomique	PHYSIONOMIQUE\n fi-zi-o-no-mi-k' adj.\nQui a rapport à la physionomie.\nJe définirai..., autant que je puis les saisir, quelques côtés\nphysionomiques de leur génie ou de leur talent, EUG., FROMENTIN, les\nMaîtres d'autrefois, 1876, p. 2.
physionomiste	PHYSIONOMISTE\n fi-zi-o-no-mi-st' s. m.\nCelui qui se connaît en physionomie.\nSelon qu'il le conjecturera du visage, selon qu'il sera physionomiste,\nPASC., Imag. 7, éd. FAUGÈRE.\n\nHISTORIQUE\nXVIe s.\nIls se mocquoient du physionome qui avoit jugé Socrate estre paillard,\nPARÉ, Introd. 6.
physionotrace ou physionotype	PHYSIONOTRACE ou PHYSIONOTYPE\n fi-zi-o-no-tra-s' ou fi-zi o-no-ti-p' s. m.\nInstrument à l'aide duquel on réduit un tableau, en calquant, pour ainsi\ndire, sur l'original.\nOn fait aussi des portraits au physionotype.\nS'est dit particulièrement d'un appareil avec lequel on moulait en\nplâtre la figure d'une personne vivante.\n\nÉTYMOLOGIE\nPhysionomie, et trace ou type.
physique	PHYSIQUE\n fi-zi-k' adj.\n\n1° Qui se rapporte aux conditions, aux lois de la nature.\nL'aveuglement de ceux qui apportent la seule autorité pour preuve dans\nles matières physiques, au lieu du raisonnement ou des expériences,\nPASC., Fragm. Traité du vide.\nPhénomènes physiques, ceux qui ont lieu entre les corps visibles, à des\ndistances appréciables, et qui n'en changent pas les caractères.\nPropriétés physiques, qualités naturelles des corps qui sont\nperceptibles aux sens, telles que l'état solide, liquide ou gazeux, la\nforme, la couleur, l'odeur, la saveur, la densité, etc.\nSciences physiques, celles qui étudient les caractères naturels des\ncorps, les forces qui agissent sur eux et les phénomènes qui en\nrésultent.\nLoi physique d'un phénomène, détermination exacte des conditions de son\naccomplissement.\nPoint physique, se dit par opposition à point mathématique (voy. POINT).\n\n2° Qui ne s'élève pas au-dessus des conditions matérielles de\nl'organisation.\nLe sacrifice humain dut s'abolir le premier, parce qu'il appartenait à\nl'état de nature, où l'homme est presque tout physique, CHATEAUBR.,\nGénie, IV, I, 5.\nPlaisirs physiques, plaisirs de l'union des sexes. En ce sens,\nMaupertuis a intitulé Vénus physique un livre sur la génération (1745).\n\n3° Qui est effectif, réel, par opposition à moral. J'en ai la certitude\nmorale, mais non la certitude physique. L'impossibilité physique.\n\n4° S. f. Dans un sens général et ancien, la physique, connaissance de\ntoute la nature matérielle ; c'est le sens de Descartes et de ses élèves\nRohault et Régis.\nComme dans la physique les expériences ont bien plus de force pour\npersuader que les raisonnements, PASC., Pesant. de l'air, I.\nJe sais combien il y a de différence entre écrire un mot à\nl'aventure.... et apercevoir dans ce mot une suite admirable de\nconséquences.... et en faire le principe ferme et soutenu d'une physique\nentière, comme Descartes a prétendu le faire, PASC., Géom. II.\n\n5° Physique, dans le sens spécial, c'est-à-dire séparée de la chimie,\nscience du mouvement et des actions réciproques des corps, en tant que\nces actions ne sont pas de composition et de décomposition, ce qui est\nle propre de la chimie.\nCe livre {les Principes mathématiques}, où la plus profonde géométrie\nsert de base à une physique toute nouvelle...., FONTEN., Newton.\nComme l'alliance de la géométrie et de la physique fait la plus grande\nutilité de la géométrie et toute la solidité de la physique, FONTEN.,\nBernoulli.\nIl faut que la physique systématique attende à élever des édifices, que\nla physique expérimentale soit en état de lui fournir les matériaux\nnécessaires, FONTEN., Préf. util. des math.\nLa physique est une mine dans laquelle on ne peut descendre qu'avec des\nmachines que les anciens n'ont jamais connues, VOLT., Dict. phil.\nAristote.\nJ'ai aimé la physique tant qu'elle n'a point voulu dominer sur la\npoésie ; à présent qu'elle écrase tous les arts, je ne veux plus la\nregarder que comme un tyran de mauvaise compagnie, VOLT., Lett.\nd'Argental, 22 août 1741.\nLa physique de la terre tient à la physique céleste, BUFF., Hist. nat.\npreuv. théor. terr. Oeuv. t. I, p. 185.\nL'objet de la physique paraît être d'apprécier l'action réciproque et\nsans décomposition des masses les unes sur les autres, et de classer les\npropriétés des corps plutôt que les corps eux-mêmes, AL. BRONGNIART,\nTraité de min. t. I, p. 1.\nPhysique moléculaire, celle qui s'occupe de la cohésion et des rapports\nde situation et de mouvement des atomes.\n\n6° Physique, traité de physique (avec majuscule). La Physique de Nollet.\n\n7° Classe où l'on enseigne la physique. Il fait sa physique.\n\n8° Conditions physiques qui président à l'existence des végétaux et des\nanimaux.\nUne connaissance approfondie de la physique des végétaux doit être la\npremière étude d'un philosophe qui aspire à rendre les végétaux plus\nutiles, CONDORCET, Duhamel.\n\n9° S. m. Le physique, l'ensemble de l'apparence extérieure de l'homme.\nUn beau physique.\nPar analogie, il se dit d'autres objets que l'homme.\nCes lois doivent être relatives au physique du pays, MONTESQ., Esp. I,\n3.\nEnsemble des dispositions anatomiques intérieures, par opposition au\nmoral, qui exprime l'ensemble des actions de l'âme. Le physique influe\nbeaucoup sur le moral.\nSi le physique va trop bien, le moral se corrompt, J. J. ROUSS., Ém. II.\n\n10° Ce qu'il y a de physique, de matériel.\nConsidérons-nous nous-mêmes, et analysons un peu le physique de nos\nactions, BUFF., Disc. nat. anim. Oeuv. t. V, p. 261.\nLes anciens n'ont peint de l'amour que le physique, MARMONTEL, Oeuv. t.\nVII, p. 80.\n\n11° Dans le moyen âge, la physique, la médecine.\n\nHISTORIQUE\nXIIIe s.\nPhisique est une science par le {la} quele on connoist toutes les\nmanieres du cors de l'homme, et par le quele on garde le {la} santé du\ncors et remue les maladies, ALEBRANT, f° 2.\nVos savez tant de la fuisie {médecine}, Bien me guerriez d'idropisie, ,\nRen. 19939.\nXIVe s.\nApprens physique, et voy encores Le livre generacion Et celuy de\ncorruption, , Nat. à l'alch. err. 912.\n\nÉTYMOLOGIE\nProvenç. phesic, phesica ; esp. et ital. fisico ; du lat. physicus ; du\ngrec, nature, produire, latin fu qui est dans fui, je fus ; sanscrit,\nbhu (u long).
physiquement	PHYSIQUEMENT\n fi-zi-ke-man adv.\nD'une manière réelle et physique. Il n'est pas physiquement impossible\nque....\n\nÉTYMOLOGIE\nPhysique, et le suffixe ment.
physocarpe	PHYSOCARPE\n fi-zo-kar-p' adj.\nTerme de botanique. Qui a des fruits vésiculeux, renflés. Plante\nphysocarpe.\n\nÉTYMOLOGIE\nDu grec, vésicule, et, fruit.
physocèle	PHYSOCÈLE\n fi-zo-sè-l' s. f.\nTerme de chirurgie. Hernie intestinale descendue jusque dans le scrotum\net distendue par les gaz.\nSynonyme de pneumatocèle.\n\nHISTORIQUE\nXVIe s.\nSi c'est du vent qu'il y a dedans le scrotum, la hargne se nomme\nphysocele ou venteuse, PARÉ, VI, 14.\n\nÉTYMOLOGIE\nDu grec, vent, et, hernie.
physomètre ou physométrie	PHYSOMÈTRE ou PHYSOMÉTRIE\n fi-zo-mè-tr' ou fi-zo-mé-trie s. f.\nTerme de médecine. Distension de l'utérus par des gaz.\n\nÉTYMOLOGIE\nDu grec, vent, et , matrice.
physème	PHYSÈME\n fi-zè-m' s. m.\nTerme de botanique. Corps des algues qu'on appelle ordinairement fronde\nou feuille.\n\nÉTYMOLOGIE\nDu grec, insufflation.
physétère	PHYSÉTÈRE\n fi-zé-tè-r' s. m.\nGenre de cétatacés, dans lequel on distingue le physétere macrocéphale.\nIl serait mieux d'écrire physéter.\n\nHISTORIQUE\nXVIe s.\nPantagruel de loin aperceut un grand et monstrueux physetere, venant\ndroict vers nous, bruyant, ronflant, RABEL., IV, 33.\n\nÉTYMOLOGIE\nDu grec, souffleur, de, souffler, dénominatif du grec, souffle.
phyto-	PHYTO-\npréfixe\nPréfixe qui signifie végétal et qui vient du grec.
phytochimie	PHYTOCHIMIE\n fi-to-chi-mie s. f.\nSynonyme peu usité de chimie végétale.\n\nÉTYMOLOGIE\nPhyto..., et chimie.
