mérycique	MÉRYCIQUE\n mé-ri-si-k' adj.\nTerme de physiologie. Mastication mérycique, mastication des aliments\nramenés dans la bouche.\n\nÉTYMOLOGIE\nAdjectif formé sur l'analogie de mérycisme.
mérycisme	MÉRYCISME\n mé-ri-si-sm' s. m.\nTerme de médecine. Affection dans laquelle les aliments, après un séjour\nplus ou moins long dans l'estomac, sont rapportés dans la bouche pour y\nêtre remâchés et être ensuite avalés de nouveau, à peu près comme chez\nles animaux ruminants.\n\nÉTYMOLOGIE\nTerme dérivé d'un verbe grec signifiant ruminer.
mérycologie	MÉRYCOLOGIE\n mé-ri-co-lo-jie s. f.\nTraité sur la rumination ou sur les ruminants.\n\nÉTYMOLOGIE\nTermes grecs signifiant celui qui rumine et traité.
mésair ou mézair	MÉSAIR ou MÉZAIR\n mé-zêr s. m.\nTerme de manége. Allure d'un cheval qui tient le milieu entre le terre à\nterre et les courbettes.\n\nHISTORIQUE\nXVIe s.\nÀ mesair, OUDIN, Dict.\n\nÉTYMOLOGIE\nItal. mezzaria ; de mezzo, mi, demi, et aria, air. Le mot français\nparaît fait sur l'italien.
mésaise	MÉSAISE\n mé-zê-z' s. m.\n\n1° Diminution de l'aisance.\nLa raison est que tout ce qu'on en tire {des sujets} au-delà {de ce qui\nest nécessaire à l'État} les jette dans un mésaise qui les appauvrit\nd'autant, VAUBAN, Dîme, p. 228.\nParce qu'on vit dans le mésaise et la nécessité, LE P. SIMON MARS, Myst.\ndu roy. de Dieu, p. 94, dans POUGENS.\n\n2° Diminution de l'aise.\nCe dissolvant qui picote l'estomac lui prépare par ce mésaise un plaisir\ntrès vif, FÉNEL., Exist. 35.\nMme la duchesse, la reine des plaisirs, chez qui Monseigneur s'était\nréfugié, chassé par le mésaise {de chez Mme la princesse de Conti},\nSAINT-SIMON, 177, 105.\nLe désir est une espèce de mésaise que le goût du bien met en nous,\nVAUVENARGUES., Esprit humain, 40.\n\n3° Cachot étroit et bas où l'on ne peut se tenir debout ou couché qu'à\ngrande peine.\nAu-dessous il y a des cachots noirs, étroits et incommodes, comme ceux\nque les geôliers des prisons ordinaires appellent mésaises, FURETIÈRE,\nFactums, t. II, p. 309.\n\nSYNONYME\nMÉSAISE, MALAISE. Ces deux mots ne diffèrent que par les préfixes, qui,\nbien que d'origine distincte, ont pris le même sens. Seulement mésaise\nest de plus ancienne formation et beaucoup moins usité.\n\nHISTORIQUE\nXIIIe s.\nA-il mesaise au monde qu'à la moie {à la mienne} compere {soit égale} ?,\n, Berte, XVIII.\nCar ma mesaise avez en grant joie muée, , ib. CXXVI.\nQuant li rois Guis le sot, si fu à mesaise de cuer et fist escrire les\nlettres...., , Chr. de Rains, 24.\nVous savez que le sage dit que mesaise que l'homme ait ou cuer, ne li\ndoit parer {paraître} ou visage, JOINV., 281.\nXVIe s.\nCeluy qui pour sa fin establiroit nostre peine et mesaise, MONT., I, 69.\nRetraicte fameuse des difficultez et mesayses qu'ils {les dix mille}\neurent à surmonter, MONT., I, 261.\n\nÉTYMOLOGIE\nMes.... préfixe, et aise.
mésalliance	MÉSALLIANCE\n mé-za-li-an-s' s. f.\nAlliance par mariage avec une personne de condition inférieure. Il a\nfait une mésalliance.\nLa famille manque d'illustration ; mais elle est très ancienne, et l'on\nne peut lui reprocher de mésalliances, mérite dont bien peu de maisons\npeuvent se vanter, GENLIS, Adèle et Théod. t. I, p. 262, dans POUGENS.\n\nÉTYMOLOGIE\nMes.... préfixe, et alliance.
mésallier	MÉSALLIER\n mé-za-li-é, je mésalliais, nous mésalliions, vous mésalliiez ; que je\nmésallie que nous mésalliions, que vous mésalliez\nv. a.\n\n1° Faire faire une mésalliance. Par avarice son père la mésallia.\nFig. Abaisser, dégrader.\nJ'aime mieux être seule et dans l'inaction Que de mésallier ma\nconversation, BOURSAULT, Fables d'Ésope, I, 6.\n\n2° Se mésallier v. réfl. Faire une mésalliance.\nJe ne suis point née avec si peu de noblesse et de bien, que don Carlos,\nm'ayant épousée, n'eût pu être à couvert des reproches que l'on fait à\nceux qui se mésallient, SCARRON, Rom. com. II, 14.\nIl y a quatre cents ans que, dans ma famille, nous sommes gueux de père\nen fils, pour n'avoir pas voulu nous mésallier, DESTOUCHES, Fausse\nAgnès, I, 1.\nTous ceux qui tirent vanité de leur naissance ne sont pas toujours\ndignes de se mésallier, DUCLOS, Consid. moeurs, ch. 10.\nFig. et familièrement. S'abaisser, déroger.\nCet homme craindrait de se mésallier, s'il fréquentait ses égaux, quand\nils sont moins riches que lui, , Dict. de l'Acad.\n\nÉTYMOLOGIE\nMes... préfixe, et allier.
mésallié, ée	MÉSALLIÉ, ÉE\n mé-za-li-é, ée part. passé de mésallier\nUne femme mésalliée.
mésange	MÉSANGE\n mé-zan-j' s. f.\nPetit oiseau de l'ordre des passereaux, qui est remarquable par sa forme\nélégante et son plumage varié (genre parus de Linné). Mésange huppée.\nUne autre circonstance qui a pu contribuer à faire connaître la mésange\nbleue, mais en mauvaise part, c'est le dommage qu'elle cause dans nos\njardins en pinçant les boutons des arbres fruitiers, BUFF., Ois. t. X,\np. 129.\nMésange brûlée, mésange-pinson, mésange a tête noire, mésange\ncharbonnière, ou mazingue, parus major, L. Mésange des marais, petite\nmesange à tête noire ou nonnette cendrée, parus palustris, L. Mésange\nnoire, ou petite charbonnière, parus ater, L.\n\nHISTORIQUE\nXIIIe s.\nEt li conta un example d'une mesanghe qui fu prise par un masenghier, au\ngardin d'un paysant, , Chr. de Rains, 236.\nXVIe s.\nMezengues, , Nouv. Fabr. des excell. traits de vérité, p. 116.\n\nÉTYMOLOGIE\nLiégeois, mazinge ; picard, masingue, masaingue : Ponthieu, imbesingue ;\nwallon, mazenge ; Hainaut, masinque ; bas-lat. mezenza ; du germanique ;\nanglo-saxon, mâse ; anc. flam. meese ; allem. Meise, à l'aide d'un\nsuffixe en k ou en g.\n\nSUPPLÉMENT AU DICTIONNAIRE\nMÉSANGE. - ÉTYM. Ajoutez : Le bas-lat.\na aussi la forme misinga dans un texte du Xe siècle, BOUCHERIE, Rev. des\nlangues romanes, t. VI, p. 458.
mésangette	MÉSANGETTE\n mé-zan-jé-t' s. f.\nSorte de cage à trébuchet pour prendre les mésanges.
mésangère	MÉSANGÈRE\n mé-zan-jè-r' s. f.\nGrosse espèce de mésange.
mésaraïque	MÉSARAÏQUE\n mé-za-ra-i-k' adj.\nTerme d'anatomie. Qui a rapport au mésentère. Les vaisseaux mésaraïques.\n\nHISTORIQUE\nXIVe s.\nIl {l'intestin} a enracinées pluseurs mesaraïques veines qui sont\nactractives, H. DE MONDEVILLE, f° 26.\n\nÉTYMOLOGIE\nTerme grec dérivé de mesentère, de moyen, et autre mot grec signifiant\nintestins grêles.
mésarriver	MÉSARRIVER\n mé-za-ri-vé v. n.\nimpers. Tourner mal, avoir une mauvaise issue. Si vous ne changez de\nconduite, il vous en mésarrivera. Ne faites pas cela, il peut vous en\nmésarriver.\nIl {un danseur de corde} est trop fier de son art, et présume trop de\nson adresse ; je crains qu'il ne lui en mésarrive à la fin, MARCHANGY,\nTristan le voyageur, LXVIII.\nS'il mésarrive de moi, si je viens à mourir.\nMonseigneur montra une lettre cachetée pour elle {Mlle Choin}, pour lui\nêtre rendue s'il mésarrivait de lui, SAINT-SIMON, 294, 13.\nIl se conjugue avec le verbe auxiliaire être. Il m'en est mésarrivé.\n\nÉTYMOLOGIE\nMes... préfixe, et arriver.
mésaticéphale	MÉSATICÉPHALE\n mé-za-ti-sé-fa-l' adj.\nTerme d'anthropologie. Crâne mésaticéphale, crâne intermédiaire entre le\ncrâne dolichocéphale et le crâne brachycéphale.\n\nÉTYMOLOGIE\nDu grec, moyen, dérivé de (voy. MÉSO...), et, tête.
mésaule	MÉSAULE\n mé-zô-l' s. f.\nNom donné, chez les anciens, à de petites cours ménagées entre plusieurs\ncorps de bâtiments pour procurer des jours et des dégagements aux\nintérieurs.\n\nÉTYMOLOGIE\nTermes grecs signifiant moyen et cour.
mésavenance	MÉSAVENANCE\n mé-za-ve-nan-s' s. f.\nTerme vieilli, mais bon à remettre en usage. Qualité de ce qui est\nmésavenant.\n\nHISTORIQUE\nXVIe s.\nNous appelons laideur aussi, une mesadvenance au premier regard, MONT.,\nIV, 222.\n\nÉTYMOLOGIE\nMésavenant.
mésavenant, ante	MÉSAVENANT, ANTE\n mé-za-ve-nan, nan-t' adj.\nQui n'est point avenant.\nLe talent de s'immortaliser par les lettres n'est une qualité\nmésavenante à quelque rang que ce soit, DIDER., Sur Térence.\n\nHISTORIQUE\nXVIe s.\nToute affectation, nomméement en la gayeté et liberté françoise, est\nmesadvenante au courtisan, MONT., I, 192.
mésavenir	MÉSAVENIR\n mé-za-ve-nir v. n.\nimpers. Il se conjugue comme venir. Tourner à mal. Agissez toujours ; il\nne peut vous en mésavenir. Il vous en mésaviendra.\nIl se conjugue avec l'auxiliaire être.\n\nHISTORIQUE\nXIIIe s.\nAins commençai à coarder, Quant de Narcissus me sovint, Cui malement en\nmesavint, , la Rose, 1526.\nEt quiconques le fet à escient, s'il l'en mesavient, c'est à bon droit,\nBEAUMANOIR, XXXVII, 8.\nXVe s.\nS'il m'eust voulu croire, il ne luy fust point ainsi mesadvenu, COMM.,\nVII, 8.\nXVIe s.\nBref il ne luy mesadvint jamais par sa paresse, AMYOT, Anton. et Démétr.\n4.\n\nÉTYMOLOGIE\nMes.... préfixe, et avenir ; provenç. mesavenir ; ital. misavvenire.
mésaventure	MÉSAVENTURE\n mé-za-van-tu-r' s. f.\nMauvaise aventure, chance funeste.\nCar, étant {un dogue} de nature à piller ses pareils, mainte mésaventure\nL'aurait fait retourner chez lui, Avec cette partie {l'oreille} en cent\nlieux altérée, LA FONT., Fabl. X, 9.\nJe trouvai dans son salon Mme de Marchais, à qui de point en point je\ncontai ma mésaventure, MARMONTEL, Mém. V.\nIl vous en adviendra quelque mésaventure, Ô grand Perrin Dandin de la\nlittérature, M. J. CHÉN., les Nouveaux saints.\n\nHISTORIQUE\nXIIIe s.\nEt puis leur en avint grant mesaventure, VILLEH., XXXI.\nSi comme li cas qui aviennent par mesqueance ou par mesaventure,\nBEAUMANOIR, VII, 12.\nXVIe s.\nCeluy qui reprend ceulx qui faillent semble proprement leur reprocher\nleurs mesadventures, AMYOT, Phocion, 2.\n\nÉTYMOLOGIE\nMes.... préfixe, et aventure.
mésellerie	MÉSELLERIE\n mé-zè-le-rie s. f.\nNom de la lèpre au moyen âge.\n\nÉTYMOLOGIE\nAnc. franç. mesel, lépreux, du lat, misellus, petit misérable, diminutif\nde miser (voy. MISÈRE).
mésembryanthème	MÉSEMBRYANTHÈME\n mé-zan-bri-an-tè-m' s. m.\nTerme de botanique. Genre de la famille des mésembryanthémées.\n\nÉTYMOLOGIE\nDu grec, midi, et fleur : fleur du midi, parce qu'elle s'ouvre à midi.
mésembryanthémées	MÉSEMBRYANTHÉMÉES\n mé-zan-bri-an-témée s. f.\nFamille de plantes qui a pour type le genre mésembryanthème.
mésentendre	MÉSENTENDRE\n mé-zan-tan-dr' v. a.\nIl se conjugue comme entendre. Entendre de travers ; refuser d'écouter.\nOn a mésentendu les philosophes, on ne s'est pas placé dans leur point\nde vue, on n'a pris d'eux que des résultats, au lieu de suivre la chaîne\nqui les y avait conduits, VILLERS, Kant, p. 101.\n\nHISTORIQUE\nXIIe s.\nVait s'en Bernier, de sa gent departi ; Vint jusqu'as treiz {aux\ntentes}, mais pas ne descendi ; Au saluer pas ne mesentendi, , R. de\nCambrai, 88.\n\nÉTYMOLOGIE\nMes.... préfixe, et entendre.
mésentendu	MÉSENTENDU\n mé-zan-tan-du s. m.\nSynonyme de malentendu. Par un mésentendu survenu dans ce voyage, le\nprince royal eut le malheur de tomber dans la disgrâce du roi son père,\nCORREVON, Mémoires sur Frédéric le Grand, t. I, p. 12, dans HUMBERT,\nGloss. gén. Le général nous engagea à suspendre notre démission, en\ndisant qu'il y avait quelque mésentendu, Papiers saisis à Bareuth, p.\n56.\n\nÉTYMOLOGIE\nMésentendu, participe de mésentendre.
mésentente	MÉSENTENTE\n mé-zan-tan-t' s. f.\nAbsence d'entente.\nLa proposition de M. V*** est adoptée ; discussions, bruit, mouvements\net mésentente prolongée, , Journal de Genève de 1848, n° 84.\n\nÉTYMOLOGIE\nMes.... préfixe, et entente.
mésentère	MÉSENTÈRE\n mé-zan-tè-r' s. m.\nTerme d'anatomie. Membrane qui est un repli du péritoine, à laquelle les\nintestins sont suspendus, et qui leur donne leur mobilité.\nVeines qu'Asellius a découvertes depuis peu dans le mesentère, DESC.,\nFoetus, 4.\n\nHISTORIQUE\nXVIe s.\nLe mesentere est seul et unique, situé au milieu des intestins, au moyen\nde quoi est ainsi appellé, PARÉ, I, 16.\n\nÉTYMOLOGIE\nTermes grecs dont l'un est dérivé de moyen, et l'autre signifie intestin\n(voy. ENTÉRITE).
mésentérie	MÉSENTÉRIE\n mé-zan-té-rie s. f.\nTerme de médecine. Nom donné par quelques médecins au carreau, parce\nque, dans le carreau, le mésentère présente des ganglions engorgés et\ntuberculisés.\n\nÉTYMOLOGIE\nMésentère.
mésentérin, ine	MÉSENTÉRIN, INE\n mé-zan-té-rin, ri-n' adj.\nTerme d'histoire naturelle. Se dit de certains corps dont la surface\noffre des ondulations irrégulières simulant celles du mésentère.
mésentérique	MÉSENTÉRIQUE\n mé-zan-té-ri-k' adj.\nTerme d'anatomie. Qui appartient au mésentère. Glandes mésentériques,\nles ganglions lymphatiques du mésentère.
mésentérite	MÉSENTÉRITE\n mé-zan-té-ri-t' s. f.\nTerme de médecine. Inflammation du mésentère.
mésestimable	MÉSESTIMABLE\n mé-zè-sti-ma-bl' adj.\nNéologisme. Qui n'est pas digne d'estime.
mésestimation	MÉSESTIMATION\n mé-zè-sti-ma-sion s. f.\nTerme de l'administration des douanes. Estimation fausse des\nmarchandises importées en France. Il s'agissait de quoi ? d'une\nmésestimation de 12 pour 100, Séance du Corps législ. 19 janv. 1870.
mésestime	MÉSESTIME\n mé-zè-sti-m' s. f.\nDéfaut d'estime ; mépris.\nUn sentiment de mésestime attiédissait ceux qu'elle m'avait inspirés, J.\nJ. ROUSS., Conf. V.\nIls ont la mésestime, je dis plus, l'animadversion de tous, BABOEUF,\nPièces, II, 109.\nLa qualité d'artiste était presque devenue un titre à la mésestime, à la\ndéconsidération, PROUDHON, Du principe de l'art, p. 367.\n\nÉTYMOLOGIE\nVoy. MÉSESTIMER.
mésestimer	MÉSESTIMER\n mé-zè-sti-mé v. a.\n\n1° N'avoir point d'estime pour.\nCe n'est point à Camille à t'en mésestimer, CORN., Hor. I, 4.\nEt, pour ne risquer rien en pratiquant les femmes, Les adorer en gros\ntoutes confusément, Et les mésestimer toutes séparément, TH. CORN.,\nl'Amour à la mode, IV, 1.\nLes Allemands ne peuvent nier la dette {avoir été battus} cette fois, et\nce n'est pas sans raison qu'on les mésestime chez vous, BAYLE, Lett. à\nMinutoli, 17 mars 1675.\nSeigneur, il est bien dur, pour un coeur magnanime, D'attendre des\nsecours de ceux qu'on mésestime, VOLT., Zaïre, II, 1.\n\n2° Apprécier une chose au-dessous de sa valeur. Vous mesestimez ce\ndiamant.\n\n3° Se mésestimer, v. réfl. Avoir de la mésestime pour soi-même.\nC'est donc avec raison que l'âme s'humilie, Se mésestime, se déplaît,\nCORN., Imit. I, 22.\n\nSYNONYME\n1. MÉSESTIMER, MAL ESTIMER., Mésestimer, en parlant des choses, se prend\ntoujours en mauvaise part, et signifie apprécier les choses au-dessous\nde leur juste valeur. Mal estimer se dit soit en bien, soit en mal, et\nc'est estimer ou au-dessus ou au-dessous de la juste valeur, LAVEAUX.\n2. MÉSESTIMER, MÉPRISER., Mésestimer, c'est accorder une estime moindre\nqu'il ne faut ; mépriser, c'est accorder un prix moindre qu'il ne faut.\nCes deux mots sont donc très voisins ; ils ne se distinguent que par la\nnuance entre estime et prix.\n\nHISTORIQUE\nXVIe s.\nJe ne la mesestime pas {l'étymologie}, et ne veux point dire qu'elle ne\nserve beaucoup à l'intelligence des mots, J. PELLETIER, dans LIVET, la\nGramm. franç. p. 162.\n\nÉTYMOLOGIE\nMes... préfixe, et estimer.
mésestimé, ée	MÉSESTIMÉ, ÉE\n mé-zè-sti-mé, mée part. passé de mésestimer\nJe me hais de te voir ainsi mésestimée, RÉGNIER, Élég. II.\nMaltraité et mésestimé dans la vie, il {Jésus} commence à régner après\nqu'il est mort, BOSSUET, Sermons, Vertu de la croix, I.
mésintelligence	MÉSINTELLIGENCE\n mé-zin-tèl-li-jan-s' s. f.\nMauvaise intelligence, désaccord entre les personnes.\nCette petite négligence.... Vient de leur mésintelligence, CORN.,\nAgésil. I, 1.\nIl est constant qu'il y a beaucoup de division et de mésintelligence\nparmi leurs chefs principaux, PELLISSON, Lett. hist. t. II, p. 160, dans\nPOUGENS.\nQuelle mésintelligence entre l'esprit et le coeur ! le philosophe vit\nmal avec tous ses préceptes ; et le politique, rempli de vues et de\nréflexions, ne sait se gouverner, LA BRUY., XI.\nQuelle est cette mésintelligence entre le coeur et la raison, qui fait\nque l'on chérit encore ce que l'on cesse d'estimer ?, MARMONTEL, Cont.\nmor. Bon. mère.\n\nÉTYMOLOGIE\nMes... préfixe, et intelligence.
mésinterprétation	MÉSINTERPRÉTATION\n mé-zin-tèr-pré-ta-sion s. f.\nMauvaise interprétation.\nLes préceptes des autres lois {autres que celles de la nature} sont\nécrits dans des livres sujets à tous les événements des choses humaines,\nà l'abolition, à la mésinterprétation, à l'obscurité, DIDEROT, Suffis.\nde la nat. n° 20.\n\nÉTYMOLOGIE\nMésinterpréter.
mésinterpréter	MÉSINTERPRÉTER\n mé-zin-tèr-pré-té. La syllabe pré prend un accent grave quand la\nsyllabe qui suit est muette : je mésinterprète, excepté au futur et au\nconditionnel : je mésinterpréterai v. a.\nInterpréter mal, à faux, d'une manière défavorable.\nJe ne suis pas si prompt que vous à mésinterpréter les motifs de mes\namis, J. J. ROUSS., Lett. à d'Ivernois, 26 avr. 1768.\nOn mésinterpréta la familiarité dont il usait avec ses jeunes élèves,\nDIDEROT, Opin. des anc. philos. (secte cyrénaïque).\n\nÉTYMOLOGIE\nMes... préfixe, et interpréter.
mésite	MÉSITE\n mé-zi-t' s. m.\nTerme de chimie. Corps qui se trouve dans l'esprit de bois impur.
mésitique	MÉSITIQUE\n mé-zi-ti-k' adj.\nTerme de chimie. Alcool mésitique, nom donné aujourd'hui à l'esprit\npyro-acétique.\n\nÉTYMOLOGIE\nMésite.
mésitène	MÉSITÈNE\n mé-zi-tè-n' s. m.\nTerme de chimie. Produit de distillation de la xylite et de l'acide\nsulfurique à parties égales.
méso-	MÉSO-\nPréfixe qui vient du grec, et signifie : qui est mitoyen, situé au\nmilieu.
mésobraque	MÉSOBRAQUE\n mé-zo-bra-k' adj.\nTerme d'ancienne métrique. Pied mésobraque, pied de cinq syllabes, deux\nlongues, une brève et encore deux longues : comme pulcherrimarum.\n\nÉTYMOLOGIE\nMéso..., et terme grec signifiant bref.
mésocaecum	MÉSOCAECUM\n mé-zo-sé-kom' s. m.\nTerme d'anatomie. Repli analogue aux mésocôlons, que le péritoine forme,\nchez quelques individus, à la partie postérieure du caecum.\n\nÉTYMOLOGIE\nMéso..., et caecum.
mésocarpe	MÉSOCARPE\n mé-zo-kar-p' s. m.\nTerme de botanique. Substance charnue ou filandreuse contenue entre\nl'épiderme et la pellicule interne de certains fruits.\n\nÉTYMOLOGIE\nMéso..., et terme grec signifiant fruit.
mésochilium	MÉSOCHILIUM\n mé-zo-ki-li-on s. m.\nTerme de botanique. Partie moyenne du tablier dans la fleur des\norchidées.\n\nÉTYMOLOGIE\nMéso..., et terme grec signifiant lèvre.
mésoclaste	MÉSOCLASTE\n mé-zo-kla-st' adj.\nTerme de métrique gréco-latine. Vers mésoclaste, vers hexamètre dans\nl'intérieur duquel il y a une faute de quantité.\n\nÉTYMOLOGIE\nMéso..., et terme grec signifiant rompre.
mésocrâne	MÉSOCRÂNE\n mé-zo-krâ-n' s. m.\nTerme d'anatomie. Le milieu de la tête, le vertex.\n\nÉTYMOLOGIE\nMéso..., et crâne.
mésocéphale	MÉSOCÉPHALE\n mé-zo-sé-fa-l' s. m.\nTerme d'anatomie. Nom donné par quelques-uns à une partie de l'encéphale\n(pont de Varole).\n\nÉTYMOLOGIE\nMéso..., et terme grec signifiant tête.
mésocéphalique	MÉSOCÉPHALIQUE\n mé-so-sé-fa-li-k' adj.\nQui a rapport au mésocéphale.
mésocôlon	MÉSOCÔLON\n mé-zo-kô-lon s. m.\nTerme d'anatomie. Expansions du péritoine dans la duplicature desquelles\nsont comprises les diverses portions de l'intestin côlon.\n\nHISTORIQUE\nXVIe s.\nLe mesocolon est l'autre partie du mesentere contenue entre les\nintestins gros, PARÉ, I, 16.\n\nÉTYMOLOGIE\nMéso..., et côlon.
mésode	MÉSODE\n mé-zo-d' s. f.\nTerme de poésie antique. Morceau de chant placé entre la strophe et\nl'antistrophe.\n\nÉTYMOLOGIE\nMéso..., et ode.
mésoderme	MÉSODERME\n mé-zo-dèr-m' s. m.\nTerme de botanique. Partie de l'écorce comprise entre la couche\nsubéreuse proprement dite et l'enveloppe herbacée.\n\nÉTYMOLOGIE\nMéso..., et derme.\n\nSUPPLÉMENT AU DICTIONNAIRE\nMÉSODERME. Ajoutez :\n\n2° Chez les polypiers, les hydres d'eau etc., plan fibreux qui sépare\nl'ectoderme de l'endoderme.
mésodiscal, ale	MÉSODISCAL, ALE\n mé-zo-di-skal, ska-l' adj.\nTerme de botanique. Qui est en rapport avec le milieu du disque.\nInsertion mésodiscale.\n\nÉTYMOLOGIE\nMéso..., et disque.
mésoffrir	MÉSOFFRIR\n mé-zo-frir v. n.\nIl se conjugue comme offrir. Offrir d'une marchandise moins qu'elle ne\nvaut. On lui avait mésoffert, il ne voulut pas vendre.\n\nHISTORIQUE\nXIVe s.\nLà n'i ot crestien dont fuit de riens servis, Car cascuns si fuioit com\ns'il fuit kiens rabis {chien enragé} ; Chellui cui il mesquiet on\nmesoffre toudis, , Baud. de Seb. XII, 147.\nXVe s.\nÀ celui à qui il meschiet, chacun lui mesoffre, FROISS., II, II, 159.\n\nÉTYMOLOGIE\nMes... préfixe, et offrir.
mésogastre	MÉSOGASTRE\n mé-zo-ga-str' s. m.\nTerme d'anatomie. Région moyenne de l'abdomen, celle qui est\nintermédiaire aux régions épigastrique et hypogastrique.\nAdj. m. Terme de zoologie. Poisson mésogastre, poisson qui a les\nnageoires pectorales au milieu du ventre.\n\nÉTYMOLOGIE\nMéso .., et terme grec signifiant ventre.
mésolabe	MÉSOLABE\n mé-zo-la-b' s. m.\nAncien terme de géométrie. Instrument destiné à trouver mécaniquement\ndeux moyennes proportionnelles, qui ne pouvaient être trouvées\ngéométriquement. Le mésolabe fut inventé pour le fameux problème de la\nduplication du cube.\n\nÉTYMOLOGIE\nMéso..., et terme grec signifiant prendre.
mésolobaire	MÉSOLOBAIRE\n mé-zo-lo-bê-r' adj.\nQui appartient au mésolobe.
mésolobe	MÉSOLOBE\n mé-zo-lo-b' s. m.\nTerme d'anatomie. Nom donné par quelques-uns au corps calleux, parce\nqu'il est situé entre les lobes du cerveau.\n\nÉTYMOLOGIE\nMéso..., et lobe.
mésologarithme	MÉSOLOGARITHME\n mé-zo-lo-ga-ri-tm' s. m.\nTerme de mathématique. Expression qu'on employait autrefois pour\ndésigner les logarithmes des cosinus et des cotangentes.\n\nÉTYMOLOGIE\nMéso..., et logarithme.
mésomacre	MÉSOMACRE\n mé-zo-ma-kr' adj. m.\nTerme de métrique ancienne. Se dit d'un pied composé de deux brèves,\nd'une longue et de deux brèves, comme avidissimus.\n\nÉTYMOLOGIE\nMéso..., et terme grec signifiant long.
mésomphale	MÉSOMPHALE\n mé-zon-fa-l' s. m.\nTerme d'anatomie. Synonyme d'ombilic.\n\nÉTYMOLOGIE\nMéso..., et terme grec signifiant nombril.
mésomètre	MÉSOMÈTRE\n mé-zo-mè-tr' s. m.\nTerme d'anatomie. Repli péritonéal qui, chez les mammifères, unit\nl'utérus aux parois abdominales.\n\nÉTYMOLOGIE\nMéso..., et terme grec signifiant matrice.
mésomérie	MÉSOMÉRIE\n mé-zo-mé-rie s. m.\nTerme d'anatomie. Partie du corps qui se trouve entre les cuisses.\n\nÉTYMOLOGIE\nMéso..., et terme grec signifiant cuisse.
mésophragme	MÉSOPHRAGME\n mé-zo-fra-gm' s. m.\nCloison intérieure du thorax des insectes.\n\nÉTYMOLOGIE\nMéso..., et terme grec signifiant cloison.
mésophryon	MÉSOPHRYON\n mé-zo-fri-on s. m.\nTerme d'anatomie. Partie de la face qui est placée entre les deux\nsourcils.\n\nÉTYMOLOGIE\nMéso..., et terme grec signifiant sourcil.
mésophylle	MÉSOPHYLLE\n mé-zo-fi-l' s. m.\nTerme de botanique. Tissu compris entre les deux lames d'une feuille.\n\nÉTYMOLOGIE\nMéso..., et terme grec signifiant feuille.
mésophyte	MÉSOPHYTE\n mé-zo-fi-t' s. m.\nTerme de botanique. Ligne de démarcation entre la tige et la racine\nd'une plante, autrement dite collet.\n\nÉTYMOLOGIE\nMéso..., et terme grec signifiant végétal.
mésopithèque	MÉSOPITHÈQUE\n mé-zo-pi-tè-k' s. m.\nTerme de zoologie. Sorte de singe fossile. Le mésopithèque de Grèce.\n\nÉTYMOLOGIE\nMéso..., et terme grec signifiant singe.
mésopotamien, enne	MÉSOPOTAMIEN, ENNE\n mé-zo-po-ta-miin, miè-n' adj.\nQui appartient, qui a rapport à la Mésopotamie, ou, généralement, à une\ncontrée située entre deux fleuves. Région mésopotamienne.\n\nÉTYMOLOGIE\nMéso..., et du grec : situé entre deux fleuves, et, particulièrement le\nTigre et l'Euphrate.
mésorectum	MÉSORECTUM\n mé-zo-rè-ktom' s. m.\nTerme d'anatomie. Expansion du péritoine qui maintient le rectum dans sa\nposition naturelle.\n\nÉTYMOLOGIE\nMéso..., et rectum.
mésoroptre	MÉSOROPTRE\n mé-zo-ro-ptr' s. m.\nTerme de physiologie. L'étendue de la distance, variable suivant les\nindividus et suivant le volume des objets, à laquelle on place ceux-ci\npour les voir distinctement et sans fatigue.\n\nÉTYMOLOGIE\nLe grec se traduit par, qui est au milieu de deux limites (de grec,\nmilieu, et, limite), et du grec, venu de, voir, inusité comme simple,\nemployé en composition.
mésorrhinion	MÉSORRHINION\n mé-zo-rri-ni-on s. m.\nTerme de zoologie. Partie du bec des oiseaux comprise entre les narines.\n\nÉTYMOLOGIE\nMéso..., et terme grec signifiant narine.
mésosperme	MÉSOSPERME\n mé-zo-spèr-m' s. m.\nTerme de botanique. Partie comprise entre les deux enveloppes d'une\ngraine.\n\nÉTYMOLOGIE\nMéso..., et terme grec signifiant graine.
mésosème	MÉSOSÈME\n mé-zo-sè-m' adj.\nTerme d'anthropologie. Qui a un moyen indice, en parlant du crâne. Le\ncrâne ayant pour indice céphalique un chiffre intermédiaire entre 80 et\n77, est un crâne mésosème.\nLorsqu'il s'est agi de classer en trois catégories les races humaines\nd'après leur plus ou moins fort indice orbitaire, on a appliqué mésosème\naux populations qui ont un moyen indice orbitaire, par exemple les\nEuropéens.\n\nÉTYMOLOGIE\nDu grec, moyen, et, signe, indice.
mésothorax	MÉSOTHORAX\n mé-zo-to-raks' s. m.\nTerme d'entomologie. Deuxième partie du corselet, qui supporte les ailes\nsupérieures et la paire de pattes intermédiaires.\n\nÉTYMOLOGIE\nMéso..., et thorax.
mésothénar	MÉSOTHÉNAR\n mé-zo-té-nar s. m.\nTerme d'anatomie. Muscle qui approche le pouce de la paume de la main.\n\nÉTYMOLOGIE\nMéso..., et thénar.
mésothérium	MÉSOTHÉRIUM\n mé-zo-té-ri-om' s. m.\nAnimal fossile, recueilli dans le limon des pampas, aux environs de\nBuenos-Ayres, un peu plus grand que le cabiai.\n\nÉTYMOLOGIE\nMéso..., et terme grec signifiant animal.
mésotype	MÉSOTYPE\n mé-zo-ti-p' s. f.\nTerme de minéralogie. Minéral à cassure vitreuse qui se rencontre dans\nles roches de l'Islande ; c'est un silicate d'alumine et de soude\nmélangé à de l'oxyde de fer.
mésoxalique	MÉSOXALIQUE\n mé-zo-ksa-li-k' adj.\nTerme de chimie. Acide mésoxalique, acide obtenu avec de l'urée et à\nl'état de combinaison avec la baryte, lorsqu'on fait bouillir la\ndissolution d'alloxanate de baryte.\n\nÉTYMOLOGIE\nMéso..., et oxalique.
mésozeugme	MÉSOZEUGME\n mé-zo-zeu-gm' s. m.\nNom particulier d'une des espèces de la figure de construction ou de\ngrammaire appelée généralement zeugme. Le zeugme consiste à\nsous-entendre dans un membre de phrase un mot exprimé dans un autre ; si\nle mot sous-entendu est au milieu de la phrase, c'est un mésozeugme ;\nc'est un protozeugme s'il est au commencement, et un hypozeugme s'il est\nà la fin.\n\nÉTYMOLOGIE\nMéso..., et terme grec signifiant zeugme.
mésozoïque	MÉSOZOÏQUE\n mé-zo-zo-i-k' adj.\nTerme de géologie. Terrains mésozoïques, terrains les plus récents parmi\nles terrains secondaires, contenant les animaux moyennement récents.\n\nÉTYMOLOGIE\nMéso..., et terme grec signifiant animal.
mésus	MÉSUS\n mé-zû s. m.\nTerme de jurisprudence. Mauvais usage.\n\nÉTYMOLOGIE\nMes..., et us.
mésusage	MÉSUSAGE\n mé-zu-za-j' s. m.\nMauvais usage.\n\nHISTORIQUE\nXVIe s.\nBail ou garde {tutelle} se perd par mesusage, ou quand le gardien se\nremarie, LOYSEL, 197.\n\nÉTYMOLOGIE\nMésuser.
mésuser	MÉSUSER\n mé-zu-zé v. n.\nMal user.\nEt songez qu'il vaut mieux encor qu'il en mésuse {de son bien}, Que si\nde l'en frustrer il faut qu'on vous accuse, MOL., Tart. IV, 1.\nIl se conjugue avec l'auxiliaire avoir.\n\nSYNONYME\nMÉSUSER, ABUSER. Ces deux mots diffèrent par le préfixe : mes est,\nétymologiquement, moins, et, pour le sens usuel, mal ; ab exprime\nl'action de détourner. De la sorte, celui qui mésuse, use mal ; celui\nqui abuse, détourne une chose de son usage : on mésuse de la chose qu'on\nemploie mal ; on abuse de la chose qu'on emploie à faire mal. On abuse\nde la complaisance de quelqu'un plutôt qu'on n'en mésuse.\n\nHISTORIQUE\nXIIIe s.\nBien se gardent cil qui ont certains usages en certains liex {lieux} par\nchartres ou par don de segneur, que il en uzent ainsi comme il doivent ;\ncar s'il en mesuzent, c'est à dire s'il en uzent autrement qu'il ne\ndoivent...., BEAUMANOIR, XXIV, 16.\nXIVe s.\nUse des biens que tu auras acquis, sagement sans mesuser, , Ménagier, I,\n9.\n\nÉTYMOLOGIE\nMes.... préfixe, et user.
mésuseur	MÉSUSEUR\n mé-zu-zeur s. m.\nCelui qui mésuse, qui abuse d'un droit, d'une permission.\n\nHISTORIQUE\nXVIe s.\nMesuseur, , Coust. de Beauvoisis, ch. 24.
mésédification	MÉSÉDIFICATION\n mé-zé-di-fi-ka-sion s. f.\nAction de mésédifier.\nLe désaveu de tous les sujets de mésédification qu'il a cru entrevoir\npar le passé dans votre façon de penser et d'agir, , Lett. de l'Évêque\nd'Annecy, dans VOLT. Lett. à l'Évêque d'Annecy, 15 avr. 1768.
mésédifier	MÉSÉDIFIER\n mé-zé-di-fi-é v. a.\nIl se conjugue comme édifier. Ne pas édifier, scandaliser.\nLe poëte fut si mésédifié de cette aventure, qu'il crut devoir en\ninformer la postérité, COMTE DE CAYLUS, (GROSLEY), Mém. de l'Acad. de\nTroyes, Oeuvr. t. XII, p. 60, dans POUGENS.\n\nÉTYMOLOGIE\nMes.... préfixe, et édifier.
mét- ou méta-	MÉT- ou MÉTA-\npréfixe,\nPréfixe qui vient d'une préposition grecque qui signifie succession,\nchangement, transformation.
métabole	MÉTABOLE\n mé-ta-bo-l' s. f.\nTerme de rhétorique. Toute espèce de changement soit dans les mots, soit\ndans les phrases.\n\nÉTYMOLOGIE\nLe grec signifie, changement, (voy. MÉTA-), et, jeter.
métabole	MÉTABOLE\n mé-ta-bo-l' adj.\nTerme d'entomologie. Qui subit un changement. Insectes métaboles.\n\nÉTYMOLOGIE\nVoy. MÉTABOLE 1.
métabolique	MÉTABOLIQUE\n mé-ta-bo-li-k' adj.\nTerme de chimie. Qui a rapport aux changements de nature des corps.\nPhénomènes métaboliques. C'est à l'aide d'opérations métaboliques que\ns'opère la nutrition dans les corps vivants.\n\nÉTYMOLOGIE\nTerme grec signifiant changement (voy. MÉTABOLE 1).
métabolisme	MÉTABOLISME\n mé-ta-bo-li-sm' s. m.\nChangement de nature moléculaire des corps.
métabolélogie	MÉTABOLÉLOGIE\n mé-ta-bo-lé-lo-jie s. f.\nTerme de médecine. Description des changements qui surviennent dans le\ncours d'une maladie.\n\nÉTYMOLOGIE\nTerme grec signifiant changement (voy. MÉTABOLE 1) et traité.
métacarpe	MÉTACARPE\n mé-ta-kar-p' s. m.\nTerme d'anatomie. Partie de la main située entre le carpe et les doigts,\ncomposée de cinq os parallèles, qui forment le dos et la paume de la\nmain.\n\nHISTORIQUE\nXVIe s.\nLe carpe ou poignet, le metacarpe ou avant-main, et les doigts, PARÉ,\nIV, 20.\n\nÉTYMOLOGIE\nTermes grecs dont l'un est dérivé de après et l'autre signifie le carpe.
métacarpien, ienne	MÉTACARPIEN, IENNE\n mé-ta-kar-piin, pièn' adj.\nQui a rapport au métacarpe. Les os métacarpiens, ou, substantivement,\nles métacarpiens, les os du métacarpe.
métacarpo-phalangien, ienne	MÉTACARPO-PHALANGIEN, IENNE\n mé-takar-po-fa-lan-jiin, jiè-n' adj.\nTerme d'anatomie. Articulations métacarpo-phalangiennes, celles des os\nmétacarpiens avec les phalanges correspondantes.
métacentre	MÉTACENTRE\n mé-ta-san-tr' s. m.\nTerme de marine. Point où la ligne verticale, passant par le centre de\ngravité d'un navire, se rencontre avec la résultante de la pression\nlatérale que l'eau exerce sur ce navire, quand il est penché de côté.\n\nÉTYMOLOGIE\nMéta...., et centre.
métacentrique	MÉTACENTRIQUE\n mé-ta-san-tri-k' adj.\nTerme de marine. Courbe métacentrique, courbe formée de la réunion des\nmétacentres correspondant à toutes les inclinaisons possibles du navire.
métachromatisme	MÉTACHROMATISME\n mé-ta-kro-ma-ti-sm' s. m.\nTerme de pathologie. Modifications et changements de couleur que\nprésentent les poils, les plumes, ou la peau elle-même, selon les\nprogrès de l'âge ou dans diverses conditions morbides chez divers\nanimaux.\n\nÉTYMOLOGIE\nMéta..., et terme grec signifiant couleur.
métachronisme	MÉTACHRONISME\n mé-ta-kro-ni-sm' s. m.\nErreur de date qui consiste à placer un événement dans un temps\nantérieur à celui où il est arrivé.\n\nÉTYMOLOGIE\nMéta...., et terme grec signifiant temps.
métacétone	MÉTACÉTONE\n mé-ta-sé-to-n' s. f.\nTerme de chimie. Corps obtenu par action de la chaux sur le sucre et\nl'amidon à une température élevée.
métacétyle	MÉTACÉTYLE\n mé-ta-sé-ti-l' s. m.\nTerme de chimie. Radical hypothétique du métacétone.
métadière	MÉTADIÈRE\n mé-ta-diè-r' s. f.\nAncien nom d'une sorte de toile. Métadières, chaîne, chanvre plein ;\ntrame, étoupe ; métadières de ménage, chaîne, trame, fil de lin, Tabl.\nannex. aux lettr. pat. 30 sept. 1780, Auvergne.
métagallique	MÉTAGALLIQUE\n mé-ta-gal-li-k' adj.\nTerme de chimie. Acide métagallique, matière d'apparence charbonneuse\nqu'on obtient lorsqu'on porte brusquement l'acide gallique à la\ntempérature de 250°.
métagenèse	MÉTAGENÈSE\n mé-ta-je-nè-z' s. f.\nTerme de physiologie. Mode particulier d'évolution aussi appelé\ngénération alternante, par lequel passent, durant leur développement,\ncertains êtres organisés. La métagenèse est caractérisée par ce fait,\nqu'un être né d'un ovule donne naissance, sans être fécondé et avant\nd'avoir des organes génitaux, à des germes nouveaux.\n\nÉTYMOLOGIE\nMéta...., et terme grec signifiant génération.
métagramme	MÉTAGRAMME\n mé-ta-gra-m' s. m.\nSynonyme inusité de métaplasme, changement de lettre dans un mot.\n\nÉTYMOLOGIE\nMéta..., et terme grec signifiant lettre.
métail	MÉTAIL\n mé-tall', ll mouillées s. m.\nS'est dit autrefois pour métal.\nEt fût-il de métail ou de bronze ou de roc, RÉGNIER, Sat. VII.\nVous avez loué vos dieux de bois et de métail, BOSSUET, Polit. X, VI, 7\n(les éditions récentes donnent métal).\nAncien nom d'une composition formée de plusieurs métaux.
métairie	MÉTAIRIE\n mé-tê-rie s. f.\n\n1° Domaine agricole exploité par un métayer.\n\n2° Par extension, domaine de médiocre étendue exploité par un fermier.\nDans la première {guerre punique} on voit Régulus.... demander son congé\nau sénat pour aller cultiver sa métairie, abandonnée pendant son\nabsence, BOSSUET, Hist. III, 6.\n\nHISTORIQUE\nXIIIe s.\nFaire à moiteerie, tenir à moiterrie, DU CANGE, medietarius.\nXIVe s.\nLes quelles terres, pour ce que nous ne les poiens {pouvions} cultiver,\nnous aviens donné à moiturie, DU CANGE, ib.\nXVIe s.\nIl fut amoureux d'une metayere qu'il avoit, et souvent partoit de Tours\npour aller visiter sa metairie, MARG., Nouv. XXXVIII.\n\nÉTYMOLOGIE\nBas-lat. medietaria (voy. MÉTAYER).
métal	MÉTAL\n mé-tal s. m.\n\n1° Corps opaques, pesants, qui se trouvent, dans la nature, associés à\ndes substances terreuses ou entre eux, et qui constituent alors des\ncomposés connus sous le nom de mines. Les Grecs et les Romains ne\nconnaissaient que sept métaux, l'or, l'argent, le fer, le cuivre, le\nplomb, l'étain et le mercure.\nAllons briser ces dieux de pierre et de métal, CORN., Poly. II, 6.\n....Cent fois la bête a vu l'homme hypocondre Adorer le métal que\nlui-même il fit fondre, BOILEAU, Sat. VIII.\nLes torrents et les incendies nous ont fait découvrir que les terres\ncontenaient des métaux, MONTESQ., Esp. XVIII, 15.\nEn devenant monnaie, les métaux n'ont pas cessé d'être marchandise ; ils\nont une empreinte de plus et une nouvelle dénomination ; mais ils sont\ntoujours ce qu'ils étaient, et ils n'auraient pas une valeur comme\nmonnaie s'ils ne continuaient pas d'en avoir une comme marchandise,\nCONDIL., Comm. gouv. I, 14.\nFig.\nVous avez bien raison de croire que je serai affligée de la perte de M.\nl'archevêque.... il n'y a point d'esprits ni de coeurs sur ce moule ; ce\nsont des sortes de métaux qui ont été altérés par la corruption du\ntemps, SÉV., 18 mars 1689.\nMétal natif ou vierge, celui qui se présente à l'état pur dans la mine.\nOn nommait autrefois ridiculement métaux vierges ce que l'on désigne\nplus exactement aujourd'hui par le nom de métaux natifs, FOURCROY,\nConnaiss. chim. sect. VI, art. 1.\nMétaux précieux, l'or, l'argent et le platine.\nL'or est un charme étrange, un métal précieux, Qui corrompt toute chose\net tenteroit les dieux, ROTROU, Antig. V, 5.\nIls ont en abondance des métaux précieux qu'ils tiennent immédiatement\ndes mains de la nature, MONTESQ., Esp. XXI, 2.\nQue ne puis-je à la fois engloutir sous le Tibre Ces métaux corrupteurs\nd'un peuple jadis libre ?, M. J. CHÉNIER, Gracques, II, 3.\n\n2° Aujourd'hui la chimie, qui compte 49 métaux, ne peut les définir que\nd'une manière très générale, en disant que ce sont des corps simples,\nliquides ou solides, attaquables par l'oxygène ou par les acides.\n\n3° Métal de cloche, alliage de cuivre et d'étain qui sert à faire les\ncloches.\nLe cuivre et l'étain peuvent être facilement séparés l'un de l'autre par\nle procédé qui a été employé pendant la révolution pour exploiter le\nmétal de cloche, THENARD, Traité de chimie, part. I, liv. VI, ch. 3, n°\n254 bis.\nMétal de Darcet, alliage fusible de bismuth, d'étain et de plomb.\nTerme de fondeur. Métal, mélange d'étain, de cuivre jaune et de débris\nde vieux canons. Cuiller, fourchette de métal.\nMétal de potier, alliage d'étain, de cuivre et de bismuth.\nMétal du prince Robert, alliage de cuivre et de zinc.\nMétal d'Alger, composition métallique qui imite grossièrement l'argent.\nCouvert de métal d'Alger.\nMétal de prince, cuivre très raffiné dont on fait des tabatières, des\nétuis, etc.\nMétal de miroirs, composition métallique qui prend le poli au point de\ndevenir unie comme une glace (cuivre, plomb, antimoine).\nMétal anglais, sorte d'étain. Une cuiller en métal anglais.\n\n4° Demi-métal, nom que les anciens chimistes donnaient aux substances\nmétalliques cassantes et volatiles, comme l'arsenic, le bismuth, etc.\nM. Margraaf a eu le mérite d'enrichir la chimie d'un nouveau demi-métal,\ndu régule de manganèse, CONDORCET, Margraaf.\n\n5° En termes de blason, métaux, l'or et l'argent, qu'on représente par\nle jaune et le blanc.\n\n6° Terme d'alchimie. Métaux parfaits : l'or, l'argent ; métaux\nimparfaits : le plomb, l'étain, le mercure.\n\n7° Fig. Les quatre métaux, les quatre âges du monde, dits siècle d'or,\nsiècle d'argent, siècle de cuivre, siècle de fer.\nLa bonne foi.... N'alla pas jusqu'au temps du troisième métal, BOILEAU,\nSat. X.\n\nHISTORIQUE\nXIIe s.\nIl ont mis desoz lor poesté les metauz {mines} d'or et d'argent qui là\nsont, , Machab I, 8.\nSonent busines {trompettes} d'arain et de metal, , Ronc. p. 78.\nXIIIe s.\nLi diable les rostisseient, Divers metaus sur eus fundeient, MARIE,\nPurgatoire, 1099.\nCil qui font monnoie à essient de malvès metail et les voelent alouer\npor bone, BEAUMANOIR, XXX, 12.\nCar tout ausi comme li ors Est li mieudres {meilleur} metaus qu'on\ntruise {trouve}, RUTEB., 230.\nXVe s.\nLes sept planetes que j'ay dict, Accomparons sans contredit Aux sept\nmetaulx venans de terre Qui tous sont faicts d'une matiere, LA FONTAINE,\n408.\nXVIe s.\nL'argent en masse et celui qui est monnoyé, puisque c'est tout un mesme\nmetail, CALV., Instit. 1041.\nL'art de transmuer les metaux imparfaits, et de les multiplier en\nquantité, LANOUE, 460.\n\nÉTYMOLOGIE\nProvenç. metalh ; catal. metall ; espagn. metal ; ital. metallo ; du\nlat. metallum, que les étymologistes grecs tirent du grec signifiant,\naprès, et du grec autre, parce que les filons se suivent l'un l'autre\ndans les mines.\n\nSUPPLÉMENT AU DICTIONNAIRE\nMÉTAL. - ÉTYM. Ajoutez : D'après M. Renan, il ne faut pas chercher\nl'origine du grec dans le grec lui-même ; c'est la racine sémitique\nmatal, dans MAX MÜLLER, Essais sur la mythologie comparée, trad. Perrot,\np. 60, Paris (1873).
métalent	MÉTALENT\n mé-ta-lan s. m.\nTerme vieilli. Malveillance, penchant au mal.\n{L'abus du vin pur joint à ses mauvais instincts} l'a porté {le comte de\nCharolais} à des actions de férocité et de cruauté qui lui ont donné une\ngrande réputation d'être un ogre, et il a cultivé ce métalent en\ns'enfermant en solitude, D'ARGENSON, Mém. t. II, p. 406, 1860.\n\nÉTYMOLOGIE\nMé.... préfixe, et talent ; le même que maltalent (voy. ce mot).\n\nSUPPLÉMENT AU DICTIONNAIRE\nMÉTALENT. Ajoutez :\n\n2° En un autre sens, absence de talent.\nJe ne puis qu'accéder entièrement à tout ce que vous dites et de votre\nincontestable supériorité en économie politique, et de mon métalent en\ncette matière, DE STENDHAL, (H. BEYLE), Correspondance inédite, Paris,\n1855, lettre du 30 nov. 1825, 2e série.
métalepse	MÉTALEPSE\n mé-ta-lè-ps' s. f.\nTerme de rhétorique. D'après Dumarsais, figure par laquelle on prend\nl'antécédent pour le conséquent : il a vécu, pour, il est mort, ou le\nconséquent pour l'antécédent : nous le pleurons, pour, il est mort.\n\nÉTYMOLOGIE\nEn grec (voy. MÉTA...), et, prise.
métalepsie	MÉTALEPSIE\n mé-ta-lè-psie s. f.\nTerme de chimie. Théorie des substitutions.\n\nÉTYMOLOGIE\nVoy. MÉTALEPSE.
métalimnéen, enne	MÉTALIMNÉEN, ENNE\n mé-ta-li-mné-in, mnéè-n' adj.\nTerme de géologie. Dépôts métalimnéens, dépôts d'eau douce qui n'ont eu\nlieu qu'après la formation du calcaire marin.\n\nÉTYMOLOGIE\nMéta..., et terme grec signifiant étang.
métaline	MÉTALINE\n mé-ta-li-n' s. f.\nNom donné à une substance, dite aussi métal anti-friction, qui dispense\nde tout graissage, , Rev. marit. et colon juil. 1874, p. 342. (voy.\nANTIFRICTION au Supplément).
métallescence	MÉTALLESCENCE\n mé-tal-lè-ssan-s' s. f.\nPropriété des corps métallescents.
métallescent, ente	MÉTALLESCENT, ENTE\n mé-tal-lè-ssan, ssan-t' adj.\nTerme didactique.. Dont la surface joue les couleurs métalliques.\n\nÉTYMOLOGIE\nMétal.
métalliforme	MÉTALLIFORME\n mé-tal-li-for-m' adj.\nTerme de minéralogie. Qui a l'apparence d'un métal.\n\nÉTYMOLOGIE\nMétal, et forme.
métallifère	MÉTALLIFÈRE\n mé-tal-li-fè-r' adj.\nTerme de minéralogie. Qui contient un métal quelconque. Région\nmétallifère.\n\nÉTYMOLOGIE\nMétal, et le lat. ferre, porter.
métallin, ine	MÉTALLIN, INE\n mé-tal-lin, li-n' adj.\nTerme didactique.. Qui a une teinte ou une apparence métallique.\n\nHISTORIQUE\nXIVe s.\nLors lui donne, quant vient en mine, Par mon art vertu metaline, , Nat.\nà l'alch. err. 154.\n\nÉTYMOLOGIE\nMétal ; provenç. metallin.
métallique	MÉTALLIQUE\n mé-tal-li-k' adj.\n\n1° Qui est de métal, qui a rapport au métal. Corps métallique. État,\napparence métallique. Substances métalliques. Son métallique.\nInsectes métalliques, insectes qui ont des couleurs ou un éclat\nmétallique.\nTerme de diplomatique. Lettres métalliques, caractères tracés en encre\nde couleur métallique.\nDemi-métallique, qui se rapproche du caractère des demi-métaux.\nSubstances demi-métalliques.\n\n2° Qui concerne les médailles. Science métallique.\nHistoire métallique, histoire où les événements sont constatés par une\nsuite de médailles.\nCe grand nombre de médailles frappées en toutes sortes d'occasions fut\nramassé, gravé et destiné à une histoire métallique, SAINT-SIMON, 105,\n116.\n\n3° Terme de finances. Qui est en espèces ou argent.\nSa réserve métallique {de la banque} s'épuisait rapidement, et la\nsuspension du payement en espèces devenait inévitable, DE WARU, Enquête\nsur la banque, 1867, p. 149.\nSe dit d'une monnaie fictive, mais qui est censée remboursable en\nespèces. Le Directoire émit des inscriptions métalliques en 1799.\nS. m. pl. Les métalliques, valeurs que l'État, en Autriche et en Russie,\nrembourse en numéraire, à la différence des autres valeurs qui sont\nremboursables en papier.\n\n4° S. m. pl. Terme de minéralogie. Les métalliques, classe de minéraux\net groupes de roches, comprenant les substances métalliques proprement\ndites.\n\n5° La métallique, la métallurgie.\nVieilli en ce sens.\n\nHISTORIQUE\nXIVe s.\nCestuy soulphre fixe est semblable Au feu, sans estre y variable, Et de\nnature metallique, , Nat. à l'alch. err. 41.\nXVIe s.\nLes choses metalliques ne sont comparables à la beauté des cieux, ni à\nl'excellence des vertus, LANOUE, 463.\nIls disent qu'il y a une matiere metallique propre et idoine à se\ntransformer es metaux parfaits, LANOUE, 469.\n\nÉTYMOLOGIE\nLat. metallicus, de metallum, métal.\n\nSUPPLÉMENT AU DICTIONNAIRE\nMÉTALLIQUE. Ajoutez :\n\n6° S. m. Le métallique, les valeurs en métaux.\nLe gouvernement allemand, devenant ainsi possesseur d'un métallique\nconsidérable, a résolu de créer un système de monnaies d'or, , la\nPatrie, 15 nov. 1871.
métalliquement	MÉTALLIQUEMENT\n mé-tal-li-ke-man adv.\nEn métal, en espèces.\nTelles étaient les moeurs, qu'il ne paraissait pas mal séant à un poëte\nanglais du XVIIIe siècle de présenter à quelque lord une bien\nrespectueuse dédicace, que j'allais appeler une pétition ; puis de\nrecevoir directement, métalliquement, un salaire de son humble hommage,\nVILLEMAIN, Litt. franç. 18e siècle, 2e part. 2e leçon.
métallisage	MÉTALLISAGE\n mè-tal-li-za-j' s. m.\nAction de métalliser, c'est-à-dire de couvrir d'une couche métallique.
métallisation	MÉTALLISATION\n mé-tal-li-za-sion s. f.\n\n1° Extraction d'un métal de ses oxydes, de ses sulfures, etc.\nL'action du feu détruit le fer, ou du moins l'altère, dès qu'il a pris\nsa parfaite métallisation, BUFF., Min. t. IV, p. 146.\nL'expression de demi-métallisation pour désigner les corps qui n'avaient\nencore éprouvé, pour ainsi dire, qu'une demi-métallisation, FOURCROY,\nConnaiss. chim. sect. VI, art. 1.\n\n2° Terme de minéralogie. Opération par laquelle des dépôts laissés par\nles eaux ont été imprégnés de métaux.\n\n3° Terme d'ancienne physique. Génération naturelle des métaux dans le\nsein de la terre.\n\nÉTYMOLOGIE\nMétalliser.\n\nSUPPLÉMENT AU DICTIONNAIRE\nMÉTALLISATION. Ajoutez :\n\n4° Action de couvrir d'une légère couche de métal. La métallisation du\nplâtre.
métalliser	MÉTALLISER\n mê-tal-li-zé v. a.\n\n1° Proprement, transformer en métal.\nParticulièrement, en termes de chimie, faire passer à l'état de métal un\noxyde, un sulfure ou tout autre composé à base métallique.\n\n2° Garnir d'une légère couche de métal. On métallise les objectifs en\nverre avec un sel d'argent. Métalliser une glace, un miroir.\n\n3° Se métalliser, v. réfl. En termes d'ancienne chimie, prendre les\ncaractères d'un métal. L'arsenic peut se métalliser, et se métallise en\neffet par l'addition d'une matière phlogistique ; cela forme alors ce\nque l'on appelle régule d'arsenic, Dict. des arts et m. Mines.\n\nHISTORIQUE\nXVIe s.\nJe trouvay plusieurs pieces de bois reduites en metal.... les dites\npieces de bois metallisées...., PALISSY, 268.\n\nÉTYMOLOGIE\nMétal.
métallisé, ée	MÉTALLISÉ, ÉE\n mé-tal-li-zé, zée part. passé de métalliser\nUn diamant brut ne se découvre pas comme l'or.... mais il a ceci de\ncommun avec l'or qu'il est le plus pesant de tous les cailloux non\nmétallisés, BERN. DE ST-PIERRE, Harm. liv. V, Harm. anim.
métallo-thérapie	MÉTALLO-THÉRAPIE\n mé-tal-lo-té-ra-pie s. f.\nTerme de médecine. Traitement de certaines maladies par l'application de\npièces de métal sur la peau.\nM. Regnard a recherché si, comme on le supposait à priori, il fallait\nfaire entrer l'influence des courants électriques dans l'explication des\nphénomènes dits de métallo-thérapie, , le Progrès médical, 10 févr.\n1877, p. 107.\n\nÉTYMOLOGIE\nMétal, et thérapie.
métallochimie	MÉTALLOCHIMIE\n mé-tal-lo-chi-mie s. f.\nPartie de la chimie qui traite des métaux.
métallochimique	MÉTALLOCHIMIQUE\n mé-tal-lo-chi-mi-k' adj.\nQui appartient à la métallochimie.
métallographe	MÉTALLOGRAPHE\n mé-tal-lo-gra-f' s. m.\nAuteur d'une métallographie.\n\nÉTYMOLOGIE\nMétal, et terme grec signifiant décrire.
métallographie	MÉTALLOGRAPHIE\n mé-tal-lo-gra-fie s. f.\n\n1° Description des métaux.\n\n2° Science, connaissance des métaux.
métallographique	MÉTALLOGRAPHIQUE\n mé-tal-lo-gra-fi-k' adj.\nQui a rapport à la métallographie.
métallomètre	MÉTALLOMÈTRE\n mé-tal-lo-mè-tr' s. m.\nLe métallomètre de Bischop, pour connaître la qualité des métaux\nmalléables, Journ. offic. 23 nov. 1871, p. 4598, 3e col.\n\nÉTYMOLOGIE\nDu grec, métal, et, mesure.
métalloïdique	MÉTALLOÏDIQUE\n mé-tal-lo-i-di-k' adj.\nQui a rapport aux métalloïdes.\nL'arsenic à l'état métalloïdique, GAUTIER, Acad. des sc. Comptes rend.\nt. LXXXI, p. 241.
métallurge	MÉTALLURGE\n mé-tal-lur-j' s. m.\nSynonyme de métallurgiste (voy. ce mot).\n\nÉTYMOLOGIE\nTermes grecs, l'un est dérivé de métal et l'autre signifie travail.
métallurgie	MÉTALLURGIE\n mé-tal-lur-jie s. f.\nArt de tirer les métaux des mines, et de les travailler.\nQuand la métallurgie est trouvée par une nation, il est indubitable\nqu'elle battra ses voisins et en fera des esclaves, VOLT., Dict. phil.\nPolitique.\nLe roi, désirant porter au plus haut point les connaissances sur la\nmétallurgie et exploitation des mines, crée, en l'hôtel des monnaies à\nParis, une chaire de métallurgie docimastique, , Arrêt du conseil\nd'État, 11 juin 1778.\nLa métallurgie proprement dite est l'art de retirer les métaux de leur\nminerai, AL. BRONGNIART, Traité de min. mét. t. II, p. 315, dans\nPOUGENS.\n\nÉTYMOLOGIE\nEn grec (voy. MÉTALLURGE).
métallurgique	MÉTALLURGIQUE\n mé-tal-lur-ji-k' adj.\nQui a rapport à la métallurgie.\nLe fondage ou l'art de fondre les mines après leur grillage est la\nprincipale et la plus importante opération métallurgique, FOURCROY,\nConnaiss. chim. sect. VI, art. 1.
métallurgiste	MÉTALLURGISTE\n mé-tal-lur-ji-st' s. m.\nCelui qui s'occupe de la métallurgie.\nL'établissement que M. de Limare, l'un de nos plus habiles\nmétallurgistes, vient d'entreprendre sous les auspices du gouvernement,\nBUFF., Min. t. V, p. 163.\n\nREMARQUE\nM. Rossignol veut qu'on dise, non métallurgiste, mais métallurge, comme\nthaumaturge.
métalléité	MÉTALLÉITÉ\n mé-tal-lé-i-té s. f.\nTerme didactique.. Qualité de ce qui est un métal ; réunion des\npropriétés qui caractérisent les métaux.\nLe minerai de fer exige le feu le plus violent et l'addition de diverses\nsubstances, pour être amené à son premier degré de métalléité, MONGEZ,\nInstit. Mém. litt. et beaux-arts, t. V, p. 227.
métalogique	MÉTALOGIQUE\n mé-ta-lo-ji-k' s. m.\nLe Métalogique, titre d'un livre de Jean de Sarisbery (XIIe s.), destiné\nà défendre les belles connaissances contre une secte barbare de\ncharlatans et de sophistes, que l'auteur appelle les cornificiens, du\nnom de Cornificius, leur chef réel ou supposé.\n\nÉTYMOLOGIE\nTermes grecs signifiant après et logique.
métamargarique	MÉTAMARGARIQUE\n mé-ta-mar-ga-ri-k' adj.\nTerme de chimie. Acide métamargarique, produit de la décomposition de\nl'acide sulfomargarique.
métamorphique	MÉTAMORPHIQUE\n mé-ta-mor-fi-k' adj.\nTerme de géologie. Couches métamorphiques, roches cristallines et\nstratifiées, ainsi dites parce qu'on suppose qu'elles doivent les\ncaractères qui les distinguent à une altération produite,\npostérieurement à la stratification, par des causes plutoniques,\nc'est-à-dire par le feu.\nRoches métamorphiques, roches engendrées au sein de l'eau, mais\ntransformées ensuite par l'action de la chaleur centrale et le voisinage\nde quelque évent volcanique.\n\nÉTYMOLOGIE\nMéta..., et terme grec signifiant forme.
métamorphisme	MÉTAMORPHISME\n mé-ta-mor-fi-sm' s. m.\nTerme de géologie. Théorie de la transmutation des terrains sous\nl'action de la chaleur.\n\nÉTYMOLOGIE\nVoy. MÉTAMORPHIQUE.
métamorphiste	MÉTAMORPHISTE\n mé-ta-mor-fi-st' s. m.\nNom de certains sectaires du XVIe siècle qui disaient que le corps de\nJésus-Christ s'est métamorphosé en Dieu dans le ciel ; ce sont les mêmes\nque les ubiquitaires.\n\nÉTYMOLOGIE\nMéta..., et terme grec signifiant forme.
métamorphopsie	MÉTAMORPHOPSIE\n mé-ta-mor-fo-psie s. f.\nVice de la vision par lequel les objets paraissent changés dans leur\nforme ou dans leur grandeur.\n\nÉTYMOLOGIE\nMeta..., termes grecs signifiant forme et vue.
métamorphose	MÉTAMORPHOSE\n mé-ta-mor-fô-z' s. f.\n\n1° Changement d'une forme en une autre, opéré suivant les païens par les\ndieux. Ovide a fait un poëme intitulé les Métamorphoses.\nEt pense, en les voyant, voir la métamorphose, Où les centaures...,\nRÉGNIER, Sat. X.\nMais, à parler sans fard de tant d'apothéoses, L'effet est bien douteux\nde ces métamorphoses, CORN., Poly. IV, 6.\nSes souplesses {de l'amour-propre} ne se peuvent représenter ; ses\ntransformations passent celles des métamorphoses, et ses raffinements\nceux de la chimie, LAROCHEF., Pensées, I.\nToutes les métamorphoses sont la physique de ces premiers temps : les\nmûres sont rouges, parce qu'elles sont teintes du sang d'un amant et\nd'une amante, FONTEN., Orig. fabl. t. III, p. 284, dans POUGENS.\nPar extension, en parlant du prétendu pouvoir des sorciers.\nQuatre siéges boiteux, un manche de balai ; Tout sentait son sabbat et\nsa métamorphose, LA FONT., Fabl. VII, 15.\n\n2° En général, changement qu'éprouvent les substances par les causes\nnaturelles.\nN'est-il pas bien naturel que toutes les métamorphoses dont la terre est\ncouverte, aient fait imaginer dans l'Orient, où on a imaginé tout, que\nnos âmes passaient d'un corps à un autre ?, VOLT., Dict. phil.\nMétamorphose.\n\n3° Terme d'histoire naturelle. Changement que certains animaux (les\ninsectes et les reptiles batraciens) subissent dans le cours de leur\nexistence, et qui les fait passer par des états fort différents.\n\n4° Changement éprouvé par une personne dans sa forme extérieure, dans\nson habillement. Je l'ai vu court et replet, le voilà mince et élancé,\nquelle métamorphose !\n\n5° Changement extraordinaire dans la fortune, dans le caractère d'une\npersonne.\nTrois jours peuvent suffire à faire bien des choses ; La cour en moins\nde temps voit cent métamorphoses, CORN., Pulch. IV, 4.\nTes coups n'ont point en moi fait de métamorphose, Et tout le changement\nque je trouve à la chose, C'est d'être Sosie battu, MOL., Amph. I, 2.\nToutes ces honteuses métamorphoses de l'ambition et de l'intérêt, qui\ndonneront toujours assez d'exercice à l'éloquence, MARMONTEL, Élém. de\nlitt. t. VI, p. 72, dans POUGENS.\n\nHISTORIQUE\nXVIe s.\nPourquoy sous le nom de Dieu ne peut-on changer les substances de toutes\nchoses, veu que sous le nom du roy on en a fait et fait-on tous les\njours d'estranges metamorphoses et transsubstantiations ?, D'AUBIGNÉ,\nConfession de Sancy, I, 10.\n\nÉTYMOLOGIE\nDu grec, transformer, (voy. MÉTA), et, forme.
métamorphoser	MÉTAMORPHOSER\n mé-ta-mor-fô-zé v. n.\n\n1° Changer par une métamorphose. Les poëtes racontent que Diane\nmétamorphosa Actéon en cerf.\n\n2° Fig. Changer l'extérieur ou le caractère de quelqu'un. Le mariage l'a\nmétamorphosé en un homme grave et rangé, lui qui était si étourdi et si\ndissipé.\n\n3° Se métamorphoser, v. réfl. Changer d'apparence, d'extérieur.\nMieux ne pouvait se métamorphoser, LA FONT., Mandr.\nChanger de caractère. Avec l'âge il s'est métamorphosé.\n\nÉTYMOLOGIE\nMÉTAMORPHOSER, TRANSFORMER. Étymologiquement, ces deux mots sont\nexactement synonymes, l'un est grec, l'autre latin ; meta est trans, et\nmorphe est forma. Aussi l'usage n'y a-t-il établi qu'une seule\ndifférence, c'est que métamorphose, métamorphoser se disent des\nchangements qui étaient opérés par les dieux du paganisme : les\nMétamorphoses d'Ovide, et non les transformations ; Actéon métamorphosé\nen cerf, plutôt que transformé.\n\nÉTYMOLOGIE\nMétamorphose.
métamorphosique	MÉTAMORPHOSIQUE\n mé-ta-mor-fô-zi-k' adj.\nTerme d'histoire naturelle. Qui a rapport à la métamorphose des\ninsectes, de certains reptiles. Les évolutions métamorphosiques des\nlépidoptères.\n\nÉTYMOLOGIE\nDérivé incorrect de métamorphose, la finale grecque ne prenant point\nl'affixe.
métamorphosé, ée	MÉTAMORPHOSÉ, ÉE\n mé-ta-mor-fô-zé, zée part. passé de métamorphoser\nUn gland se transforme en chêne, un oeuf en oiseau ; l'eau devient nuage\net tonnerre ; le bois se change en feu et en cendre ; tout paraît\nmétamorphosé dans la nature, VOLT., Dict. phil. Métamorphose.
métamylène	MÉTAMYLÈNE\n mé-ta-mi-lè-n' s. m.\nTerme de chimie. Produit de décomposition de l'amylène par la\ndistillation.
métapectine	MÉTAPECTINE\n mé-ta-pè-kti-n' s. f.\nTerme de chimie. Corps isomère avec la pectine et la parapectine, obtenu\nen chauffant celle-ci au contact des acides étendus.
métapectique	MÉTAPECTIQUE\n mé-ta-pè-kti-k' adj.\nTerme de chimie. Acide métapectique, acide qui se forme aux dépens de la\npectine abandonnée plusieurs jours à l'air ou au contact de la pectose.
métaphore	MÉTAPHORE\n mé-ta-fo-r' s. f.\n\n1° Terme de rhétorique. Dans le sens primitif, qui est celui d'Aristote\net de l'étymologie, synonyme de trope ; c'est un terme général.\n\n2° Dans un sens plus restreint, qui est le sens des rhéteurs\npostérieurs, de Cicéron, de Quintilien et le sens actuel, figure par\nlaquelle la signification naturelle d'un mot est changée en une autre ;\ncomparaison abrégée.\nLes métaphores ne sont autre chose que des similitudes abrégées,\nBOSSUET, 6e avert. 82.\nEt, toujours bien mangeant, mourir par métaphore, BOILEAU, Sat. IX.\nLa métaphore ou la comparaison emprunte d'une chose étrangère une image\nsensible et naturelle d'une vérité, LA BRUY., I.\nLa métaphore est, selon les maîtres de l'éloquence, une similitude\nabrégée et une comparaison en un mot, BOUHOURS, Entret. d'Ariste et\nd'Eug. Entret. 6.\nIl n'est rien de plus difficile à ménager en ce temps-ci que les\nmétaphores ; pour peu qu'on se donne carrière, on va dans l'excès, et on\nse trouve tout étonné de se voir enlacé misérablement dans le phébus de\nla vieille cour, BAYLE, Lett. à Minutoli, 2 mai 1673.\nSi j'avais à choisir une favorite parmi les figures, à l'exemple de\nSocrate, qui se saisit de l'ironie pour sa part, ce ne serait pas la\nmétaphore continuée qui toucherait mon inclination, BAYLE, ib.\nLa métaphore est une figure par laquelle on transporte, pour ainsi dire,\nla signification propre d'un nom à une autre signification qui ne lui\nconvient qu'en vertu d'une comparaison qui est dans l'esprit, DUMARS.,\nTropes, part. II, art. 10.\nLes métaphores sont défectueuses quand elles sont tirées de sujets bas ;\nle P. de Colonia reproche à Tertullien d'avoir dit que le déluge\nuniversel fut la lessive de la nature, DUMARS., ib.\nQuand on dit simplement : c'est un lion, la comparaison n'est alors que\ndans l'esprit, et non dans les termes ; c'est une métaphore, DUMARS.,\nib.\nLa tragédie admet les métaphores, mais non pas les comparaisons ;\npourquoi ? parce que la métaphore, quand elle est naturelle, appartient\nà la passion ; les comparaisons n'appartiennent qu'à l'esprit, VOLT.,\nComm. Corn. Rem. Hor. III, 1.\nPour peu qu'on ait de chaleur dans l'esprit, on a besoin de métaphores\net d'expressions figurées pour se faire entendre, J. J. ROUSS., Hél. II,\n16.\nBoileau disait qu'on entendait aux halles plus de métaphores en un jour\nqu'il n'y en a dans toute l'Énéide, LA HARPE, Cours de littér. t. VI, p.\n468, édit. DUPONT.\nDieu, dis-je en moi-même tout bas, Dieu, délivre-nous du malin et du\nlangage figuré ; les médecins m'ont pensé tuer, voulant me rafraîchir le\nsang ; celui-ci m'emprisonne de peur que je n'écrive du poison....\nJésus, mon Sauveur, sauvez-nous de la métaphore, P. L. COUR., Pamphlet\ndes pamphlets.\nMétaphores disparates ou incohérentes, celles dont les termes ne peuvent\npas s'accorder ; par exemple, c'est un torrent qui s'allume, il faut\ndire qui entraîne. Ces faits {paléontologiques} qui ont jeté les\npremières semences d'un grand corps de doctrine, CUVIER, Éloge de\nPallas. On ne peut pas dire les semences d'un corps.\n\nHISTORIQUE\nXIIIe s.\nMes des poetes les sentences, Les fables et les metafores...., , la\nRose, 7229.\nXIVe s.\nVerité est que aucun juste est en un home qui est juste selon metaphore\nou selon similitude, ORESME, Éth. 169.\n\nÉTYMOLOGIE\nDu grec, transport, métaphore, (voy. MÉTA-), et du grec, porter.
métaphorique	MÉTAPHORIQUE\n mé-ta-fo-ri-k' adj.\n\n1° Qui appartient à la métaphore.\nCelui qui, le premier, a uni lumière à esprit, a donné à lumière un sens\nmétaphorique, et en a fait un mot nouveau par ce nouveau sens, DUMARS.,\nTropes, II, 10.\n\n2° Qui abonde en métaphores.\nJ'aime un langage hardi, métaphorique, plein d'images, VOLT., Lett.\nLanoue, 3 avr. 1739.\n\n3° Caractères métaphoriques, nom d'une des six sortes de caractères dont\nse compose la langue idéologique des Chinois.\n\nHISTORIQUE\nXIVe s.\nIl determine d'une justice improprement dite et metaphorique, ORESME,\nThèse de MEUNIER.\n\nÉTYMOLOGIE\nTerme dérivé du mot grec signifiant métaphore.
métaphoriquement	MÉTAPHORIQUEMENT\n mé-ta-fo-ri-ke-man adv.\nD'une manière métaphorique.\n{Le passage} de l'Épître aux Romains où saint Paul adapte à la parole de\nDieu ce que David a dit métaphoriquement de celle des cieux, qui a été\nentendue de toute la terre, LA MOTHE LE VAYER, Vertu des païens, 1, État\nde la grâce.\nPour parler métaphoriquement d'un brave qui ne craint pas le péril, on\ndit que c'est un lion, BOUHOURS, Entret. d'Ariste et d'Eug. Entret. VI.\n\nÉTYMOLOGIE\nMétaphorique, et le suffixe ment.
métaphoriser	MÉTAPHORISER\n mé-ta-fo-ri-zé v. a.\nMettre en métaphores.\nCertain style que ceux qui se croient parfaits appellent faux précieux,\nlequel métaphorise tout jusqu'aux laquais et aux mouchettes, DE COURTIN,\nla Civilité française, p. 169, Paris, 1695.
métaphoriste	MÉTAPHORISTE\n mé-ta-fo-ri-st' s. m.\nSectaires qui prétendaient que le dogme de la présence réelle est une\nespèce de métaphore.
métaphosphate	MÉTAPHOSPHATE\n mé-ta-fo-sfa-t' s. m.\nTerme de chimie. Sel produit par la combinaison de l'acide\nmétaphosphorique avec une base.\n\nÉTYMOLOGIE\nMéta...., et phosphate.
métaphosphorique	MÉTAPHOSPHORIQUE\n mé-ta-fo-sfo-ri-k' adj. m.\nTerme de chimie. Se dit d'un des acides du phosphore.\n\nÉTYMOLOGIE\nMéta...., et phosphorique.
métaphragme	MÉTAPHRAGME\n mé-ta-fra-gm' s. m.\nTerme de zoologie. Cloison qui sépare le thorax des insectes de leur\nabdomen.\n\nÉTYMOLOGIE\nMéta..., et terme grec signifiant cloison.
métaphrase	MÉTAPHRASE\n mé-ta-fra-z' s. f.\nTravail particulier du commentateur qui explique par une tournure plus\nsimple ou plus habituelle la phrase figurée, elliptique ou trop\ndifficile, d'un auteur original.\nImitation d'un passage, expression de ce passage en d'autres termes.\n\nÉTYMOLOGIE\nEn grec (voy. MÉTA-), et, expliquer.
métaphraste	MÉTAPHRASTE\n mé-ta-fra-st' s. m.\nTerme de littérature. Celui qui fait la métaphrase d'un auteur obscur,\nqui l'explique et le traduit en même temps.\n\nÉTYMOLOGIE\nEn grec (voy. MÉTAPHRASE).
métaphrastique	MÉTAPHRASTIQUE\n mé-ta-fra-sti-k' adj.\nTerme de littérature. Qui contient une métaphrase, qui explique en\ntraduisant. Traduction métaphrastique.\n\nÉTYMOLOGIE\nMétaphrase.
métaphysicien	MÉTAPHYSICIEN\n mé-ta-fi-zi-siin s. m.\nCelui qui fait son étude de la métaphysique.\nC'est une chose très remarquable que tous les métaphysiciens s'accordent\nunanimement dans la description qu'ils font des attributs de Dieu,\nDESC., Rép. aux 2mes obj. 16.\nJe voudrais bien demander à M. Jurieu si ses métaphysiciens\nd'aujourd'hui, dont il veut tenir cette belle idée de la parfaite\nimmutabilité de Dieu, plutôt que de l'Écriture et de l'ancienne et\nconstante tradition de l'Église...., BOSSUET, 6e avert. 13.\nIl {Leibnitz} était métaphysicien, et c'était une chose presque\nimpossible qu'il ne le fût pas, il avait l'esprit trop universel,\nFONTEN., Leibnitz.\nLeibnitz, métaphysicien assez délié pour vouloir réconcilier la\nthéologie avec la métaphysique, VOLT., Louis XIV, 34.\nOn demandait un jour : qu'est-ce qu'un métaphysicien ? un géomètre\nrépondit : c'est un homme qui ne sait rien, DIDEROT, Interprét. de la\nnature, n° 3.\nAdj. École métaphysicienne d'Élée, première école d'Élée, qui eut pour\nchefs Xénophane, Parménide et Zénon.\n\nHISTORIQUE\nXIVe s.\nAucun porroit faire question pourquoy un peut bien en joenesce estre\nmathematicien et ne peut pas estre sage methafisicien ou naturien,\nORESME, Eth. 181.\n\nÉTYMOLOGIE\nMétaphysique, et la finale ien qui signifie appartenance, comme dans :\nphysicien, ancien, Prussien.
métaphysiologie	MÉTAPHYSIOLOGIE\n mé-ta-fi-zi-o-lo-jie s. f.\nDoctrine de ce qui est au delà de la physiologie, c'est-à-dire de forces\nou substances qui sont placées en dehors des organes et qui les\ngouvernent.\nLes conceptions de la métaphysiologie et de la physiologie dans\nl'explication de la vie et de l'esprit, G. H. LEWES, Rev. philos. juin\n1876, n° 6, p. 568.\n\nÉTYMOLOGIE\nDu grec, au delà, et physiologie.
métaphysiologique	MÉTAPHYSIOLOGIQUE\n mé-ta-fi-zi-o-lo-ji-k' adj.\nQui appartient à la métaphysiologie.\nL'organicisme est physiologique, et il est ainsi radicalement opposé au\nspiritualisme, dont la position fondamentale est métaphysiologique,\nquand il prétend que la vitalité et la conscience ne sont, en aucun\nsens, des activités de la matière, G. H. LEWES, Rev. philos. juin 1876,\nn° 6, p. 585.
métaphysiologiste	MÉTAPHYSIOLOGISTE\n mé-ta-fi-zi-o-lo-ji-st' s. m.\nPartisan de la métaphysiologie. Aristote et ses successeurs ramenaient\nces trois principes {végétatif, sensitif et raisonnable} à un seul ;\nmais les physiciens et les métaphysiologistes modernes ont hésité, par\nsuite de l'inconvenance d'attribuer la sécrétion, la digestion, etc.\nÀ un agent spirituel actif, résidant dans la pensée et la volonté, G. H.\nLEWES, Rev. philos. juin 1876, n° 6, p. 576.
métaphysique	MÉTAPHYSIQUE\n mé-ta-fi-zi-k' s. f.\n\n1° Partie de la philosophie, définie différemment suivant les\ndifférentes époques : dans l'antiquité, doctrine de l'être ou de\nl'essence des choses, considérée indépendamment des propriétés\nparticulières ou des modes déterminés qui établissent une différence\nentre un objet et un autre ; selon Kant, l'inventaire systématique de\ntoutes les richesses intellectuelles qui proviennent de la raison pure,\nc'est-à-dire des idées et des principes que l'intelligence tire de son\npropre fonds sans le concours de l'expérience ; enfin, de nos jours,\nscience des principes, plus élevée et plus générale que les autres, de\nlaquelle toutes les connaissances tiennent leur certitude et leur unité.\nIl saisissait dans tout les principes les plus élevés et les plus\ngénéraux, ce qui est le caractère de la métaphysique, FONTEN., Leibnitz.\nJe vais donc me jeter dans la nuit de la métaphysique, pour oser\ncombattre contre les Leibnitz, les Wolf, les Frédéric, VOLT., Lett.\nprince royal de Prusse, 23 janv. 1738.\nÔ métaphysique, nous sommes aussi avancés que du temps des premiers\ndruides, VOLT., Phil. Newt. I, 9.\nNous avons fait en mathématique des prodiges qui étonneraient Apollonius\net Archimède, et qui les rendraient nos écoliers ; mais, en\nmétaphysique, qu'avons-nous trouvé ?, VOLT., Or. Chesterf. ch. 4.\nLa métaphysique a cela de bon, qu'elle ne demande pas des études\npréliminaires bien gênantes ; c'est là qu'on peut savoir tout sans avoir\nrien appris, VOLT., Dict. phil. Trinité.\nSi quelques-uns se sont élevés à ce haut point de métaphysique d'où l'on\npeut voir les principes, les rapports et l'ensemble des sciences, aucun\nne nous a sur cela communiqué ses idées, BUFF., Hist. nat. 1er disc.\nOeuv. t. I, p. 74.\nVoulons-nous pénétrer dans ces abîmes de métaphysique qui n'ont ni fond\nni rive, et perdre à disputer sur l'essence divine ce temps si court qui\nnous est donné pour l'honorer ?, J. J. ROUSS., Hél. VI, 8.\nOn peut regarder la métaphysique comme un grand pays dont une petite\npartie est riche et bien connue, mais confine de tous côtés à de vastes\ndéserts où l'on trouve seulement de distance en distance quelques\nmauvais gîtes, prêts à s'écrouler sur ceux qui s'y réfugient,\nD'ALEMBERT, Mélanges de litt. d'hist. et de philos. t. V, § 1.\n\n2° En un sens plus restreint, théorie des idées.\nLa métaphysique a pour but d'examiner la génération de nos idées,\nD'ALEMB., Éléments de philos. ch. 13.\nLa science qui contribue le plus à rendre l'esprit lumineux, précis et\nétendu, et qui, par conséquent, doit le préparer à l'étude de toutes les\nautres, c'est la métaphysique, CONDILL., Conn. hum. Introd.\nLes lumières de deux sciences, non-seulement différentes, mais opposées,\net que l'on s'obstine trop à confondre, savoir l'ancienne métaphysique\nthéologique ou la métaphysique proprement dite, et la moderne\nmétaphysique philosophique ou l'idéologie, DESTUTT DE TRACY, Inst. mém.\nsc. mor. et pol. t. III, p. 316.\n\n3° Se prend quelquefois en mauvaise part, pour désigner l'abus des\nabstractions. Il y a bien de la métaphysique dans ce traité de morale.\nFaut-il entrer avec lui {le socinien} dans cette discussion\n{l'incarnation, la présence réelle, le péché originel}, et jeter les\nsimples fidèles dans la plus subtile et la plus abstraite\nmétaphysique ?, BOSSUET, 6e avert. III, 27.\nFig. Il se dit aussi d'une analyse trop subtile des sentiments.\nJe ne sais quelle métaphysique du coeur s'est emparée de nos théâtres ;\ns'il ne fallait pas l'en bannir entièrement, encore moins fallait-il l'y\nlaisser régner, D'ALEMB., Disc. prélim. Encycl. Oeuv. t. I, p. 290, dans\nPOUGENS.\nCette lecture succédait à une autre qui avait été très brillante ; semée\nde traits vifs et saillants, et à la suite desquels toute la\nmétaphysique de Marivaux ne parut, si on peut s'exprimer de la sorte,\nqu'une vapeur imperceptible, ID., Éloge de Marivaux.\n\n4° Les parties les plus élevées d'une science particulière, d'un art\nquelconque. La métaphysique du droit. La métaphysique des mathématiques.\nJe veux mourir s'il y a dans toutes ces têtes-là le premier mot de la\nmétaphysique de leur art, DIDEROT, Salon de 1767, Oeuvr. t. XIV, p. 140,\ndans POUGENS.\nMétaphysique de la géométrie, expression dont Descartes (Lettre au P.\nMersenne, janv. 1639) se servait pour désigner la géométrie générale.\n\n5° Adj. Qui appartient à la métaphysique. La philosophie métaphysique.\nJ'estime que cela {ne pas se fier aux sens} est nécessaire pour se\nrendre capable de connaître la vérité des choses métaphysiques,\nlesquelles ne dépendent point des sens, DESC., Rép. aux secondes object.\n67.\nLa question devint si subtile et si métaphysique, que leurs plus grands\npartisans auraient mieux aimé y renoncer, FONTEN., Malebranche.\nLe vivant et l'animé, au lieu d'être un degré métaphysique des êtres,\nest une propriété physique de la matière, BUFF., Animaux, Compar. des\nanim. et des végét.\nEt tous les deux nous fîmes par moitié Un drame court et non versifié\nDans le grand goût du larmoyant comique, Roman moral, roman\nmétaphysique, VOLT., le Pauvre Diable.\nCertitude métaphysique, celle qui est fondée sur une évidence à priori.\nMal métaphysique, voy. MAL, n° 3.\nTrop abstrait. Des idées obscures et métaphysiques.\nQu'on ne confonde pas l'esprit métaphysique avec l'esprit philosophique,\nMARMONTEL, Élém. litt. Oeuv. t. III, p. 439, dans POUGENS.\n\nHISTORIQUE\nXIVe s.\nC'est en metaphysique et non pas en science morale, ORESME, Eth. VII,\n12.\nXVe s.\nElle est dicte methaphysique en tant que elle considere ens {l'être} et\nles choses qui ensuivent à lui, CHRIST. DE PISAN, Charles V, III, 3.\n\nÉTYMOLOGIE\nLocution grecque tirée de ce qu'Aristote, venant à son traité de\nmétaphysique qui est placé après les traités de physique, le commence\npar des termes grecs signifiant, après les choses naturelles.
métaphysiquement	MÉTAPHYSIQUEMENT\n mé-ta-fi-zi-ke-man adv.\nD'une manière métaphysique.\nClarke et Leibnitz ont prouvé métaphysiquement l'existence du souverain\nêtre, CHATEAUB., Génie, I, V, 1.\n\nÉTYMOLOGIE\nMétaphysique, et le suffixe ment.
métaphysiquer	MÉTAPHYSIQUER\n mé-ta-fi-zi-ké v. n.\nParler, écrire sur un sujet d'une manière métaphysique, trop abstraite.\nIl se conjugue avec l'auxiliaire avoir.\n\nÉTYMOLOGIE\nMétaphysiquer.\n\nSUPPLÉMENT AU DICTIONNAIRE\nMÉTAPHYSIQUER.  Ajoutez :\nElle {Mme de la Chaux} nous avait tant et tant entendus métaphysiquer,\nque les matières les plus abstraites lui étaient devenues familières,\nDIDER., Ceci n'est pas un conte.\nLe littérateur politique, le politique métaphysiqué, GRIMM, Corresp. t.\nII, p. 438.
métaphysiquerie	MÉTAPHYSIQUERIE\n mé-ta-fi-zi-ke-rie s. f.\nTerme familier. Abus de la métaphysique, de l'abstraction.\nToute cette métaphysiquerie est si ennuyeuse à lire, qu'il ne faut pas\nsurcharger encore cet ennui par des contre-sens, J. J. ROUSS., Lett. à\nl'abbé de la Porte, 24 Janv. 1764.\n\nÉTYMOLOGIE\nMétaphysiquer.
métaphysiqué, ée	MÉTAPHYSIQUÉ, ÉE\n mé-ta-fi-zi-ké, kée adj.\nQui a pris un caractère trop métaphysique.\nVotre physique {Aristote} n'est qu'un amas de termes abstraits qui\nn'expliquent point la nature du corps ; c'est une physique\nmétaphysiquée, FÉN., t. XIX, p. 231.
métaplasme	MÉTAPLASME\n mé-ta-pla-sm' s. m.\nTerme de grammaire. Altération dans le matériel d'un mot autorisée par\nl'usage. L'aphérèse, la crase ou synérèse, la diérèse, l'épenthèse, la\nmétathèse, la paragoge, la prosthèse, etc. sont des métaplasmes.\n\nÉTYMOLOGIE\nEn grec (voy. MÉTA...), et, former.
métaplastique	MÉTAPLASTIQUE\n mé-ta-pla-sti-k' adj.\nTerme de grammaire. Qui a rapport au métaplasme ; qui contient un\nmétaplasme. Forme métaplastique.
métaptose	MÉTAPTOSE\n mé-ta-ptô-z' s. f.\nTerme de médecine. Changement dans le siége ou la forme d'une maladie.\nCes transmutations salutaires de maladies, ces échanges conservateurs de\nla vie, ces heureuses métaptoses, ROUSSILLE, Instit. Mém. sc. phys. et\nmath. sav. étr. t. II, p. 184.\n\nÉTYMOLOGIE\nMéta..., et terme grec signifiant chute.
métaschématisme	MÉTASCHÉMATISME\n mé-ta-ské-ma-ti-sm' s. m.\nTerme didactique.. Changement de forme, de caractère, par exemple d'une\nmaladie.\n\nÉTYMOLOGIE\nMéta..., et terme grec signifiant forme, disposition.
métastannate	MÉTASTANNATE\n mé-ta-sta-nna-t' s. m.\nTerme de chimie. Sel formé par l'acide métastannique.
métastannique	MÉTASTANNIQUE\n mé-ta-sta-nni-k' adj.\nTerme de chimie. Acide métastannique, acide obtenu par la réaction de\nl'acide azotique sur l'étain.
métastase	MÉTASTASE\n mé-ta-sta-z' s. f.\n\n1° Terme de médecine. Changement dans le siége ou dans la forme d'une\nmaladie.\nL'opération fut faite trop tard ; il se fit une métastase sur toutes les\ngrandes articulations et sur la plupart des viscères du bas-ventre,\nlaquelle enleva le malade en très peu de temps, SABATIER, Instit. Mém.\nsciences, t. V, p. 371.\n\n2° Figure de rhétorique, qui consiste à rejeter sur le compte d'autrui\nles choses que l'orateur est forcé d'avouer.\n\nÉTYMOLOGIE\nEn grec (voy. MÉTA-), et, action de placer, poser (voy. STASE).
métastatique	MÉTASTATIQUE\n mé-ta-sta-ti-k' adj.\n\n1° Terme de médecine. Qui a rapport à la métastase.\nAbcès métastatiques, ceux qui se produisent soit pendant la durée de la\ncicatrisation d'une plaie, soit après l'accouchement, etc. dans un\norgane éloigné du point primitivement malade.\n\n2° Terme de minéralogie. Se dit d'un cristal offrant des angles plans et\ndes angles saillants égaux à ceux du noyau, en sorte que ces derniers\nsemblent avoir été transportés sur la forme secondaire.\n\nÉTYMOLOGIE\nMétastase.\n\nSUPPLÉMENT AU DICTIONNAIRE\nMÉTASTATIQUE. Ajoutez :\n\n3°\nThermomètre métastatique, thermomètre où le degré centésimal occupe une\nlongueur de cinq ou même de dix centimètres ; les indications de ce\nthermomètre se déplacent au gré de l'opérateur et se transportent d'une\npartie de l'échelle dans une autre partie, VERNIER, le Temps, 24 oct.\n1876, feuilleton, 4e col.
métasyncrise	MÉTASYNCRISE\n mé-ta-sin-kri-z' s. f.\nAncien terme de médecine. Régénération du corps ou de quelques autres de\nses parties ; par exemple, dans le cas de maigreur générale ou de plaie\navec perte de substance.\n\nÉTYMOLOGIE\nEn grec, voy. MÉTA...., et, mélange, du grec, avec, et (voy. CRISE).
métasyncritique	MÉTASYNCRITIQUE\n mé-ta-sin-kri-ti-k' adj.\nMédicaments métasyncritiques, substances auxquelles on attribuait la\nvertu de produire la métasyncrise.
métatarse	MÉTATARSE\n mé-ta-tar-s' s. m.\nTerme d'anatomie. La partie du pied qui est entre les orteils et le\ntarse, et qui est formée de cinq os.\n\nÉTYMOLOGIE\nTermes grecs, l'un est dérivé de après, et l'autre signifie tarse.
métatarsien, ienne	MÉTATARSIEN, IENNE\n mé-ta-tar-siin, siè-n' adj.\nTerme d'anatomie. Articulations métatarsiennes, celles des os du\nmétatarse entre eux. Les os métatarsiens, ou, substantivement, les\nmétatarsiens, les os du métatarse.
métatarso-phalangien, ienne	MÉTATARSO-PHALANGIEN, IENNE\n mé-tatar-so-fa-lan-jiin, jiè-n' adj.\nTerme d'anatomie. Articulations métatarso-phalangiennes, celles de\nchaque os du métatarse avec la phalange correspondante.
métateur	MÉTATEUR\n mé-ta-teur s. m.\nTerme d'antiquité romaine. Celui qui marquait l'emplacement d'un camp.\nDans les armées romaines les métateurs avaient dans leurs attributions\nla construction et la réparation des ponts, , Journ. offic. 13 nov.\n1874, p. 7551, 1re col.\n\nÉTYMOLOGIE\nLat. metatorem, de metari, mesurer.
métathorax	MÉTATHORAX\n mé-ta-to-raks' s. m.\nTerme de zoologie. Segment postérieur du thorax des insectes.\n\nÉTYMOLOGIE\nMéta...., et thorax.
métathèse	MÉTATHÈSE\n mé-ta-tè-z' s. f.\n\n1° Figure de grammaire, qui consiste dans la transposition d'une lettre.\nBlouque pour boucle est une ancienne métathèse.\n\n2° Terme de philosophie. Métathèse des jugements, se dit, dans la\nlogique de Kant, d'une espèce de transposition des termes d'un jugement\nqui sert à en déduire un autre par voie de raisonnement immédiat.\n\n3° Terme de médecine. Toute opération tendant à transporter la cause\nd'une maladie du lieu où elle existe dans un autre où elle est moins\nnuisible. L'opération de la cataracte par abaissement est une métathèse.\n\nÉTYMOLOGIE\nLe grec signifie, déplacement, du grec, voy. MÉTA..., et, action de\nposer (voy. THÈSE).
métatypie	MÉTATYPIE\n mé-ta-ti-pie s. f.\nTerme d'histoire naturelle. Changement de type.\n\nÉTYMOLOGIE\nMéta.... et type.
métayage	MÉTAYAGE\n mé-tè-ia-j' s. m.\nTerme d'agriculture. Mode d'affermer un domaine agricole à moitié\nfruits.\n\nÉTYMOLOGIE\nVoy. MÉTAYER.
métayer, ère	MÉTAYER, ÈRE\n mé-tè-ié, iè-r' s. m. et f.\n\n1° Fermier, fermière qui donne pour fermage la moitié des fruits.\nSi certains morts revenaient au monde, et s'ils voyaient leurs grands\nnoms portés et leurs terres les mieux titrées avec leurs châteaux et\nleurs maisons antiques possédés par des gens dont les pères étaient\npeut-être leurs métayers, quelle opinion pourraient-ils avoir de notre\nsiècle ?, LA BRUY., VI.\n\n2° Abusivement. Fermier en général.\nNos métayers sont des fripons qui vendent la poule au renard, P. L.\nCOUR., 1re lettre particulière.\n\nHISTORIQUE\nXIIIe s.\nBien se vanga dou grant domage Que li firent si moitaier, , Ren. 20467.\nXIVe s.\nEudeline, femme du mettoyer, qu'elle pense des oes {oies}, oisons, coqs,\ngelines, , Ménagier, II, 3.\nXVIe s.\nMetayer nous est aussi propre que le partiaire pour le latin, l'un\nprenant sa derivation de partiri, et l'autre du mot de moitié, PASQUIER,\nRecherches, liv. VIII, p. 727, dans LACURNE.\n\nÉTYMOLOGIE\nBas-lat. medietarius, du lat. medietas, partage par moitié, qui vient de\nmedius (voy. MI) ; Berry, métais, qui vient d'une forme medietensis.
métazoïque	MÉTAZOÏQUE\n mé-ta-zo-i-k' adj.\nTerme de géologie. Terrains métazoïques, terrains postérieurs à\nl'apparition des animaux.\n\nÉTYMOLOGIE\nMéta..., et terme grec signifiant animal.
méteil	MÉTEIL\n mé-tèll, ll mouillées s. m.\nMélange de grains de seigle et de froment. Semer du méteil.\nOn distingue à peine la plante qui porte le chanvre d'avec celle qui\nproduit le lin, et le blé froment d'avec les seigles, et l'un ou l'autre\nd'avec le méteil ; on se contente de se nourrir et de s'habiller, LA\nBRUY., VII.\nAdjectivement. Blé méteil.\nPasse-méteil, celui dans lequel il y a deux tiers de froment contre un\ntiers de seigle.\n\nHISTORIQUE\nXIIIe s.\nNus cervoisiers ne puet ne ne doit faire cervoise fors de yaue et de\ngrain, c'est à savoir d'orge, de mestuel et de dragie, , Livre des mét.\n30.\nXVIe s.\nLe meteil est une composition de froment et de segle, ainsi appellée en\nFrance, soit à cause de ce que les metaiers en font leur pain de\nmesnage, ou soit pour estre ce mot derivé du latin metellum. En\nplusieurs lieux du Languedoc et de la Provence est nommé mescle et\ncoussegail. On seme le meteil quand et en mesme lieu que les froments et\nsegles, O. DE SERRES, 108.\nSix vingts deux livres huict sols tournoys pour la vente de dix huict\nseptiers de farine de mestou, JAUBERT, Gloss. du Berry.\n\nÉTYMOLOGIE\nBerry, metou ; du bas-lat. mistellum, mixtellum, mixtolium, qui vient du\nlat. mixtum, mêlé (voy. MÊLER).
métel	MÉTEL\n mé-tèl s. m.\nTerme de botanique.\nNom spécifique du datura metel (solanées), dont le nom indien a été\naussi écrit méthel, LEGOARANT, .\n\nSUPPLÉMENT AU DICTIONNAIRE\nMÉTEL ou MÉTHEL (mé-tèl), s. m. La pomme épineuse, datura stramonium.\nOn dit aussi pomme mételle.\n\nÉTYMOLOGIE\nArabe, mathis, même sens, DEVIC, Dict. étym.
métempirique	MÉTEMPIRIQUE\n mé-tan-pi-ri-k' adj.\nQui est au delà de l'empirisme, de l'expérience.\nUne hypothèse {le matérialisme} que l'on peut caractériser comme la\nréduction des phénomènes vitaux et mentaux à des conditions d'où est\nexclu tout ce qui est extra-organique ou métempirique, G. H. LEWES, Rev.\nphilos. juin 1876, n° 6, p. 585.\n\nÉTYMOLOGIE\nDu grec, au delà, et empirique.
métempsycose	MÉTEMPSYCOSE\n mé-tan-psi-kô-z' s. f.\nTerme de théologie païenne. Passage d'une âme d'un corps dans un autre.\nContes qui s'étaient glissés parmi sa métempsycose, G. NAUDÉ, Apologie,\np. 219.\n...en tout temps par la métempsycose De soeur en soeur l'immortel\nperroquet Transportera son âme et son caquet, GRESSET, Ver-Vert, IV.\nLe roman théologique de la métempsycose vient de l'Inde, dont nous avons\nreçu beaucoup plus de fables qu'on ne croit communément ; ce dogme est\nexpliqué dans l'admirable XVe livre des Métamorphoses d'Ovide, VOLT.,\nPol. et lég. Tolérance, extrême tolér. des Juifs.\nPour que la métempsychose pût être admise, il faudrait que quelqu'un de\nbonne foi se ressouvînt bien positivement qu'il a été un autre homme,\nVOLT., Memmius, XVIII.\nLa circulation de la matière et les êtres qui renaissent sous de\nnouvelles formes ont produit la métempsycose, que l'on a transportée de\nla matière aux esprits, quand on a voulu concilier ce dogme avec celui\nde l'immortalité de l'âme, BAILLY, Histoire d'astr. anc. disc. sur\nl'astrol.\nOn écrit aussi plus correctement : métempsychose.\n\nHISTORIQUE\nXVIe s.\nLa metempsycose et transanimation de Pythagoras a esté aucunement\nembrassée par les academiciens, stoïciens, egyptiens et autres, CHARRON,\nSagesse, I, 8.\n\nÉTYMOLOGIE\nDu grec, voy. MÉTA..., et, animer, en, et, âme.
métempsycosiste	MÉTEMPSYCOSISTE\n mé-tan-psi-kô-zi-st' s. m.\nCelui qui croit à la métempsycose.\nHeureux les métempsycosistes !, GALIANI, Lettr. t. I, p. 181.
métemptose	MÉTEMPTOSE\n mé-tan-ptô-z' s. f.\nTerme de chronologie. Équation solaire des nouvelles lunes, qui a pour\nbut d'empêcher qu'elles n'arrivent un jour trop tard. Il y a métemptose,\nquand on retranche un jour d'une année séculaire au lieu de la faire\nbissextile.\n\nÉTYMOLOGIE\nMéta..., et du grec, intercidence : changement d'intercidence,\nd'intercalation ; du grec, en, et, chute.
métensomatose	MÉTENSOMATOSE\n mé-tan-so-ma-tô-z' s. f.\nTerme de philosophie. Transmutation d'un corps en un autre.\n\nÉTYMOLOGIE\nEn grec, voy. MÉTA..., du grec, en, et, corps.
méthionique	MÉTHIONIQUE\n mé-ti-o-ni-k' adj.\nTerme de chimie. Acide méthionique, acide qu'on obtient en traitant\nl'éther par l'acide sulfurique anhydre.\n\nÉTYMOLOGIE\nMéta..., et terme grec signifiant soufre.
