hypermétrope	HYPERMÉTROPE\n i-pèr-mé-tro-p' adj.\nSynonyme de presbyte.
hypermétropie	HYPERMÉTROPIE\n i-pèr-mé-tro-pie s. f.\nTerme d'optique et de physiologie. Synonyme de presbytie.\n\nÉTYMOLOGIE\nDu grec, au delà, mesure, et, oeil.
hyperopie	HYPEROPIE\n i-pèr-o-pie s. f.\nVision d'un objet au delà de l'accommodation naturelle de l'oeil, elle\nest dite ordinairement presbytie.\nHyperopie artificielle, essai de voir un objet au delà de\nl'accommodation naturelle de l'oeil.\n\nÉTYMOLOGIE\nHyper...., et terme grec signifiant vue.
hyperorganique	HYPERORGANIQUE\n i-pèr-or-ga-ni-k' adj.\nQui est au delà de l'organisme.\nCette vérité acquise {d'une âme immatérielle}, on désirerait savoir plus\nprécisément quel est ce principe hyperorganique qu'on vient d'affirmer,\n, Journal des Débats, 5 avr. 1876, 3e page, 5e col.\nM. Magy fait remarquer ici que cette assimilation des forces cosmiques\naux forces hyperorganiques n'est point particulière aux métaphysiciens,\nA. MANGIN, Journ. offic. 6 avril 1876, p. 2480, 1re col.
hyperostose	HYPEROSTOSE\n i-pèr-o-stô-z' s. f.\nTerme de médecine. Développement anomal et excessif de certaines parties\nosseuses.\n\nÉTYMOLOGIE\nHyper...., et terme grec signifiant os.
hyperoxyde	HYPEROXYDE\n i-pèr-o-ksi-d' s. m.\nTerme de chimie. Oxyde qui contient un excès d'oxygène.\n\nÉTYMOLOGIE\nHyper...., et oxyde.
hyperphrygien	HYPERPHRYGIEN\n i-pèr-fri-jiin adj. m.\nTerme de musique ancienne et de plain-chant. Mode hyperphrygien, mode\nqui était d'une quarte au-dessus du phrygien.\n\nÉTYMOLOGIE\nHyper...., et phrygien.
hyperphysique	HYPERPHYSIQUE\n i-pèr-fi-zi-k' adj.\nQui est au delà de la nature, supérieur à la nature.\nCe fut pour répondre aux théosophes gnostiques qui troublaient la foi\ndes fidèles de l'Asie Mineure, qu'il {saint Paul} sentit le besoin de\ns'expliquer sur la nature hyperphysique du Sauveur, MICHEL NICOLAS,\nRevue german. 1er avril 1863, p. 266.\n\nÉTYMOLOGIE\nHyper...., et physique.
hyperplasie	HYPERPLASIE\n i-pèr-pla-zie s. f.\nTerme de médecine. Synonyme plus précis d'engorgement.\n\nÉTYMOLOGIE\nHyper...., et terme grec signifiant formation.
hyperplastique	HYPERPLASTIQUE\n i-pèr-pla-stik' adj.\nOù la plasticité est en excès. Tissu hyperplastique.
hyperpresbyopie	HYPERPRESBYOPIE\n i-pèr-prè-sbi-o-pie s. f.\nPresbyopie très prononcée.\n\nÉTYMOLOGIE\nHyper...., et presbyopie.
hyperpyrétique	HYPERPYRÉTIQUE\n i-pèr-pi-ré-ti-k' adj.\nTerme de médecine. Qui est au delà de l'état pyrétique. Chaleur\nhyperpyrétique.
hypersarcose	HYPERSARCOSE\n i-pèr-sar-kô-z' s. f.\nTerme de médecine. Développement trop rapide et trop considérable des\nbourgeons charnus d'une plaie.\n\nHISTORIQUE\nXVIe s.\nHypersarcose ou chair supercroissante, PARÉ, XVI, 40.\n\nÉTYMOLOGIE\nHyper...., et terme dérivé du mot grec se traduisant : chair.
hypersonore	HYPERSONORE\n i-pèr-so-no-r' adj.\nDont la sonorité est excessive.\n\nÉTYMOLOGIE\nMot hybride formé de hyper...., et sonore.
hypersonorité	HYPERSONORITÉ\n i-pèr-so-no-ri-té s. f.\nDéfaut de ce qui est hypersonore.
hypersthénie	HYPERSTHÉNIE\n i-pèr-sté-nie s. f.\nTerme de médecine. Exaltation des forces qui, dans le système du\nbrownisme, accompagne les maladies sthéniques.\n\nÉTYMOLOGIE\nHyper...., et terme grec signifiant force.
hyperstomique	HYPERSTOMIQUE\n i-pèr-sto-mi-k' adj.\nTerme de botanique. Qui s'insère au-dessus de l'orifice du calice.\n\nÉTYMOLOGIE\nHyper...., et terme grec signifiant orifice.
hyperstylique	HYPERSTYLIQUE\n i-pèr-sti-li-k' adj.\nTerme de botanique. Qui s'insère au-dessus du style.\n\nÉTYMOLOGIE\nHyper...., et style.
hyperstène	HYPERSTÈNE\n i-pèr-stè-n' s. m.\nTerme de minéralogie. Substance dans laquelle la pyramide supérieure des\ncristaux est terminée par des faces très étroites.\n\nÉTYMOLOGIE\nHyper...., et terme grec signifiant étroit.
hypersulfure	HYPERSULFURE\n i-pèr-sul-fu-r' s. m.\nTerme de chimie. Sulfure au maximum de soufre.\n\nÉTYMOLOGIE\nHyper...., et sulfure.
hyperthermie	HYPERTHERMIE\n i-pèr-tèr-mie s. f.\nTerme de médecine. Chaleur du corps portée à un degré supérieur à la\nchaleur normale, particulièrement dans la fièvre.\nL'hyperthermie, point de départ de la méthode de Brandt {l'emploi des\nbains froids dans la fièvre typhoïde}, , le Progrès médical, 24 mars\n1877, p. 236.\n\nÉTYMOLOGIE\nDu grec, au delà, et, chaleur.
hyperthyron	HYPERTHYRON\n i-pèr-ti-ron s. m.\nTerme d'architecture ancienne. Espèce de table en forme de frise\nau-dessus du chambranle dans les portes doriques.\n\nÉTYMOLOGIE\nTerme dérivé de deux mots grecs traduits par : au-dessus et porte.
hypertonie	HYPERTONIE\n i-pèr-to-nie s. f.\nTerme de médecine. Excès de ton dans les solides organiques.\n\nÉTYMOLOGIE\nHyper...., et ton, s. m.
hypertrophie	HYPERTROPHIE\n i-pèr-tro-fie s. f.\nTerme de médecine. Accroissement excessif d'un organe ou d'une portion\nd'organe, sans altération réelle de sa texture intime. Hypertrophie du\ncoeur.\n\nÉTYMOLOGIE\nHyper...., et terme grec signifiant nourriture, nutrition.
hypertrophier	HYPERTROPHIER\n i-pèr-tro-fi-é v. a.\nCauser l'hypertrophie. Les obstacles à la circulation hypertrophient le\ncoeur.\nS'hypertrophier, v. réfl. Devenir hypertrophié.
hypertrophique	HYPERTROPHIQUE\n i-pèr-tro-fi-k' adj.\nQui se rapporte à l'hypertrophie.
hypertrophié, ée	HYPERTROPHIÉ, ÉE\n i-pèr-tro-fi-é, ée part. passé d'hypertrophier\nQui a pris trop d'accroissement, de volume. Le coeur hypertrophié.
hyperémie	HYPERÉMIE\n i-pèr-é-mie s. f.\nTerme de médecine. Surabondance de sang dans une partie quelconque.\n\nÉTYMOLOGIE\nHyper...., et terme grec signifiant sang.
hyperémier	HYPERÉMIER\n i-pèr-é-mi-é v. a.\nProduire une hyperémie.\nS'hyperémier, v. réfl. Devenir hyperémié.
hyperémié, ée	HYPERÉMIÉ, ÉE\n i-pèr-é-mi-é, ée part. passé d'hyperémier\nQui est le siége d'une hyperémie.
hyperéolien	HYPERÉOLIEN\n i-pèr-é-o-liin adj.\nTerme de musique ancienne et de plain-chant. Mode hyperéolien, mode qui\nétait d'une quarte au-dessus de l'éolien.\n\nÉTYMOLOGIE\nHyper...., et éolien.
hyphasme	HYPHASME\n i-fa-sm' s. m.\nTerme de botanique. Portion étalée et floconneuse de certains\nchampignons.\n\nÉTYMOLOGIE\nDu grec, tissu ; sanscr. Vabha ( 1er a avec un accent long), tisseur,\nradical vabh, tisser ; allem. weben, tisser.
hyphen	HYPHEN\n i-fèn' s. m.\nChez les Grecs, trait en forme d'arc renversé indiquant la réunion de\ndeux mots en un seul composé. Comme les anciens ne séparaient pas leurs\nmots, s'il y avait par exemple antevolans, on pouvait croire qu'il y\navait deux mots, ante et volans ; l'hyphen indiquait que c'était un seul\nmot ; il était opposé à la diastole.\n\nÉTYMOLOGIE\nTermes grecs signifiant sous et un.
hyphomyces	HYPHOMYCES\n i-fo-mi-s' s. m. pl.\nTerme de botanique. Classe de champignons renfermant ceux qui ont le\nthalle floconneux.\n\nÉTYMOLOGIE\nEn grec, tissu et champignon.
hyphospores	HYPHOSPORES\n i-fo-spo-r' adj.\nTerme de botanique. Se dit des lichens qui ont la forme de filaments.\n\nÉTYMOLOGIE\nEn grec, tissu, filament, et spore.
hyphémie	HYPHÉMIE\n i-fé-mie s. f.\nTerme de médecine. Diminution du sang.\n\nÉTYMOLOGIE\nDu grec, au-dessous.
hypn- et hypno-	HYPN- et HYPNO-\nPremier membre d'un certain nombre de composés qui signifie sommeil.
hypnagogique	HYPNAGOGIQUE\n i-pna-go-ji-k' adj.\nQui conduit au sommeil.\nHallucinations hypnagogiques, visions que l'on a lorsque, moitié\néveillé, moitié endormi, on est près d'entrer dans le sommeil.\n\nÉTYMOLOGIE\nEn grec, sommeil et qui amène.
hypniatre	HYPNIATRE\n i-pni-a-tr' s. m.\nSomnambule qui, dans le sommeil magnétique, prescrit des remèdes à\nlui-même ou aux autres.\n\nÉTYMOLOGIE\nTermes grecs signifiant sommeil et médecin.
hypniatrie	HYPNIATRIE\n i-pni-a-trie s. f.\nTraitement des maladies par un hypniatre.
hypnobate	HYPNOBATE\n i-pno-ba-t' s. m.\nSynonyme peu usité de somnambule.\n\nÉTYMOLOGIE\nTermes grecs signifiant sommeil et marcher.
hypnobatêse	HYPNOBATÊSE\n i-pno-ba-tè-z' s. f.\nSynonyme peu usité de somnambulisme.\n\nÉTYMOLOGIE\nHypnobate.
hypnoblepsie	HYPNOBLEPSIE\n i-pno-blè-psie s. f.\nSomnambulisme lucide.\n\nÉTYMOLOGIE\nTermes grecs signifiant sommeil et voir.
hypnographie	HYPNOGRAPHIE\n i-pno-gra-fie s. f.\nDescription du sommeil.\n\nÉTYMOLOGIE\nTermes grecs signifiant sommeil et décrire.
hypnologie	HYPNOLOGIE\n i-pno-lo-jie s. f.\nÉtude du sommeil, traité sur le sommeil.\n\nÉTYMOLOGIE\nTermes grecs signifiant sommeil et traité.
hypnologique	HYPNOLOGIQUE\n i-pno-lo-ji-k' adj.\nQui a rapport à l'hypnologie.
hypnophobie	HYPNOPHOBIE\n i-pno-fo-bie s. f.\nTerme de médecine. Crainte de dormir ; terreur durant le sommeil.\n\nÉTYMOLOGIE\nTermes grecs signifiant sommeil et crainte.
hypnophone	HYPNOPHONE\n i-pno-fo-n' s. m.\nCelui qui parle dans le sommeil magnétique.\n\nÉTYMOLOGIE\nTermes grecs signifiant sommeil et voix.
hypnose	HYPNOSE\n i-pnô-z' s. f.\nTerme de médecine. Maladie du sommeil, maladie qui est propre aux noirs\nde l'Afrique occidentale, et qui consiste en une tendance perpétuelle au\nsommeil ; elle finit par amener la mort par suite du progrès de\nl'affaiblissement général, Rev. anthrop. t. VI, p. 181.\n\nÉTYMOLOGIE\nDu grec, sommeil.
hypnotique	HYPNOTIQUE\n i-pno-ti-k' adj.\n\n1° Terme de médecine. Qui procure le sommeil.\nSubstantivement. Les hypnotiques.\n\n2° Qui a rapport à l'hypnotisme.\n\nHISTORIQUE\nXVIe s.\nDes juleps hypnotiques.... il n'est pas à propos de donner toujours des\nhypnotiques, PARÉ, XXI, 3.\n\nÉTYMOLOGIE\nTerme dérivé du verbe grec se traduisant par endormir, qui vient du mot\nsignifiant sommeil (voy. HYPN....).
hypnotiser	HYPNOTISER\n i-pno-ti-zé v. a.\nJeter dans l'hypnotisme.
hypnotisme	HYPNOTISME\n i-pno-ti-sm' s. m.\nTerme de physiologie. Sorte d'état magnétique que l'on provoque en\nfaisant regarder par une personne un corps brillant qu'on tient très\nprès des yeux.\n\nÉTYMOLOGIE\nVoy. HYPNOTIQUE.
hypnotisé, ée	HYPNOTISÉ, ÉE\n i-pno-ti-zé, zée part. passé d'hypnotiser\nHypnotisé en regardant fixement un porte-lancette en argent.
hypoazotique	HYPOAZOTIQUE\n i-po-a-zo-ti-k' adj. m.\nTerme de chimie. Acide hypoazotique, acide obtenu en distillant\nl'azotate de plomb sec, et qui semble être un composé, à équivalents\négaux, d'acide azoteux et d'acide azotique ; car il ne donne pas de sels\npropres (hypo-azotates) avec les bases, mais des azotates et des\nazotites.\n\nÉTYMOLOGIE\nHypo...., et azotique.
hypoazotite	HYPOAZOTITE\n i-po-a-zo-ti-t' s. m.\nTerme de chimie. Synonyme d'azotite.
hypoblaste	HYPOBLASTE\ns. m.\nTerme de botanique. Corps charnu supportant le blaste.\n\nÉTYMOLOGIE\nHypo...., et terme grec signifiant germe.
hypobole	HYPOBOLE\n i-po-bo-l' s. f.\nTerme de rhétorique. Figure plus connue sous le nom de subjection ou\nanticipation.\n\nÉTYMOLOGIE\nTerme dérivé du mot grec signifiant sous, et verbe grec traduit par\njeter.
hypobranche	HYPOBRANCHE\n i-po-bran-ch' adj.\nTerme de zoologie. Qui a les branchies sous le corps.\n\nÉTYMOLOGIE\nHypo...., et branchie.
hypocalicie	HYPOCALICIE\n i-po-ka-li-sie s. f.\nTerme de botanique. État des plantes dont le calice est inférieur à\nl'ovaire.\n\nÉTYMOLOGIE\nHypo ..., et calice.
hypocarpe	HYPOCARPE\n i-po-kar-p' s. m.\nTerme de botanique. Partie de la plante sur laquelle le fruit repose.\n\nÉTYMOLOGIE\nHypo...., et terme grec signifiant fruit.
hypocarpogé, ée	HYPOCARPOGÉ, ÉE\n i-po-kar-po-jé, jée adj.\nTerme de botanique. Plantes hypocarpogées, plantes dont les fruits\nmûrissent sous la terre : tels sont l'arachide, le trèfle souterrain.\n\nÉTYMOLOGIE\nHypo...., termes grecs signifiant fruit et terre.
hypocatharsie	HYPOCATHARSIE\n i-po-ka-tar-sie s. f.\nTerme de médecine. Purgation très faible.\n\nÉTYMOLOGIE\nHypo...., et terme grec signifiant purgation.
hypocauste	HYPOCAUSTE\n i-po-kô-st' s. m.\nTerme d'antiquité. Fourneau souterrain, dans les thermes.\n\nÉTYMOLOGIE\nTerme dérivé du mot grec signifiant sous, et verbe grec traduit par\nbrûler.
hypochile ou hypochilion	HYPOCHILE ou HYPOCHILION\n i-po-ki-l' ou i-po-ki-li-on s. m.\nTerme de botanique. Partie inférieure du tablier des orchidées.\n\nÉTYMOLOGIE\nHypo...., et terme grec signifiant lèvre.
hypochlorate	HYPOCHLORATE\n i-po-klo-ra-t' s. m.\nVoy. HYPOCHLORIQUE.
hypochloreux	HYPOCHLOREUX\n i-po-klo-reû adj. m.\nTerme de chimie. Acide hypochloreux, un des oxacides du chlore.
hypochlorique	HYPOCHLORIQUE\n i-po-klo-ri-k' adj.\nTerme de chimie. Acide hypochlorique, acide obtenu en décomposant le\nchlorate de potasse par l'acide sulfurique ; il est synonyme\nd'oxychlorique, et paraît formé, à équivalents égaux, d'acide chlorique\net d'acide chloreux ; car il ne donne point de sels propres\n(hypochlorates), mais des chlorates et des chlorites.\n\nÉTYMOLOGIE\nHypo...., et chlorique.
hypochlorite	HYPOCHLORITE\n i-po-klo-ri-t' s. m.\nTerme de chimie. Nom générique des sels formés par l'acide hypochloreux,\ndont plusieurs sont employés pour désinfecter.\nHypochlorite ou chlorite de potasse, eau de Javelle.\nHypochlorite, ou chlorite de chaux, ou chlorure de chaux, ou poudre de\nTennant, composé complexe de chlorite et de chlorate de chaux, de\nchlorure de calcium et de chaux hydratée, qui se prépare en grand dans\nle commerce.\nHypochlorite, chlorite ou chlorure de soude, dit aussi liqueur de\nLabarraque, liquide désinfectant.
hypociste	HYPOCISTE\n i-po-si-st' s. f.\nTerme de botanique. Plante parasite (cytinus hypocistis, L.), dont on\nobtient le suc d'hypociste, qui prend la consistance d'extrait par son\nexposition au soleil, famille des aristolochiées.\n\nÉTYMOLOGIE
hypocondre	HYPOCONDRE\n i-po-kon-dr' s. m.\n\n1° Terme d'anatomie. Chacune des parties latérales de l'abdomen situées\nsous les fausses côtes.\n\n2° Homme mélancolique, ainsi nommé parce que l'hypocondrie était\nsupposée avoir son siége dans les hypocondres.\nDes biens que l'hypocondre en ses vapeurs promet, RÉGNIER, Sat. X.\nAdj. Il devient hypocondre.\nFou, extravagant.\nJamais la dame la plus belle Ne charma tant son favori Que fait cette\népouse nouvelle Son hypocondre de mari, LA FONT., Fabl. II, 18.\nNon, mais cent fois la bête a vu l'homme hypocondre Adorer le métal que\nlui-même il fit fondre, BOILEAU, Sat. VIII.\nEst-ce par goût hypocondre que cette femme aime un valet ?, LA BRUY.,\nIII.\n\nREMARQUE\nOn ne voit pas pourquoi l'Académie a supprimé l'h étymologique en ce mot\nqui devrait s'écrire hypochondre.\n\nHISTORIQUE\nXVIe s.\nEn l'epigastre faut considerer deux parties laterales, les hypochondres\ndextre et senestre.... sous l'hypochondre droit, la plus grande partie\ndu foie, PARÉ, I, 1.\n\nÉTYMOLOGIE\nTerme dérivé de deux mots grecs signifiant : sous et les cartilages des\ncôtes.
hypocondriaque	HYPOCONDRIAQUE\n i-po-kon-dri-a-k' adj.\n\n1° Terme de médecine. Qui appartient à l'hypocondrie. Les affections\nhypocondriaques.\n\n2° Qui est atteint d'hypocondrie. Un malade hypocondriaque.\nSubstantivement. Un hypocondriaque.\n\n3° Par extension, fou, insensé.\nVous avez bien ouï parler de quelques reines hypocondriaques qui ont eu\nde l'amour pour un nain et pour un maure, BALZAC, 8e disc. La cour.\nSubstantivement.\nSemblable aux hypocondriaques dont la fantaisie blessée se repaît du\nsimulacre et du songe d'un plaisir vain et chimérique, BOSSUET, Pensées\nchr. 33.\n\nHISTORIQUE\nXVIe s.\nLes dysenteries, melancholies, hypochondriaques, diarrhées...., PARÉ, V,\n19.\nCeux que nous appellons hypochondriaques, bien qu'ils soient affligés\nd'une mesme maladie de melancholie...., PARÉ, XX, 30.\n\nÉTYMOLOGIE\nHypocondrie.
hypocondrie	HYPOCONDRIE\n i-po-kon-drie s. f.\n\n1° Terme de médecine. Sorte de maladie nerveuse qui, troublant\nl'intelligence des malades, leur fait croire qu'ils sont attaqués des\nmaladies les plus diverses, de manière qu'ils passent pour malades\nimaginaires tout en souffrant beaucoup, et qu'ils sont plongés dans une\ntristesse habituelle.\n\n2° En général, tristesse, mélancolie.\n\nÉTYMOLOGIE\nHypocondre, parce qu'on supposait que la cause de l'hypocondrie\ndépendait des viscères logés dans les hypocondres.
hypocophose	HYPOCOPHOSE\n i-po-ko-fô-z' s. f.\nTerme de médecine. Surdité incomplète, dureté de l'ouïe.\n\nÉTYMOLOGIE\nHypo...., et terme grec signifiant surdité.
hypocorollie	HYPOCOROLLIE\n i-po-ko-rol-lie s. f.\nTerme de botanique. Classe de plantes comprenant les dicotylédones\nmonopétales à corolle hypogyne.
hypocorollé, ée	HYPOCOROLLÉ, ÉE\n i-po-ko-rol-lé, lée adj.\nTerme de botanique. Dont la corolle s'insère sous l'ovaire.\n\nÉTYMOLOGIE\nHypo...., et corolle.
hypocotylédonaire	HYPOCOTYLÉDONAIRE\n i-po-ko-ti-lé-do-nêr' adj.\nTerme de botanique. Qui est placé sous les cotylédons. Caudex\nhypocotylédonaire.
hypocras	HYPOCRAS\n i-po-kras' s. m.\nInfusion de cannelle, d'amandes douces, d'un peu de musc et d'ambre,\ndans du vin édulcoré avec du sucre.\nQue vous m'embarrassez avec votre grenouille Qui traîne à ses talons le\ndoux nom d'hypocras, MOL., Bouts-rimés commandés sur le bel air.\n\nHISTORIQUE\nXVe s.\nPour trois chopines d'ipocras, neuf sols, , Bibl. des chartes, 5e série,\nt. I, p. 226.\nAprès il print les esguieres, Le vin, le clairé, l'ypocras, VILLON,\nFranches repues.\nXVIe s.\nIl fut six sepmaines prisonnier dans un engein de bois pointu par le\nbas, que les questionnaires {bourreaux} appellent chausse d'hypocras,\nD'AUB., Hist. I, 75.\n\nÉTYMOLOGIE\nCette préparation étant appelée vinum hippocraticum (vin d'Hippocrate)\ndans les anciens lexiques médicaux, hypocras, malgré la fausse\northographe, doit venir de hippocraticus, dérivé de Hippocrates, nom du\nfameux médecin grec qui vivait dans le Ve siècle avant l'ère chrétienne.\n\nSUPPLÉMENT AU DICTIONNAIRE\nHYPOCRAS. Ajoutez :\nFig.\nM. Bautru le connaissait mal {Voiture}, quand il disait que, s'il eût\nété de la profession de son père {marchand de vin}, le vinaigre fût\ndevenu hypocras entre ses mains, BALZAC, Lett. inédites, CIX (éd.\nTamizey-Larroque).
hypocratérimorphe	HYPOCRATÉRIMORPHE\n i-po-kra-té-ri-mor-f' adj.\nTerme de botanique. Qui a la forme d'une soucoupe. Corolle\nhypocratérimorphe.\n\nÉTYMOLOGIE\nHypo...., cratère, tasse (sous-tasse, soucoupe), et terme grec\nsignifiant forme.
hypocriser	HYPOCRISER\n i-po-kri-zé v. a.\nDonner le caractère hypocrite.\n\nHISTORIQUE\nXVIe s.\nTous les philosophes anciens furent hommes, consequemment attrempans ou,\npour mieux dire, hypocrisans et desguisans leurs passions, selon qu'ils\nestoient plus discrets, PASQUIER, Pour-parler de la loy.
hypocrisie	HYPOCRISIE\n i-po-kri-zie s. f.\nVice qui consiste à affecter une piété, une vertu, un noble sentiment\nqu'on n'a pas.\nIl passe pour un saint dans votre fantaisie ; Mais son fait, croyez-moi,\nn'est rien qu'hypocrisie, MOL., Tartuffe, I, 1.\nIl n'y a plus de honte à cela maintenant : l'hypocrisie est un vice à la\nmode, et tous les vices à la mode passent pour vertus, MOL., D. Juan, V,\n2.\nQue de conversions fausses ! le péché vaut encore mieux que\nl'hypocrisie, MAINTENON, Lett. au card. de Noailles, mars 1700.\nL'hypocrisie.... c'est, comme on dit, un hommage que le vice rend à la\nvertu, VOLT., Polit. et législ. Dial. entre un mourant et un homme qui\nse porte bien.\nL'hypocrisie est de toutes les conditions ; mais où ce vice doit-il être\nle plus commun, si ce n'est dans celle où les mauvaises moeurs seraient\nle plus scandaleuses ?, DIDEROT, Claude et Néron, XL, 50.\nLa charlatanerie, espèce d'hypocrisie qui, née du goût pour les\nsciences, croît avec elles et se multiplie à mesure qu'elles se\nrépandent, CONDORCET, Duhamel.\nHypocrisie de moeurs, affectation de s'indigner de tout ce qui semble\nporter atteinte aux moeurs, à la chasteté.\nCette hypocrisie de moeurs, vice particulier aux nations modernes de\nl'Europe et qui a contribué plus qu'on ne croit à détruire l'énergie de\ncaractère qui distingue les nations antiques, CONDORCET, Vie de\nVoltaire, p. 114.\nHypocrisie se prend quelquefois dans un sens moins odieux, surtout dans\nle style léger, pour désigner en un moment donné l'affectation de\nsentiments qu'on n'éprouve pas.\nAbusée par la sentimentale hypocrisie du vicomte, elle ne doutait plus\ndu triomphe, CH. DE BERNARD, un Homme sérieux, § 19.\n\nHISTORIQUE\nXIIe s.\nIl donne, selon l'evangile, Sanz ypocrisie et sans guile, CHRESTIEN DE\nTROIES, dans HOLLAND, Chrestien von Troies, p. 7.\nXIVe s.\nYpocrisie est quant la personne fait semblant par dehors qu'elle est\npleine de vertus par dedens, , Ménagier, I, 3.\nXVe s.\nDonnez pour Dieu ; faictes secretement Vos aumosnes, non par ypocrisie,\nE. DESCH., Conseils aux dames.\nXVIe s.\nMais je me doubte, et à ma fantaisie, Que là estoit cachée hypocrisie,\nMAROT, I, 276.\n\nÉTYMOLOGIE\nProvenç. ypocrisia ; espagn. hipocresia ; ital. ipocrisia ; du lat.\nhypocrisis, qui vient d'un terme grec signifiant rôle joué, et,\nfigurément, hypocrisie (voy. HYPOCRITE). Le XVIe siècle avait un verbe\nhypocriser, faire l'hypocrite, qui est perdu.
hypocrite	HYPOCRITE\n i-po-kri-t' adj.\n\n1° Qui a de l'hypocrisie, qui affecte des apparences de piété, de\nprobité, de douceur, etc.\nQuoi ! la feinte douceur de cette âme hypocrite Vous fera démentir...,\nMOL., Tart. III, 6.\nÔ ciel ! qu'entends-je ici ! il ne vous manquait plus que d'être\nhypocrite pour vous achever de tout point, et voilà le comble des\nabominations, MOL., D. Juan, V, 2.\nSe dit aussi des choses.\nCe doucet.... sous son minois hypocrite Contre toute ta parenté D'un\nmalin vouloir est porté, LA FONT., Fabl. VI, 5.\nDe ces femmes pourtant l'hypocrite noirceur Au moins pour un mari garde\nquelque douceur, BOILEAU, Sat. X.\nAssez longtemps l'étiquette des cours a proclamé des deuils hypocrites,\nMIRABEAU, Collection, t. III, p. 394.\nD'une bouche hypocrite il regrettait son fils, M. J. CHÉN., Tibère, IV,\n3.\n\n2° Substantivement. Un hypocrite, une hypocrite, un homme, une femme\nhypocrite.\nLorsque vous priez, ne ressemblez pas aux hypocrites, qui affectent de\nprier en se tenant debout dans les synagogues et aux coins des rues pour\nêtre vus des hommes, SACI, Bible, Évang. St Math. VI, 5.\nNotre ermite Les renvoya, fit le bon hypocrite, LA FONT., Herm.\nLa profession d'hypocrite a de merveilleux avantages : c'est un art de\nqui l'imposture est toujours respectée, et, quoiqu'on la découvre, on\nn'a rien à dire contre elle, MOL., D. Juan, V, 2.\nLes hypocrites n'ont point entendu raillerie ; ils se sont effarouchés\nd'abord, et ont trouvé étrange que j'eusse la hardiesse de jouer leurs\ngrimaces, MOL., Préf. du Tart.\nIl y a des hypocrites qui ont dessein de tromper ; il y a des hypocrites\nqui trompent et n'en ont pas précisément le dessein, mais qui agissent\npar bienséance et ne veulent point donner de scandale ; les premiers\nsont plus dangereux pour les autres, et les seconds pour eux-mêmes,\nBOSSUET, Pensées détachées, 4.\nUn homme {Cromwell} s'est rencontré d'une profondeur d'esprit\nincroyable, hypocrite raffiné autant qu'habile politique, BOSSUET, Reine\nd'Anglet.\nJ'appelle hypocrite quiconque, sous de spécieuses apparences, a le\nsecret de cacher les désordres d'une vie criminelle, BOURDAL., Jugem.\ndern. 2e Av. p. 358.\nUn dangereux hypocrite, s'il écrit ce qu'il ne pense pas, DIDEROT,\nClaude et Nér. II, 4.\nPar antiphrase. Hypocrite de vice, celui qui feint d'avoir un vice qu'il\nn'a pas.\nOn ne voyait jadis que des hypocrites de vertu ; on trouve aujourd'hui\ndes hypocrites de vice, DUCLOS, Consid. moeurs, ch. 5.\n\nHISTORIQUE\nXIIIe s.\nUne ymage ot emprès escrite Qui sembloit bien estre ypocrite ;\nPapelardie est apelée, , la Rose, 408.\nLi papelart et li faus ypocrite, qui monstrent ce que il ne sont, por\ndecevoir Dieu et le monde, BRUN. LATINI, Trésor, p. 423.\nXVe s.\nCombien que le faulx hypocrite que les cardinaux de la partie de là\neslurent dernierement, se monstra bonne et sainte personne, , Bouciq.\nIII, 5.\nXVIe s.\nNictatio, clignement d'oeil, oeil d'hypocrite, PARÉ, XV, 5.\nLa nuict est plus propre pour les hypocrites de guerre que le jour qui\nde son beau soleil esclaire nos vices et vertus, BRANT., Marignan.\n\nÉTYMOLOGIE\nProvenç. ypocrita ; espagn. et ital. ipocrita ; du lat. hypocrita, qui\nvient du terme grec signifiant comédien, dérivé du verbe grec traduit\npar jouer un personnage, répondre, verbe provenant de deux mots : sous\net juger. Marot a dit hypocritique.
hypocritement	HYPOCRITEMENT\n i-po-kri-te-man adv.\nD'une manière hypocrite.\n\nHISTORIQUE\nXVIe s.\nHypocritement, COTGRAVE, .
hypocrâne	HYPOCRÂNE\n i-po-krâ-n' s. m.\nTerme de chirurgie. Abcès situé entre le crâne et la dure-mère.\n\nÉTYMOLOGIE\nHypo...., et crâne.
hypocycloïdal, ale	HYPOCYCLOÏDAL, ALE\n i-po-si-klo-i-dal, da-l' adj.\nQui appartient à l'hypocycloïde.\nEngrenage hypocycloïdal, engrenage où une roue dentée, armée d'un bouton\nà manivelle poussant en droite ligne une bielle, roule intérieurement à\nune roue pareille d'un diamètre double.
hypocycloïde	HYPOCYCLOÏDE\n i-po-si-klo-i-d' s. f.\nTerme de géométrie. Sorte de courbe transcendante.\n\nÉTYMOLOGIE\nHypo...., et cycloïde.
hypocéphale	HYPOCÉPHALE\n i-po-sé-fa-l' s. m.\nTerme d'antiquité.\nDisque plat en carton, en toile ou en cuivre, sur lequel étaient gravées\ndes légendes symboliques et qui était ensuite placé dans le coffre\nmortuaire, sous la tête de la momie, VIOLLET-LE-DUC, Journ. des Débats,\n29 avr. 1876, 3e p. 5e c.\n\nÉTYMOLOGIE\nDu grec, sous, et, tête.
hypodactyle	HYPODACTYLE\n i-po-da-kti-l' s. m.\nTerme de zoologie. Le dessous de chaque doigt de la patte d'un oiseau.\n\nÉTYMOLOGIE\nHypo...., et terme grec signifiant doigt.
hypodermatomie	HYPODERMATOMIE\n i-po-dèr-ma-to-mie s. f.\nTerme de chirurgie. Section, incision sous-cutanée.\n\nÉTYMOLOGIE\nHypo...., termes grecs signifiant peau et incision.
hypoderme	HYPODERME\n i-po-dèr-m' s. m.\n\n1° Terme d'entomologie. Peau qui garnit les élytres des coléoptères.\n\n2° Adj. Qui vit sous la peau.\nS. m. pl. Les hypodermes, les oestres cuticoles.\n\nÉTYMOLOGIE\nHypo...., et derme.
hypodermien, enne	HYPODERMIEN, ENNE\n i-po-dèr-miin, miè-n' adj.\nTerme de botanique. Qui croît sous l'épiderme des végétaux.\n\nÉTYMOLOGIE\nHypo...., et derme.
hypodermique	HYPODERMIQUE\n i-po-dèr-mi-k' adj.\nTerme de chirurgie. Qui se pratique sous la peau. Injection\nhypodermique.\n\nÉTYMOLOGIE\nDu grec, sous, et, peau.
hypodermiquement	HYPODERMIQUEMENT\n i-po-dèr-mi-ke-man adv.\nD'après le procédé hypodermique.\nLe sulfate d'atropine injecté hypodermiquement, HECKEL, Acad. des sc.\nComptes rendus, t. LXXX, p. 1610.
hypodioecète	HYPODIOECÈTE\n i-po-di-è-sè-t' s. m.\nNom, sous les Ptolémées, en Égypte, des fonctionnaires provinciaux\nchargés de la surveillance des travaux agricoles.\n\nÉTYMOLOGIE\nEn grec, sous-administrateur, du grec, sous, et, administrateur.
hypodorien	HYPODORIEN\n i-po-do-riin adj. m.\nTerme de musique ancienne et de plain-chant. Mode hypodorien, mode qui\nétait d'une quarte au-dessous du ton dorien.\nC'était le plus grave des modes grecs, BARTHÉLEMY, Anach. ch. 27.\n\nÉTYMOLOGIE\nHypo...., et dorien.
hypogala	HYPOGALA\n i-po-ga-la s. m.\nCollection d'un liquide blanc comme du lait dans les chambres de l'oeil.\n\nÉTYMOLOGIE\nHypo...., et terme grec signifiant lait.
hypogastre	HYPOGASTRE\n i-po-ga-str' s. m.\nTerme d'anatomie. La partie inférieure du ventre.\n\nHISTORIQUE\nXVIe s.\nEn l'hypogastre faut considerer deux parties laterales, à sçavoir les\ndeux iles, definies des os des iles et os barré, PARÉ, I, 1.\n\nÉTYMOLOGIE\nTerme grec dérivé de deux mots se traduisant par : sous et estomac.
hypogastrique	HYPOGASTRIQUE\n i-po-ga-stri-k' adj.\nQui appartient à l'hypogastre.\n\nHISTORIQUE\nXVIe s.\nL'action desdits muscles est d'approcher les parties hypogastriques aux\nprecordiales ou hypochondriales, PARÉ, I, 11.
hypogastrocèle	HYPOGASTROCÈLE\n i-po-ga-stro-sè-l' s. f.\nTerme de chirurgie. Hernie formée à la région hypogastrique, à travers\nl'écartement de la partie inférieure de la ligne blanche.\n\nÉTYMOLOGIE\nHypogastre, et terme grec signifiant hernie.
hypogastrodidyme	HYPOGASTRODIDYME\n i-po-ga-stro-di-di-m' s. m.\nTerme de tératologie. Nom des monstres doubles soudés par l'hypogastre.\n\nÉTYMOLOGIE\nHypogastre, et terme grec signifiant jumeau.
hypoglobulie	HYPOGLOBULIE\n i-po-glo-bu-lie s. f.\nTerme de médecine. Diminution des globules du sang.\n\nÉTYMOLOGIE\nHypo..., et globule.
hypoglosse	HYPOGLOSSE\n i-po-glo-s' adj.\n\n1° Terme d'anatomie. Le nerf hypoglosse, ou, substantivement,\nl'hypoglosse, le nerf qui se distribue aux muscles de la langue et du\npharynx, et qui préside aux mouvements de ces parties.\n\n2° Terme de botanique. Qui porte une languette sur le milieu de ses\nfeuilles.\nS. m. Nom du bislingua (ruscus hypoglossum, L.), asparaginées, dont la\nracine est employée comme celle du petit houx, espèce du même genre.\n\nÉTYMOLOGIE\nHypo...., et terme grec signifiant langue.
hypoglottide	HYPOGLOTTIDE\n i-po-glo-tti-d' s. f.\nPréparation pharmaceutique, pilule ou tablette, qu'on tenait sous la\nlangue jusqu'à ce qu'elle fût fondue.\n\nÉTYMOLOGIE\nTerme dérivé de mots grecs traduits par : sous et langue.
hypognathe	HYPOGNATHE\n i-pogh-na-t' s. m.\nTerme de tératologie. Nom des monstres qui ont une tête accessoire très\nincomplète attachée à la mâchoire inférieure de la tête principale.\n\nÉTYMOLOGIE\nHypo...., et terme grec signifiant mâchoire.
hypognathie	HYPOGNATHIE\n i-pogh-na-tie s. f.\nÉtat des monstres hypognathes.
hypogyne	HYPOGYNE\n i-po-ji-n' adj.\nTerme de botanique. Qui s'insère au-dessous de l'ovaire. Corolle\nhypogyne.\n\nÉTYMOLOGIE\nHypo...., et terme grec signifiant femme, ovaire.
hypogynie	HYPOGYNIE\n i-po-ji-nie s. f.\nTerme de botanique. État d'une partie de la fleur qui s'insère sous\nl'ovaire.
hypogynique	HYPOGYNIQUE\n i-po-ji-ni-k' adj.\nTerme de botanique. Qui a le caractère de l'hypogynie.
hypogène	HYPOGÈNE\n i-po-jè-n' adj.\nTerme de géognosie. Roches hypogènes, nom donné aux roches plutoniques\net métamorphiques, en tant qu'occupant la place inférieure dans l'ordre\nde la superposition\n\nÉTYMOLOGIE\nHypo...., et le suffixe gène.
hypogé, ée	HYPOGÉ, ÉE\n i-po-jé, jée adj.\nTerme de botanique. Qui reste ou se développe sous terre ; opposé à\népigé.\nCotylédons hypogés, ceux qui restent sous terre lors de la germination.\n\nÉTYMOLOGIE\nHypo...., et terme grec signifiant terre.
hypogée	HYPOGÉE\n i-po-jée s. m.\nTerme d'architecture. Excavation, construction souterraine où les\nanciens déposaient leurs morts. Les hypogées des environs de Thèbes en\nÉgypte.\n\nÉTYMOLOGIE\nTerme grec dérivé de deux mots signifiant sous et terre.
hypoionien	HYPOIONIEN\n i-po-i-o-niin adj. m.\nTerme de musique ancienne. Mode hypoionien, mode qui est d'une quarte\nau-dessous de l'ionien ; c'était la même chose que l'hypophrygien\ngrave ; il répondait au ton d'ut selon Barthélemy.\n\nÉTYMOLOGIE\nHypo...., et ionien.
hypolydien	HYPOLYDIEN\n i-po-li-diin adj. m.\nTerme de musique ancienne et de plain-chant. Mode hypolydien, mode qui\nest d'une quarte au-dessous du ton lydien.\n\nÉTYMOLOGIE\nHypo...., et lydien.
hypolymphie	HYPOLYMPHIE\n i-po-lin-fie s. f.\nTerme de médecine. Diminution de la lymphe.\n\nÉTYMOLOGIE\nHypo...., et lymphe.
hyponarthécie	HYPONARTHÉCIE\n i-po-nar-té-sie s. f.\nTerme de chirurgie. Mode de déligation pour les fractures qui consiste à\ntenir en suspension le membre fracturé.\n\nÉTYMOLOGIE\nHypo...., et terme grec signifiant attelle.
hyponiobique	HYPONIOBIQUE\n i-po-ni-o-bi-k' adj.\nTerme de chimie. Acide hyponiobique, acide moins oxygéné que l'acide\nniobique.
hyponitreux	HYPONITREUX\n i-po-ni-treû adj. m.\nSynonyme d'azoteux.\n\nÉTYMOLOGIE\nHypo...., et nitreux.
hyponitrite	HYPONITRITE\n i-po-ni-tri-t' s. m.\nTerme de chimie. Synonyme d'hypoazotite.
hypopharynx	HYPOPHARYNX\n i-po-fa-rinks' s. m.\nTerme d'entomologie. Appendice du pharynx de quelques hyménoptères.\n\nÉTYMOLOGIE\nHypo...., et pharynx.
hypophase	HYPOPHASE\n i-po-fa-z' s. f.\nTerme de médecine. Espèce de clignement ou état des yeux dans lequel ils\nsont presque entièrement fermés, de manière qu'on n'aperçoit qu'une\npartie du blanc.\n\nÉTYMOLOGIE\nTerme dérivé de mots grecs signifiant sous, un peu, et paraître.
hypophléode	HYPOPHLÉODE\n i-po-flé-o-d' adj.\nTerme de botanique. Qui croît sous l'épiderme des végétaux.\n\nÉTYMOLOGIE\nHypo...., et terme grec signifiant écorce.
hypophore	HYPOPHORE\n i-po-fo-r' s. f.\nTerme de rhétorique. Partie de la figure dite prolepse ou\nantéoccupation, et dans laquelle on cite et énumère les objections.\n\nÉTYMOLOGIE\nTerme dérivé de mots grecs signifiant sous et porter, action de\nprésenter.
hypophore	HYPOPHORE\n i-po-fo-r' s. f.\nTerme de chirurgie. Ulcère profond, fistuleux.\n\nÉTYMOLOGIE\nTerme dérivé de deux mots grecs sous et porter : action de cheminer\nsous....
hypophosphate	HYPOPHOSPHATE\n i-po-fo-sfa-t' s. m.\nTerme de chimie. Sel produit par la combinaison de l'acide\nhypophosphorique avec une base.
hypophosphite	HYPOPHOSPHITE\n i-po-fo-sfi-t' s. m.\nTerme de chimie. Sel produit par la combinaison de l'acide\nhypophosphoreux avec une base.
hypophosphoreux	HYPOPHOSPHOREUX\n i-po-fo-sfo-reû adj. m.\nTerme de chimie. Se dit du premier des oxacides du phosphore.\n\nÉTYMOLOGIE\nHypo...., et phosphoreux.
hypophosphorique	HYPOPHOSPHORIQUE\n i-po-fo-sfo-ri-k' adj. m.\nTerme de chimie. Se dit d'un des oxacides du phosphore.\n\nÉTYMOLOGIE\nHypo...., et phosphorique.
hypophrygien	HYPOPHRYGIEN\n i-po-fri-jiin adj. m.\nTerme de musique ancienne et de plain-chant. Mode hypophrygien, mode qui\nest à une quarte au-dessous du mode phrygien ; il y en avait deux, selon\nBarthélemy, Anach. ch. XXVII : le grave qui répondait à notre ton d'ut,\net l'aigu qui répondait à notre ton d'ut dièze.\n\nÉTYMOLOGIE\nHypo...., et phrygien.
hypophthalmie	HYPOPHTHALMIE\n i-po-ftal-mie s. f.\nTerme de médecine. Inflammation de la partie inférieure de l'oeil,\nau-dessous de la paupière inférieure, ou bien inflammation de la\npaupière inférieure elle-même.\n\nÉTYMOLOGIE\nHypo...., et terme grec signifiant oeil.
hypophylle	HYPOPHYLLE\n i-po-fi-l'\n1° Adj. Terme de botanique. Qui est situé ou inséré sous la feuille.\n\n2° S. m. Petite gaîne représentant la véritable feuille, comme dans\nl'asperge.\n\nÉTYMOLOGIE\nHypo...., et terme grec signifiant feuille.
hypophyllocarpe	HYPOPHYLLOCARPE\n i-po-fil-lo-kar-p' adj.\nTerme de botanique. Dont le fruit naît au-dessous de la feuille ; telles\nsont les fougères.\n\nÉTYMOLOGIE\nHypo...., termes grecs signifiant feuille et fruit.
hypophyse	HYPOPHYSE\n i-po-fi-z' s. f.\nTerme d'anatomie. Nom donné quelquefois à la glande pituitaire.\n\nÉTYMOLOGIE\nHypo...., et terme grec signifiant production ; ainsi dite à cause de\nson siége à la face inférieure du cerveau.
hypopyge	HYPOPYGE\n i-po-pi-j' s. m.\nTerme d'entomologie. Dernier segment ventral de l'abdomen des insectes.\n\nÉTYMOLOGIE\nHypo...., et terme grec signifiant derrière.
hypopyon	HYPOPYON\n i-po-pi-on s. m.\nTerme de chirurgie. Épanchement de pus ou de matière puriforme dans la\nchambre antérieure de l'oeil, et fréquemment aussi dans la postérieure.\n\nÉTYMOLOGIE\nTerme dérivé de mots grecs signifiant sous et pus.
hypopétalie	HYPOPÉTALIE\n i-po-pé-ta-lie s. f.\nTerme de botanique. État d'une plante dont la corolle s'insère sous\nl'ovaire.\nClasse de plantes comprenant les dicotylédones polypétales à étamines\nhypogynes, d'après la terminologie de A. P. de Candolle.
hypopétalé, ée	HYPOPÉTALÉ, ÉE\n i-po-pé-ta-lé, lée adj.\nTerme de botanique. Dont les pétales s'insèrent sous l'ovaire.\n\nÉTYMOLOGIE\nHypo...., et pétale.
hyporchème	HYPORCHÈME\n i-por-kè-m' s. m.\nTerme d'antiquité grecque. Chant de choeur consacré à Apollon, ayant\ncette particularité que non-seulement il était exécuté par le choeur\navec danse et chant, mais encore qu'il était accompagné de gestes de\npantomime.\nLa poésie lyrique..., vivement rhythmée dans ses hyporchèmes, A.\nBOUCHÉ-LECLERCQ, Rev. polit. et littér. 20 mars 1875.\n\nÉTYMOLOGIE\nDu grec, sous, et, danser (voy. ORCHESTRE).
hyporrhythme	HYPORRHYTHME\n i-po-rri-tm' s. m.\nTerme d'ancienne métrique. Vers hexamètre sans césure, ou dont tous les\npieds tombent un à un, comme ce vers d'Ennius : Sparsis hastis longis\ncampus splendet et horret.\n\nÉTYMOLOGIE\nHypo...., et terme grec signifiant rhythme : rhythme diminué,\ninsuffisant.
hyporyctique	HYPORYCTIQUE\n i-po-ri-kti-k' adj.\nTerme didactique.. Qui se fait au moyen des mines, ou de la guerre\nsouterraine. Travaux hyporyctiques.\n\nÉTYMOLOGIE\nHyp...., et verbe grec traduit par creuser.
hyposcénium	HYPOSCÉNIUM\n i-po-ssé-ni-om' s. m.\nTerme d'antiquité. Le dessous de la scène.\nLe mur à hauteur d'appui qui supportait le plancher du théâtre ou le\nproscénium.\nLa place située au pied de ce mur où l'on plaçait les musiciens.\n\nÉTYMOLOGIE\nHypo...., et scène.
hypospade	HYPOSPADE\n i-po-spa-d' adj. m.\nTerme de médecine. Qui est affecté d'hypospadias.
hypospadias	HYPOSPADIAS\n i-po-spa-di-as' s. m.\nTerme de médecine. Vice de conformation des parties génitales du sexe\nmasculin, consistant en ce que l'urètre s'ouvre au-dessous de la verge,\nen un point quelconque.\n\nÉTYMOLOGIE\nEn grec, terme dérivé du mot signifiant au-dessous, et le radical qui\nsignifie espace, ouverture, et qui vient du verbe déchirer : qui a une\nouverture à la face inférieure de la verge.
hypospathisme	HYPOSPATHISME\n i-po-spa-ti-sm' s. m.\nTerme d'ancienne chirurgie. Opération pratiquée dans certains cas\nd'ophthalmie chronique, et consistant à faire trois incisions sur le\nfront jusqu'au péricrâne, et à passer ensuite une spatule entre les\nchairs et le péricrâne, afin de mettre celui-ci à nu dans une certaine\nétendue.\n\nÉTYMOLOGIE\nTerme dérivé de deux mots grecs signifiant dessous et spatule.
hyposphagme	HYPOSPHAGME\n i-po-sfagh-m' s. m.\nTerme de chirurgie. Épanchement de sang sous la conjonctive ; ecchymose\nde l'oeil.\n\nÉTYMOLOGIE\nEn grec, terme signifiant sang épanché, et verbe grec traduit par verser\nle sang.
hypostaminie	HYPOSTAMINIE\n i-po-sta-mi-nie s. f.\nTerme de botanique. État d'une plante à étamines hypogynes.\nClasse de plantes comprenant les dicotylédones monopétales à étamines\nhypogynes, d'après la terminologie de A. P. de Candolle.
hypostaminé, ée	HYPOSTAMINÉ, ÉE\n i-po-sta-mi-né, née adj.\nTerme de botanique. Dont les étamines s'insèrent sous l'ovaire.\n\nÉTYMOLOGIE\nHypo...., et étamine.
hypostase	HYPOSTASE\n i-po-sta-z' s. f.\nTerme de théologie. Suppôt, personne. Il y a en Dieu trois hypostases et\nune seule nature.\n\nHISTORIQUE\nXVIe s.\nQuand l'apostre nomme Jesus Christ image vive de l'hypostase de son\npere, il attribue à chacun quelque hypostase, en laquelle il differe\nl'un d'avec l'autre ; or ce mot emporte subsistence, qui reside en un\nseul Dieu, CALV., Instit. 70.\n\nÉTYMOLOGIE\nTerme dérivé de deux mots grecs traduits par : sous et action de se\ntenir.
hypostase	HYPOSTASE\n i-po-sta-z' s. f.\nTerme de médecine. Dépôt, sédiment dans les urines.\n\nHISTORIQUE\nXVIe s.\nAu commencement distillera une eau claire aceteuse, à laquelle\nordinairement se concret une hypostase, PARÉ, XXVI, 14.\n\nÉTYMOLOGIE\nEn grec, dépôt, terme dérivé de sous et être, se tenir.
hypostatique	HYPOSTATIQUE\n i-po-sta-ti-k' adj.\n\n1° Terme de théologie. Qui a rapport à l'hypostase.\nUnion hypostatique, celle des natures divine et humaine dans la personne\nde Jésus-Christ.\nLes saints Pères ont déclaré Nestorius hérétique, parce qu'il niait\nl'union hypostatique du Verbe avec l'humanité sainte et qu'il mettait\ndeux personnes en Jésus-Christ, PASC., Lett. de Nicole au P. Annat.\nComme le Verbe divin est homme par ce genre d'union que les théologiens\nappellent personnelle ou hypostatique, BOSSUET, Var. II, 3.\n\n2° Terme d'alchimie. Le principe hypostatique, la réunion des trois\néléments que les alchimistes admettaient.\n\nHISTORIQUE\nXVIe s.\nLes anciens ont nommé ceci union hypostatique, entendans par ce mot que\nles deux natures ont esté conjoinctes en une personne..., CALV., Instit.\n372.\nCette forme de parler fut trouvée et mise en usage pour abolir la\nresverie de Nestorius, CALV., ib.\n\nÉTYMOLOGIE\nTerme grec dérivé de hypostase 1.
hypostatique	HYPOSTATIQUE\n i-po-sta-ti-k' adj.\nTerme de médecine. Qui a rapport à l'hypostase.\nCongestion hypostatique, celle qui se produit par accumulation du sang\ndans les capillaires, alors que, cessant d'être suffisamment soumis à\nl'action du coeur et de la contraction des vaisseaux, il cède aux lois\nde la pesanteur.\n\nÉTYMOLOGIE\nTerme grec dérivé de hypostase 2.
hypostatiquement	HYPOSTATIQUEMENT\n i-po-sta-ti-ke-man adv.\nTerme de théologie. D'une manière hypostatique.\nIl n'y en a aucune {âme} d'existante ou de possible qui n'eût été au\nmême état de perfection où est celle de Jésus-Christ si elle avait été\nunie hypostatiquement au Verbe dans l'instant de sa création, FÉN., t.\nIII, p. 8.\n\nÉTYMOLOGIE\nHypostatique 1, et le suffixe ment.
hyposternal	HYPOSTERNAL\n i-po-stèr-nal s. m.\nTerme d'anatomie. Pièce du sternum des tortues.\n\nÉTYMOLOGIE\nHypo...., et sternal.
hyposthénie	HYPOSTHÉNIE\n i-po-sté-nie s. f.\nTerme de médecine. Diminution des forces.\n\nÉTYMOLOGIE\nHypo...., et terme grec signifiant force.
hyposthénique	HYPOSTHÉNIQUE\n i-po-sté-ni-k' adj.\nTerme de médecine. Qui est relatif à l'hyposthénie.\nSubstances hyposthéniques, substances auxquelles les rasoristes\nsupposent la propriété de rabaisser l'énergie des forces vitales.
hyposthénisant, ante	HYPOSTHÉNISANT, ANTE\n i-po-sté-ni-zan, zan-t' adj.\nQui hyposthénise.\nS. m. Les hyposthénisants. L'émétique est un hyposthénisant.
hyposthéniser	HYPOSTHÉNISER\n i-po-sté-ni-zé v. a.\nTerme de médecine. Procurer l'hyposthénie.
hypostome	HYPOSTOME\n i-po-sto-m' s. m.\nTerme d'entomologie. Partie de la tête des insectes.\n\nÉTYMOLOGIE\nHypo...., et terme grec signifiant bouche.
hypostrome	HYPOSTROME\n i-po-stro-m' s. m.\nTerme de botanique. Base sur laquelle reposent les pédoncules supportant\nles corpuscules reproducteurs dans certaines plantes cryptogames.\n\nÉTYMOLOGIE\nHypo...., et terme grec signifiant lit, couche.
hypostyle	HYPOSTYLE\n i-po-sti-l' adj.\nTerme d'architecture. Se dit d'un appartement dont le plafond est\nsoutenu par des colonnes.\nLa salle hypostyle de l'Osymandiéum avait 200 pieds à chaque côté,\nLETRONNE, Monument d'Osymandias, § II.\n\nÉTYMOLOGIE\nHypo...., et terme grec signifiant colonne.
hyposulfate	HYPOSULFATE\n i-po-sul-fat-t' s. m.\nTerme de chimie. Sel produit par la combinaison de l'acide\nhyposulfurique avec une base.
hyposulfite	HYPOSULFITE\n i-po-sul-fi-t' s. m.\nTerme de chimie. Sel produit par la combinaison de l'acide hyposulfureux\navec une base.
hyposulfureux	HYPOSULFUREUX\n i-po-sul-fu-reux adj. m.\nTerme de chimie. Se dit du premier des oxacides du soufre.\n\nÉTYMOLOGIE\nHypo...., et sulfureux.
hyposulfurique	HYPOSULFURIQUE\n i-po-sul-fu-ri-k' adj. m.\nTerme de chimie. Se dit du troisième des oxacides du soufre, celui qui\nest moins oxygéné que l'acide sulfurique.\n\nÉTYMOLOGIE\nHypo...., et sulfurique.
hypothalassique	HYPOTHALASSIQUE\n i-po-ta-la-ssi-k' adj.\nQui se fait sous l'eau de la mer. Navigation hypothalassique.\n\nÉTYMOLOGIE\nHypo...., et terme grec signifiant mer.
hypothalle	HYPOTHALLE\n i-po-ta-l' s. m.\nTerme de botanique. Couche interne ou inférieure des lichens.\n\nÉTYMOLOGIE\nHypo...., et thalle.
hypothionique	HYPOTHIONIQUE\n i-po-ti-o-ni-k' adj.\nSynonyme d'hyposulfurique.\n\nÉTYMOLOGIE\nHypo..., et terme grec signifiant soufre.
hypothèque	HYPOTHÈQUE\n i-po-tè-k' s. f.\n\n1° Terme de jurisprudence. Droit réel qui grève les immeubles affectés à\nla sûreté, à l'acquittement d'une obligation, d'une dette et qui les\nsuit en quelque main qu'ils passent. Consentir une hypothèque.\nHypothèque privilégiée.\nSur quelle vigne à Reims nous avons hypothèque, BOILEAU, Lutr. IV.\nL'hypothèque est un droit réel sur les immeubles affectés à\nl'acquittement d'une obligation, , Cod. Nap. art. 2114.\nL'hypothèque légale est celle qui résulte {directement et immédiatement}\nde la loi ; l'hypothèque judiciaire est celle qui résulte des jugements\nou actes judiciaires ; l'hypothèque conventionnelle est celle qui dépend\ndes conventions, et de la forme extérieure des actes et des contrats, ,\nib. art. 2117.\nPremière hypothèque, celle qui prime les autres.\nHypothèque générale, hypothèque qui frappe tous les biens présents du\ndébiteur, ainsi que ses biens à venir.\n\n2° Populairement. Se dit de quelque maladie chronique. Mauvaise\nhypothèque.\n\nHISTORIQUE\nXVIe s.\nLes mineurs et les femmes ont hypotheque taisible et privilegiée sur les\nbiens de leurs tuteurs et maris, du jour de la tutele et du contrat de\nmariage, LOYSEL, 497.\nAdjudication par decret, faite pour nettoyer les hypotheques, LOYSEL,\n539.\n\nÉTYMOLOGIE\nProvenç. hypoteca, ypotheca ; espagn. hipoteca ; ital. ipoteca ; du lat.\nhypotheca, qui est le terme grec provenant du verbe mettre en gage,\ndérivé de deux mots traduits par sous et mettre.
hypothèque	HYPOTHÈQUE\n i-po-tè-k' s. f.\nTerme vieilli. Composition faite avec de l'eau-de-vie, du sucre et des\nfruits, qu'on buvait après le repas.\n\nÉTYMOLOGIE\nMénage dit : &quot; On appelle ainsi à Paris, depuis peu d'années, une\neau-de-vie assaisonnée avec des cerises, des framboises, du clou de\ngirofle, de la cannelle et du sucre, je n'en sais pas la raison. &quot;
hypothèse	HYPOTHÈSE\n i-po-tè-z' s. f.\n\n1° Terme de philosophie. Supposition d'une chose possible ou non de\nlaquelle on tire une conséquence.\nAristote, aussi grand philosophe que Platon et bien meilleur physicien,\nau lieu de se perdre comme lui dans la région des hypothèses, BUFF.,\nHist. anim. ch. V, Oeuv. t. III, p. 117.\nPour ébranler une hypothèse, il ne faut quelquefois que la pousser aussi\nloin qu'elle peut aller, DIDER., Interprét. de la nat. n° 50.\nHypothèses vérifiables, celles que l'on prend dans un domaine où\nl'expérience, l'observation, l'induction peuvent pénétrer, s'assurant de\nla sorte si l'hypothèse proposée est réelle ou fausse.\nHypothèses invérifiables, celles qui appartiennent à un domaine où ne\npeuvent pénétrer ni l'expérience ni l'observation.\nPar extension, dans le langage général. Je fais mes préparatifs dans\nl'hypothèse que vous viendrez.\n\n2° L'assemblage de plusieurs choses imaginées pour parvenir à\nl'explication de certains phénomènes. L'hypothèse de Ptolémée.\nL'hypothèse des tourbillons.\n\n3° Proposition particulière comprise sous la thèse générale. Réduire la\nthèse à l'hypothèse.\n\nÉTYMOLOGIE\nTerme grec dérivé de deux mots traduits par : sous et thèse.
hypothécable	HYPOTHÉCABLE\n i-po-té-ka-bl' adj.\nQui peut être hypothéqué. Bien hypothécable.
hypothécaire	HYPOTHÉCAIRE\n i-po-té-kê-r' adj.\nTerme de jurisprudence. Qui a droit d'hypothèque. Créancier\nhypothécaire.\nDette hypothécaire, dette qui donne hypothèque.\nInscription hypothécaire, inscription d'hypothèque.\nCaisse hypothécaire, caisse fondée pour venir au secours de la propriété\nfoncière, moyennant hypothèque, et procurer ainsi aux capitalistes un\nplacement sûr.\n\nHISTORIQUE\nXVIe s.\nL'effet de l'obligation personnelle est que le detenteur en peut estre\nexecuté en tous ses biens ; et de l'hypothecaire, que l'heritage obligé\npeut estre saisi et adjugé, sans qu'il soit besoin de discuter ceux du\nprincipal obligé, LOYSEL, 519.\nSur les immeubles, les premiers {créanciers} hypothecaires sont devant,\nLOYSEL, 686.\n\nÉTYMOLOGIE\nLat. hypothecarius, de hypotheca, hypothèque.
hypothécairement	HYPOTHÉCAIREMENT\n i-po-té-kê-re-man adv.\nTerme de jurisprudence. Avec hypothèque, ou par rapport à l'hypothèque.\nIl est obligé hypothécairement.\n\nHISTORIQUE\nXVIe s.\nLes heritiers sont tenus des faits et obligations du defunt,\npersonnellement chacun pour sa part, et hypothecairement pour le tout,\nLOYSEL, 327.\n\nÉTYMOLOGIE\nHypothécaire, et le suffixe ment.
hypothécion	HYPOTHÉCION\n i-po-té-si-on s. m.\nTerme de botanique. Base du thalame des lichens.\n\nÉTYMOLOGIE\nHypo...., et terme grec signifiant loge.
hypothénar	HYPOTHÉNAR\n i-po-té-nar s. m.\nTerme d'anatomie. Saillie musculaire à la paume de la main et dans la\ndirection du petit doigt.\n\nHISTORIQUE\nXVIe s.\nLe second muscle interne de la main est appelé hypotenar, à cause de sa\nsituation, PARÉ, IV, 29.\n\nÉTYMOLOGIE\nHypo...., et thénar.
hypothéquer	HYPOTHÉQUER\n i-po-té-ké. La syllabe thé prend l'accent grave, quand la syllabe qui\nsuit est muette : j'hypothèque ; excepté au futur et au conditionnel :\nj'hypothéquerai, j'hypothéquerais v. a.\nTerme de jurisprudence. Soumettre à l'hypothèque, donner pour\nhypothèque. Hypothéquer une terre, une maison.\nJe viens de faire bâtir dans le faubourg une grande maison qui me\nrevient à plus de quarante-cinq mille francs ; vous n'avez qu'à\nl'hypothéquer, je vous la prête, DANCOURT, Agiot. III, 9.\nIl n'est pas inouï de voir des États hypothéquer leurs fonds pendant la\npaix même, MONTESQ., Esp. XIII, 17.\nFig.\nMais, ajoute-t-il pour justifier le P. Bauny, vous qui reprenez cela,\nattendez, quand un pénitent sera à vos pieds, que son ange gardien\nhypothèque tous les droits qu'il a au ciel pour être sa caution, PASC.,\nProv. 15.\nS'hypothéquer, v. réfl. Être hypothéqué. Ces biens ne peuvent\ns'hypothéquer.\n\nHISTORIQUE\nXVIe s.\nOpinion, secte, à laquelle ils se trouvent hypothequez, asservis et\ncollez, MONT., II, 232.\nCeluy qui a hypothequé au monde son livre, je treuve apparence qu'il n'y\naye plus de droict, MONT., IV, 90.\nJe n'aime pas que ma volonté demeure hypothequée par tiltre de\ngratitude, MONT., ib. 94.\n\nÉTYMOLOGIE\nHypothèque 1 ; provenç. et espagn. hipotecar ; ital. ipotecare.
hypothéqué, ée	HYPOTHÉQUÉ, ÉE\n i-po-té-ké, kée part. passé d'hypothéquer\n\n1° Soumis à une hypothèque. Biens hypothéqués.\nFig.\nIl est hypothéqué à mes consultations ; et un malade ne se moquera pas\nd'un médecin, MOL., Pourc. II, 2.\n\n2° Fig. et familièrement. Être hypothéqué, être mal hypothéqué, et,\nironiquement, être bien hypothéqué, avoir une santé délabrée, des\ninfirmités ; et aussi être dans l'embarras.
hypothétique	HYPOTHÉTIQUE\n i-po-té-ti-k' adj.\nQui est fondé sur une hypothèse. Un raisonnement hypothétique.\nNous autres, juges.... qu'avons-nous affaire de tous ces volumes de\nlois ? presque tous les cas sont hypothétiques et sortent de la règle\ngénérale, MONTESQ., Lett. pers. 68.\nDans une matière aussi ténébreuse que l'est la mécanique des idées, on\nest souvent forcé de se contenter de ce qui n'est qu'hypothétique,\nBONNET, Ess. psychol. Introd.\nSubstantivement.\nIl entre de l'hypothétique dans cette supposition sur laquelle j'ai\nnéanmoins fondé la seconde base de mes calculs, BUFF., Théor. terr.\npart. hyp. Oeuv. t. IX, p. 344.\nDans le système de Kant. Forme hypothétique, la forme d'un raisonnement\ndans lequel l'attribut n'est réuni au sujet que par une supposition.\nJugement hypothétique, réunion de deux propositions, l'une exprimant une\ncondition antécédente, l'autre une conséquence soumise à cette\ncondition.\n\nÉTYMOLOGIE\nTerme dérivé du mot grec traduit par hypothèse.
hypothétiquement	HYPOTHÉTIQUEMENT\n i-po-té-ti-ke-man adv.\nPar hypothèse, par supposition.\n\nÉTYMOLOGIE\nHypothétique, et le suffixe ment.
hypotrachélion	HYPOTRACHÉLION\n i-po-tra-ké-li-on s. m.\nAncien terme d'architecture. Le col d'une colonne, c'est-à-dire\nl'endroit le plus menu qui touche au chapiteau.\n\nÉTYMOLOGIE\nTerme grec dérivé de deux mots traduits par : sous et cou.
hypotrophie	HYPOTROPHIE\n i-po-tro-fie s. f.\nTerme de pathologie. Nutrition insuffisante. L'hypotrophie d'un muscle.\n\nÉTYMOLOGIE\nHypo...., et terme grec signifiant nourriture.
hypotypose	HYPOTYPOSE\n i-po-ti-pô-z' s. f.\nTerme de rhétorique. Description animée, vive et frappante, qui met,\npour ainsi dire, la chose sous les yeux.\nL'hypotypose est un mot grec qui signifie image, tableau ; c'est\nlorsque, dans les descriptions, on peint les faits dont on parle comme\nsi ce qu'on dit était actuellement devant les yeux, DUMARSAIS, Tropes,\nII, 9.\nPoussez à Marcassus, poussez à Marcellus {députés attachés au parti\nroyaliste sous la Restauration} la métaphore, l'antithèse, l'hypotypose,\nP. L. COUR., Lett. X.\nLes Hypotyposes, titre d'un livre de Sextus Empiricus.\nTout ce que Sextus Empiricus et Huet disent contre la raison, l'un dans\nses Hypotyposes, l'autre dans son traité de la faiblesse de l'esprit\nhumain, ne vaut pas un article choisi du dictionnaire de Bayle, DIDER.,\nOpin. des anc. philos. (phil. pyrrhonienne).\n\nÉTYMOLOGIE\nTerme dérivé de deux mots grecs traduits par sous et type.
hypoténuse	HYPOTÉNUSE\n i-po-té-nu-z' s. f.\nTerme de géométrie. Le côté qui est opposé à l'angle droit dans un\ntriangle rectangle.\nPythagore a démontré qu'en tout triangle rectangle le carré de\nl'hypoténuse est égal au carré des deux autres côtés, FÉN., Pythag.\nPythagore immola cent boeufs pour avoir découvert la propriété du carré\nde l'hypoténuse, DIDER., Opin. des anc. phil. (Égyptiens).\n\nÉTYMOLOGIE\nTerme grec signifiant proprement ligne sous-tendante, et dérivé de deux\nmots traduits par : sous et tendre (voy. TENDRE, V. a.).
hypoxanthine	HYPOXANTHINE\n i-po-ksan-ti-n' s. f.\nTerme de chimie. Substance extraite de la rate.\n\nÉTYMOLOGIE\nHypo...., et terme grec signifiant jaune : un peu jaune.
hypoxyde	HYPOXYDE\n i-po-ksi-d' s. m.\nTerme de chimie. Oxyde au plus bas degré, sous-oxyde.\n\nÉTYMOLOGIE\nHyp...., et oxyde.
hypoxydées	HYPOXYDÉES\n i-po-ksi-dée s. f. pl.\nTerme de botanique. Famille de plantes herbacées, voisine des\namaryllidées.
hypoxylés	HYPOXYLÉS\n i-po-ksi-lé s. m. pl.\nTerme de botanique. Nom d'un groupe de champignons se développant\nspécialement sous l'écorce du bois mort.\n\nÉTYMOLOGIE\nHypo...., et terme grec signifiant bois.
hypozoïque	HYPOZOÏQUE\n i-po-zo-i-k' adj.\nTerme de géologie. Terrains hypozoïques, terrains inférieurs à ceux où\nl'on trouve des débris de corps organisés.\n\nÉTYMOLOGIE\nHypo...., et terme grec signifiant animal.
hypoéma	HYPOÉMA\n i-po-é-ma s. m.\nTerme de chirurgie. Épanchement de sang dans les chambres de l'oeil.\n\nÉTYMOLOGIE\nHypo...., et terme grec signifiant sang.
hypoéolien	HYPOÉOLIEN\n i-po-é-o-liin adj. m.\nTerme de musique ancienne. Mode hypoéolien, mode qui était d'une quarte\nau-dessous de l'éolien.\n\nÉTYMOLOGIE\nHypo...., et éolien.
hypsographie	HYPSOGRAPHIE\n i-pso-gra-fie s. f.\nTerme technique. Description des lieux élevés.\n\nÉTYMOLOGIE\nEn grec, hauteur et décrire.
hypsomètre	HYPSOMÈTRE\n i-pso-mè-tr' s. m.\nInstrument de physique qui fait connaître la hauteur d'un lieu d'après\nla température à laquelle l'eau y entre en ébullition.\n\nÉTYMOLOGIE\nDu grec, hauteur, et, mesure.
hypsométrie	HYPSOMÉTRIE\n i-pso-mé-trie s. f.\nArt de mesurer la hauteur d'un lieu quelconque par des nivellements ou\ndes observations barométriques, ou des opérations géodésiques.\n\nÉTYMOLOGIE\nVoy. HYPSOMÉTRE.
hypsométrique	HYPSOMÉTRIQUE\n i-pso-mé-tri-k' adj.\nQui a rapport à l'hypsométrie.
hypsopténes	HYPSOPTÉNES\n i-pso-ptè-n' s. m. pl.\nNom d'un ordre en ornithologie.\n\nÉTYMOLOGIE\nTermes grecs signifiant hauteur et qui vole.
hypèthre	HYPÈTHRE\n i-pè-tr' s. m.\nTerme d'architecture. Édifice, temple découvert.\nAdj. Temple hypètre.\n\nÉTYMOLOGIE\nDu grec, sous, et ciel découvert (voy. ÉTHER).
hypéricinées	HYPÉRICINÉES\n i-pèr-i-si-née s. f. pl.\nTerme de botanique. Famille de plantes dicotylédonées polypétales\nhypogynes dont l'hypéricon est le type.
hypéricon	HYPÉRICON\n i-pèr-i-kon s. m.\nNom moderne du genre mille-pertuis.\n\nÉTYMOLOGIE\nEn grec. L'hypericum de Pline est l'ajuga reptans, L.
hypérion	HYPÉRION\n i-pé-ri-on s. m.\nNom du 7e satellite de la planète Saturne.\n\nÉTYMOLOGIE\nEn grec, un des noms du Soleil, dans Homère.
hypérionien	HYPÉRIONIEN\n i-pèr-i-o-niin adj.\nTerme de musique ancienne et de plain-chant. Mode hypérionien, mode qui\nétait d'une quarte au-dessus de l'ionien.\n\nÉTYMOLOGIE\nHyper...., et ionie
hyrax	HYRAX\n i-raks' s. m.\nTerme de zoologie. Nom moderne du genre daman (pachydermes), dans lequel\non distingue l'hyrax du Cap, dit vulgairement daman, dont la taille\napproche de celle du lapin.\n\nÉTYMOLOGIE\nTerme grec signifiant souris.
hysope ou hyssope	HYSOPE ou HYSSOPE\n i-zo-p' ou i-so-p' s. f.\nTerme de botanique. Plante aromatique, hyssopus officinalis, L. labiées.\nEt traita aussi de tous les arbres, depuis le cèdre qui est sur le\nLiban, jusqu'à l'hyssope qui sort de la muraille, SACI, Bible, Rois,\nIII, IV, 33.\nFig.\nMes petites affaires me paraissent de l'hysope en comparaison de vos\ngrands cèdres, SÉV., 597.\nFig. Depuis le cèdre jusqu'à l'hysope, ou depuis l'hysope jusqu'au\ncèdre, depuis ce qu'il y a de plus grand jusqu'à ce qu'il y a de plus\npetit.\nLes comédiens et les auteurs, depuis le cèdre jusqu'à l'hysope, sont\ndiablement animés contre lui, MOL., Impr. 3.\nDepuis l'hysope jusqu'au cèdre et depuis la terre jusqu'au ciel, est-il\nrien de si secret, soit dans l'art, soit dans la nature, où l'on n'ait\npénétré ?, BOURDAL., Pensées, t. II, p. 215.\nFig. Il sait tout depuis le cèdre jusqu'à l'hysope, c'est un homme fort\ninstruit dans les sciences naturelles, connaissant les plus petites\nchoses comme les plus grandes.\n\nHISTORIQUE\nXIIIe s.\nEt aumaires {armoires} de sapience, Et ysopes d'umilitei, RUTEB., II,\n15.\n\nÉTYMOLOGIE\nWallon, izibe, lizibe, lizipe ; provenç. isop, ysop ; espagn. hisopo ;\nital. isopo ; du lat. hyssopus, de l'hébreu ezob, qui signifie plutôt\norigan.
