amphibole	AMPHIBOLE\n an-fi-bo-l' s. f.\nTerme de minéralogie. Substance terreuse qui se présente sous un très\ngrand nombre d'aspects.\n\nÉTYMOLOGIE\nTermes grecs, l'un signifie ambigu et provient du mot se traduisant :\ndes deux côtés, et l'autre se définit par jet et dérive du verbe jeter\n(voy. BALISTIQUE) ; mot à mot, qui jette des deux côtés, c'est\nl'équivalent exact d'ambigu.
amphibologie	AMPHIBOLOGIE\n an-fi-bo-lo-jie s. f.\nArrangement des mots d'où résulte un sens douteux. Voici un exemple\nd'amphibologie dans Molière : Et de même qu'à vous je ne lui suis pas\nchère, Mélic. II, 3. Le sens est : Je ne lui suis pas chère comme à\nvous, de même qu'à vous. Mais au premier abord le sens paraît être : Je\nne vous suis pas chère, et je ne lui suis pas chère. Cette amphibologie\nrésulte de l'inversion.\n\nÉTYMOLOGIE\nAmphibologia, par abréviation, pour amphibolologia ; termes grecs\nsignifiant ambigu (voy. AMPHIBOLE) et discours (voy. LOGIQUE). Ce mot a\nété taxé de barbarisme ; il faudrait en effet dire amphibolologie ou\namphibolie ou amphilogie. Mais il n'y a pas à revenir là-dessus ; outre\nque amphibologia est déjà dans le latin, l'oreille a produit une\ncontraction du mot comme dans idolâtrie pour idololâtrie.
amphibologique	AMPHIBOLOGIQUE\n an-fi-bo-lo-gi-k' adj.\nQui est affecté d'amphibologie. Discours amphibologique.\n\nHISTORIQUE\nXIVe s.\nLeurs paroles sont aucunes fois doubles, amphibologiques, à deux\nvisaiges, ORESME, Thèse de MEUNIER.\n\nÉTYMOLOGIE\nAmphibologie.
amphibologiquement	AMPHIBOLOGIQUEMENT\n an-fi-bo-lo-ji-ke-man adv.\nD'une manière amphibologique. Il a parlé amphibologiquement.\n\nÉTYMOLOGIE\nAmphibologique et ment (voy. MENT).
amphibraque	AMPHIBRAQUE\n an-fi-bra-k' s. m.\nTerme de prosodie grecque et latine. Pied composé d'une longue entre\ndeux brèves.\n\nÉTYMOLOGIE\nTerme dérivé de deux mots grecs signifiant des deux côtés et bref.
amphictyonat	AMPHICTYONAT\n an-fi-ksi-o-na s. m.\nConseil de souverains, de gouvernements pour délibérer sur des affaires\ngénérales, dit par imitation du conseil des Amphictyons qui délibéraient\nsur les affaires générales de la Grèce. L'amphictyonat européen {à\npropos de l'entrevue des trois empereurs à Berlin}, l'Italie, dans le\nNational, 6 mai 1876, 3e page, 1re col.
amphictyonide	AMPHICTYONIDE\n an-fik-ti-o-ni-d' adj. f.\nTerme d'histoire grecque. Qui avait droit d'amphictyonie, en parlant des\nvilles de la Grèce.\n\nÉTYMOLOGIE\nTerme grec (voy. AMPHICTYONS).
amphictyonie	AMPHICTYONIE\n an-fik-ti-o-nie s. f.\nTerme d'histoire grecque. La fédération, le conseil des Amphictyons.\n\nÉTYMOLOGIE\nTerme grec (voy. AMPHICTYONS).
amphictyonique	AMPHICTYONIQUE\n an-fik-ti-o-ni-k' adj.\nQui a rapport au conseil des Amphictyons. Ligue, décision\namphictyonique.\n\nÉTYMOLOGIE\nAmphictyons.
amphictyons	AMPHICTYONS\n an-fik-ti-on s. m. plur.\nTerme d'histoire grecque. Députés des États grecs, qui se réunissaient\naux Thermopyles pour délibérer sur des affaires générales.\n\nÉTYMOLOGIE\nTerme grec, ainsi nommés d'Amphictyon fils de Deucalion, à qui on\nfaisait remonter cette institution. Ce mot paraît être composé des mots\ngrecs signifiant autour (voy. AMBI), et qui habite, parce qu'ils\nrésidaient autour de Delphes.
amphigouri	AMPHIGOURI\n an-fi-gou-ri s. m.\n\n1° Écrit burlesque et qu'on remplit de galimatias. Un plaisant\namphigouri.\n\n2° Discours dépourvu d'ordre et de sens.\nPour élaguer les tortillages et les amphigouris, J. J. ROUSS., Pol. 7.\n\nÉTYMOLOGIE\nOrigine inconnue. Ce mot ne se trouve dans aucune des éditions\nantécédentes du dictionnaire de l'Académie. Il paraît être devenu en\nusage dans le XVIIIe siècle. On a indiqué comme étymologie : les termes\ngrecs signifiant des deux côtés et cercle ; mais cela aurait fait\namphigyri, si tant est qu'une pareille finale puisse venir de la finale\ngrecque.\n\nSUPPLÉMENT AU DICTIONNAIRE\nAMPHIGOURI. Ajoutez : - REM. Le Dict. de l'Académie de 1778, édit.\nDuclos, le porte écrit amfigouri.
amphigourique	AMPHIGOURIQUE\n an-fi-gou-ri-k' adj.\nQui n'a ni ordre ni sens.\nÀ ce discours amphigourique, je vis la vérité sourire avec indignation,\nGILB., le Carnaval des auteurs.\n\nÉTYMOLOGIE\nAmphigouri.
amphigouriquement	AMPHIGOURIQUEMENT\n an-fi-gou-ri-ke-man adv.\nD'une manière amphigourique. Il s'est expliqué amphigouriquement.\n\nÉTYMOLOGIE\nAmphigourique et ment.
amphigène	AMPHIGÈNE\n an-fi-jê-n' s. m.\nTerme de minéralogie. Minéral qu'on trouve dans les laves du Vésuve.\n\nÉTYMOLOGIE\nTermes grecs signifiant des deux côtés et né : qui a deux manières de\nnaître.
amphimacre	AMPHIMACRE\n an-fi-ma-kr' s. m.\nTerme de prosodie grecque et latine. Sorte de pied formé d'une brève\nentre deux longues.\n\nÉTYMOLOGIE\nTermes grecs, l'un dérive du mot indiquant des deux côtés (voy. AMBE),\net l'autre signifie long.
amphioxus	AMPHIOXUS\n an-fi-o-ksus' s. m.\nGenre de vertébrés le plus voisin des invertébrés.\nDans le monde actuel se trouvent l'amphioxus, l'animal vertébré dont\nl'organisme est le plus imparfait, et les lamproies, qui occupent le\ndernier rang parmi les poissons, E. BLANCHARD, Rev. des Deux-Mondes, 1er\noct. 1874, p. 612.
amphisbène	AMPHISBÈNE\n an-fi-sbê-n' s. m.\nTerme d'histoire naturelle. Serpents non venimeux, dont la tête n'est\npas distincte du corps, et dont la queue obtuse est aussi grosse au bout\nque la tête ; ce qui leur permet de cheminer aussi bien dans un sens que\ndans l'autre, d'où le nom de Doubles-marcheurs.\n\nÉTYMOLOGIE\nTermes grecs, l'un dérive du mot qui indique des deux côtés (voy. AMBE),\net l'autre signifie marcher (voy. BASE).
amphisciens	AMPHISCIENS\n an-fi-ssiin s. m. plur.\nNom qu'on donne aux habitants de la zone torride, parce que, selon que\nle soleil se dirige vers l'un ou l'autre tropique, leur ombre se porte\nou au midi ou au nord.\n\nÉTYMOLOGIE\nTermes grecs, l'un dérivé du mot indiquant des deux côtés (voy. AMBE),\net l'autre signifie ombre.
amphithéâtral, ale	AMPHITHÉÂTRAL, ALE\n an-fi-té-â-tral', a-l' adj.\nQui appartient à l'amphithéâtre.\n\nÉTYMOLOGIE\nAmphitheatralis.
amphithéâtre	AMPHITHÉÂTRE\n an-fi-té-â-tr' s. m.\n\n1° Chez les anciens, édifice de forme ovale ou ronde, ayant plusieurs\nrangs de gradins pour les spectateurs et un espace central pour les\nluttes et les combats.\n\n2° Fig. Les spectateurs. Tout l'amphithéâtre se leva pour le mieux\nregarder.\n\n3° Aujourd'hui, la partie d'une salle de spectacle placée vis-à-vis de\nla scène.\n\n4° Lieu garni de gradins où un professeur fait son cours.\n\n5° Fig. Ce terrain s'élève en amphithéâtre.\nLe village au-dessus forme un amphithéâtre, BOILEAU, Épît. VI.\nCette forêt ondoyante et touffue, Amphithéâtre agréable à la vue, De\ntoute part enfermant ce séjour, Borde le pied des coteaux d'alentour,\nMALFIL., Narcisse, III.\nDes monts et des coteaux le vaste amphithéâtre Disparaît tout à coup\nsous un voile grisâtre, ST-LAMB., Saisons, l'été.\n\nÉTYMOLOGIE\nAmphitheatrum ; le terme grec provient de deux mots : des deux côtés\n(voy. AMBE), et théâtre (voy. THÉÂTRE).\n\nSUPPLÉMENT AU DICTIONNAIRE\nAMPHITHÉÂTRE. Ajoutez : - HIST. XVIe s.\nEt quand l'amphitheatre de Diocletian fut dedié, PARÉ, XXI, 49.
amphitrite	AMPHITRITE\n an-fi-tri-t' s. f.\nTerme de mythologie. Déesse de la mer, et, poétiquement, la mer\nelle-même.\nDu rapport d'un troupeau dont il vivait sans soins, Se contenta\nlongtemps un voisin d'Amphitrite, LA FONT., Fabl. X, 2.\nÉtranger, ce taureau qu'au sein des mers profondes D'un pied léger et\nsûr tu vois fendre les ondes, Est le seul que jamais Amphitrite ait\nporté, A. CHÉN., Jupiter et Europe.\n\nÉTYMOLOGIE\nAmphitrite, du grec.\n\nSUPPLÉMENT AU DICTIONNAIRE\nAMPHITRITE. Ajoutez :\n\n2° La 29e planète télescopique, découverte par M. Marth.
amphitrope	AMPHITROPE\n an-fi-tro-p' adj.\nTerme de botanique. Embryon amphitrope, celui qui est tellement couché\nque ses deux bouts se dirigent vers le hile, comme dans les crucifères.\n\nÉTYMOLOGIE\nTermes grecs signifiant des deux côtés et tourner (voy. TROPE).
amphitryon	AMPHITRYON\n an-fi-tri-on s. m.\nCelui chez lequel, ou aux frais duquel on dîne.\nLe véritable amphitryon Est l'amphitryon où l'on dîne, MOL., Amph. III,\n5.\n\nÉTYMOLOGIE\nNom grec d'un prince Thébain, mari d'Alcmène, et qui, dans la comédie de\nMolière, donne un grand repas aux officiers de son armée.
amphore	AMPHORE\n an-fo-r' s. f.\n\n1° Terme d'antiquité. Vase à deux anses où les anciens mettaient le vin\net l'huile.\n\n2° Mesure de capacité qui contenait 19 lit. 44.\n\nÉTYMOLOGIE\nAmphora ; le terme grec provient de deux mots se traduisant par des deux\ncôtés (voy. AMBE), et porter.\n\nSUPPLÉMENT AU DICTIONNAIRE\nAMPHORE. Ajoutez : - REM.\nMot introduit par Port-Royal, GÉNIN, Variat. p. 317.
amphorique	AMPHORIQUE\n an-fo-ri-k' adj.\nTerme de médecine. Résonnance amphorique, son stéthoscopique qui est une\nvariété du tintement métallique, ainsi dit parce que l'oreille appliquée\nsur la poitrine perçoit un bruit semblable à celui qui s'entend dans une\ncruche.\n\nÉTYMOLOGIE\nAmphore.
amphémérine	AMPHÉMÉRINE\n an-fé-mé-ri-n' s. f.\nTerme de médecine. Fièvre quotidienne rémittente.\n\nÉTYMOLOGIE\nTerme dérivé de deux mots grecs signifiant tout autour et jour.
ample	AMPLE\n an-pl' adj.\n\n1° Très long et très large. Un manteau ample et flottant.\n\n2° Considérable, étendu, copieux. Un ample repas. Une ample moisson.\nUne ample comédie à cent actes divers, LA FONT., Fab. V, 1.\nLa gent maudite aussitôt poursuivit Tous les pigeons, en fit ample\ncarnage, LA FONT., ib. VII, 8.\nTout le monde visible n'est qu'un trait imperceptible dans l'ample sein\nde la nature, PASC., édit. Cousin.\nLa diversité est si ample, PASC., ib.\nJe me propose un plus ample théâtre, RAC., Bérén. II, 2.\nD'un mépris vengeur la marque la plus ample, ROTROU, Vencesl. III, 2.\n\n3° En termes de droit, ordonner un plus ample informé, un informé plus\ncomplet. Renvoyer un accusé jusqu'à plus ample informé.\n\nHISTORIQUE\nXIIe s.\nTrop nos i sunt amples les veies {dans le siècle}, BENOIT, II, 12193.\nÀ dueil mourront par ces amples vallées, , Ronc. p. 132.\n{Il} Ne se plaint mie de sa plaie, Ainz vet {va} et fet ses pas plus\nemples, , la Charrette, 1150.\nXIIIe s.\nCrupe ot grosse et quarée, piés copés et vautis, Narines grans et\namples, les iex bruns eclarcis ; El regne d'Antioche n'est chevaus si\neslis, , Ch. d'Ant. IV, 184.\nXIVe s.\nQuand il se treuve as champz dessus l'ample païs, Et il ot le calandre\net le chant des mauvis, Il s'afiche ès estriez, comme homs amanevis, ,\nBaud. de Seb. VI, 368.\nXVe s.\n{Messire Pierre de Beuil et les autres qui estoient allés querre un\nengin de guerre} se mirent au retour pour revenir en l'ost, et par un\nautre chemin que ils n'estoient venus, car il leur convenoit tenir le\nplus ample chemin pour leur charroy, FROISS., II, II, 5.\nXVIe s.\nPlus ample discours sur ceste matiere seroit mieulx convenable à un\nautre traitté qu'à cestuy-ci, AMYOT, Cor. 15.\nIl aimoit la guerre, comme le plus ample champ et le subject le plus\nplantureux que la vertu sçauroit avoir pour s'exerciter, AMYOT, Philop.\n6.\n\nÉTYMOLOGIE\nProvenç. ample ; espagn. amplo ; ital. ampio ; de amplus, composé comme\nduplus, de am, et un radical plus (voy. DOUBLE).
amplectif, ive	AMPLECTIF, IVE\n an-plè-ktif, kti-v' adj.\nTerme de botanique. Les rudiments des feuilles non encore développées\nsont amplectifs, quand ces feuilles sont plissées longitudinalement, et\nont leurs deux bords pliés et serrés dans une autre feuille, qui\nelle-même est pliée de la même manière.\n\nÉTYMOLOGIE\nAmplecti, embrasser, de am, autour, et de plectere, (voy. PLIER).
amplement	AMPLEMENT\n an-ple-man adv.\nD'une manière ample.\nQuand un carrosse fait de superbe manière, Et comblé de laquais et\ndevant et derrière, S'est avec grand fracas devant nous arrêté, D'où\nsortant un jeune homme amplement ajusté...., MOL., Fâch. I, 1.\nJ'en dirai quelque jour les raisons amplement, LA FONT., Fab. VII, 18.\nVous en serez tantôt instruits plus amplement, RAC., Mithr. II, 2.\nElle s'applaudira de cet illustre effet, Et croira Nicomède amplement\nsatisfait, CORN., Nicom. V, 4.\n\nHISTORIQUE\nXVe s.\nAinsi que plus amplement ai chargé au dit Chambon vous escripre, Lettre\nde LOUIS XI, , Bibl. des Chartes, 4e série, t. I, p. 21.\nXVIe s.\nNous en avons plus amplement et plus diligemment escrit ailleurs, AMYOT,\nCam. 35.\n\nÉTYMOLOGIE\nAmple et ment ; provenç. amplamen ; espagn. ampliamente ; ital.\nampiamente.
ampleur	AMPLEUR\n an-pleur s. f.\n\n1° Étendue de ce qui est long et large. Ce manteau a de l'ampleur.\n\n2° Fig. Ce style a de l'ampleur.\n\nÉTYMOLOGIE\nAmple ; provenç. amplessa.
amplexatile	AMPLEXATILE\n an-plé-ksa-ti-l' adj.\nSe dit, en botanique, de la radicule, quand elle enveloppe le reste de\nl'embryon.\n\nÉTYMOLOGIE\nAmplexare, fréquentatif de amplecti (voy. AMPLECTIF).
amplexicaule	AMPLEXICAULE\n an-plè-ksi-kô-l' adj.\nTerme de botanique. Qui embrasse la tige. Feuilles amplexicaules.\n\nÉTYMOLOGIE\nAmplexus, qui embrasse (voy. AMPLECTIF), et caulis, tige (voy. CHOU).
amplexiflore	AMPLEXIFLORE\n an-plè-ksi-flo-r' adj.\nTerme de botanique. Qui embrasse la fleur.
ampliatif, ive	AMPLIATIF, IVE\n an-pli-a-tif, ti-v' adj.\n\n1° Qui augmente, qui ajoute.\n\n2° En termes de grammaire, mot ampliatif, expression ampliative.\nS. m. L'ampliatif, mot dont s'est servi Beauzée pour désigner notre\nsuperlatif absolu.\nNe se met qu'après le substantif : Bref ampliatif, bulle ampliative.\n\nÉTYMOLOGIE\nProvenç. ampliatiu (voy. AMPLIATION).
ampliation	AMPLIATION\n an-pli-a-sion ; de cinq syllabes en vers s. f.\n\n1° Le double, la copie d'un acte.\n\n2° En termes d'ancienne pratique, lettres d'ampliation, lettres en\nchancellerie pour expliquer les moyens omis dans une requête civile.\n\n3° Augmentation de capacité d'une cavité dilatable quelconque.\nL'ampliation de la poitrine pendant l'inspiration.\n\nHISTORIQUE\nXVIe s.\nIl fist lire son pouvoir, de l'ampliation {étendue} duquel ils furent\nmerveilleusement esbahys ; car il soustrayoit tellement toute\nl'authorité aux gouverneurs de Toul et de Verdun, que...., CARL., V, 31.\nPour s'excuser envers l'empereur, qui tant le pressoit et incitoit en\nceste declaration et ampliation de ligue, M. DU BEL., 178.\nAuction est ampliation ou augmentation des parties solides, en longueur,\nlargeur et profondité, PARÉ, Introd. 9.\n\nÉTYMOLOGIE\nAmpliatio, de ampliare, augmenter de amplus (voy. AMPLE).
amplier	AMPLIER\n an-pli-é v. a.\n\n1° Terme de droit qui tombe en désuétude. Amplier un terme, le\nprolonger. Amplier un criminel, retarder sa condamnation.\n\n2° En termes d'histoire naturelle, rendre plus ample.\n\nÉTYMOLOGIE\nAmpliare, rendre ample, de amplus, ample.
amplifiant, ante	AMPLIFIANT, ANTE\n an-pli-fi-an, an-t' adj.\nTerme de physique. Qui grossit. Le pouvoir amplifiant d'une loupe.\n\nÉTYMOLOGIE\nAmplifier.
amplificateur	AMPLIFICATEUR\n an-pli-fi-ca-teur s. m.\nCelui qui amplifie.\nIl se prend en mauvaise part.\n\nÉTYMOLOGIE\nAmplificator, de amplificare, amplifier (voy. AMPLIFIER).
amplificatif, ive	AMPLIFICATIF, IVE\n an-pli-fi-ka-tif, ti-v' adj.\nTerme d'optique. Qui sert à amplifier. Le pouvoir amplificatif des\nlunettes astronomiques.\n\nÉTYMOLOGIE\nAmplifier.
amplification	AMPLIFICATION\n an-pli-fi-ca-sion ; de six syllabes en vers s. f.\n\n1° Terme de rhétorique. Figure qui consiste à amplifier ce que l'on dit,\npar l'énumération des détails.\n\n2° Le plus souvent, au moyen de cette figure, développement d'un texte,\nd'un sujet.\n\n3° Devoir où un élève développe un texte, un sujet donné. Amplification\nfrançaise. Amplification latine.\n\n4° Augmentation du volume apparent des objets, à l'aide des verres et\ndes lunettes.\n\nÉTYMOLOGIE\nAmplificatio, de amplificare, amplifier.
amplifier	AMPLIFIER\n an-pli-fi-é v. a.\n\n1° Développer par le discours. Amplifier une pensée.\nL'un écrivait sous sa dictée {de Napoléon} les phrases ampoulées dont il\namplifiait ses ordres du jour, P. L. COUR., Lett. II, 240.\n\n2° Exagérer. Amplifier une nouvelle.\n\n3° En optique, grossir, en parlant des verres, des lunettes. Ce\nmicroscope amplifie beaucoup les plus petits corps. On est parvenu à\nfaire des objectifs qui amplifient considérablement.\n\nHISTORIQUE\nXVIe s.\nHeraclides amplifia la nouvelle veritable de ceste prise de Rome, AMYOT,\nCam. 39.\nIl alloit soubz main amplifiant sa propre puissance, AMYOT, Agésil. 5.\nIl faut que promptement le chirurgien amplifie la playe, PARÉ, IX, 3.\nUn corps, pour amplifier en charnure ou gresse, n'est pas dit\ns'augmenter, PARÉ, Introd. 9.\nL'Empereur continuoit cependant sa poursuitte de faire confermer,\ndeclarer et amplifier ceste ligue, y comprenant l'estat de Gennes, M. DU\nBELL., 180.\n\nÉTYMOLOGIE\nAmplificare, de amplus, ample (voy. AMPLE), et ficare, fréquentatif de\nfacere, faire ; provenç. et espagn. amplificar ; ital. amplificare.
amplifié, ée	AMPLIFIÉ, ÉE\n an-pli-fi-é, ée part. passé.\nRécit amplifié.
amplissime	AMPLISSIME\n an-pli-ssi-m' adj.\nAncien titre donné au recteur de l'université de Paris.\n\nÉTYMOLOGIE\nAmplissimus, superlatif de amplus, ample (voy. AMPLE).
amplitude	AMPLITUDE\n an-pli-tu-d' s. f.\n\n1° Étendue en largeur et en longueur.\nDans l'amplitude et immensité de la nature, PASC., édit. Cousin.\nL'un est force et l'autre est amplitude, PASC., Géom.\n\n2° Terme de géométrie. Ligne comprise entre les deux extrémités de l'arc\nd'une parabole.\n\n3° Terme d'artillerie. Ligne droite qui sous-tend l'arc parabolique\ndécrit par un projectile sortant d'une bouche à feu. L'amplitude du jet.\n\n4° Terme de marine. Arc de l'horizon compris entre le point où un astre\nse lève ou se couche, et l'est et l'ouest de la boussole.\n\n5° En astronomie, courbe décrite par un astre depuis le point où il se\nlève jusqu'à celui où il se couche, et dont le milieu indique le\nméridien.\n\nSYNONYME\nAMPLITUDE, PORTÉE, en parlant d'une pièce d'artillerie. L'amplitude est\nla distance mesurée depuis la tranche d'une bouche à feu, qui est\nhorizontale, jusqu'au lieu où, s'il n'était arrêté dans sa course, le\nprojectile rencontrerait le plan horizontal passant par son point de\ndépart.\nLa portée est la distance à laquelle une bouche à feu peut chasser son\nprojectile, LEGOARANT, .\n\nHISTORIQUE\nXVIe s.\nConsiderant après à part moy les autres provinces selon leur amplitude,\nou petitesse, je jugeois que...., LANOUE, 233.\n\nÉTYMOLOGIE\nProvenç. amplitut ; espagn. amplitud ; ital. amplitudine ; d'amplitudo,\nde amplus, ample (voy. AMPLE).\n\nSUPPLÉMENT AU DICTIONNAIRE\nAMPLITUDE. Ajoutez :\n\n5° Dans la théorie des fonctions elliptiques, l'amplitude d'une certaine\nintégrale est l'angle &quot;phi&quot;.\n\nREMARQUE\nAmplitude ne s'emploie plus dans le tir ; on dit portée maximum, plus\ngrande portée.\n\nHISTORIQUE\nAjoutez : XVe s.\nNul mal n'y a, mais de vie amplitude ; Car cité est sur toutes\ndelectable, JEAN JORET, le Jardin salutaire, p. 112.
amplié, ée	AMPLIÉ, ÉE\n an-pli-é, ée part. passé.
ampoule	AMPOULE\n an-pou-l' s. f.\n\n1° Fiole, petite bouteille. Inusité en ce sens, excepté dans la\nlocution, la sainte ampoule, la fiole qui contenait l'huile consacrée à\nl'onction des rois de France, et que l'on croyait avoir été apportée à\nSaint-Remi par une colombe pour le baptême de Clovis.\nHenri IV fut couronné à Chartres et oint de l'ampoule de saint Martin,\nVOLT., Moeurs, 13.\n\n2° Petite tumeur formée par la sérosité épanchée entre le derme et\nl'épiderme.\nLe roi des Indes en eut des ampoules pour quinze jours, VOLT., Babyl. 1.\n\n3° Terme de botanique. Nom vulgaire de certains renflements pleins d'air\nqui se voient sur plusieurs espèces de fucus.\n\nHISTORIQUE\nXIIe s.\nPluisur rei le {St-Thomas} requierent en dreit pelerinage, Prelat, moine\nreclus et maint enpoünage ; E ampolles reportent en seigne del veage, ,\nTh. le Mart. 158.\nEn semblance de vin et d'ewe fait user Deus son sanc par le mund pur les\nanemes salver ; En ewe et en ampoles fait par le mund porter Le sanc de\nsaint Thomas pur li plus honurer, , ib. 159.\nXIIIe s.\nE fu sacrés à Rains à roi et enoins de la sainte ampoule, que Diex\nenvoya des cius en terre à saint Remy, , Chr. de Rains, p. 3.\nXVe s.\nC'est de la sainte ampoule dont monseigneur saint Remi consacra Clovis\npremier rois chrestien qui fut en France, FROISS., II, II, 74.\nXVIe s.\nDe peur qu'il ne survint des pustules ou empoulles.... je trouvay les\nendroits où avoient touché les oignons n'avoir aucune vessies ou\nempoulles, PARÉ, IX, 1er Disc.\nAinsi que vignerons qui ont ès mains l'empoule à force de becher....,\nRONS., 427.\n\nÉTYMOLOGIE\nAmpulla, de amp pour amb, autour (voy. AMBE), et de olla, vase (voy.\nOLLAIRE) ; c'est-à-dire que l'ampoule est un vase à ventre ; provenç.\nampola ; ital. ampolla.\n\nSUPPLÉMENT AU DICTIONNAIRE\nAMPOULE. Ajoutez :\n\n4° Sorte de petite fiole en verre, étirée et fermée à la lampe, qui\nsert, en chimie, à renfermer des liquides volatils destinés à l'analyse.\n\n5° Terme de métallurgie. Boursouflure qui se trouve sur l'acier de\ncémentation.\n\nÉTYMOLOGIE\nAjoutez : L'étymologie donnée est mauvaise. Ampulla est le diminutif\nd'amphora, amphore ; comp. corolla, diminutif de corona.
ampoulette	AMPOULETTE\n an-pou-lè-t' s. f.\n\n1° Terme d'art militaire. Cylindre de saule, d'aune ou de tilleul, qui\nsert à fermer l'oeil d'un projectile creux et à en contenir la fusée.\n\n2° En termes de marine, se dit de deux petites fioles opposées l'une à\nl'autre par leur orifice, et formant un sablier dont on se sert pour\nmesurer la durée d'une demi-minute.
ampoulé, ée	AMPOULÉ, ÉE\n an-pou-lé, lée adj.\nEnflé, en parlant du style. Discours ampoulé. Phrases ampoulées.\nPour savoir former quatre vers ampoulés, RÉGNIER, Sat. IV.\nNi d'un vers ampoulé l'orgueilleux solécisme, BOILEAU, Art p. I.\nQue devant Troie en flamme Hécube désolée Ne vienne pas pousser une\nplainte ampoulée, BOILEAU, ib. III.\nJouet de leurs caresses traîtresses, de leurs compliments ampoulés, J.\nJ. ROUSS., Prom. 8.\n\nSYNONYME\nAMPOULÉ, EMPHATIQUE, BOURSOUFLÉ. Trois qualités défectueuses d'un style\nqui dépasse la mesure. Emphatique marque l'exagération, et indique que\nl'on fait paraître ou briller les choses plus qu'il ne faut. D'après\nMarmontel, on appelle un style, un vers, un discours ampoulé, celui où\nl'on emploie de grands mots à exprimer de petites choses. Bousouflé\nexprime une rédondance de grands mots vides de sens et d'idées. On\nremarque que, seul de ces trois mots, emphatique n'a pas toujours une\nsignification défavorable ; par exemple, dans cette phrase de Bossuet :\nEn marquant ce passage décisif, on aurait fait entendre d'abord que le\nterme être appelé, loin d'être diminutif, était emphatique et\nconfirmatif.\n\nHISTORIQUE\nXVIe s.\nJe trouvay l'autre costé tout empoullé, PARÉ, IX, 1er Disc.\nEt rapporte au logis les deux mains empoulées, RONS., 894.\nMaintenant que l'hyver de vagues empoulées Orgueillit les terrens....,\nRONS., 278.\nEt ceux qui de gands emplombez Meurtrissoient la chair empoullée, RONS.,\n521.\nLes autres sont trop empoulez et presque creux d'enfleures comme\nhydropiques, lesquels pensent n'avoir rien fait d'excellent, s'il n'est\nextravagant, creux et bouffy, RONS., 584.\nBeaucoup plus empoullé que plein de majesté, RONS., 660.\n\nÉTYMOLOGIE\nAmpullatus, d'ampulla, ampoule (voy. AMPOULE) ; provenç. ampulhos ;\nital. ampolloso. Dans le XVIe siècle, ampoulé s'employait aussi pour\nsignifier affecté d'ampoules.\n\nSUPPLÉMENT AU DICTIONNAIRE\nAMPOULÉ, ÉE. Ajoutez :\n\n2° Au sens propre, tuméfié ; c'est un sens archaïque, comme on peut voir\nà l'historique, et, par conséquent, français, mais à peu près inusité.\nIl est vrai que la courtisane n'a pas de quoi être fière en montrant son\ntorse mesquin et ses jambes ampoulées, BÜRGER, Salons de 1861 à 1868, t.\nI, p. 125.
ampoulément	AMPOULÉMENT\n an-pou-lé-man adv.\nD'une manière ampoulée.\n\nREMARQUE\nRien n'empêcherait de se servir de cet adverbe, qui est autorisé par un\nancien usage.\n\nHISTORIQUE\nXVIe s.\nÀ mon commencement, quand l'humeur pindarique Enfloit empoulément ma\nbouche magnifique...., RONSARD, 126.\n\nÉTYMOLOGIE\nAmpoulé et ment.
ampullacé, ée	AMPULLACÉ, ÉE\n an-pul-la-sé, sée adj.\nTerme d'histoire naturelle. Qui a la forme d'une ampoule, d'une vessie\nou d'une bouteille.\n\nÉTYMOLOGIE\nAmpulla, ampoule.
amputation	AMPUTATION\n an-pu-ta-sion ; de cinq syllabes en vers s. f.\nTerme de chirurgie. Opération par laquelle on sépare du corps, avec\nl'instrument tranchant, un membre, une portion d'un membre ou une partie\nsaillante, telle que la mamelle.\n\nHISTORIQUE\nXVIe s.\nLorsqu'on veut faire amputation d'une jambe...., PARÉ, X, 21.\nL'amputation des testicules, PARÉ, Au lecteur.\n\nÉTYMOLOGIE\nAmputatio, amputation (voy. AMPUTER).
amputer	AMPUTER\n an-pu-té v. a.\nFaire une amputation. Amputer un membre, le sein.\n\nHISTORIQUE\nXVIe s.\nSi on connoit par le contraire que ces tumeurs se puissent amputer, il y\nfaut proceder comme s'ensuit, PARÉ, V, 17.\n\nÉTYMOLOGIE\nAmputare, de am, amb, autour, et putare, couper, tailler (voy. PUTATIF).
amputé, ée	AMPUTÉ, ÉE\n an-pu-té, tée\n1° Part. passé. Un membre amputé.\n\n2° S. m. Les amputés éprouvent souvent des douleurs dans le membre\nqu'ils n'ont plus. Un amputé, celui qui a eu un membre coupé.
ampélidées	AMPÉLIDÉES\n an-pé-li-dée s. f. pl.\nTerme de botanique. Famille de plantes dicotylédones à laquelle\nappartient la vigne.\n\nÉTYMOLOGIE\nDu grec, vigne.
ampélite	AMPÉLITE\n an-pé-li-t' s. f.\nSchiste argileux de carbone, dit pierre noire par les charpentiers, qui\ns'en servent pour leurs tracés.\n\nÉTYMOLOGIE\nDu grec, vigne, à cause qu'on mettait autrefois ce schiste au pied des\nvignes pour les préserver des insectes.
ampélographie	AMPÉLOGRAPHIE\n an-pé-lo-gra-fie s. f.\nDescription de la vigne ; traité sur la vigne.\n\nÉTYMOLOGIE\nTermes grecs signifiant vigne et décrire.
ampélophage	AMPÉLOPHAGE\n an-pé-lo-fa-j' adj.\nQui mange la vigne.\nInsectes ampélophages autres que le phylloxéra, moyens de les combattre,\n, Journ. offic. 12 août 1874, p. 5804, 2e col.\n\nÉTYMOLOGIE\nDu grec, vigne, et, manger.
amschaspand	AMSCHASPAND\n a-mcha-spand' s. m.\nTerme de la mythologie des anciens Perses. Les sept amchaspands, les\nsept esprits purs, dont Ormuzd est le premier, et qui, sous la direction\nd'Ormuzd, sont les auteurs de la création.\n\nÉTYMOLOGIE\nZend, ameshâ çpentâ, de ameshâ, immortel, et çpentâ, saint.
amulette	AMULETTE\n a-mu-lè-t' s. m.\nObjet qu'on porte sur soi par superstition, dans l'idée qu'il préserve\ndes maladies ou des maléfices.\nC'est une espèce d'amulette que les amants portent volontiers, J. J.\nROUSS., Hél. II, 28.\nThéophraste raconte que Périclès malade montrait à un de ses amis\ncertains amulettes que les femmes lui avaient attachés au cou, P. L.\nCOUR., Lett. II, 376.\n\nREMARQUE\nAmulette ne se trouve dans le Dictionnaire de l'Académie qu'à partir de\nl'édition de 1762, où il est masculin ; cependant c'est un mot plus\nancien ; car il est dans d'Aubigné, qui l'a fait féminin. Chateaubriand\naussi l'a fait féminin : Mon hôte avait des amulettes suspendues au cou,\nItinér. 74 Des grammairiens ont demandé que, prenant en considération la\ndésinence ette, qui est partout ailleurs féminine, et l'usage, qui n'est\npas assuré, on donnât le genre féminin à ce mot, contre l'étymologie il\nest vrai, mais en raison de l'analogie des désinences.\n\nSYNONYME\nAMULETTE, TALISMAN. L'amulette est destiné à préserver du mal, des\nblessures, de la mort. Le talisman est tout objet auquel des idées\nsuperstitieuses font attribuer le pouvoir d'exercer une influence\nextraordinaire.\n\nHISTORIQUE\nXVIe s.\nLa frayeur croissoit avec les artifices exquis des voluptés, quand\nmonsieur le convertisseur y mit la main avec des amulettes plus\npuissantes, D'AUB., Conf. I, 7.\n\nÉTYMOLOGIE\nAmuletum.
amunitionner	AMUNITIONNER\n a-mu-ni-sio-né v. a.\nPourvoir une place des munitions nécessaires.\n\nÉTYMOLOGIE\nÀ et munition.
amure	AMURE\n a-mu-r' s. f.\nTerme de marine. Cordage fixant le point d'en bas, nommé point d'amure,\nd'une basse voile qui se trouve au vent (voy. ÉCOUTE).\n\nHISTORIQUE\nXIe s.\nContre le ciel {il} vait l'amure {pointe de son épieu} tornant, , Ch. de\nRol. LXXXIX.\nDu bon espieu au corps {il} lui met l'amure {pointe, lame}, , ib. XCVII.\nCharles en a l'amure {de la lance dont J. C. fut percé} ; mercit Deu, ,\nib. CLXXIX.\nEnvers Carlon l'amure {de sa lance} {il} en a tournée, , ib. CCXL.\nDu brand d'acier l'amure {il} lui presente, , ib. CCLXXXVII.\nXVIe s.\nHau ! amure, amure bas, RABEL., Pantagr. IV, 10.\n\nÉTYMOLOGIE\nItal. amura, mura ; grec mod.; génois, amüa ; malt. mura ; espagn.\namura, mura. D'après Jal, de a et mura, qu'il tire de morari ; mais\namure veut dire proprement pointe, comme on le voit par les exemples de\nl'ancien français ; c'est en effet le cordage de la pointe, du coin de\nla voile ; l'étymologie en est inconnue ; amarre est un autre mot.
amurer	AMURER\n a-mu-ré v. a.\nTerme de marine. Fixer l'amure d'une voile selon l'angle qui lui fera\nrecevoir le vent.\n\nHISTORIQUE\nXIIIe s.\nIl s'espée devant lui tourne.... La pointe mist devant en som {en haut},\nBien tranchant et bien amourée, , Bl. et Jehan, V. 4134.\nXIVe s.\nPar leurs malvaises langues ont tout renouvelé, Et amurent le roi à si\ntrès grant haïne, Que nes {même} pour despit d'eux hoyoit il la roïne, ,\nGirart de Ross. V. 3118.\nXVIe s.\nComme ceux de la caraque lui commanderent de ameiner, il abat et amure\nsa grand voile tout d'un coup, et hinsant la civadiere...., D'AUB.,\nHist. II, 50.\nAmurer est pezer à force d'hommes sur les couetz d'une voile pour tenir\nle point de la voile sur le bord, vers le vent, FOURNIER, Inventaire des\nmots, dans JAL, Glossaire nautique.\n\nÉTYMOLOGIE\nAmure. Comme on voit, amuré voulait dire pointu.
amuré, ée	AMURÉ, ÉE\n a-mu-ré, rée part. passé.\nUn navire amuré.
amusable	AMUSABLE\n a-mu-za-bl' adj.\nQui peut être amusé, distrait.\nSi vous saviez ce que c'est que d'amuser un esprit qui n'est plus\namusable, VOLT., Dial. 3.\n\nÉTYMOLOGIE\nAmuser.
amusant, ante	AMUSANT, ANTE\n a-mu-zan, zant-t' adj.\nQui amuse. Un homme amusant. Une conversation amusante.
amusement	AMUSEMENT\n a-mu-ze-man s. m.\n\n1° Ce qui amuse, divertissement. Les choses qui font mon amusement.\nC'était un amusement de le tromper.\nJ'y trouve encore quelque amusement, SÉV., 62.\nUne lunette qui faisait notre amusement dans le bateau, SÉV., 223.\nFaibles amusements d'une douleur si grande, RAC., Bérén. II, 2.\nLesbos même conquise.... De toute autre valeur éternels monuments, Ne\nsont'd'Achille oisif que les amusements, RAC., Iph. I, 2.\nCes pompeux bâtiments Du loisir d'un héros nobles amusements, BOILEAU,\nÉpît. I.\nLe lecteur sage fuit un vain amusement, BOILEAU, Art poét. III.\nLeur esprit toutefois se plaît dans son tourment Et se fait de sa peine\nun noble amusement, BOILEAU, Épît. X.\nN'attendez point de moi de soupirs et de pleurs ; Ce sont amusements de\nlégères douleurs, CORN., Perthar. IV, 5.\nLa fille aînée de Croissy avait infiniment d'esprit, de grâces et\nd'amusement dans l'esprit, SAINT-SIMON, 33, 132.\n\n2° Perte de temps, retardement.\nAh ! que d'amusement, MOL., Mis. IV, 4.\nJe t'attends ici pour moins d'amusement, MOL., Tart. I, 3.\n\n3° Tromperie, prétexte.\nTu prends d'un feint courroux le vain amusement, MOL., Sgan. 6.\nHenriette, entre nous, est un amusement, Un voile ingénieux, un\nprétexte, mon frère, à couvrir d'autres feux dont je sais le mystère,\nMOL., F. sav. II, 3.\nLa haine entre les grands se calme rarement ; La paix souvent n'y sert\nque d'un amusement, CORN., Rodog. I, 7.\n\nHISTORIQUE\nXVe s.\nSi firent aux Françoys savoir Que, soubz umbre de parlement, L'en\ntaschoit à les decevoir Et tenir pur admusement, , Vigil. de Charles\nVII, part. II, p. 53.\n\nÉTYMOLOGIE\nAmuser.
amuser	AMUSER\n a-mu-zé v. a.\n\n1° Procurer de l'agrément. Cela amuse.\nTout ce qui n'est pas Dieu peut l'amuser {l'âme} ; mais Dieu seul est\ncapable de la remplir, FLÉCH., III, 419.\n\n2° Faire perdre le temps en choses qui amusent. Quand il s'aperçut qu'on\nl'amusait.\nAmusez-le du moins à débattre avec vous, CORN., Nicom. V. 5.\nTous ces désirs de changement qui vous amusent, vous amuseront jusqu'au\nlit de la mort, MASS., Carême, Élus.\nAmuser l'ennemi, le tromper par des lenteurs.\n\n3° En parlant des choses. Amuser la tristesse, la douleur.\nJusques à quand amuserai-je les inquiétudes secrètes de mon âme par de\nvains projets de pénitence ?, MASS., Car. Fausse conf.\nLa harpe d'un berger amuse sa tristesse {de Saül}, et ne la guérit\npoint, MASS., Avent, Conc.\nMon coeur saignait encor des maux qu'il m'avait faits ; D'un rayon\nd'espérance amuser ses souhaits, Malheureuse ! c'était compromettre ma\ngloire, GILB., la Marq. de Gange.\nPison peut cependant amuser leur fureur, CORN., Othon, V, 2.\nCe qui me choque de ces beaux esprits, c'est qu'ils ne se rendent pas\nutiles à leur patrie et qu'ils amusent leurs talents à des choses\npuériles, MONTESQ., Lett. pers. 36.\n\n4° Repaître de vaines espérances, abuser, tromper. Il les amusait par\ndes espérances.\nIl veut que je l'amuse et ne veut rien de plus, CORN., Sertor. II, 3.\nC'est ainsi qu'on déguise un violent dépit.... Et qu'on croit amuser de\nfausses patiences Ceux dont en l'âme on craint de justes défiances,\nCORN., Rodog. IV, 6.\nLes promesses dont Hananias amusait le peuple, BOSSUET, Or. 7.\nOn ne se laissera pas amuser aux vaines excuses qu'il débite, BOSSUET,\nConc.\nC'est amuser le monde que de faire des réponses vagues, BOSSUET, Déf.\ncomm.\nQuand on raconte de pareilles choses, on veut amuser le monde, BOSSUET,\nVar. 7.\nLes a-t-il jamais amusés par des caresses ?, FLÉCH., M. de Mont.\n\n5° Familièrement. Amuser le tapis, dire des choses vaines, des paroles\ninutiles. Il est bon quelquefois de savoir agréablement amuser le tapis.\nCeux qui savent parler sans rien dire et qui amusent une conversation\npendant deux heures de temps sans qu'il soit possible de retenir un mot\nde ce qu'ils ont dit, MONTESQ., Lett. pers. 82.\n\n6° En termes de jardinage, amuser la séve, laisser à l'arbre plus de\nbois et de bourgeons que de coutume.\nS'AMUSER, v. réfl.\n\n7° Se divertir. Les enfants qui aiment à s'amuser. Il s'est fort amusé à\ncette soirée. S'amuser à lire un auteur. Il a fait cela pour s'amuser.\nOn ne s'amuse pas longtemps de l'esprit d'autrui.\n\n8° Perdre le temps.\nIl broute, il se repose, Il s'amuse à toute autre chose, LA FONT., Fab.\nVI, 10.\nMorbleu ! je suis bien sot de m'amuser à raisonner avec vous, MOL., le\nFest. III, 1.\nComme s'il eût été capable de s'amuser à penser à nous, PASC., Prov. 4.\nEn parlant des choses.\nLes faibles déplaisirs s'amusent à parler, CORN., Pomp. V, 1.\nVains transports où sans fruit mon désespoir s'amuse, CORN., Médée, I,\n5.\n\n9° S'amuser de, se moquer. S'amuser de quelqu'un. S'étant beaucoup amusé\naux dépens de son visage.\n\n10° Fig. S'amuser à la moutarde, s'arrêter à des bagatelles.\n\nSYNONYME\nAMUSER, DIVERTIR. Amuser, c'est faire passer le temps avec agrément,\ns'il s'agit de quelque chose qui plaît. Mais cela aussi explique\npourquoi amuser a, en outre, le sens d'abuser, de repaître de vaines\nespérances. Divertir, c'est, étymologiquement, détourner l'esprit, et,\nau sens que ce verbe a pris, tourner l'esprit vers des choses agréables.\nAussi divertir est-il plus expressif qu'amuser, et les divertissements\nsont plus vifs que les amusements. L'usage de la conversation tend\nbeaucoup à délaisser le verbe divertir, et par conséquent à donner à\namuser tout le terrain que perd celui-là. Mais, en écrivant, on fera\nbien d'avoir devant les yeux la nuance qui les sépare.\n\nHISTORIQUE\nXIIIe s.\nOr l'a Renart tant amusé Que ambedui sont acordé, , Ren. 1981.\nXIVe s.\nEt pour toy j'en parle souvent, Afin que point tu ne t'abuses, Et qu'en\npratiques ne t'amuses à choses que tu ne cognois, , Nat. à l'alch. err.\n324.\nXVe s.\nLe duc d'Anjou.... trouva des cauteles en diverses manieres pour amuser\nle peuple, JUVÉN., Charles VI, 1382.\nXVIe s.\nVrai est que toutes ses cauteles ne sont que momeries ou jeux de farce\net amuse-fols, CALV., Inst. 267.\nIl amusa {occupa} toutes ses heures dernieres, MONT., I, 17.\nCyrus amusa une armée plusieurs jours à se venger de...., MONT., I, 22.\nIls ne s'amuserent {s'occupèrent} qu'à haster les mariniers de...,\nMONT., I, 63.\nLes Amadis et tels fatras de livres à quoy l'enfance s'amuse, MONT., I,\n196.\n\nÉTYMOLOGIE\nÀ et muser (voy. MUSER) ; bourguig. aubusai.
amusette	AMUSETTE\n a-mu-zè-t' s. f.\n\n1° Petit amusement.\nLe fermier vient, le prend, l'encage bien et beau, Le donne à ses\nenfants pour servir d'amusette, LA FONT., Fabl. II, 16.\nChaque siècle a son amusette, BÉRANG., Pèlerin. de Lis.\nD'Avaux, notre ambassadeur en Hollande, lassé de toutes les amusettes\navec lesquelles on le menait, salua le roi le lendemain, SAINT-SIMON,\n97, 29.\n\n2° Pièce d'artillerie de petit calibre ; espèce de gros fusil de\nrempart, monté sur affût.\n\nÉTYMOLOGIE\nDiminutif tiré d'amuser ; bourguig. emusôte.\n\nSUPPLÉMENT AU DICTIONNAIRE\nAMUSETTE. Ajoutez :\n\n3° Nom donné à un fusil se chargeant par la culasse, que le maréchal de\nSaxe avait inventé.
amuseur, euse	AMUSEUR, EUSE\n a-mu-zeur, zeû-z' s. m. et f.\nCelui qui amuse par ses contes, par sa conversation, ou de toute autre\nmanière. Un agréable amuseur.\n{Mme de Chevreuse disait} que jusque-là je ne m'étais que plaint, parce\nque l'on m'amusait ; mais qu'étant à la reine au point qu'elle était,\nelle ne lui cèlerait pas que l'on ne pouvait plus amuser l'amuseuse,\nRETZ, III, 130.\n\nÉTYMOLOGIE\nAmuser ; Berry, un amuseux de filles, un cajoleur.
amusoire	AMUSOIRE\n a-mu-zoi-r' s. f.\nMoyen d'amuser, de distraire. Cela n'est pas sérieux ; ce n'est qu'une\namusoire.\nTrès peu usité.\n\nÉTYMOLOGIE\nAmuser.\n\nSUPPLÉMENT AU DICTIONNAIRE\nAMUSOIRE. Ajoutez : - HIST. XVIe s.\nJe vous ferai voir une Sicile jouet de la ville de Rome, amusoir des\nprinces estrangers..., PASQUIER, Recherches, VIII, 51.\nCe sont amusoires de quoy on paist un peuple mal mené, MONT., IV, 66. On\nremarquera que Pasquier écrit amusoir, au masculin.
amusé, ée	AMUSÉ, ÉE\n a-mu-zé, zée part. passé.\nAmusé par des promesses. Amusé à des bagatelles. Amusé par ce récit.\nEn lui {le prince}, toute apparence de galanterie, tout air passionné ou\namusé cause un scandale, FÉN., t. XXII, p. 272.
amygdale	AMYGDALE\n a-mig-da-l' s. f.\nTerme d'anatomie. Chacune des deux glandes placées, l'une à droite,\nl'autre à gauche, à l'entrée de la gorge.\n\nHISTORIQUE\nXVIe s.\nSpongieuse et molle, comme les amygdales ou salivales.... dense et dure\ncomme les glandules qui sont à la racine de la langue, nommées amygdales\n- à la racine de la langue, les tonsilles ou amygdales, PARÉ, I, 17.\n\nÉTYMOLOGIE\nAmygdala, amande (voy. AMANDE), à cause de la forme de cette glande.
amygdalin, ine	AMYGDALIN, INE\n a-mig-da-lin, li-n' adj.\nTerme de pharmacie. Qui est fait avec des amandes.\n\nÉTYMOLOGIE\nAmygdala, amande (voy. ce mot).
amygdaline	AMYGDALINE\n a-mig-da-li-n' s. f.\nTerme de chimie. Nom donné à une substance qui est dans les amandes\namères.\n\nÉTYMOLOGIE\nAmygdalin.
amygdalite	AMYGDALITE\n a-mig-da-li-t' s. f.\nTerme de médecine. Inflammation des amygdales, appelée aussi angine\ntonsillaire, esquinancie.\n\nÉTYMOLOGIE\nAmygdale.
amygdaloïde	AMYGDALOÏDE\n a-mig-da-lo-ï-d' s. f.\nTerme de minéralogie. Pierre qui renferme, au milieu de sa pâte propre,\nd'autres parties ayant la forme d'une amande.\n\nÉTYMOLOGIE\nTerme grec dérivé de deux mots signifiant amande (voy. ce mot), et forme\n(voy. IDÉE).
amylacé, ée	AMYLACÉ, ÉE\n a-mi-la-sé, sée adj.\nTerme didactique.. Qui ressemble à l'amidon.\n\nÉTYMOLOGIE\nAmylum (voy. AMIDON).
amyle	AMYLE\n a-mi-l' s. m.\nTerme de chimie. Radical hypothétique d'une série de composés, dont\nl'oxyde hydraté est l'huile de pomme de terre ou alcool amylique.
amylique	AMYLIQUE\n a-mi-li-k' adj.\nTerme de chimie. Acide amylique, acide qui a une couleur citrine, une\nforte odeur aromatique, une saveur acide et très piquante.\nAlcool amylique, huile de pomme de terre, liquide huileux, incolore,\nd'une odeur forte et désagréable, qu'on retire surtout en distillant les\nproduits de la fermentation alcoolique de la fécule de pomme de terre.
amylène	AMYLÈNE\n a-mi-lè-n' s. m.\nTerme de chimie. Produit qui se présente sous l'aspect d'un liquide\nclair, incolore ; il est volatil et d'un poids spécifique très peu\nconsidérable ; il est anesthésique comme l'éther.
amyotrophie	AMYOTROPHIE\n a-mi-o-tro-fie s. f.\nTerme de médecine. Atrophie des muscles.\n\nÉTYMOLOGIE\n'A privatif, du grec, muscle, et, nourriture.
amâtiner	AMÂTINER\n a-mâ-ti-né v. a.\nFaire couvrir une chienne par un mâtin.\n\nÉTYMOLOGIE\nÀ et mâtin.
amène	AMÈNE\n a-mè-n' adj.\nLatinisme néologique.\nAgréable.\nGrâce à ses brises voluptueuses et à ses flots amènes, elle {Venise}\ngarde un charme, CHATEAUBR., Mém. d'outre-tombe (éd. de Bruxelles), t.\nVI, incidences, Venise, etc.\nMme Sand a aussi employé amène.\n\nÉTYMOLOGIE\nLat. amoenus, agréable.
amèrement	AMÈREMENT\n a-mê-re-man adv.\nAvec amertume. Il ne s'emploie qu'au figuré. Regretter amèrement.\nJe pleurais amèrement en vous écrivant, SÉV., 42.\n\nHISTORIQUE\nXIIe s.\nE Fenenna iço li turna à repruce, e acoustuméement l'en atarjout, e\namerement rampodnout, , Rois, 3.\nPor ceu plorerent li engele de paix amerement, et si disoient...., ST.\nBERN., 547.\nXVe s.\nCe bon orfevre avoit un serviteur qui estoit amoureux et jaloux tres\namerement de sa dame, LOUIS XI, Nouv. LXXXV.\nSi commença à soi desmen ter et crier plus amerement que devant, ID.,\nib. 98.\nXVIe s.\nOr est ma cruelle ennemie Vengée bien amerement, MAROT, II, 243.\nCe que le roy ayant entendu, s'en aigrit et courroucea si amerement,\nqu'il commanda incontinent que l'on luy tranchast la teste, AMYOT,\nArtax. 18.\n\nÉTYMOLOGIE\nAmère, au féminin, et ment ; provenç. amaramen ; ital. amaramente.
amé, ée	AMÉ, ÉE\n a-mé, mée adj.\nTerme de chancellerie. Aimé. À nos amés et féaux conseillers, etc.\nHenri V {d'Angleterre} nomma son très amé fils Henri, héritier, régent\ndu royaume, VOLT., Moeurs, 185.\n\nÉTYMOLOGIE\nAmatus (voy. AIMER).
amélanche	AMÉLANCHE\n a-mé-lan-ch' s. f.\nFruit de l'amélanchier.
amélanchier	AMÉLANCHIER\n a-mé-lan-chié s. m.\nEspèce de néflier, mespilus amelanchier, Linné, Reboisement des\nmontagnes, Compte rendu, 1869-1874, 2e fasc. p. 49.
amélia	AMÉLIA\n a-mé-li-a s. f.\nSorte de chaussure en vogue depuis quelques années pour les bains de\nmer ; l'empeigne est en toile, et elle est garnie d'une semelle dont le\nmilieu est enfoncé et formé d'une plaque de laiton percée de trous, pour\ndonner issue à l'eau et au sable.
améliorant, ante	AMÉLIORANT, ANTE\n a-mé-li-o-ran, ran-t' adj.\nQui améliore. Culture améliorante, culture qui accroît la fécondité du\nsol.
améliorateur, trice	AMÉLIORATEUR, TRICE\n a-mé-li-o-ra-teur, tri-s' adj.\nQui améliore, qui a la propriété d'améliorer.\nÉtalons améliorateurs, HOUEL, la Question des haras, p. 13, dans Journal\ndes haras, 1874.
amélioration	AMÉLIORATION\n a-mé-li-o-ra-sion s. f.\n\n1° Changement en mieux ; meilleur état. Il y a une grande amélioration\ndans l'état de ce malade.\n\n2° En parlant d'un bien-fonds. Il a fait une amélioration considérable\ndans sa terre.\n\n3° En termes de droit, améliorations voluptuaires, améliorations\nd'agrément.\n\nHISTORIQUE\nXVIe s.\nCet argent se consommera pour ses edifices et en l'ameliorement de sa\nmaison, CARL., I, 31.\nOutre l'ameliorement de la chair par le chastrer, la furie de ces coqs\nest abbatue, O. DE SERRES, 366.\n\nÉTYMOLOGIE\nAméliorer.
améliorer	AMÉLIORER\n a-mé-li-o-ré\n1° V. a. Rendre meilleur. Leurs travaux ont amélioré le sol. Cet\névénement a amélioré sa fortune.\n\n2° Dans l'ancienne chimie, améliorer un métal, l'épurer.\n\n3° S'améliorer, v. réfl. Devenir meilleur. Sa santé, sa conduite\ns'améliore de jour en jour.\n\nHISTORIQUE\nXIIe s.\nCar or savum bien senz devise Que Deus nos a toz regardez ; Tant nos\nsomes ameillorez, Que reial sumes ; mult vait bien, BENOIT, II, 14971.\nXVIe s.\nLa terre est ameilleurée par la marne l'espace de dix ou trente ans,\nPALISSY, 329.\nL'eau y charrie de la graisse tant fertile, que le fonds s'en emmeliore\nbeaucoup, O. DE SERRES, 95.\n\nÉTYMOLOGIE\nÀ (voy. à) et meilleur.\n\nSUPPLÉMENT AU DICTIONNAIRE\nAMÉLIORER. - REM. On a dit aussi améliorir.\nJe me suis occupé, depuis que vous n'avez été ici, à de petits soins qui\naméliorissent la terre de Chaseu, BUSSY-RABUTIN, Lett. à Mme de Sév. 19\ndécembre 1686. On pourrait profiter de ces deux formes pour leur\nassigner un emploi particulier. Améliorer serait actif, et signifierait\nrendre meilleur ; améliorir serait neutre, et signifierait devenir\nmeilleur, comme grandir, devenir grand.\n\nÉTYMOLOGIE\nAjoutez : L'ancienne langue avait le simple : XIIe s.\nPar une nuit, quant il estoit plus tost leveiz por meodreir les\nluminaires, , li Dialoge Gregoire lo pape, 1876, p. 158. Dans cette\nvieille forme se montre le d qui est dans mieudre, représentant du lat.\nmelior.
améliorissement	AMÉLIORISSEMENT\n a-mé-li-o-ri-se-man s.m.\nTerme particulier à l'ordre de Malte, et qui signifiait la même chose\nqu'amélioration. Un commandeur ne pouvait passer d'une commanderie à une\nautre meilleure, s'il ne prouvait qu'il avait fait des améliorissements\ndans celle qu'il voulait quitter.\n\nÉTYMOLOGIE\nAméliorer.
amélioré, ée	AMÉLIORÉ, ÉE\n a-mé-li-o-ré, rée part. passé.\nDes terres améliorées par la culture. Des hommes améliorés par\nl'éducation.
aménagement	AMÉNAGEMENT\n a-mé-na-je-man s. m.\nAction de régler les coupes d'une forêt ; résultat de cette action.\n\nREMARQUE\nAu pluriel il a été abusivement employé pour emménagement, terme de\nmarine.\n\nÉTYMOLOGIE\nAménager.
aménager	AMÉNAGER\n a-mé-na-jé v. a.\n\n1° Régler les coupes d'une forêt, d'un pré.\n\n2° S'aménager, v. réfl. Être aménagé.\nDes prés qui sont regardés communément comme le bien qui rend le plus et\nqui s'aménage avec le moins de frais, VAUBAN, Dîme, p. 193.\n\n3° Débiter en bois de charpente. Aménager un arbre.\nge devant a et o : aménageant.\n\nHISTORIQUE\nXVe s.\nLe suppliant amesnagié {pourvu} de chevaux, bestiaux, DU CANGE,\nauctorabilis.\nQuand messire Jean de Vienne, qui capitaine estoit de Calais, vit que le\nroi d'Angleterre se ordonnoit et amenageoit pour là tenir le siege....,\nFROISS., I, I, 297.\nXVIe s.\nS'il retourne s'amesnager chez soy, et qu'il ait donné forme à une\nfamille complete, il ne prisera pas, comme il doist, sa femme et ses\nenfans, ni le revenu de sa maison, LANOUE, 149.\n\nÉTYMOLOGIE\nÀ (voy. à) et ménage.\n\nSUPPLÉMENT AU DICTIONNAIRE\nAMÉNAGER. - HIST. Ajoutez : XIVe s.\nPour amenager des fols {soufflets}, H. CAFFIAUX, le Beffroi et la cloche\ndes ouvriers, p. 16.\n\nSYNONYME\nAMÉNAGER, EMMÉNAGER. C'est aux forestiers et à l'agriculture\nqu'appartient le mot aménager, qui, là, signifie : régler les coupes\nd'un bois, d'un pré. Depuis il s'est étendu au langage général, où il\nsignifie : disposer un local pour un usage quelconque : aménager une\nmaison pour en faire une auberge, une ambulance, etc. Emménager a le\nsens de mettre un ménage dans un logis ; c'est transporter les meubles\net objets d'un appartement dans un autre.
aménagé, ée	AMÉNAGÉ, ÉE\n a-mé-na-jé, jée part. passé.\nForêts, prés aménagés.
aménité	AMÉNITÉ\n a-mé-ni-té s. f.\n\n1° Agrément accompagné de douceur. Aménité d'un lieu. Aménité de l'air,\nde la température.\nVous pourrez jouir de l'aménité de la France, que vous aimez, MONTESQ.,\nCorresp. 17.\n\n2° Douceur accompagnée de grâce et de politesse.\nD'Artaguette offrait en lui la loyauté des anciens jours et l'aménité\ndes moeurs du nouvel âge, CHATEAUBR., Natch. III, 159.\n\nREMARQUE\nLaveaux conteste à l'Académie sa définition d'aménité : Ce qui fait\nqu'une chose est agréable. Suivant lui, l'aménité ne se dit pas des\nchoses, et on ne peut dire avec l'Académie : L'aménité d'un lieu. Malgré\nla remarque de Laveaux et bien qu'en effet aménité soit plus souvent\nemployé en parlant des personnes, cependant on peut suivre l'Académie et\nle dire des choses.\n\nÉTYMOLOGIE\nProvenç. amenitat ; d'amoenitatem, d'amoenus, agréable.\n\nSUPPLÉMENT AU DICTIONNAIRE\nAMÉNITÉ. Ajoutez : - HIST. XVIe s.\nLa fécondité et amenité de ceste terre, PARADIN, Chron. de Savoye, 1552,\np. 9.
aménorrhée	AMÉNORRHÉE\n a-mé-no-rrée s. f.\nTerme de médecine. Absence du flux mensuel chez une femme en âge d'être\nréglée ; suppression de la menstruation par maladie.\n\nÉTYMOLOGIE\nEn grec, 'A privatif, mois (voy. MOIS), et couler.
américain, aine	AMÉRICAIN, AINE\n a-mé-ri-kin, kè-n' adj.\nQui appartient à l'Amérique.\nChemin de fer américain, synonyme de tramway (voy. ce mot au\nSupplément).\nS. m. pl. Les Américains, les habitants de l'Amérique.\nS. f. Américaine, voiture légère et découverte.
américaniser	AMÉRICANISER\n a-mé-ri-ka-ni-zé v. a.\nDonner le caractère américain.\nS'américaniser, v. réfl.\nL'art épistolaire n'a chance de revivre, que si la vie moderne, comme\nplusieurs symptômes nous portent à le croire, s'américanise à l'excès,\nCARO, Rev. des Deux-Mondes, 1er août 1872, p. 644.
américanisme	AMÉRICANISME\n a-mé-ri-ka-ni-sm' s. m.\nÉtude de tout ce qui concerne l'Amérique.\nCaractère des choses américaines.
américaniste	AMÉRICANISTE\n a-mé-ri-ka-ni-st' s. m.\nCelui qui s'occupe de l'américanisme, des études américaines.\nUn congrès des américanistes aura lieu à Nancy, le 19 juillet prochain ;\nla société des américanistes se propose pour objet l'étude de tout ce\nqui concerne l'histoire, les moeurs et les monuments des peuples du\nnouveau monde, A. MANGIN, Journ. offic. 17 fév. 1875, p. 1279, 3e vol.
améthyste	AMÉTHYSTE\n a-mé-ti-st' s. f.\nPierre précieuse, de couleur violette. C'est le nom donné par les\nlapidaires au quartz hyalin violet des minéralogistes.\nFausse améthyste, le spath-fluor violet.\n\nHISTORIQUE\nXIe s.\nPierres i a, ametiste et topaze, , Ch. de Rol. CXIII.\nXIIe s.\nJagonces, safirs, calcedoines, Esmeraudes, bonnes sardoines, Et bons\ncoraus et crisoiltes, Et diamans et amatistes, , Romancero, p. 59.\nXIIIe s.\nPelles {perles}, coraus et crisolites Et diamans et amecites, , Fl. et\nBl. 657.\nXVIe s.\nEstant entaillé en un camoïeu d'amatite, YVER, p. 588.\n\nÉTYMOLOGIE\nTerme composé de alpha privatif et du verbe grec signifiant enivrer,\nverbe dérivé de vin, à cause que l'on attribuait à cette pierre la vertu\nde prévenir l'ivresse.\n\nREMARQUE\nOn lit dans Ménage : &quot; Du Bartas et Belleau ont dit amethyste, et\nplusieurs le disent encore aujourd'hui. Pourtant la meilleure et la plus\nsaine partie des écrivains disent amathyste, de l'italien et l'espagnol\namatista : il y a plus de 200 ans qu'on dit ainsi : Vermeille comme une\namathyste, VILLON., On ne parle pas autrement à la cour. &quot; Aujourd'hui\non ne dit qu'améthyste.
amétrope	AMÉTROPE\n a-mé-tro-p' adj.\nTerme d'optique et de physiologie. Se dit de l'oeil dans lequel le point\nde la vision distincte, ou foyer de l'appareil dioptrique de l'oeil, est\nsitué hors du plan de la rétine, c'est-à-dire ou en avant, myopie, ou en\narrière, presbytie.\n\nÉTYMOLOGIE\n'A privatif, du grec, mesure, et du grec, oeil.
amétropie	AMÉTROPIE\n a-mé-tro-pie s. f.\nÉtat de l'oeil amétrope. L'amétropie comprend la myopie et la presbytie.
an	AN\n an s. m.\n\n1° Le temps que met la terre à faire sa révolution autour du soleil.\n\n2° Le premier jour de l'an ou le premier de l'an, le premier jour de\nl'année.\n\n3° La fleur des ans, la première jeunesse.\nLes jeunes ans, le temps de la jeunesse.\nLes vieux ans, le temps de la vieillesse.\nLes ans, la vieillesse.\nSous le faix du fagot aussi bien que des ans, LA FONT., Fab. I, 16.\nApprochez, je suis sourd, les ans en sont la cause, LA FONT., ib. VII,\n16.\nDans la nuit du tombeau les ans l'ont fait descendre, VOLT., Oedipe, V,\n2.\nTithon n'a plus les ans qui le firent cigale, MALH., Ode à Duperier.\n\n4° An du monde, an de la création, de Notre-Seigneur ; l'an où l'on est\ndepuis la création, depuis la naissance de Jésus-Christ.\n\n5° An I, an II, an VIII s'employaient pour indiquer les années de l'ère\nde la république française, commencée le 22 septembre 1792.\n\n6° Bon an mal an, compensation faite des bonnes et des mauvaises années.\nEt l'on m'a assuré qu'elle portait d'ordinaire sur elle, bon an mal an,\ntrente quintaux de chair, SCARR., Rom. com. ch. VIII, 2e part.\nNous payons {au gouvernement}, bon an mal an, 900 millions, P. L. COUR.,\nI, 190.\n\n7° Par an, chaque année. Il gagne 2000 fr. par an.\n\n8° Service du bout de l'an ou simplement bout de l'an, le service qu'on\nfait dans une église pour une personne un an après sa mort.\n\n9° Bon jour et bon an, façon de saluer populaire quand on voit une\npersonne dans les premiers jours de l'année.\n\n10° En termes de jurisprudence, an et jour, l'année révolue et un jour\nen plus.\n\nSYNONYME\nAN, ANNÉE. Ces deux termes s'emploient indifféremment l'un pour l'autre,\nsauf certaines locutions consacrées où l'on ne peut pas substituer année\nà an, comme bon an mal an, et sauf que, quand on veut qualifier l'année\nà l'aide d'une épithète, on se sert non de an, mais d'année. On ne dira\npas un bon an, un an abondant, un an heureux, mais une bonne année, une\nannée abondante, une année heureuse.\n\nHISTORIQUE\nXIe s.\nÀ tant cum la cense est de un an, , L. de Guill. 40.\nSet anz touz pleinz ad ested en Espaigne, , Ch. de Rol. I.\nEnsemble {nous} avons ested et ans et dis {jours}, , ib. CXLIX.\nXIIe s.\n{Charlemagne} a bien passé cent ans, , Roncisv. p. 26.\nPuis fu set anz accomplis et entiers, , ib. p. 31.\nEn vieille geste est escriz de lons ans, , ib. p. 86.\nEt pour son fil qu'il eut nourri tant ans, , ib. p. 142.\nL'an que rose ne feuille Ne fleur {je} ne voi paroir, , Couci, VIII.\nJe souferrai mon domage, Tant que l'an verrai passer, , Dame de Faiel\ndans Couci.\nBien {tu} peuz conquerre France, or est entrez li ans {l'année en est\nvenue}, , Sax. V.\nXIIIe s.\nTrois ans {il} fut chevaliers, pleins fut de courtoisie, , Berte, II.\nVingt ans avoit Pepins, ainsi {je} l'ouï esmer, , ib. III.\nCinq cens livres par an à chascune {il} donra, , ib. CXXXI.\nLi an et li jour s'en vont aussi comme l'aigue qui court aval sans\nretourner, RICHARD DE FOURNIVAL, dans Hist. litt. t. XXIII, p. 723.\nQuant la terre est bien replenie de flors et de fruiz, lors est li anz\ncoronez, , Psautier, f° 75.\nCeste addition fu fete en l'an de grace mil...., , Liv. des mét. 360.\nSe baillage escheit à damoiselle qui ait douze ans ou plus d'aage, et le\nvueille aveir et tenir et user, , Ass. de Jér. I, 267.\nIl pot commander à l'eglise à qui li lais {legs} est fes, que il l'oste\nde se {sa} main et le mete en main laie dedans an et jour, BEAUMANOIR,\nXII, 5.\nXVe s.\nSi Monseigneur de Flandres vouloit, il auroit, tous les ans, un grand\nprofit sur les navieurs dont il n'a maintenant rien, FROISS., II, II,\n52.\nSi fut cette chose si approchée que, droitement la nuit de l'an, la\nchose fut arrestée d'estre faite, et devoit le dit Aimery delivrer le\nchasteau de Calais en icelle nuit, FROISS., LI, 326.\nXVIe s.\nL'an passé est toujours le meilleur, GÉNIN, Récréat. t. II, p. 242.\n\nÉTYMOLOGIE\nProvenç. an ; espagn. ano ; ital. anno ; de annus. On a rapproché annus\ndu terme grec signifiant l'année, du dorien et aussi d'un terme\nlaconien, comme du gothique athn, année ; mais ces rapprochements ne\nparaissent pas s'accorder avec l'osque amnud, équivalent de anno. Amnud\nappuie ceux qui disent que annus est pour am-nus, et qui y voient un\nradical commun aux langues celtiques : cornouail. amser ; bas-bret.\namzer ; irland. am ; gaél. âm, le temps ; sanscrit, amati, même\nsignification. L'osque amnud empêche de confondre annus, an, et annus,\nanneau.\n\nSUPPLÉMENT AU DICTIONNAIRE\nAN. - SYN. Ajoutez : An ne s'emploie pas en astronomie.
ana	ANA\n a-na\n1° Affixe qui se joint à certains noms propres pour indiquer un recueil\nde pensées détachées, de bons mots, etc. Le Ménagiana, le Segraisiana.\nC'est dommage qu'on n'ait pas fait un Harleana de tous les dits qui\ncaractérisaient ce cynique {Harlay}, SAINT-SIMON, 173, 49.\n\n2° S. m. Recueil de bons mots.\nTous nos livres en ana ont répété l'historiette, VOLT., Moeurs, 123.\nIl savait par coeur tous les petits traits des ana, J. J. ROUSS., Conf.\nIV.\nAu plur. Les ana.\n\nÉTYMOLOGIE\nSuffixe latin anus, exprimant ce qui appartient à : Virgili-anus, ce qui\nappartient à Virgile et ainsi de suite ; dicta virgiliana, les dits de\nVirgile, ou, en français, un virgiliana, et, par la même analogie, un\nhuetiana, les dits de Huet, etc. d'où enfin un ana, en faisant de la\nfinale un mot qui comprend ces sortes d'ouvrages.
ana	ANA\nMot employé par les médecins dans leurs ordonnances, et signifiant\nautant de l'un que de l'autre.\nÉTYM. Du grec, indiquant répétition.
anabaptisme	ANABAPTISME\n a-na-ba-ti-sm' s. m.\nSecte des anabaptistes.
anabaptiste	ANABAPTISTE\n a-na-ba-ti-st' s. m.\nSectaire qui ne croit pas que les enfants puissent être baptisés, et qui\nles rebaptise quand ils ont atteint l'âge de raison.\nOn a vu les illusions des anabaptistes, et on sait que c'est en suivant\nles principes de Luther et des autres réformateurs qu'ils ont rejeté le\nbaptême sans immersion et le baptême des enfants, BOSSUET, Variat. 15.\n\nÉTYMOLOGIE\nTermes grecs, le premier est le mot traduit par ana qui indique\nréduplication, et le second signifie celui qui baptise (voy. BAPTISER).
anabas	ANABAS\n a-na-bas' s. m.\nVoy. SENNAL, au Supplément.\n\nÉTYMOLOGIE\nEn grec, aller en haut, du grec, en haut, et, aller.
anableps	ANABLEPS\n a-na-blèps' s. m.\nEspèce de poisson.\nAvec une joie inexprimable, il {Agassiz} observe les ébats du singulier\npoisson connu des zoologistes sous le nom d'anableps à quatre yeux ; les\nanableps ont la pupille divisée par un repli membraneux, et ainsi des\nyeux doubles qui permettent de voir à la fois dans l'air et dans l'eau,\nE. BLANCHARD, Rev. des Deux-Mondes, 1er août 1875, p. 562.\n\nÉTYMOLOGIE\nEn grec, regarder en haut, du grec, en haut, et, regarder.
anabrochisme	ANABROCHISME\n a-na-bro-chi-sm' s. m.\nTerme de chirurgie. Opération imaginée autrefois pour remédier, à l'aide\nd'une aiguille et d'un cheveu, au renversement des cils contre le globe\nde l'oeil.\n\nÉTYMOLOGIE\nTerme grec, dérivé du mot ana en sens inverse et de celui qui signifie\nlien.
anacamptique	ANACAMPTIQUE\n a-na - kan - pti-k' adj.\n\n1° Terme de physique. Qui réfléchit, en parlant du son ou de la lumière.\n\n2° En géométrie, se dit des courbes produites par la réflexion de la\nlumière sur une ligne ou sur une surface.\n\nÉTYMOLOGIE\nTerme grec signifiant réfléchir, de ANA en sens inverse et du verbe grec\nindiquant courber.\n\nSUPPLÉMENT AU DICTIONNAIRE\nANACAMPTIQUE. Ajoutez : - REM. Anacamptique n'est plus usité, dit M.\nProuhet.
anacarde	ANACARDE\n a-na-kar-d' s. m.\nFruit en forme de coeur dont l'amande est bonne à manger.\n\nHISTORIQUE\nXVIe s.\nLes medicaments septiques, comme moustarde, anacarde, cantharides....,\nPARÉ, XXXV, 33.\n\nÉTYMOLOGIE\nTermes grecs signifiant selon et coeur (voy. COEUR).
anacardier	ANACARDIER\n a-na-kar-dié s. m.\nArbre des Indes orientales qui produit l'anacarde (anacardium orientale,\nL.).
anacathartique	ANACATHARTIQUE\n a-na-ka-tar-ti-k' adj. et s. m.\nTerme de médecine. Qui excite l'expectoration. Potion anacathartique. Un\nanacathartique.\n\nÉTYMOLOGIE\nTerme dérivé de deux mots grecs signifiant en haut et purger (voy.\nCATHARTIQUE).
anachorète	ANACHORÈTE\n a-na-ko-rè-t' s. m.\n\n1° Religieux qui vit dans la solitude, par opposition à cénobite,\nreligieux qui vit en communauté avec d'autres.\nUn bon vieillard, pieux anachorète, Depuis vingt ans sous ce toit\nrésidait, MILLEV., Charlemagne à Pav. v.\nDes anachorètes consommés dans une piété éminente par de longues\nmacérations et par une vie angélique, MASS., Vocat. à l'état ecclésiast.\n\n2° Homme qui vit loin du monde. Il mène une vie d'anachorète.\n\nÉTYMOLOGIE\nTerme grec composé de ANA indiquant éloignement et du verbe grec\nsignifiant aller.
anachronisme	ANACHRONISME\n a-na-kro-ni-sm' s. m.\nFaute contre la chronologie.\nPour éviter les anachronismes, cette erreur qui fait confondre les\ntemps, BOSSUET, Hist. Préf.\nOn connaît l'heureux anachronisme de l'Énéide ; tel est le privilége du\ngénie, que les malheurs de Didon sont devenus une partie de la gloire de\nCarthage, CHATEAUB., Itin. III, 125.\nAnachronisme de costume, erreur qui consiste à attribuer à une époque\ndes vêtements, des meubles qui n'ont existé qu'à une autre époque.\n\nREMARQUE\nAnachronisme se disait d'abord d'une erreur qui consiste à placer un\nfait avant sa date ; l'erreur opposée se disait parachronisme ; mais\nparachronisme est devenu peu usité, et anachronisme a pris une acception\ngénérale.\n\nÉTYMOLOGIE\nDu grec, indiquant renversement, et temps (voy. CHRONIQUE).
anaclastique	ANACLASTIQUE\n a-na-kla-sti-k'\n1° Adj. En termes de physique, se dit du point où un rayon lumineux se\nréfracte ou se réfléchit. Courbe anaclastique, courbe apparente suivant\nlaquelle une ligne est vue à travers un milieu réfringent.\n\n2° S. f. Partie de l'optique qui traite des réfractions. On ne dit plus\nque Dioptrique.\n\nÉTYMOLOGIE\nDu grec, indiquant déviation et je romps.\n\nSUPPLÉMENT AU DICTIONNAIRE\nANACLASTIQUE. Ajoutez : - REM. Anaclastique n'est plus usité, dit M.\nProuhet.
anacoluthe ou plus rarement anacoluthie	ANACOLUTHE ou plus rarement ANACOLUTHIE\n a-na-ko-lu-t' ou a-na-ko-lu-tie s. f.\nTerme de grammaire.\n\n1° Ellipse qui consiste à employer un relatif sans son antécédent. Il y\na une anacoluthe dans ce vers : Je vais où va toute chose, c'est-à-dire\ndans les lieux où....\n\n2° Tournure dans laquelle commençant par une construction, ou finit par\nune autre, comme dans ces vers de Cinna, V, 1 : Toutes les dignités que\ntu m'as demandées, Je te les ai sur l'heure et sans peine accordées.\n\nÉTYMOLOGIE\nTerme grec composé d'une préposition privative et d'un mot signifiant\nqui suit (voy. ACOLYTHE).
anacoste	ANACOSTE\n a-na-ko-st' s. f.\nTerme de commerce. Sorte de serge fabriquée en Normandie.
anacréontique	ANACRÉONTIQUE\n a-na-kré-on-ti-k' adj.\nQui est écrit dans le goût d'Anacréon ; qui écrit dans le genre\nd'Anacréon. Poésie anacréontique. Poëte anacréontique.\nJ'ai tâché de lui ressembler {à Anacréon} dans les odes que j'appelle\nanacréontiques, LAMOTTE, Discours sur la poésie en général.\n\nREMARQUE\nCe mot, qui ne se trouve pas dans les éditions antécédentes du\nDictionnaire de l'Académie, paraît dû à Lamotte.\n\nÉTYMOLOGIE\nLatin, anacreonticus ; terme grec signifiant Anacréon, poëte grec qui a\ndonné son nom au genre dans lequel il a chanté.
anacréontisme	ANACRÉONTISME\n a-na-kré-on-ti-sm' s. m.\nCaractère anacréontique.\nJe suis peut-être en partie cause que l'auteur {d'une tragédie\nd'Édouard} donne aujourd'hui dans un genre si opposé au génie qui l'a si\nheureusement distingué ; je lui ai si fort prêché la nécessité de sortir\nde son anacréontisme,..., J. B. ROUSS., Lett. à Racine, 1er mars 1740.
anacéphaléose	ANACÉPHALÉOSE\n a-na-sé-fa-lé-ô-z' s. f.\nTerme de philologie. Récapitulation d'un discours, d'un écrit.\nPeu usité.\n\nÉTYMOLOGIE\nTerme dérivé de deux mots grecs, ANA exprimant retour, et l'autre\nsignifiant chapitre (de tête, voy. CÉPHALIQUE) : reprise des chapitres.
anadiplose	ANADIPLOSE\n a-na-di-plô-z' s. f.\nEspèce de répétition qui consiste à placer deux fois de suite le même\nmot à la fin de la phrase qui finit et au commencement de celle qui\ncommence, pour donner plus de force à l'expression. Cette phrase de\nBossuet, Or. fun. de la duchesse d'Orléans, offre une anadiplose : Et\nles princes et les peuples gémissaient en vain ; en vain Monsieur, en\nvain le roi lui-même tenait Madame serrée par de si étroits\nembrassements, etc.\n\nÉTYMOLOGIE\nTerme grec composé du mot ANA indiquant répétition, et de je double.
anadyomène	ANADYOMÈNE\n a-na-di-o-mè-n' adj. f.\nTerme d'antiquité. Vénus anadyomène, voy. VÉNUS.\n\nÉTYMOLOGIE\nEn grec, celle qui sort de l'eau, du grec, en haut, et, aller.
anafin	ANAFIN\n a-na-fin s. m.\nSorte d'instrument de musique arabe.\nAu lieu du son des anafins, du bruit des trompettes, un silence profond\nrégnait autour d'Aben Hamet, CHATEAUB., Abenc. 157.\n\nSUPPLÉMENT AU DICTIONNAIRE\nANAFIN. Ajoutez : - ÉTYM. Port. anafim, anafil, danafil, espagn. añafil,\nde l'arabe an-nafir, sorte de trompette.
anagallis	ANAGALLIS\n a-na-gal-lis' s. m.\nVoy. MOURON.\n\nHISTORIQUE\nXVIe s.\nDu jus de porée, choux, marjolaine, anagallis, hyssope, PARÉ, XXV, 35.\n\nÉTYMOLOGIE\nTerme grec.
anaglyphe ou anaglypte	ANAGLYPHE ou ANAGLYPTE\n a-na-gli-f' ou ana-gli-pt' s. m.\nTerme d'antiquité. Bas-relief ou vase orné de bas-reliefs.\n\nÉTYMOLOGIE\nTerme dérivé de deux mots grecs signifiant en haut et ciseler.
anagnoste	ANAGNOSTE\n a-nag-no-st' s. m.\nTerme d'antiquité. Esclave qui, chez les riches Romains, faisait la\nlecture pendant le repas.\n\nÉTYMOLOGIE\nTerme grec signifiant lecteur, provenant du verbe grec traduit par lire,\nprimitivement reconnaître, de ANA indiquant réduplication, et verbe grec\nexprimant connaître (voy. GNOSTIQUE).\n\nSUPPLÉMENT AU DICTIONNAIRE\nANAGNOSTE. Ajoutez : - HIST. XIVe s.\n{François 1er ayant entendu la lecture de Gargantua} par la voix et la\npronunciation du plus docte et fidele anagnoste de ce royaume, RAB., IV,\nÉp. au card. de Chastillon.
anagogie	ANAGOGIE\n a-na-go-jie s. f.\nTerme de théologie. Ravissement de l'âme dans la contemplation des\nchoses divines, ou efforts qu'elle fait pour découvrir le sens mystique\nde quelques passages de l'Écriture.\n\nÉTYMOLOGIE\nTerme grec (voy. ANAGOGIQUE).
anagogique	ANAGOGIQUE\n a-na-go-ji-k' adj.\nTerme de théologie. Interprétation anagogique, interprétation qui\ns'élève du sens littéral à un sens spirituel.\nPour distinguer le sens anagogique des phrases hébraïques chez les\nprophètes, VOLT., Phil. IV, 455.\n\nÉTYMOLOGIE\nTerme grec signifiant qui élève, dérivé des deux mots suivants : en haut\net qui conduit, (voy. AGIR).
anagrammatique	ANAGRAMMATIQUE\n a-na-gra-mma-ti-k' adj.\nQui a rapport à l'anagramme.
anagrammatiser	ANAGRAMMATISER\n a-na-gra-mma-ti-zé v. n.\nFaire des anagrammes.\n\nÉTYMOLOGIE\nAnagramme. St-Amand a dit anagrammer : Il me souvient qu'un acrostiche\nAnagrammé par l'hémistiche.... dans MÉNAGE.\n\nSUPPLÉMENT AU DICTIONNAIRE\nANAGRAMMATISER, v. n. Ajoutez :\nIl se dit activement aussi. Exemplaire avec la clef de tous les noms\nanagrammatisés qui paraissent dans cette curieuse satire (les Amours de\nZeokinizul), {Louis XV}, le Bibliographe, août et sept. 1875, p. 211.
anagrammatiste	ANAGRAMMATISTE\n a-na-gra-mma-ti-st' s. m.\nCelui qui fait des anagrammes.
anagramme	ANAGRAMME\n a-na-gra-m' s. f.\nTransposition de lettres, qui d'un mot ou d'une phrase fait un autre mot\nou une autre phrase. Les mots nacre, rance et ancre sont des anagrammes\nles uns des autres.\nJ'aimerais mieux tirer l'oison, Et même tirer à la rame, Que d'aller\nchercher la raison Dans les replis d'une anagramme, COLLETET, dans\nMÉNAGE.\n\nREMARQUE\nC'est une faute assez commune de faire anagramme masculin.\n\nÉTYMOLOGIE\nTerme grec composé de ANA indiquant renversement et du verbe grec qui\nsignifie écrire (voy. GRAPHIQUE).
anagrammé, ée	ANAGRAMMÉ, ÉE\n a-na-gra-mmé, mmée adj.\nQui a été l'objet d'un anagramme.\n...un sonnet acrostiche, Anagrammé par l'hémistiche, SAINT-AMANT, le\nPoëte crotté.
anagraphe	ANAGRAPHE\n an-na-gra-f' s. m.\nNom donné, dans l'administration égyptienne, sous les Ptolémées, à un\ncontrôleur.\n\nÉTYMOLOGIE\nDu grec, sur, et, écrire.
anagyre ou anagyris	ANAGYRE ou ANAGYRIS\n a-na-ji-r' ou a-na-ji-ris' s. m.\nTerme de botanique. Arbrisseau de la famille des légumineuses, dont les\nfeuilles sont purgatives, et dont le bois et l'écorce sont fétides\n(anagyris foetida, L.) ; dit vulgairement bois puant.\n\nÉTYMOLOGIE\nTerme grec.
anal, ale	ANAL, ALE\n a-nal, na-l' adj.\nTerme d'anatomie. Qui a rapport à l'anus. Les veines anales.
analectes	ANALECTES\n a-na-lè-kt' s. m. plur.\nTerme de philologie. Morceaux, fragments choisis d'un auteur ou de\nplusieurs auteurs.\n\nÉTYMOLOGIE\nTerme grec composé de ANA indiquant distribution et du verbe grec\nsignifiant choisir (voy. LIRE).
analemmatique	ANALEMMATIQUE\n a-na-lè-mma-ti-k' adj.\nTerme de gnomonique. Cadran analemmatique, sorte de cadran horizontal, à\nstyle vertical, inventé par Vaulerard, qui a écrit : Traité de\nl'origine, démonstration, construction et usages du quadrant\nanalemmatique, 1664 (PROUHET). Jean de Rojas, élève de Gemma et auteur\nd'astrolabes analemmatiques, D'AVEZAC, Projection des cartes de géogr.
analepsie	ANALEPSIE\n a-na-lè-psie s. f.\nTerme de médecine. Rétablissement des forces après une maladie.\n\nÉTYMOLOGIE\nEn grec (voy. ANALEPTIQUE).
analeptique	ANALEPTIQUE\n a-na-lè-pti-k'\n1° Adj. Terme de médecine. Qui restaure, qui rétablit les forces\népuisées. Médication, alimentation analeptique.\n\n2° S. m. Un bon analeptique.\n\nÉTYMOLOGIE\nTerme dérivé du verbe grec signifiant reprendre et qui provient de ANA\nindiquant reprise, et du verbe grec prendre (voy. LEMME).
analgésie ou analgie	ANALGÉSIE ou ANALGIE\n a-nal-jé-zie ou anal-jie s. f.\nTerme de médecine. Absence de douleur ; insensibilité à la piqûre, au\npincement, etc. dans la plupart des cas d'hystérie.\n\nÉTYMOLOGIE\nTerme grec composé de alpha privatif et du mot grec exprimant douleur.
analogie	ANALOGIE\n a-na-lo-jie s. f.\n\n1° Rapport, similitude entre plusieurs choses différentes. Il y a de\nl'analogie entre le cheval et l'âne.\nRaisonner par analogie, former un raisonnement fondé sur les rapports ou\nsur les ressemblances en tant qu'elles indiquent des rapports.\n\n2° Rapport que les mots ont entre eux par leur formation. Le mot\npassionné est formé de passion par la même analogie qu'affectionné est\nformé d'affection.\n\n3° En termes de mathématiques, rapport, proportion. Il y a la même\nanalogie entre 2 et 3 qu'entre 6 et 9. Vieux en ce sens.\n\n4° En philosophie, procédé de l'esprit qui s'élève, par l'observation\ndes rapports, à la raison de ces rapports.\nAnalogie prochaine, la perception actuelle de la similitude, de la\nressemblance de deux ou plusieurs choses présentes ; analogie éloignée,\ncelle par laquelle, étant connu le rapport de deux faits, nous concluons\nl'existence de l'un de l'existence de l'autre.\nEn elle-même, l'analogie n'est que la somme des rapports avec les choses\nconnues, BUFF., Homme, arithm. morale.\nPar la seule chaîne du raisonnement et les probabilités de l'analogie,\nle péché originel est retrouvé, CHATEAUB., Génie, I, III, 3.\n\nÉTYMOLOGIE\nTerme grec (voy. ANALOGUE).\n\nSUPPLÉMENT AU DICTIONNAIRE\nANALOGIE. Ajoutez : - HIST. XVIe s.\nL'analogie (si les oreilles françoyses peuvent porter ce mot), H.\nESTIENNE, Apologie pour Hérodote, t. I, p. XLIV, epistre.
analogique	ANALOGIQUE\n a-na-lo-ji-k' adj.\nQui est conforme à l'analogie, qui est appuyé sur l'analogie. Ces mots\nsont formés d'une manière analogique.\nIl se met après son substantif : Expressions analogiques.\n\nÉTYMOLOGIE\nTerme grec (voy. ANALOGIE).
analogiquement	ANALOGIQUEMENT\n a-na-lo-ji-ke-man adv.\nD'une manière analogique. Procéder analogiquement.\n\nÉTYMOLOGIE\nAnalogique et le suffixe ment (voy. MENT).
analogue	ANALOGUE\n a-na-lo-gh'\n1° Adj. Qui a de la ressemblance, de l'analogie. L'italien et le\nfrançais sont des langues analogues.\n\n2° S. m. Les ailes des oiseaux sont les analogues des membres antérieurs\ndes quadrupèdes.\n\n3° En anatomie comparée, théorie des analogues, théorie qui recherche\nles parties analogues dans les corps organisés. On donne le nom\nd'analogues à des organes qui, sans avoir la même forme, les mêmes\nproportions dans les divers animaux, offrent les mêmes connexions avec\nles organes voisins.\n\n4° En physique, pôle analogue de la tourmaline électrisée, celui qui\nconcorde, par le signe de l'électricité qu'il acquiert, avec le signe de\nla température.\n\nÉTYMOLOGIE\nLe grec se traduit par d'après et raison (voy. LOGIQUE).\n\nSUPPLÉMENT AU DICTIONNAIRE\nANALOGUE. Ajoutez : - REM. Quand on donne un régime à analogue, c'est à\nl'aide de la préposition à. Un objet est analogue à un autre.
analyse	ANALYSE\n a-na-li-z' s. f.\n\n1° Résolution d'un tout en ses parties.\n\n2° Analyse chimique, décomposition d'un composé au moyen de réactifs\nappropriés, et séparation de ses principes constituants.\nCette tache était d'une encre tout extraordinaire, qui résistait à\nl'analyse, P. L. COUR., I, 79.\nAnalyse qualitative, celle qui détermine la nature ou qualité des\nparties d'un composé, sans s'occuper de leur quantité.\nAnalyse quantitative, celle dans laquelle on détermine le poids et le\nvolume, absolu ou proportionnel, des parties obtenues par l'analyse\nqualitative.\nAnalyse immédiate, celle qui sépare les parties dont un corps est\ncomposé. Exemple : Séparation d'un sel en son acide et sa base ou ses\nbases.\nAnalyse élémentaire, celle dans laquelle on ne s'occupe que du poids et\nde la nature des éléments chimiques ou corps simples.\n\n3° En grammaire, analyse, exposé que le maître fait faire de tous les\naccidents et des propriétés des mots ou des phrases.\nL'analyse grammatologique consiste à faire connaître les lettres, les\nsyllabes, les signes orthographiques.\nL'analyse spécifique des mots est la décomposition d'une phrase ou d'un\ndiscours selon les espèces de mots qui y entrent.\nL'analyse étymologique consiste à décomposer tous les mots d'une phrase\npar rapport à l'étymologie, c'est-à-dire à indiquer les primitifs et les\ndérivés, les simples et les composés.\nL'analyse logique consiste à expliquer exactement la nature, le nombre\net la composition des propositions, et à en distinguer et déterminer les\ndifférents termes.\nL'analyse syntaxique des phrases est celle qui nous fait connaître les\nrapports que les mots ont les uns aux autres.\nL'analyse grammaticale est l'analyse syntaxique et l'analyse spécifique\nréunies et faites toutes deux à la fois de la même phrase.\n\n4° En logique, méthode par laquelle on remonte des effets aux causes, ou\ndes conséquences aux principes, du particulier au général, du composé au\nsimple. L'analyse est l'opposé de la synthèse.\n\n5° En littérature, extrait, précis, examen d'un ouvrage.\nJe ferai l'analyse des notes et de l'instruction, BOSSUET, Lett. quiét.\n199.\nSi l'on faisait en toute rigueur l'analyse de ce discours, BOSSUET, Or.\n9.\nEn faisant l'analyse des propositions de l'auteur, BOSSUET, Préf.\nVoici le temps de lui apprendre à faire l'analyse d'un discours, J. J.\nROUSS., Ém. IV.\n\n6° Au moral, examen, recherche. L'analyse de nos facultés, des passions.\n\n7° En termes de mathématiques, l'analyse est l'algèbre. L'analyse\ntranscendante est le calcul différentiel et intégral. On appelle aussi\nquelquefois analyse l'application de l'algèbre à la géométrie, ou\ngéométrie générale.\n\n8° En dernière analyse, loc. adv. En dernier résultat.\n\nSYNONYME\nANALYSE, INDUCTION. L'analyse est proprement et essentiellement la\nrésolution du composé en ses éléments, et la synthèse, la reconstitution\ndes éléments en leur composé ; c'est ce que la chimie nous enseigne\nd'une manière nette et précise. Mais quand on dit que l'analyse est la\nméthode qui va des effets à la cause, des conséquences au principe, du\nparticulier au général, on ajoute à l'analyse une idée qui en fait la\nméthode inductive, l'induction. L'induction est donc l'analyse\nconsidérée quant à la recherche de la cause, du principe, du général.\nC'est en ce sens que l'analyse a été dite souvent méthode des\ndécouvertes. L'astronomie offrit le plus bel exemple d'analyse ou\ninduction, quand Newton trouva la gravitation, cause des faits\nparticuliers, et de synthèse ou déduction, quand de la gravitation ou\nloi générale on tira les faits particuliers du système solaire.\n\nÉTYMOLOGIE\nTerme dérivé de deux verbes grecs signifiant résoudre et délier.\n\nSUPPLÉMENT AU DICTIONNAIRE\nANALYSE. Ajoutez : - REM. Le nom d'analyse donné à l'algèbre littérale\nvient de ce que c'est un puissant instrument d'analyse, ainsi que l'a\nentendu Viète, inventeur du nom, et qui a donné à son premier ouvrage le\ntitre de In Artem analyticam.
analyser	ANALYSER\n a-na-li-zé v. a.\nFaire l'analyse. Analyser une substance. Analyser une phrase. Analyser\nun discours, une pièce de théâtre.\n\nÉTYMOLOGIE\nAnalyse.
analyseur	ANALYSEUR\n a-na-li-zeur s. m.\nCelui qui analyse.\nLocke, ce profond analyseur des procédés de l'esprit humain..., MIRAB.,\nCollection, t. v, p. 32.\n\nÉTYMOLOGIE\nAnalyser.\n\nSUPPLÉMENT AU DICTIONNAIRE\nANALYSEUR. Ajoutez :\n\n2° Adj. Qui analyse, qui produit l'analyse chimique. Le pouvoir\nrotatoire de certaines substances est analyseur.
analyste	ANALYSTE\n a-na-li-st' s. m.\nCelui qui est versé dans l'analyse mathématique.\n\nÉTYMOLOGIE\nAnalyse.\n\nSUPPLÉMENT AU DICTIONNAIRE\nANALYSTE. Ajoutez :\n\n2° Chimiste qui fait des analyses.\nLa rémunération allouée aux analystes chargés de constater la nature et\nla quantité des denrées et drogues, , Journ. offic. 23 fév. 1875, p.\n1371, 1re col.
analysé, ée	ANALYSÉ, ÉE\n a-na-li-zé, zée part. passé.\nLes substances analysées par la chimie. Cette comédie analysée par un\ncritique habile. Les facultés de l'entendement analysées à l'aide d'une\nméthode plus sûre.
analytique	ANALYTIQUE\n a-na-li-ti-k' adj.\n\n1° Qui tient de l'analyse, qui procède par analyse. Méthode analytique.\nEsprit analytique.\nJ'ai suivi la voie analytique dans mes méditations, DESC., Rép. 2.\n\n2° Géométrie, mécanique analytique, traités qui reposent sur l'emploi de\nl'algèbre ou du calcul infinitésimal.\n\nÉTYMOLOGIE\nTerme grec (voy. ANALYSE).
analytiquement	ANALYTIQUEMENT\n a-na-li-ti-ke-man adv.\nD'une manière analytique ; par voie d'analyse. Procéder analytiquement.\n\nÉTYMOLOGIE\nAnalytique et le suffixe ment.
analème	ANALÈME\n a-na-lè-m' s. m.\nTerme de géographie astronomique. Représentation des cercles de la\nsphère sur une surface plane, comme on le voit dans les cadrans solaires\n(voy. aux ADDITIONS).\n\nREMARQUE\nPourquoi ne pas écrire analemme comme on l'écrivait autrefois et comme\non écrit encore aujourd'hui lemme ? Irrégularité que l'Académie aura à\nfaire disparaître.\n\nÉTYMOLOGIE\nTerme grec signifiant base ou pied d'estal du cadran, dont on a, par\nmétonymie, donné le nom aux lignes qui forment le gnomon ; terme dérivé\nde deux mots grecs signifiant en haut et prise (voy. LEMME),\nc'est-à-dire soutien.\n\nSUPPLÉMENT AU DICTIONNAIRE\nANALÈME. Lisez : Terme de gnomonique. Projection orthographique de la\nsphère sur le plan du méridien.
anamartésie	ANAMARTÉSIE\n a-na-mar-té-zie s. f.\nTerme de dogmatique. Absence de péché. L'anamartésie de Jésus.\n\nÉTYMOLOGIE\nEn grec privatif, et, erreur, péché.
anamnestique	ANAMNESTIQUE\n a-na-mnè-sti-k' adj.\nTerme de médecine. Qui rappelle le souvenir. Signes anamnestiques ou\ncommémoratifs, signes à l'aide desquels on découvre ce qui a précédé.\n\nÉTYMOLOGIE\nTerme dérivé de deux mots grecs signifiant derechef et mémoire (voy.\nMÉMOIRE).
anamorphose	ANAMORPHOSE\n a-na-mor-fô-z' s. f.\n\n1° Image déformée dessinée sur une surface plane, qui, réfléchie par un\nmiroir cylindrique vertical, offre une figure régulière.\n\n2° En botanique, nom donné à l'ensemble des changements qui se\nmanifestent chez certains lichens et autres cryptogames.\n\nÉTYMOLOGIE\nMot grec fictif dérivé d'un autre mot fictif, ce dernier provenant de\nANA indiquant transposition, et du terme grec signifiant forme.
ananas	ANANAS\n a-na-nâ s. m.\n\n1° Plante de l'Inde et de l'Amérique méridionale, qui produit le fruit\ndélicieux et rafraîchissant appelé aussi ananas.\n\n2° Espèce de grosse fraise très parfumée.\n\nÉTYMOLOGIE\nPéruvien, nanas, nom du fruit.\n\nSUPPLÉMENT AU DICTIONNAIRE\nANANAS. - ÉTYM. Au lieu de péruvien, lisez brésilien.
anandre	ANANDRE\n a-nan-dr' adj.\nTerme de botanique. Se dit d'une plante dont les fleurs sont privées\nd'organes mâles.\n\nÉTYMOLOGIE\nTermes grecs, ANA privatif et mâle.
ananthe	ANANTHE\n a-nan-t' adj.\nQui ne porte pas de fleurs.\n\nÉTYMOLOGIE\nTermes grecs, ANA privatif et fleur.
anapeste	ANAPESTE\n a-na-pè-st' s. m.\nEn poésie grecque et latine, pied composé de deux brèves et d'une\nlongue.\n\nÉTYMOLOGIE\nTerme dérivé de ANA indiquant réduplication et du verbe grec signifiant\nfrapper.
anapestique	ANAPESTIQUE\n a-na-pè-sti-k' adj.\nDans lequel entre l'anapeste. Vers, mètre anapestique.\n\nÉTYMOLOGIE\nTerme grec (voy. ANAPESTE).
anaphonèse	ANAPHONÈSE\n a-na-fo-nê-z' s. f.\nTerme de médecine. Exercice ou éclats de la voix ; action de crier.\nEn thérapeutique, emploi des exercices vocaux pour fortifier les poumons\net les voies respiratoires.\n\nÉTYMOLOGIE\nTerme dérivé de deux mots grecs signifiant en haut et faire entendre un\nson.
anaphore	ANAPHORE\n a-na-fo-r' s. f.\nFigure de rhétorique. Répétition du même mot en tête des phrases ou de\nmembres de phrase. Il y a une anaphore dans ces vers de Delille :\nTendre épouse, c'est toi qu'appelait son amour, Toi qu'il pleurait la\nnuit, toi qu'il pleurait le jour, DELILLE, Géorg. liv. IV.\n\nÉTYMOLOGIE\nTerme dérivé de deux mots grecs signifiant de nouveau et porter.
anaphrodisiaque	ANAPHRODISIAQUE\n a-na-fro-di-zi-a-k' adj.\nTerme de médecine. Qui éteint les désirs vénériens.\n\nÉTYMOLOGIE\nEn grec, ANA privatif, et aphrodisiaque.
anaphrodisie	ANAPHRODISIE\n a-na-fro-di-zie s. f.\nTerme de médecine. Absence des désirs vénériens.\nIl n'a pas un sens aussi étendu que le mot impuissance.\n\nÉTYMOLOGIE\nVoy. ANAPHRODITE.
anaphrodite	ANAPHRODITE\n a-na-fro-di-t' adj.\nTerme de médecine. Insensible à l'amour.\n\nÉTYMOLOGIE\nTerme grec dérivé de ANA privatif, et du mot grec signifiant Vénus (voy.\nAPHRODISIAQUE).
anaplastie	ANAPLASTIE\n a-na-pla-stie s. f.\nTerme de chirurgie. Art de rétablir la forme normale des parties\nmutilées. On emploie plus généralement le mot autoplastie, qui n'a\npourtant pas le même sens.\n\nÉTYMOLOGIE\nANA indiquant rénovation, et verbe grec signifiant former (voy.\nPLASTIQUE).
anaplastique	ANAPLASTIQUE\n a-na-pla-sti-k' adj.\nTerme de chirurgie. Qui se rapporte aux procédés de restauration des\nparties.\n\nÉTYMOLOGIE\nAnaplastie.
anaplérotique	ANAPLÉROTIQUE\n a-na-plé-ro-ti-k' adj.\nTerme de médecine. Médicaments anaplérotiques, médicaments auxquels on\nattribuait la propriété de favoriser la régénération des chairs dans les\nplaies.\n\nÉTYMOLOGIE\nTerme grec signifiant remplir, dérivé du verbe emplir.
anapnographe	ANAPNOGRAPHE\n a-na-pno-gra-f' s. m.\nInstrument qui sert à déterminer l'état et les variations de la\nrespiration.\n\nÉTYMOLOGIE\nDu grec, respiration (du grec, re...., et, souffler), et du grec,\ndécrire.
anarchie	ANARCHIE\n a-nar-chie s. f.\nAbsence de gouvernement, et par suite désordre et confusion. On ne voit\nque trouble et anarchie. L'anarchie des esprits.\nDe ce que l'ordre est meilleur que la confusion, je conclus qu'il n'y a\nrien de pire que l'anarchie, c'est-à-dire de vivre sans gouvernement et\nsans lois, BOSSUET, Connaiss. I, 13.\nLa Hollande du joug en vain s'est affranchie, Sa liberté lui pèse et\ntouche à l'anarchie, LEMIERRE, Barnevelt, I, 1.\n\nÉTYMOLOGIE\nTerme composé de ANA privatif, et du mot grec signifiant commandement\n(voy. ARCHONTE).
anarchique	ANARCHIQUE\n a-nar-chi-k' adj.\n\n1° Qui tient de l'anarchie. État anarchique.\nDis-lui que ma présence N'autorisera point l'anarchique insolence D'un\ntas de malheureux qui peuvent m'égorger, ROTROU, Phocion, IV, 2.\n\n2° Favorable à l'anarchie. Opinion anarchique. Discours anarchique.\n\nÉTYMOLOGIE\nAnarchie.
anarchiser	ANARCHISER\n a-nar-chi-zé v. a.\nNéologisme. Rendre anarchique.\nUne loi qu'il est impossible de faire exécuter, même en anarchisant\ntoutes les parties de l'empire, MIRAB., Collection, t. v, p. 403.\n\nÉTYMOLOGIE\nAnarchie.
anarchiste	ANARCHISTE\n a-nar-chi-st' s. m.\nFauteur d'anarchie, perturbateur.
anarmostique	ANARMOSTIQUE\n a-nar-mo-sti-k' adj.\nTerme de minéralogie. Se dit des cristaux offrant des faces qui ne sont\npas toutes produites par une même loi.\n\nÉTYMOLOGIE\nANA privatif, et verbe grec signifiant disposer.
anaryen, enne	ANARYEN, ENNE\n a-na-riin, riè-n' adj.\nTerme de linguistique. Qui n'est pas aryen.\nLes savants ont donné le nom d'anaryen au système cunéiforme des\ninscriptions de Ninive et de Babylone, par opposition avec le système\ncunéiforme aryen en usage chez les Perses, FR. LENORMANT, Manuel d'hist.\nanc. t. II, p. 156, 4e édit.
anasarque	ANASARQUE\n a-na-zar-k' s. f.\nTerme de médecine. Gonflement du corps produit par de la sérosité\ninfiltrée dans le tissu cellulaire.\n\nHISTORIQUE\nXVIe s.\nQuand toute l'habitude du corps est pleine de phlegme blanc, on appelle\nl'hydropisie anasarca ou leucophlegmatia, PARÉ, VI, 11.\n\nÉTYMOLOGIE\nANA indiquant dispersion, et terme grec signifiant chair (voy.\nSARCASME).
anastomose	ANASTOMOSE\n a-na-sto-mô-z' s. f.\nTerme d'anatomie. Abouchement de deux vaisseaux.\nJe lui demande un petit éclaircissement sur les veines lactées et sur\nles anastomoses, et il ne me le veut pas donner, FONTEN., Jug. de\nPluton.\n\nHISTORIQUE\nXVIe s.\nAnastomose est communication de veine avec artere, à fin que si elles\nont indigence, qu'elles s'aident, PARÉ, I, 22.\nLes aneurismes se font par anastomose et diapedese, ruption, erosion et\nplaye, PARÉ, V, 30.\n\nÉTYMOLOGIE\nTerme dérivé de deux mots grecs signifiant ouvrir et bouche.
anastomoser (s')	ANASTOMOSER (S')\n a-na-sto-mô-zé v. réfl.\nTerme d'anatomie. Se joindre par anastomose.
anastomosé, ée	ANASTOMOSÉ, ÉE\n a-na-sto-mô-zé, zée part. passé.\nDes veines anastomosées entre elles.
anastomotique	ANASTOMOTIQUE\n a-na-sto-mo-ti-k' adj.\nQui a rapport à l'anastomose.
anastrophe	ANASTROPHE\n a-na-stro-f' s. f.\nTerme de grammaire. Renversement de construction ; par exemple, en\nlatin, mecum, tecum, vobiscum, au lieu de cum me, cum te, cum vobis.\n\nÉTYMOLOGIE\nTerme dérivé du verbe grec renverser, dérivé de ANA indiquant\nrenversement, et du verbe grec exprimant tourner (voy. STROPHE).
anathème	ANATHÈME\n a-na-tê-m' s. m.\n\n1° Personne exposée publiquement à la malédiction par l'autorité\necclésiastique.\nVous êtes donc là, comme un anathème, séparé de tout le reste de vos\nfrères ?, MASS., Temples.\nVous séparer, comme un anathème, de tout le corps des justes, MASS.,\nConv.\nL'assemblée même des fidèles leur était d'abord interdite {aux pénitents\npublics} comme à des anathèmes, MASS., Respect dans les Temples.\nDieu vous rejette invisiblement, vous êtes à ses yeux un anathème et un\nexcommunié, MASS., ib.\nVivant comme des anathèmes séparés de l'assemblée sainte, MASS., Carême,\nPetit nombre des Élus.\nN'êtes-vous pas un anathème, si vous n'aimez pas J. C. crucifié ?,\nMASS., Carême, Passion.\nVous serez jusqu'à la fin marqué d'un caractère de réprobation, et un\nanathème caché au milieu d'Israël, MASS., Conférences, État\necclésiastique.\nJ'ai confiance, ô mon Dieu, qu'il n'y a pas ici, comme autrefois sous\nles tentes d'Israël, un autre Achan caché dans la foule ni un anathème\nparmi les fidèles, MASS., Carême, Communion.\nC'est ce monde qui doit être pour vous un crucifié, c'est-à-dire un\nanathème et un objet d'horreur, MASS., Carême, Petit nombre des Élus.\n\n2° Adjectivement. Qu'il soit anathème.\nSaint Paul a l'autorité d'un père et la tendresse d'une mère ; il veut\nêtre anathème pour ses enfants, FÉN., XVIII, 363.\n\n3° Par extension, retranchement de la communion de l'Église.\nLe concile frappa d'anathème un évêque célèbre, BOSSUET, Hist. I, 11.\nJosué immola au Seigneur 31 rois du pays tous soumis à l'anathème,\nVOLT., Moeurs, Vict. humaines.\n\n4° Malédiction.\nJe ne viens pas ici prononcer des anathèmes contre les grandeurs\nhumaines, MASS., Vices.\nLa religion ne semble avoir des anathèmes que pour ceux qui...., MASS.,\nProsp.\nEnfin vous avez dit anathème à Satan et à ses oeuvres, MASS., Carême,\nPetit nombre des Élus.\nRegarder le moment de la mort comme le plus grand des malheurs, c'est\ndire anathème à J. C., c'est ne vouloir avoir aucune part avec lui,\nMASS., Carême, Mort.\nL'eau du baptême Ne vous apporte point la mort et l'anathème, VOLT.,\nZaïre, III, 4.\n\n5° Fig.\nTout l'anathème des malheurs publics tombe sur vous seul, MASS., Carême,\nSur les causes ordinaires de nos rechutes.\n\n6° En parlant des personnes, opprobre, exécration.\nVous n'êtes que l'anathème du ciel et le scandale de la terre, MASS.,\nCarême, Vocation.\nLes impies mourront la honte de l'humanité, l'opprobre de la religion et\nl'anathème du ciel et de la terre, MASS., Paraphrases, psaume 27.\n\n7° Fig. Réprobation, blâme solennel.\nCette proposition est frappée d'anathème, PASC., Prov. 3.\nOn ose lever l'anathème que saint Paul prononce contre...., PASC., Prov.\n10.\n\nHISTORIQUE\nXIIe s.\nL'apostolies les leies {laïques} idunc escumenja {excommunia}, E celui,\nqui qu'il seit, qui jamais les tendra ; E desuz anatheme à tuz dis\nconferma, , Th. le Mart. 58.\nXIIIe s.\nPor plus enforcier l'anatesme, Quant il aura finé son tesme, Li met ou\npoing ung ardant cierge Qui ne fu pas de cire vierge, , la Rose, 19787.\n\nÉTYMOLOGIE\nTerme grec signifiant exposition, et aussi personne exposée, dérivé d'un\nmot formé lui-même de en haut et poser (voy. THÈME).
anathématiser	ANATHÉMATISER\n a-na-té-ma-ti-zé v. a.\n\n1° Frapper d'anathème, excommunier.\n\n2° Blâmer avec force, vouer à l'exécration.\nNous anathématisons cette opinion comme hérétique, PASC., Prov. 1.\n\nÉTYMOLOGIE\nTerme grec signifiant maudire, dérivé de anathème (voy. ce mot).
anathématisme	ANATHÉMATISME\n a-na-té-ma-ti-sm' s. m.\nMalédiction.\nVouloir trouver un autre sens dans ces anathématismes du concile,\nc'est..., BOSSUET, Avert. 6.\nTout ce que les premiers conciles oecuméniques ont inséré dans leurs\nsymboles ou dans leurs anathématismes, PASC., 6e Avertissement sur les\nLettres de Jurieu.\n\nÉTYMOLOGIE\nTerme grec (voy. ANATHÉMATISER).
anathématisé, ée	ANATHÉMATISÉ, ÉE\n a-na-té-ma-ti-zé, zée part. passé.\nOpinions dangereuses anathématisées par le concile.
anatife	ANATIFE\n a-na-ti-f' s. m.\nTerme d'histoire naturelle. Genre de cirripèdes, dont les valves sont\nsoutenues sur un pédoncule tubuleux susceptible de s'allonger et de se\ncontracter, d'où le nom de pousse-pieds.\n\nÉTYMOLOGIE\nAnatifa, abrégé d'anatifère, d'anas, canard, et ferre, porter ; parce\nque, dans certains pays du nord, on a cru que ce coquillage produisait\ndes canards sauvages.
anatocisme	ANATOCISME\n a-na-to-si-sm' s. m.\nCapitalisation des intérêts d'une somme prêtée.\n\nÉTYMOLOGIE\nTerme grec signifiant intérêt d'intérêts, dérivé d'un mot formé lui-même\nde génération, et, par suite, intérêt.
anatomie	ANATOMIE\n a-na-to-mie s. f.\n\n1° Art de disséquer les différentes parties des corps organisés.\nL'anatomie du corps humain. L'anatomie d'une plante.\n\n2° Science qui a pour objet les corps organisés considérés à l'état de\nrepos, et pour but la connaissance de leur organisation ou constitution.\nAnatomie générale, partie de l'anatomie qui a pour sujet les parties du\ncorps qui, une fois observées dans une région de l'économie, sont\nconnues pour toutes les autres. et qui a pour but l'étude de leur\norganisation.\nAnatomie descriptive, partie de l'anatomie qui a pour sujet les parties\ndu corps dont l'examen doit être fait spécialement, et qui a pour but la\nconnaissance de leur mode de connexion et de leur constitution.\nAnatomie pathologique, celle qui s'occupe des altérations que peuvent\néprouver les organes ou leurs tissus.\nAnatomie chirurgicale et médicale, application de toutes les sections\nd'anatomie, soit normale, soit pathologique, à l'étude des maladies\ndites chirurgicales et internes, considérées dans leurs causes, leurs\nsymptômes et leur thérapeutique.\nAnatomie topographique ou anatomie des régions, étude de toutes les\nparties que l'on rencontre dans telle ou telle région considérée de la\nsuperficie au centre ; l'étude de la position respective des muscles,\nnerfs, vaisseaux, etc.\nAnatomie comparée, étude comparative de chaque partie des êtres par\nrapport aux modifications de leur structure dans les diverses classes\nd'animaux et de végétaux.\nAussi excellait-il dans l'anatomie comparée, qui est l'anatomie prise le\nplus en grand qu'il soit possible et dans une étendue où peu de gens la\npeuvent embrasser, FONTEN., Du Verney.\nAnatomie artificielle, art de modeler et de représenter avec la cire ou\nle carton les différents organes ou les différentes parties du corps\nhumain dans l'état sain ou dans l'état de maladie.\n\n3° Corps disséqué, imitation d'un corps disséqué. Une pièce d'anatomie.\nCabinet d'anatomie.\nPersonne ne doute que des anatomies en cire colorée ne soient des\nouvrages d'habiles artistes, VOLT., Princ. d'action, 1.\n\n4° Fig. Analyse, examen.\nNous fîmes une anatomie de la Bretagne, SÉV., 238.\nÀ faire l'anatomie de ces sortes de discours, SÉV., 447.\nIl s'appesantit sur les détails ; il fait une anatomie, LA BRUY., 1.\nJe ne ferai point l'anatomie des paroles de Malebranche pour en tirer\ndes conséquences rigoureuses, FÉN., III, 8.\nLe prédicateur a fait une anatomie des passions du coeur humain qui\négale les maximes de M. de La Rochefoucauld, FÉN., XXI, 5.\nL'objet perpétuel de l'optique de M. Newton est l'anatomie de la\nlumière ; l'expression n'est point trop hardie ; ce n'est que la chose\nmême, FONTEN., Newton.\n\nHISTORIQUE\nXIVe s.\nEt en ont un livre que il appellent anatomie, ORESME, Eth. 29.\nXVIe s.\nLes Aegyptiens faisoient apporter l'anatomie seche d'un corps d'homme\nmort, pour...., MONT., I, 76.\nÀ d'aulcuns l'estude des histoires, c'est l'anatomie de la philosophie\nen laquelle les plus abstruses parties de nostre nature se penetrent,\nMONT., I, 169.\nAprès avoir fait une anatomie {examen} superficielle de ce petit\nmiracle, tout esperdu d'aisè, volut...., YVER, p. 560.\nDonnant toujours quelques nouveaux attraits à ceux qui la regardoient,\net prenant plaisir à faire l'anatomie des coeurs des jeunes gens,\nDESPER., Contes, LXVI.\nL'anatomie, premier et principal fondement de la medecine, PARÉ, Préf.\nJ'ai deliberé de poursuivre tout d'un trait l'anatomie des muscles,\nPARÉ, IV, Préf.\nEn grec sceletos, qui signifie anatomie seiche, PARÉ, IV, 43.\n\nÉTYMOLOGIE\nAnatomia ; terme grec signifiant dissection et dérivé du verbe couper en\nmorceaux, de couper (voy. TOME).
anatomique	ANATOMIQUE\n a-na-to-mi-k' adj.\nQui appartient à l'anatomie.\n\nHISTORIQUE\nXVIe s.\nIls se sont estudiés d'entendre son architecture admirable par\ndissection anatomique, PARÉ, Préf.\nDilater la playe, en evitant les nerfs et grands vaisseaux, ainsi que\nfait le bon et expert chirurgien anatomique, PARÉ, IX, 22.\n\nÉTYMOLOGIE\nTerme grec (voy. ANATOMIE).
anatomiquement	ANATOMIQUEMENT\n a-na-to-mi-ke-man adv.\nD'une manière anatomique.\n\nÉTYMOLOGIE\nAnatomique et le suffixe ment (voy. MENT).
anatomiser	ANATOMISER\n a-na-to-mi-zé v. a.\n\n1° Faire l'anatomie, disséquer.\n\n2° Fig.\nLe barbare {Newton} a montré aux hommes ce que c'est que la lumière, et\nil a su anatomiser les rayons du soleil, VOLT., Dial. XXIX, 8.\nIl est inutile de tant anatomiser les sons, D'OLIVET, Pros. franç.\n\n3° Anatomiser un livre, un discours, l'examiner en détail, en analyser\nles différentes parties.\n\nHISTORIQUE\nXVIe s.\nEncores que durant quatre jours ils eussent anatomisé quatre testes de\ncriminels, CARLOIX, VII, 28.\nCeux qui ont anatomisé et decoupé les corps, PARÉ, I, Préf. V, 30.\nÀ touts les millions de diables qui te puissent anatomiser la cervelle,\nRAB., Pant. IV, 66.\n\nÉTYMOLOGIE\nVoy. ANATOMIE.\n\nSUPPLÉMENT AU DICTIONNAIRE\nANATOMISER.\n\n3° Ajoutez :\nComme vous êtes bien plus en état que moi d'anatomiser ces sortes\nd'ouvrages {une harangue}, pour en faire voir le fort et le faible,\nBAYLE, Lett. à Minutoli, 24 mars 1680.\n\n4° S'anatomiser, v. réfl. Être anatomisé, séparé.\nCes sept rayons de lumière échappés du corps de ce rayon qui s'est\nanatomisé au sortir du prisme, VOLT., Phil. Newt. II, 8.
anatomisme	ANATOMISME\n a-na-to-mi-sm' s. m.\nTerme de physiologie. Abus qui consiste à vouloir trouver, dans les\nparties de structure simple, des dispositions compliquées qu'on suppose\ncapables de rendre compte, physiquement ou chimiquement, des phénomènes\norganiques ou vitaux qu'elles offrent.\n\nÉTYMOLOGIE\nAnatomie.
anatomiste	ANATOMISTE\n a-na-to-mi-st' s. m.\nCelui qui s'occupe d'anatomie, qui est versé dans l'anatomie.\nM. du Verney fut assez longtemps le seul anatomiste de l'Académie, et ce\nne fut qu'en 1684 qu'on lui joignit M. Mery, FONTEN., Du Verney.\n\nHISTORIQUE\nXVIe s.\nLes anatomistes le divisent communement en quatre parties, PARÉ, I, 1.\n\nÉTYMOLOGIE\nAnatomiser.
