alourdissement	10-28222-B
aloyage	10-28607-B
aloyau	10-28692-B
aloyer	10-29710-B
alpaca	10-31429-B
alpaga	10-31754-B
alpage	10-32085-B
alpager ere	10-32800-B
alpes	10-32900-B
alpestre	10-33329-B
alpha	10-34596-B
alphabet	10-34916-B
alphabetaire	10-36623-B
alphabetique	10-36707-B
alphabetiquement	10-37040-B
alphabetisme	10-37206-B
alphard	10-37686-B
alphenic	10-38081-B
alphonsines	10-37906-B
alpicole	10-38421-B
alpin ine	10-38553-B
alpiniste	10-39069-B
alpiou	10-39287-B
alpiste	10-39951-B
alquifoux	10-40202-B
alrunes	10-41007-B
alsine	10-41187-B
altaique	10-41615-B,252-3002-S
altair	10-41984-B
altariste	10-41333-B
altavelle	10-41516-B,10-41575-B
alter ego	10-42183-B
alterabilite	10-56469-B
alterable	10-56561-B
alterant ante	10-56679-B
alteration	10-57033-B
alteration megnie	235-101058-S
altercas	10-42543-B
altercation	10-42743-B
altere ee	10-62900-B
alterer	10-58860-B
alterite	10-62340-B
alternance	10-43441-B
alternant ante	10-43944-B
alternat	10-44360-B
alternatif ive	10-45027-B
alternation	10-45876-B
alternative	10-46163-B
alternativement	10-47717-B
alterne	10-48189-B,333-199817-S
alterne ee	10-49303-B
alterner	10-48728-B
alterquer	10-49419-B
altesse	10-49900-B
althaea	10-51194-B
altier iere	10-51501-B
altierement	10-55034-B
altimetrie	10-54098-B
altise	10-54178-B
altitude	10-54420-B
altitudinaire	10-54650-B
alto	10-55155-B
alto basso	10-55774-B
altruisme	10-56196-B
altruiste	10-56384-B
alude	10-63851-B
aludel	10-64102-B
aluine	10-64940-B
alumelle	10-65264-B
aluminaire	10-66506-B
alumine	10-66645-B
alumine ee	10-67398-B
aluminer	10-66921-B
alumineux euse	10-66981-B
aluminique	329-77418-S,378-50011-S
aluminium	10-67297-B
alun	10-67479-B
alunage	10-68432-B
alunation	10-68608-B
alune ee	10-69595-B
aluner	10-68747-B
alunerie	10-68967-B
aluneux euse	10-69023-B
aluniere	10-69346-B
alunifere	10-69141-B
alunite	10-69247-B
alunogene	10-69442-B
alvarde	10-69668-B
alveolaire	10-70211-B
alveole	10-70364-B
alveole ee	10-71489-B
alvier ou alvinier	10-69859-B
alvin ine	10-70006-B
alvinier	10-69859-S
alysse	10-71602-B
alzan ane	8-204112-S,10-71870-B
amabile	10-78888-B
amabilite	10-79038-B
amade	10-79625-B
amadis	10-79756-B
amadote	10-80244-B
amadou	10-80475-B
amadoue ee	10-84889-B
amadouement	10-81170-B
amadouer	10-81481-B
amadoueur euse	10-84480-B
amadouvier	10-84725-B
amaigri ie	10-85171-B
amaigrir	10-85295-B
amaigrissement	10-87374-B
amalgamation	10-88131-B
amalgame	10-88333-B
amalgame ee	10-90898-B
amalgamer	10-89545-B
amalgameur	10-90755-B
amalthee	10-91069-B
aman	10-91233-B
amandaie	10-91449-B
amande	10-91664-B,10-93859-B
amandier	10-93042-B
amant ante	10-94146-B
amaper	10-98101-B
amarante	10-98305-B
amareilleur	10-98860-B
amarelle	10-98983-B
amarescent ente	10-99176-B
amarinage	10-99344-B
amarine ee	10-99649-B
amariner	10-99467-B
amarivaude ee	10-99766-B
amarque	10-99971-B
amarrage	10-100070-B
amarre	10-100558-B,10-101623-B,276-89502-S
amarrer	10-101173-B
amaryllis	11-0-B
amas	11-446-B
amasse ee	11-10024-B
amasser	11-3781-B
amassette	11-8886-B
amasseur	11-9070-B
amatelotage	11-10536-B
amatelote	11-10829-B
amateloter	11-10624-B
amateur	11-10882-B
amati ie	11-13381-B
amatiner	12-41681-B
amatir	11-13441-B
amativite	11-14692-B
amatrice	11-14928-B
amaurose	11-15903-B
amaurotique	11-16103-B
amazone	11-16267-B,96-244961-S
ambages	11-17460-B
ambalard	11-18263-B
ambassade	11-18363-B,333-200319-S
ambassadeur	11-22903-B
ambassadrice	11-24824-B
ambattage	11-25147-B
ambe	11-25448-B
ambesas	11-26386-B
ambi	11-26989-B
ambiant ante	11-27341-B
ambidextre	11-28003-B
ambieux euse	11-28526-B
ambigu ue	11-28862-B
ambiguite	11-30899-B
ambigument	11-32089-B
ambite	11-38560-B
ambitieusement	11-33066-B
ambitieux euse	11-33649-B
ambition	11-35493-B
ambitionne ee	11-38407-B
ambitionner	11-37504-B
amble	11-38698-B
ambler	11-39447-B
amblet	11-40218-B
ambleur	11-40418-B
amblygone	11-40613-B
amblyope	11-40747-B
amblyopie	11-40822-B
ambon	11-41007-B
amboutissoir	11-41400-B
ambre	11-41514-B
ambre ee	11-46599-B
ambreine	11-47158-B
ambrer	11-43578-B
ambresailles	11-43658-B
ambrette	11-43870-B
ambroisie et quelquefois ambrosie	11-44284-B
ambrosiaque	11-46229-B
ambrosie	11-44284-S
ambrosien ienne	11-46326-B
ambulacraire	11-47328-B
ambulacre	11-47544-B
ambulance	11-47926-B
ambulant ante	11-48850-B
ambulatoire	11-50048-B
ambustion	11-50616-B
ame	379-107672-B
ame ee	12-43013-B
amelanche	12-43270-B
amelanchier	12-43340-B
amelet	11-50781-B
amelia	12-43511-B
ameliorant ante	12-43804-B
ameliorateur trice	12-43953-B
amelioration	12-44174-B
ameliore ee	12-46602-B
ameliorer	12-44763-B
ameliorissement	12-46254-B
amen	11-50860-B
amenage	11-52060-B
amenage ee	12-48534-B
amenagement	12-46754-B
amenager	12-46998-B
amendable	11-52269-B
amende	11-52570-B
amende ee	11-64335-B,333-200865-S
amendement	11-55658-B,333-200587-S
amender	11-58723-B,333-200758-S
amendeur	11-64165-B
amene	12-41794-B
amene ee	11-70518-B
amenee	11-71121-B
amener	11-64453-B
amenite	12-48627-B
amenorrhee	12-49682-B
amentacees	11-68576-B
amentifere	11-68836-B
amentiforme	11-68741-B
amentum	11-68978-B
amenuise ee	11-70340-B
amenuisement	11-69235-B
amenuiser	11-69461-B
amer ere	11-71744-B
amere	105-59512-S
amerement	12-42114-B
americain aine	12-49931-B
americaniser	12-50214-B
americanisme	12-50533-B
americaniste	12-50670-B
amers	11-75841-B
amertume	11-76074-B
amestrer	11-79904-B
amethyste	12-51086-B,285-272955-S
ametrope	12-52283-B
ametropie	12-52634-B
ameublement	11-80059-B
ameubli ie	11-80235-B
ameublir	11-80335-B
ameublissement	11-81129-B
ameulonner	11-81588-B
ameute ee	11-83303-B
ameutement	11-81750-B
ameuter	11-82040-B
ami ie	11-83398-B
amiable	11-91953-B
amiablement	11-94731-B
amiantace ee	11-96488-B
amiante	11-96581-B
amibe	11-96874-B
amibiforme ou amiboide	11-97235-B
amiboide	11-97235-S
amical ale	11-97385-B
amicalement	11-97956-B
amict	11-98205-B
amide	11-98561-B
amidine ou amidone	11-98742-B
amidon	11-99029-B
amidone	11-98742-S
amidonnage	11-100663-B
amidonne	11-100918-B
amidonne ee	11-101395-B
amidonner	11-100970-B
amidonnerie	11-101206-B
amidonnier	11-101297-B
amie	214-32493-S
amigdale	11-101562-B
amignarder	11-101638-B
aminci cie	11-101855-B
amincir	11-101950-B
amincissement	11-102173-B
amine	11-102388-B
amiral	11-102560-B,77-287784-S,372-88925-S
amiralat	11-105131-B
amirale	11-105212-B
amiraute	11-105665-B,372-89812-S
amissibilite	11-106004-B
amissible	11-106162-B
amission	11-106331-B
amitie	11-106730-B
amman	11-113914-B
ammanie	11-114347-B
ammeistre	11-114642-B
ammi	11-114822-B
ammodyte	11-115081-B
ammon corne d 	11-115223-B
ammoneen enne	11-118134-B
ammoniac aque	11-115783-B
ammoniacal ale	11-116554-B
ammoniace ee	11-116927-B
ammoniaque	11-117018-B
ammoniate	11-117437-B
ammonique	11-117491-B,215-67812-S,217-100652-S,223-31733-S,227-35946-S,227-36891-S,271-60120-S,272-904-S,277-268654-S,330-137451-S,348-43633-S,354-115032-S
ammonite	11-117542-B
ammonium	11-117823-B
ammoniure	11-117997-B
amnesie	11-120327-B
amnicole	11-118270-B
amnios	11-118430-B
amniotique	11-119066-B
amnistie	11-119156-B
amnistie ee	11-120138-B
amnistier	11-120073-B
amodiataire	11-120529-B
amodiateur	11-120610-B
amodiation	11-120717-B
amodie ee	11-121385-B
amodier	11-120815-B
amodieur	11-121069-B
amoindri ie	11-121480-B
amoindrir	11-121609-B
amoindrissant ante	11-123732-B
amoindrissement	11-123934-B
amoise	11-124238-B
amolli ie	11-124282-B
amollir	11-124514-B
amollissant ante	11-126588-B
amollissement	11-126681-B
amomacees ou amomees	11-126978-B
amome	11-127158-B
amomees	11-126978-S
amoncele ee	11-129659-B
amonceler	11-127372-B
amoncellement	11-129323-B
amont	11-129771-B
amorce	11-132821-B,44-96941-S
amorce ee	11-139162-B
amorcement	11-136694-B
amorcer	11-136832-B
amorceur	11-138944-B
amorcoir	11-146412-B
amordancer	11-139371-B
amoroso	11-139602-B
amorphe	11-139783-B
amorphie	11-139951-B
amorti ie	11-140109-B
amortir	11-140835-B
amortissable	11-144770-B
amortissement	11-144907-B
amouillante	11-146707-B
amouille	11-146923-B
amouiller	11-147046-B
amouler	11-147168-B
amour	11-147298-B,77-288384-S,214-32694-S
amourache ee	11-168827-B
amouracher	11-168059-B
amoureaux	11-168928-B
amourette	11-169018-B
amoureusement	11-171123-B
amoureux euse	11-172038-B
amovibilite	11-178431-B
amovible	11-178624-B
ampelidees	12-25922-B
ampelite	12-26096-B
ampelographie	12-26374-B
ampelophage	12-26539-B
amphemerine	12-9270-B
amphi	11-179248-B
amphiarthrose	11-179516-B
amphibie	11-179778-B
amphibole	12-0-B
amphibologie	12-401-B
amphibologique	12-1286-B
amphibologiquement	12-1558-B
amphibraque	12-1741-B
amphictyonat	12-1959-B
amphictyonide	12-2347-B
amphictyonie	12-2546-B
amphictyonique	12-2715-B
amphictyons	12-2876-B
amphigene	12-4477-B
amphigouri	12-3325-B
amphigourique	12-4091-B
amphigouriquement	12-4306-B
amphimacre	12-4694-B
amphioxus	12-4947-B
amphisbene	12-5281-B
amphisciens	12-5733-B
amphitheatral ale	12-6070-B
amphitheatre	12-6214-B
amphitrite	12-7369-B
amphitrope	12-7952-B
amphitryon	12-8223-B
amphore	12-8549-B
amphorique	12-8964-B
ample	12-9459-B
amplectif ive	12-11523-B,326-146800-S
amplement	12-11923-B
ampleur	12-12784-B
amplexatile	12-12971-B
amplexicaule	12-13175-B,326-147061-S
amplexiflore	12-13380-B,326-147196-S
ampliatif ive	12-13476-B
ampliation	12-13853-B
amplie ee	12-19382-B
amplier	12-14782-B
amplifiant ante	12-15060-B
amplificateur	12-15216-B
amplificatif ive	12-15396-B
amplification	12-15584-B
amplifie ee	12-17267-B
amplifier	12-16132-B
amplissime	12-17350-B
amplitude	12-17523-B
ampoule	12-19439-B
ampoule ee	12-22078-B
ampoulement	12-24415-B
ampoulette	12-21700-B
ampullace ee	12-24759-B
amputation	12-24945-B
ampute ee	12-25702-B
amputer	12-25386-B
amschaspand	12-26778-B
amulette	12-27095-B
amunitionner	12-28551-B
amure	12-28681-B
amure ee	12-30563-B
amurer	12-29681-B
amusable	12-30637-B
amusant ante	12-30826-B
amuse ee	12-39102-B
amusement	12-30936-B
amuser	12-32625-B
amusette	12-37422-B
amuseur euse	12-38140-B
amusoire	12-38612-B
amygdale	12-39358-B
amygdalin ine	12-39843-B
amygdaline	12-40000-B
amygdalite	12-40153-B
amygdaloide	12-40322-B
amylace ee	12-40602-B
amyle	12-40740-B
amylene	12-41295-B
amylique	12-40908-B
amyotrophie	12-41529-B
an	12-52755-B
ana	12-57397-B,12-58258-B
anabaptisme	12-58409-B
anabaptiste	12-58481-B
anabas	12-59035-B
anableps	12-59166-B
anabrochisme	12-59658-B
anacamptique	12-59968-B
anacarde	12-60445-B
anacardier	12-60725-B
anacathartique	12-60849-B
anacephaleose	12-64805-B
anachorete	12-61105-B
anachronisme	12-61705-B
anaclastique	12-62541-B
anacoluthe ou plus rarement anacoluthie	12-63063-B
anacoluthie	12-63063-S
anacoste	12-63722-B
anacreontique	12-63820-B
anacreontisme	12-64422-B
anadiplose	12-65106-B
anadyomene	12-65687-B
anaerobie	13-384-B
anaeroide	13-684-B
anafin	12-65871-B
anagallis	12-66217-B
anaglyphe ou anaglypte	12-66398-B
anaglypte	12-66398-S
anagnoste	12-66622-B
anagogie	12-67212-B
anagogique	12-67478-B
anagrammatique	12-67871-B
anagrammatiser	12-67958-B
anagrammatiste	12-68456-B
anagramme	12-68546-B
anagramme ee	12-69099-B
anagraphe	12-69285-B
anagyre ou anagyris	12-69459-B
anagyris	12-69459-S
anal ale	12-69762-B,198-76715-S
analectes	12-69865-B
analeme	12-80031-B
analemmatique	12-70116-B
analepsie	12-70523-B
analeptique	12-70677-B
analgesie ou analgie	12-71021-B
analgie	12-71021-S
analogie	12-71317-B
analogique	12-72791-B
analogiquement	12-73054-B
analogue	12-73222-B
analyse	12-74184-B
analyse ee	12-79243-B
