farinace ee	141-83711-B
farinage	141-84031-B
farine	141-84162-B
farine ee	141-90407-B
farinelle	141-87851-B
fariner	141-87961-B
farinet	141-88362-B
farineux euse	141-88543-B
farinier	141-89942-B,165-69485-S
fariniere	141-90104-B
fario	141-90557-B
farlousane	141-90787-B
farlouse	141-90980-B
faro	141-91221-B
farouch ou farouche	141-91334-B
farouche	141-91334-S,141-91484-B
farrago	141-96120-B
farre	141-97307-B
farsange	141-97411-B
fas et nefas	262-174237-S
fasce	78-28662-S,141-97527-B
fasce ee	78-28893-S,141-106872-B
fasceaux	141-97986-B
fascer	141-98098-B
fascia	141-98198-B
fascial ale	141-98426-B
fasciation	141-98524-B
fasciculaire	141-98810-B
fasciculation	141-99015-B
fascicule	141-99166-B
fascicule ee	141-99586-B
fascie	141-99866-B
fascie ee	141-106614-B
fascinage	141-100256-B
fascinateur trice	141-100597-B
fascination	141-100990-B
fascine	141-102279-B
fascine ee	141-105595-B
fasciner	141-103560-B
fasciolaire	141-106076-B
fasciole	141-106203-B
fascipenne	141-106472-B
faseiement	141-117509-B
faseier	141-117624-B
faseole	141-117692-B
fashion	141-106985-B
fashionable	141-107328-B
fasier	141-107511-B
fasin	141-107742-B
fassaite	141-107857-B
faste	141-107973-B,141-110982-B
fastes	141-111205-B
fastidieusement	141-112814-B
fastidieux euse	141-112952-B
fastigiaire	141-114404-B
fastigie	141-114517-B
fastique	141-114950-B
fastueusement	141-115177-B
fastueux euse	141-115347-B
fat	141-118154-B
fatal ale	141-122686-B
fatalement	141-127729-B
fataliser	141-128789-B
fatalisme	141-129502-B
fataliste	141-130056-B
fatalite	141-130397-B
fatidique	141-133231-B
fatidiquement	141-134001-B
fatigable	141-134290-B
fatigant ante	141-134651-B
fatigue	141-135319-B
fatigue ee	141-141280-B
fatiguer	141-136906-B
fatras	141-142640-B
fatrasie	141-146682-B
fatrasser	141-146931-B
fatrasserie	141-147121-B
fatrasseur	141-147372-B
fatrassier	141-147488-B
fatuaire	141-147598-B
fatuisme	141-147799-B
fatuite	141-148148-B
fau	141-150419-B
fauberder	141-150663-B
faubert	141-150721-B
fauberter	141-151061-B
fauberteur	141-151146-B
faubourg	141-151228-B
faubourien ienne	141-155279-B
faucard	141-155813-B
faucarder	141-156116-B
faucet	141-156234-B
fauchable	141-156322-B
fauchage	141-156737-B
fauchailles	141-157006-B
fauchaison	141-157288-B
fauchard	141-158027-B
fauche	141-158469-B
fauche ee	141-163170-B
fauchee	141-163298-B
faucher	141-158822-B
fauchere	141-163055-B
fauchet	141-160596-B
fauchette	141-161221-B
faucheur	141-161405-B
faucheur ou faucheux	141-162376-B
faucheux	141-162376-S
fauchon	141-162638-B
fauchot	141-162752-B
fauchure	141-162819-B
faucille	84-214113-S,141-163558-B
fauciller	141-165575-B
faucillette	141-165968-B
faucilleur	141-166119-B
faucillon	141-166337-B
faucon	32-68992-S,141-166774-B
fauconneau	142-0-B
fauconnerie	142-454-B
fauconnier	142-1036-B
fauconniere	142-1902-B
faucre ou faulcre	142-2416-B
faudage	142-2859-B
faude	142-2912-B
fauder	142-3325-B
faudet	142-3567-B
faudeur	142-3689-B
faufil	142-3755-B
faufile ee	142-5164-B
faufiler	142-3937-B
faufilure	142-4966-B
faulcre	142-2416-S
faulde	142-6200-B
faulx	142-6559-B
faune	142-6601-B
faunus	142-7347-B
fauperdrieux	142-7864-B
fauque	142-8371-B
faussaire	142-8602-B
faussant ante	142-10798-B
faussart	142-11185-B
fausse	142-50848-S
fausse ee	142-25345-B
faussement	142-11256-B
fausser	142-11877-B
fausset	142-16747-B,142-19459-B,142-20564-B,353-137978-S
faussete	142-20783-B
faussetier	142-20631-B
fausseur	142-24447-B
faussure	142-24892-B
faut	140-224077-S
faute	142-25852-B
fauteuil	142-37159-B
fauteur trice	142-40292-B
fautif ive	142-41798-B
fautivement	142-43010-B
fautre	142-43171-B
fauve	142-43355-B,142-47823-B
fauveau	142-45282-B
fauvette	142-45681-B
faux	142-48004-B,257-136660-S,292-132880-S,379-89890-S
faux du corps	142-74171-B
faux fausse	142-50848-B
faux fuyant	142-74934-B
faux marcher	142-75940-B
faux marque	142-76019-B
faux monnayeur	142-76080-B
faux saunage	142-76151-B
faux saunier	142-76214-B
favagite	142-76277-B
favasse	142-76336-B
faveole ee	142-103963-B
faverolle	142-76696-B
faveur	142-76852-B
faveux euse	142-89065-B
faviforme	142-89393-B
favonette	142-89547-B
favorable	142-89635-B
favorablement	142-93871-B
favori ite	142-95234-B
favorise ee	142-103206-B
favoriser	142-100159-B
favoriser s 	132-10707-S
favoritisme	142-103657-B
favus	142-103786-B
fay	142-104178-B
fayalite	142-104229-B
fayan	142-104427-B
fayard	142-104553-B
fayence et fayencerie et fayencier	142-104850-B
fayencerie et fayencier	142-104850-S
fayencier	142-104850-S
fayol	142-104941-B
fe	25-37730-S
feage	153-105101-B
feal ale	153-105598-B
feaute	153-106748-B
febricitant ante	153-106983-B
febricule	153-107997-B
febrifuge	153-108169-B
febrigene	153-108779-B
febrile	153-109069-B
fecal ale	153-109548-B
fecaloide	153-109913-B
feces	153-98682-B
fechelle	153-110242-B
fecial	153-110524-B
fecond onde	153-111654-B
fecond toute feconde	356-381353-S
fecondance	153-117026-B
fecondant ante	153-117302-B
fecondateur trice	153-117741-B
fecondation	153-118103-B
feconde	356-381353-S
feconde ee	153-123765-B
fecondement	153-119496-B
feconder	153-119755-B
fecondite	153-121019-B
fecule	153-124156-B
feculence	153-124761-B
feculent ente	153-125321-B
feculer	153-125919-B
feculerie	153-126066-B
feculeux euse	153-126183-B
feculier	153-126314-B
feculiste	153-126389-B
feculite	153-126490-B
feculoide	153-126971-B
feculometre	153-126736-B
feddan	142-143382-B
federal ale	153-127112-B
federalise ee	153-128718-B
federaliser	153-127752-B
federalisme	153-127966-B
federaliste	153-128567-B
federatif ive	153-128820-B
federation	153-129630-B
federe ee	153-131225-B
federer	153-130832-B
federerz	142-143804-B
fedon	142-143963-B
fee	153-131548-B
fee ee	154-13512-B
feer	153-134566-B
feerie	153-135235-B
feerique	153-136374-B
fegarite	153-136617-B
fegoule	153-136920-B
feignant ante	142-144487-B
feindre	142-144929-B
feint einte	142-154422-B
feinte	142-155463-B,142-155657-B
feintier	142-158753-B
feintise	142-158864-B
felatier ou feratier	153-136980-B
felbol	142-160389-B
feld marechal	142-160472-B
feldspath	142-160755-B
feldspathique	142-162299-B
fele ee	154-15703-B
fele ou felle ou fesle	154-13660-B
feler	154-13811-B
felibre	153-137103-B
felibrige	153-137506-B
felicien	153-138142-B
felicitation	153-138433-B
felicite	153-142334-B
felicite ee	153-146680-B
feliciter	153-139326-B
felide	153-146807-B
felin	153-146929-B
felin ine	153-147102-B
felinite	153-147372-B
felir	153-147862-B
fellah	142-162401-B
felle	142-162517-B,142-162557-B
felle ou fesle	154-13660-S
felon onne	153-147993-B
felonie	153-152515-B
felouque	142-162797-B
felure	154-15181-B
femeline	153-154575-B
femelle	142-164249-B,147-85484-S
femelots	142-168441-B
feminie	153-154993-B
feminiflore	153-155687-B
feminiforme	153-155841-B
feminin ine	153-156039-B
femininite	153-159032-B
feminisation	153-159485-B
feminise ee	153-160222-B
feminiser	153-159803-B
femme	142-168906-B,320-27533-S
femmelette	142-185908-B
femoral ale	86-95514-S,153-160361-B,183-99916-S,183-102915-S,198-77831-S,286-38438-S,343-50507-S
femoro tibial ale	153-160646-B
femur	153-160805-B
fenage	142-187973-B
fenaison	142-188185-B
fenasse	142-188811-B
fendant	142-189316-B,142-189759-B
fenderie	142-190449-B
fendeur euse	142-191099-B
fendille ee	142-192990-B
fendillement	142-191786-B
fendiller se	142-192165-B
fendilles	142-192846-B
fendis	78-29040-S,142-193144-B
fendoir	142-193231-B
fendre	142-193315-B
fendu ue	142-202254-B
fendue	142-203516-B
fendule	142-204228-B
fene	154-17151-B
feneloniste	153-161147-B
fenerotet	153-161393-B
fenestre ee	142-204842-B
fenestrelle	142-204438-B
fenetrage	142-212684-B
fenetre	78-29555-S,142-213752-B,276-101606-S
fenetre ee	142-220993-B
fenetrer	142-220291-B
fenian	142-204935-B
fenier	142-205075-B
feniere	142-205972-B
fenil	142-205180-B
fennec	142-206121-B
fenouil	142-206812-B
fenouillet	142-208233-B
fenouillette	142-208603-B,142-208767-B
fente	20-67514-S,78-29166-S,142-208851-B
fentoir	142-211610-B
fenton ou fanton	142-211707-B
fenugrec	142-212296-B
feodal ale	153-161522-B
feodalement	153-164515-B
feodalisation	153-165055-B
feodaliser	153-165246-B
feodalisme	153-165671-B
feodalite	153-165868-B
feodiste	153-166404-B
fer	142-221440-B,142-247248-B,157-24412-S,253-208571-S,276-101844-S,355-66007-S
fer blanc	142-247693-B
fer chaud	142-248009-B,142-248185-B
fera	153-166700-B
feramine	153-166986-B
ferandine	153-167088-B
feratier	153-136980-S
ferault	153-167150-B
ferblanterie	142-248358-B
ferblantier	142-248483-B
feret	153-167274-B,153-167522-B
feretrien	154-3867-B
feriable	153-167681-B
ferial ale	153-168114-B
ferie	153-168622-B,153-174296-B
ferier	153-170231-B
ferin ine	153-170401-B
ferir	153-170684-B
ferlage	142-248715-B
ferlane	214-33810-S
ferle ee	142-249521-B
ferler	142-248866-B
ferlet	142-249386-B
fermage	142-249594-B
fermail	142-249745-B
fermaille ee	142-250277-B
fermant ante	142-250441-B
ferme	142-250738-B,142-264326-B,142-267401-B,333-220684-S
ferme bourse	142-269283-B
ferme circuit	142-269450-B
ferme ee	142-305819-B
fermement	142-269715-B
ferment	142-270991-B
fermentable	142-271988-B
fermentaire	142-272337-B
fermentant ante	142-272514-B
fermentatif ive	142-272617-B
fermentation	142-272791-B
fermente ee	142-277898-B
fermenter	142-275906-B
fermentescibilite	142-277457-B
fermentescible	142-277569-B
fermer	78-29739-S,142-278018-B,333-221122-S
fermete	142-296664-B
fermette	142-294844-B
fermeture	142-295424-B
fermier	20-67687-S
fermier iere	142-301833-B,333-221321-S
fermoir	142-303861-B
fermure	142-305233-B
fero	153-174545-B
feroce	153-174651-B
ferocement	153-176703-B
ferocite	153-176933-B
feroles	153-179611-B
feronia	153-179811-B
feronie	153-179962-B
ferouer	142-310471-B
ferrade	142-311070-B
ferrage	142-311818-B
ferraille	142-312935-B
ferrailler	142-313641-B
ferrailleur	142-315613-B
ferrandaise	142-316164-B
ferrandine	142-316595-B
ferrandinier	142-317209-B
ferrant	142-317285-B
ferrasse	142-317372-B
ferrate	142-317551-B
ferratier	143-0-B
ferre	143-57-B
ferre ee	143-15504-B
ferre mule	143-158-B
ferrement	143-355-B
ferrer	143-1904-B
ferrerie	143-8229-B
ferret	143-8354-B
ferretier	143-9004-B
ferreur	143-9126-B
ferreux	143-9971-B,223-31949-S
ferrico	143-10141-B
ferrides	143-10322-B
ferriere	143-10816-B
ferrifere	143-10462-B
ferrique	143-10600-B
ferrocyanate	143-11049-B
ferrocyane	143-11139-B
ferrocyanique	143-11220-B
ferron	143-11312-B
ferronnerie	143-11615-B
ferronnier iere	143-11877-B
ferronniere	143-12016-B
ferroso	143-12292-B
ferrotier	143-12419-B
ferrugineux euse	143-12502-B,160-15134-S
ferruginosite	143-13248-B
ferrure	143-13446-B
ferry	143-15031-B
ferse	143-18213-B
fertile	143-18394-B
fertilement	143-20638-B
fertilisable	143-20803-B
fertilisant ante	143-20930-B
fertilisation	143-21093-B
fertilise ee	143-22330-B
fertiliser	143-21457-B
fertilite	143-22455-B
feru ue	154-0-B
ferulace ee	154-1090-B
ferule	154-1236-B
ferure	239-87312-S
fervemment	143-23904-B
fervent ente	143-24321-B
ferveur	143-25733-B
fervoie	143-28669-B
ferzaie	143-28850-B
fescennin ine	143-28897-B
fese	143-29328-B
feseur	143-29514-B
fesle	154-13660-S
fesour	143-29600-B
fessade	143-29686-B
fesse	143-29906-B
fesse cahier	143-32190-B
fesse ee	143-38601-B
fesse maille	143-32420-B
fesse mathieu	143-32649-B
fesse pinte	143-34068-B
fessee	143-38765-B
fesser	143-34343-B
fesses	132-10902-S
fesseur euse	143-36909-B
fessier	143-37400-B
fessier iere	143-37636-B
fesson	132-11087-S
fessou ou fessouet	143-37983-B
fessouet	143-37983-S
fessu ue	143-38212-B
festier	143-38911-B
festin	143-39170-B
festine ee	143-42087-B
festiner	143-40941-B
festival	143-42237-B
festivite	143-42653-B
festoiement	132-11575-S,143-43134-B
feston	143-43531-B
festonne ee	143-46905-B
festonner	143-45946-B
festoyant ou fetoyant	143-47494-B
festoye ee ou fetoye ee	143-49174-B
festoyer ou fetoyer	143-47736-B
festoyer s 	132-11872-S
festucaire	143-49437-B
fete	154-17184-B,362-137765-S
fete ee	154-32898-B
feter	154-31774-B
fetfa	143-49639-B
fetiche	154-4092-B
fetichisme	154-6032-B
fetichiste	154-6423-B
