intrus use	196-47740-B
intrusif ive	196-48988-B
intrusion	196-49332-B
intuitif ive	196-55898-B
intuition	196-56989-B
intuitionniste	196-58719-B
intuitivement	196-59092-B
intumescence	196-59638-B
intussusception	196-60563-B
inule	196-113041-B
inuline	196-113203-B
inurbanite	196-113445-B
inusable	196-113555-B
inusite ee	196-113665-B
inustion	196-114083-B
inutile	196-114387-B
inutilement	196-118370-B
inutilisable	196-119358-B
inutilise ee	196-119544-B
inutilite	196-119820-B
invaginant ante	196-121490-B
invagination	196-121682-B
invagine ee	196-122454-B
invaginer	196-122152-B
invaincu ue	196-122641-B
invalable	196-124052-B
invalablement	196-124211-B
invalidable	196-124578-B
invalidation	196-124735-B
invalide	196-124908-B
invalide ee	196-129223-B
invalidement	196-127387-B
invalider	196-127560-B
invalidite	196-127953-B
invariabilite	196-129319-B
invariable	196-129983-B
invariablement	196-131350-B
invariant	196-131884-B
invasif ive	196-132229-B
invasion	196-132379-B
invectif ive	196-134122-B
invective	78-43252-S,196-134736-B
invectiver	196-136628-B
invendable	196-137675-B
invendu ue	196-137936-B
invenge ee	196-138138-B
inventaire	196-138256-B
invente ee	196-156796-B
inventer	196-141643-B
inventeur trice	196-144879-B
inventif ive	196-146931-B
invention	196-148489-B
inventorie ee	196-156573-B
inventorier	196-155390-B
inverifiable	197-10941-B
inverification	197-11052-B
inversable	196-157127-B
inverse	196-157255-B
inversement	196-160170-B
inverser	196-160245-B
inversif ive	196-160474-B
inversion	196-160625-B
invertebre ee	196-163102-B
inverti ie	196-162558-B
invertir	196-162888-B
investi ie	196-163434-B
investigateur trice	196-164168-B
investigation	196-165220-B
investir	196-167009-B
investison	196-170233-B
investissement	196-170403-B
investiture	196-170611-B
invetere ee	197-12184-B
inveterer s 	197-11329-B
invigilance	196-172338-B
invigoration	196-172588-B
invination	196-172940-B
invincibilite	196-173245-B
invincible	196-173339-B
invinciblement	196-177856-B
inviolabilite	196-179402-B
inviolable	196-179887-B
inviolablement	196-182473-B
inviole ee	196-183763-B
inviscant ante	196-184678-B
inviscation	196-184830-B
invisibilite	196-185003-B
invisibilium	196-186178-B
invisible	196-186719-B
invisiblement	196-189878-B
invisquer	196-190189-B
invitatif ive	196-190438-B
invitation	196-190755-B
invitatoire	196-191127-B
invite	196-192071-B
invite ee	196-195671-B
invitement	196-193184-B
inviter	196-193367-B
inviteur	196-195392-B
invocabit	196-195897-B
invocateur trice	196-196080-B
invocation	197-0-B
invocatoire	197-1845-B
involontaire	197-1946-B
involontairement	197-3265-B
involucelle	197-3523-B
involucelle ee	197-3733-B
involucral ale	197-3852-B
involucre	197-4056-B
involucre ee	197-4369-B
involute ee	197-6028-B
involutif ive	197-4479-B
involutifolie ee	197-4732-B
involution	197-4919-B
invoque ee	197-8467-B
invoquer	197-6227-B
invraisemblable	197-8673-B
invraisemblablement	197-8894-B
invraisemblance	197-8997-B
invulnerabilite	197-9292-B
invulnerable	197-9770-B
invulnerablement	197-10839-B
io	197-44408-B
iodate	197-44702-B
iode	197-44909-B
iode ee	197-49022-B
ioder	197-45318-B
iodeux	197-45575-B
iodhydrate	197-45828-B
iodhydrique	197-45959-B
iodide	197-46244-B
iodine	197-46439-B
iodique	197-46560-B
iodisme	197-46790-B
iodo borique	197-47011-B
iodo chlorure	197-47242-B
iodoforme	197-47451-B
iodognosie	197-47773-B
iodomethe	197-47886-B
iodometrie	197-48081-B
iodophthisie	197-48259-B
iodosel	197-48433-B
iodotherapie	197-48640-B
iodure	197-48832-B,252-211875-S,359-187559-S
iodure ee	197-48926-B
iole	197-49107-B
iolithe	197-49161-B,197-49362-B
ionide	197-49831-B
ionien enne	197-50062-B
ionique	197-51446-B
ions	197-53387-B
iota	197-53500-B
iotacisme	197-55063-B
iote	264-171431-S
iouler	197-55534-B
ipecacuana	197-56484-B
iphigenie	197-55817-B
iphis	197-55972-B
iphise	197-56093-B
ipomee	197-56146-B
ipreau	197-56227-B
ipso facto	197-56265-B
ique	286-39547-S
ir	197-57309-B
irade	197-57430-B
iragnan	197-57615-B
iragnon	197-57671-B
irai j 	197-57874-B
iranien enne	197-58056-B
iranisant	197-58437-B
irascibilite	197-58714-B
irascible	197-59099-B
irato	1-12067-S
irato ab	197-60199-B
ire	197-60384-B
irenarque	198-69676-B
irene	198-69432-B
irenique	198-69881-B
iridectomie	197-62587-B
iridees	197-64944-B
iridescent ente	197-62797-B
irideux	197-62926-B
iridie ee	197-63529-B
iridipenne	197-63023-B
iridique	197-63153-B
iridium	197-63256-B
iridocele	197-63880-B
iridocolobome	197-63735-B
iridodialyse	197-64058-B
iridoptose	197-64300-B
iridoscope	197-64432-B
iridosmine	197-64664-B
iridotomie	197-64772-B
irien ienne	197-65053-B
irine	197-65171-B
iris	197-65294-B,197-66500-B,197-67984-B,197-68577-B,286-1469-S
irisable	197-70091-B
irisage	197-70282-B
irisation	197-70535-B
irise ee	197-71588-B
iriser	197-71231-B
iritis	197-72053-B
irlandais	197-72213-B
ironie	197-72730-B
ironique	197-74853-B
ironiquement	197-75962-B
ironiser	197-76268-B
ironiste	197-76466-B
iroquois oise	197-76884-B
irraccommodable	197-77302-B
irrachetable	197-77693-B
irrachete ee	197-77894-B
irracontable	197-78046-B
irradiateur trice	197-78298-B
irradiation	197-78446-B
irradier	197-80130-B
irraisonnable	197-80637-B
irraisonnablement	197-81750-B
irraisonne ee	197-82188-B
irramenable	197-82364-B
irrassasiable	197-82855-B
irrassasie ee	197-83314-B
irratifiable	197-83422-B
irrationnel elle	197-83537-B
irrationnellement	197-84413-B
irrealisable	198-21992-B
irrecevabilite	197-84572-B
irrecevable	197-84868-B
irrecherchable	197-85295-B
irrecitable	198-22162-B
irrecompensable	198-22492-B
irrecompense ee	198-22794-B
irreconciliabilite	198-22914-B
irreconciliable	198-23167-B
irreconciliablement	198-25235-B
irreconcilie ee	198-25756-B
irrecouvrable	197-85462-B
irrectifiable	197-85767-B
irrecuperable	198-25928-B
irrecusable	198-26286-B
irrecusablement	198-26491-B
irreductibilite	198-26583-B
irreductible	198-26928-B
irreel elle	198-27551-B
irreflechi ie	198-28031-B
irreflete ee	197-86073-B
irreflexion	198-27888-B
irreformabilite	198-28546-B
irreformable	198-28695-B
irreforme ee	198-29295-B
irrefragabilite	198-29402-B
irrefragable	198-29681-B
irrefragablement	198-30399-B
irrefutabilite	198-30495-B
irrefutable	198-30805-B
irrefutablement	198-31066-B
irrefute ee	198-31308-B
irregenerable	198-38008-B
irregularite	198-31487-B
irregulier ere	198-33961-B
irregulierement	198-37677-B
irreiterable	198-38306-B
irrelatif ive	197-86180-B
irreligieusement	198-38947-B
irreligieux euse	198-39631-B
irreligion	198-40445-B
irreligiosite	197-86349-B
irremarquable	197-86565-B
irremboursable	197-86776-B
irremeable	198-43711-B
irremediable	198-44025-B
irremediablement	198-45903-B
irremissible	198-41801-B
irremissiblement	198-43038-B
irremittent ente	198-43512-B
irremplacable	197-86926-B
irreparabilite	198-46606-B
irreparable	198-46809-B
irreparablement	198-49845-B
irrepare ee	198-50376-B
irrepassable	197-87255-B
irreplicable	198-50565-B
irrepose ee	197-87629-B
irreprehensibilite	198-53665-B
irreprehensible	198-53787-B
irreprehensiblement	198-55954-B
irrepresentable	197-88396-B
irrepressible	198-50793-B
irreprochabilite	198-51162-B
irreprochable	198-51970-B
irreprochablement	198-53357-B
irreproductif ive	197-88182-B
irresistance	198-56124-B
irresistibilite	198-56537-B
irresistible	198-57101-B
irresistiblement	198-57758-B
irresolu ue	198-58097-B
irresoluble	198-59644-B
irresolument	198-60067-B
irresolution	198-60724-B
irrespectueusement	198-0-B
irrespectueux euse	198-494-B
irrespirabilite	198-1461-B
irrespirable	198-1629-B
irresponsabilite	198-1778-B
irresponsable	198-2061-B
irresponsablement	198-2255-B
irretractable	198-62203-B
irreussite	198-62716-B
irreveillable	198-63055-B
irrevelable	198-65923-B
irreveremment	198-66135-B
irreverence	198-66872-B
irreverencieusement	198-68379-B
irreverencieux ieuse	198-68740-B
irreverent ente	198-68956-B
irrevocabilite	198-63264-B
irrevocable	198-63736-B
irrevocablement	198-65137-B
irrevoque ee	198-65715-B
irrigateur	198-2351-B
irrigation	198-2830-B
irrigatoire	198-3593-B
irriguer	198-3727-B
irrision	198-4540-B
irritabilite	198-4881-B
irritable	198-6883-B
irritament	198-8494-B
irritant ante	198-8776-B,198-9825-B
irritatif ive	198-10963-B
irritation	198-11161-B
irrite ee	198-18340-B
irriter	198-12248-B
irrorateur	198-19701-B
irroration	198-19876-B
irruption	198-20268-B
isabelle	198-70119-B
isadelphe	198-72649-B
isadelphie	198-72809-B
isagogique	198-73225-B
isaire	198-74140-B
isanthe	198-74267-B
isanthere	198-74402-B
isard	198-74557-B
isatine	198-75164-B
isatis	198-75372-B
iscariotiste	198-75664-B
ischemie	198-80120-B
ischemique	198-80380-B
ischiadelphes	198-75937-B
ischiagre	198-76226-B
ischial ale	198-76411-B
ischiatique	198-76579-B
ischio anal ale	198-76715-B
ischio caverneux euse	198-76915-B
ischio clitorien ienne	198-77266-B
ischio coccygien gienne	198-77451-B
ischio femoral ale	198-77831-B
ischio perineal ale	198-78061-B
ischio tibial ale	198-78206-B
ischiocele	198-78470-B,388-34701-S
ischion	198-78628-B
ischiopage	198-78926-B
ischiopagie	198-79212-B
ischnophonie	198-79312-B
ischuretique	198-79987-B
ischurie	198-79446-B
ise	4-16685-S,5-18330-S,22-43775-S,66-50324-S,72-91360-S,73-76018-S,73-83448-S,74-14945-S,76-54621-S,115-43171-S,117-65229-S,118-60607-S,129-131260-S,132-74019-S,132-97253-S,138-179881-S,165-61410-S,186-102725-S,187-9722-S,187-89264-S,188-42530-S,188-67933-S,190-0-S,190-61205-S,193-142044-S,195-33516-S,216-118770-S,218-145170-S,223-270400-S,245-34253-S,247-75717-S,263-160299-S,280-48714-S,281-179366-S,283-203934-S,297-100642-S,297-178783-S,300-37379-S,303-136635-S,306-47190-S,306-135431-S,330-23365-S,333-56118-S,342-114470-S,343-5835-S,358-70328-S,385-137822-S,389-51263-S
isengrin	198-80562-B
isentropique	198-80762-B
iserine	199-17659-B
isiaque	198-81139-B
isinglass	198-81506-B
isis	198-81813-B
islam	62-41431-S,198-82007-B
islamique	198-82174-B
islamisme	198-82245-B
islamite	198-82635-B
islandais aise	198-82846-B
ismaeliens	198-83180-B
ismaelisme	198-83305-B
ismaelite	198-83380-B
iso	198-83507-B
isoaxique	198-83578-B
isobaphie	198-83714-B
isobarique	198-83887-B
isobarometrique	198-84229-B
isobrye ee	198-84429-B
isocarde	198-84645-B
isocarpe ee	198-84848-B
isocele	198-87783-B
isochimene	198-85086-B
isochore	198-85815-B
isochriste	198-86074-B
isochromatique	198-86255-B
isochromie	198-86373-B
isochrone	198-86488-B
isochronique	198-86733-B
isochroniquement	198-86804-B
isochronisme	198-86891-B
isocline	198-87178-B
isocole	198-87313-B
isocolon	198-87453-B
isocylindrique	198-87597-B
isodactyle	198-88007-B
isodome	198-88143-B
isodonte	198-88498-B
isodynamique	198-88640-B
isoedrique	199-5195-B
isoetees	199-5343-B
isogeotherme	198-89553-B
isogone	198-88882-B
isogonique	198-89011-B
isographie	198-89422-B
isohypse	198-89783-B
isolable	198-90064-B
isolant ante	198-90230-B
isolateur	198-90811-B
isolatif tive	198-91243-B
isolation	198-91544-B
isole ee	198-94938-B
isolement	198-92086-B,198-97548-B
isoler	198-92697-B
isologue	198-94111-B
isoloir	198-94322-B
isomarche	198-97759-B
isomere	198-98438-B
isomerie	198-98916-B
isomerique	198-99154-B
isomerisme	198-99232-B
isometrique	198-99416-B
isomorphe	198-98019-B
isomorphie	198-98159-B
isomorphisme	198-98228-B
ison	198-99567-B
isonome	198-99775-B
isonomie	198-99993-B
isoperimetre	199-915-B
isopetale	199-1285-B
isophone	198-100275-B
isophylle	198-100490-B
isopode	199-0-B
isopolitie	199-345-B
isopropylique	199-493-B
isopsephe	199-637-B
isoscele	199-1445-B
isoscelie	199-1778-B
isospherique	199-1923-B
isostatique	199-2041-B
isostemone	199-2406-B
isotele	199-4738-B
isotelie	199-4874-B
isothere	199-3846-B
isotherme	199-2613-B
isothermique	199-3192-B
isothermiquement	199-3490-B
isotrope	199-4366-B
israel	199-6748-B
israelite	199-5609-B
israelitisme	199-6395-B
issant ante	78-43713-S,199-7515-B
isse	59-86197-S,237-36692-S
issero	199-15412-B
issime	1-4080-B
issois	199-7854-B
issu ue	199-7999-B
issue	199-10674-B
isthme	199-15542-B
isthmien enne	199-16801-B
isthmique	199-17190-B
isthmocarpe	199-17488-B
ita est	199-17762-B
itacisme	199-18293-B
itaciste	199-18578-B
itaconique	199-18722-B
itague	199-18861-B
italianisateur ou italianiseur	199-19225-B
italianisation	199-19617-B
italianiser	199-19912-B
italianiseur	199-19225-S
italianisme	199-20896-B
italien ienne	199-21285-B
italiote	199-23276-B
italique	199-23687-B
italique ee	199-25745-B
italo gothique	199-25971-B
ite	1-4229-B,5-91534-S,24-17404-S,66-59074-S,75-21038-S,79-74777-S,79-109600-S,110-160809-S,110-175915-S,111-92418-S,111-109953-S,111-156803-S,112-0-S,116-107420-S,121-80048-S,128-13582-S,138-9373-S,142-95234-S,148-188649-S,164-28559-S,185-176670-S,187-91867-S,188-95361-S,189-19457-S,190-34910-S,190-68028-S,193-72355-S,195-11594-S,196-39838-S,197-17272-S,197-18177-S,218-147696-S,221-142474-S,264-171918-S,279-213907-S,281-16373-S,282-113415-S,284-45903-S,300-42189-S,301-15718-S,306-80087-S,315-67588-S,315-130854-S,321-61652-S,321-165408-S,334-37197-S,339-45810-S,343-64330-S,357-70275-S,358-9924-S,382-146585-S,390-20119-S
ite ou beni ie	46-112146-S
item	199-26206-B
iteratif ive	199-31584-B
iteration	199-32169-B
iterativement	199-32354-B
iterer	199-32631-B
ithel	199-27210-B
ithos	199-27487-B
ithyphalle	199-28221-B
ithyphallique	199-28418-B
itineraire	199-28668-B
itinerant ante	199-30796-B
itou	199-31016-B
