ou rocouyer	310-141769-S
ou rodilardus	310-142437-S
ou rodoul ou redoul	312-36791-S
ou rominagrobis	296-102345-S
ou rommany	311-45545-S
ou rotang	312-18030-S
ou roubine	310-107219-S
ou roure	313-7572-S
ou rousture	312-5553-S
ou roux vieux	313-6946-S
ou rubacelle	313-39736-S
ou sabrenauder	319-109723-S
ou sacramentel elle	319-157878-S
ou sacramentellement	319-159025-S
ou saette	320-38001-S
ou saflor	320-2297-S
ou saint yon	378-30745-S
ou sainte hermandad	172-70451-S
ou salangane	320-172889-S
ou salpe	321-9534-S
ou sambleu	321-57185-S
ou sandal	321-167295-S
ou sang dragon	321-109535-S
ou sanguenite	321-134875-S
ou sapotille	322-17515-S
ou sapotillier	322-17758-S
ou sar	322-56146-S
ou sarangousti	322-21566-S
ou sarcelloises	322-24787-S
ou sardineau	322-39131-S
ou sardonique	322-42266-S
ou sare	322-47857-S
ou sarguet	322-44441-S
ou sarrelle	322-43735-S
ou sauterelle	323-91629-S
ou scaphandrier	324-21583-S
ou scarole	324-32450-S
ou scazon	324-33954-S
ou scheik	62-41043-S
ou schotisch	324-85964-S
ou scordium	325-19593-S
ou seborrhee	345-31184-S
ou secoument	325-146303-S
ou sedum	345-76092-S
ou seiche	345-17473-S
ou seillot	326-21994-S
ou selan	345-100771-S
ou selon d autres kinnor	66-29814-S
ou serapeon ou serapeum	346-54595-S
ou serapeum	346-54595-S
ou sergier	327-105429-S
ou serpentinariees	327-140492-S
ou serre points	327-167029-S
ou serrette	322-54570-S
ou sethien ou sethite	346-84682-S
ou sethite	346-84682-S
ou shah	58-122588-S
ou simaroubees	329-98277-S
ou simplement cholera	64-1179-S
ou simplement gloria	160-73330-S
ou simplement gradus	163-18726-S
ou simplement pinne	268-108873-S
ou simplement vomito	375-365489-S
ou sintoisme	329-201616-S
ou siroco	330-14600-S
ou sisyrinque	330-27155-S
ou solle	331-26044-S
ou sopha	330-146516-S
ou sophi	330-148223-S
ou soporifique	332-48002-S
ou sororial ale	332-68355-S
ou sotadique	332-153667-S
ou sothiaque	332-154089-S
ou soudart	332-209579-S
ou soufi	330-149085-S
ou soule	331-26498-S
ou souslik	334-37646-S
ou soute	333-43660-S
ou sparton	335-5410-S
ou splenisation	336-8024-S
ou statere	337-5639-S
ou stepp	337-41668-S
ou stercoriste	337-44566-S
ou strophule	338-38949-S
ou styrax	337-82039-S
ou sucrion	340-114756-S
ou suivant l academie squammeux euse	336-69899-S
ou suivant l etymologie squirrhe	336-75940-S
ou suivant l etymologie squirrheux euse	336-76335-S
ou suivant l orthographe de quelques uns dit l academie cuillere	91-15881-S
ou suivant une orthographe usitee aussi reversis	308-71601-S
ou sulfo	340-278499-S
ou sulfo margarique	219-111371-S
ou surette	342-26967-S
ou surin	342-27233-S
ou surjauler	342-57264-S
ou surpente	343-87838-S
ou suspensoire	343-87156-S
ou suttie	343-95197-S
ou svastika	343-102050-S
ou symploce	344-24066-S
ou synanthe ee	344-38664-S
ou synecdoque	344-60786-S
ou syringa	327-110700-S
ou tachirou	346-229567-S
ou tagerot	347-9467-S
ou taicoune	349-77112-S
ou taillerolle	347-55732-S
ou talipot	347-100570-S
ou tamarisc ou tamarix	347-135613-S
ou tamarix	347-135613-S
ou tamile	347-152464-S
ou tangueux	348-765-S
ou tapioka	348-72893-S
ou tardon	348-132383-S
ou taupiniere	349-40278-S
ou tauzin	349-54204-S
ou taxionomie	349-74871-S
ou teck	349-114254-S
ou teel	353-49341-S
ou teillage	353-51044-S
ou teille ee	353-57038-S
ou teiller	353-54035-S
ou teilleur euse	353-56042-S
ou temploir	350-12910-S
ou tendret ette	350-176280-S
ou tenioide	365-89663-S
ou teraspic	348-113190-S
ou terreautage	351-56481-S
ou terreauter	351-56855-S
ou terser	350-342629-S
ou tete ee	351-132719-S
ou teter	351-125973-S
ou tetradynamique	365-127453-S
ou tetragynique	365-129350-S
ou tetrastique	365-134910-S
ou theorbe	365-111436-S
ou theurgite	352-82961-S
ou thorictide	352-16819-S
ou thorium	352-17066-S
ou thuya	352-19743-S
ou tillolle	353-56746-S
ou timpe	364-88993-S
ou tinkal	353-87724-S
ou titanium	354-114706-S
ou tokay	354-194625-S
ou tonka	354-334406-S
ou torgnole	355-87512-S
ou tortillart	355-131103-S
ou touchaud	356-14662-S
ou tournassage	356-188514-S
ou tournasser	356-188658-S
ou tournassin	356-188802-S
ou tournassine	356-188940-S
ou tournassure	356-189361-S
ou tournoiment	356-270191-S
ou toutes tables	357-3817-S
ou transoceanique	358-78313-S
ou trebellienne	363-9918-S
ou trecheur	359-173039-S
ou tres fonds	363-23664-S
ou trez	363-9182-S
ou trezailler se	359-186692-S
ou trichomatique	360-39708-S
ou tripetale ee	361-57711-S
ou tritheiste	361-86060-S
ou trivoltin	361-100740-S
ou trois quarts	361-106704-S
ou tronche	362-62651-S
ou truchement	362-228421-S
ou truck	362-227558-S
ou trumpo	362-249536-S
ou tuque	351-133163-S
ou turlutoire	364-49168-S
ou turo	364-19162-S
ou turritis	364-58863-S
ou tutoiment	364-67990-S
ou ugni	366-170308-S
ou une h muette nouvel nouvelle	242-60197-S
ou unitarisme	366-223572-S
ou univoltin	367-6168-S
ou uropygien ienne	367-35924-S
ou vacciniees	368-20580-S
ou vaccinoide	368-20167-S
ou valerianate	368-212148-S
ou valerianees	368-212310-S
ou valerique	369-1111-S
ou vaudere	369-127954-S
ou velanede	25-217530-S
ou venenipare	376-240035-S
ou veratrum	376-248228-S
ou vermicelle	371-46870-S
ou versiculets	371-137030-S
ou vertumnus	372-0-S
ou vidamie	372-134324-S
ou viette	374-230754-S
ou vieux vieille	372-214947-S
ou vilite	373-99091-S
ou vireveau	374-7173-S,374-7420-S
ou virevouste	374-8189-S
ou virli	374-20863-S
ou viziriat	374-230269-S
ou volcelest	375-248678-S
ou volis	375-278396-S
ou votre la	377-61484-S
ou vroncelle	376-124826-S
ou vulgairement et en termes de commerce bordeaux	37-149686-S
ou vulpique	376-191081-S
ou vulpuline	376-190899-S
ou wairette	377-69561-S
ou wake	377-67346-S
ou whisky	377-82475-S
ou woorari	377-86171-S
ou yak	378-25707-S
ou zephyr	379-23861-S
ou zingage	378-49878-S
ou zizel	378-54057-S
ou zoologue	378-71453-S
ou zoopathologique	378-73681-S
ouagga	251-79967-B
ouaiche	251-80074-B
ouaille	251-80145-B
ouaire	251-82652-B
ouais	251-83074-B
ouanderou	251-83750-B
ouarine	251-83850-B
ouate	251-84025-B
ouate ee	251-87087-B
ouater	251-86604-B
oubier	251-87239-B
oubli	251-87382-B
oubliable	251-91640-B
oubliance	251-91809-B
oublie	251-92854-B
oublie ee	251-113757-B
oublier	251-95069-B
oublier s 	131-56711-S
oublierie	251-110199-B
oubliettes	251-110525-B
oublieur	251-111369-B
oublieusement	251-112162-B
oublieux euse	251-112294-B
oubliez pas	239-52597-S
oubria	251-115159-B
ouche	251-115263-B
oudenarde	251-115779-B
oudrir se	251-116023-B
oue	251-116227-B
ouest	241-41342-S,241-41500-S,241-42440-S,241-42773-S,251-116415-B,340-119542-S
ouest quart nord	241-42263-S
ouest quart ouest	241-42440-S
ouf	251-118486-B
ougrien enne	251-118974-B
ougro finnois	251-119090-B
oui	251-119158-B
oui dire	252-177982-B
oui ie	131-60154-S,252-177490-B
ouiche	251-127457-B
ouicou	252-178656-B
ouie	252-178761-B
ouillage	251-127697-B
ouiller	251-128187-B
ouillere ou oulliere	251-130956-B
ouir	131-60271-S,252-184071-B
ouistiti	251-131717-B
oukase	251-131863-B
oule	251-131907-B,334-142937-S,347-156689-S
oulices	251-132064-B
oulliade	251-132148-B
oulliere	251-130956-S
oulo	252-0-B
oura	252-49-B
ouragan	252-244-B
ouralien ienne	252-2715-B
ouralite	252-2895-B
ouralo altaique	252-3002-B
ouranoplastie	252-3320-B
ouraque	252-3368-B
ourari	252-3841-B
ourax	252-3886-B
ource	252-4250-B
ourde	28-133206-S,162-74740-S,211-168938-S
ourdi ie	252-4618-B
ourdidon	252-5665-B
ourdir	252-5813-B
ourdissage	252-9047-B
ourdisseur euse	252-9452-B
ourdissoir	252-9965-B
ourdissure	252-10335-B
ourdou	252-10508-B
ourdri ie	252-10566-B
ourebi	252-10734-B
ouret	252-10819-B
ouretique	252-22708-B
ourigourap	252-10897-B
ourle ee	252-13113-B
ourler	252-11028-B
ourles	252-11685-B
ourlet	252-11870-B
ourlon	252-13047-B
ours	252-13478-B
ourse	252-19135-B,252-20274-B,299-8554-S
ourseau	252-20330-B
ourserie	252-20534-B
oursin	252-20810-B,252-21315-B
oursin ine	252-21511-B
oursine	252-21787-B
oursine ee	252-21943-B
ourson	252-22083-B
ourvari	252-22658-B
ouse	199-103026-S,389-32650-S
ousse	313-9960-S
out	210-126546-S,253-36403-B
outang	249-69216-S
outarde	252-22908-B
outardeau	252-24252-B
oute	102-116194-S,186-90605-S,189-140066-S
outibot	252-24352-B
outil	32-85432-S,252-24466-B
outillage	252-29154-B
outille ee	252-30436-B
outillement	252-29292-B
outiller	252-29857-B
outilleur	252-30348-B
outlaw	252-31077-B
outrage	252-31973-B
outrage ee	252-46665-B
outrageant ante	252-37446-B
outragement	252-38427-B
outrager	252-38592-B
outrager s 	131-57489-S
outrageusement	252-41516-B
outrageux euse	252-43167-B
outrance	252-47747-B
outrancier ere	252-50643-B
outre	252-51087-B,252-60617-B,368-8248-S
outre ee	252-73589-B
outre passe	252-61465-B
outre passe ee	252-63279-B
outre passer	252-62287-B
outre percer	252-63426-B
outrecuidance	252-63632-B
outrecuidant ante	252-64732-B
outrecuide ee	252-66286-B
outrecuider	252-65334-B
outremarin ine	252-67336-B
outrement	252-78634-B
outremer	252-67580-B
outremonts d 	252-68293-B
outrer	252-68553-B
ouvarovite	252-79645-B
ouvert	32-71006-S
ouvert erte	131-57671-S,252-79707-B
ouverte	252-92944-B
ouvertement	252-93275-B
ouverture	78-58916-S,131-58236-S,252-94254-B
ouvirandre	252-105704-B
ouvrable	252-105994-B
ouvrage	252-106689-B
ouvrage ee	252-118750-B
ouvrager	252-118284-B
ouvraison	252-119316-B
ouvrant ante	252-119785-B
ouvre ee	252-176601-B
ouvreau	252-121490-B
ouvree	252-177355-B
ouvrer	252-121827-B
ouvreur euse	252-124326-B
ouvreuse	252-125526-B
ouvrier iere	252-125693-B
ouvrir	131-58646-S,252-136979-B,305-43568-S
ouvroir	252-175045-B
ovaille	252-193043-B
ovaire	252-193485-B,252-194152-B
ovalaire	252-194272-B
ovale	252-194786-B,252-194930-B
ovaler	252-197426-B
ovales	252-197488-B
ovalifolie ee	252-197545-B
ovaliser	252-197671-B
ovaliste	252-197867-B
ovalite	252-198245-B
ovarien ienne	252-198442-B,363-124314-S,367-128275-S
ovarifere	252-198584-B
ovariocele	252-198719-B
ovariotomie	252-198866-B
ovarique	252-199255-B
ovarisme	252-199411-B
ovariste	252-199581-B
ovarite	252-199644-B
ovariule	252-199819-B
ovatifolie ee	252-200086-B
ovation	252-200268-B
ove	252-201286-B
ove ee	252-208457-B
ovibos	252-201504-B
ovicapre	252-201631-B
ovicapsule	252-201808-B
ovicule	252-201918-B
ovidien ienne	252-202056-B
oviducte	252-202426-B
ovifere	252-202792-B
oviforme	252-202685-B
ovigere	252-202958-B
oville ee	252-203158-B
ovine	252-203361-B
ovipare	252-203511-B
oviparisme	252-204092-B
ovipositeur	252-204218-B
ovisac	252-204449-B
oviscapte	252-204623-B
ovisme	252-204887-B
oviste	252-205107-B
ovivore	252-205160-B
ovo	1-12273-S
ovo ab	252-205292-B
ovo urinaire	252-205584-B
ovo vivipare	252-205758-B
ovogenie	252-206069-B
ovoidal ale	252-206541-B
ovoide	252-206685-B
ovoir	252-206251-B
ovologie	252-206356-B
ovulaire	252-207036-B
ovulation	252-207102-B
ovule	252-207298-B
ovule ee	252-208331-B
ovuligere	252-207924-B
ovulite	252-208132-B
owenien ienne	252-208809-B
owenisme	252-208964-B
oweniste	252-209135-B
ox	252-209202-B,252-209275-B
oxacide	252-209365-B
oxalate	252-209526-B
oxalhydrique	252-209626-B
oxalide	252-209779-B
oxalidees	252-210159-B
oxalique	252-210284-B
oxalovinate	252-210716-B
oxalovinique	252-210864-B
oxalurie	252-211018-B
oxamide	252-211194-B
oxamique	252-211282-B
oxeleon	253-8097-B
oxeolat	253-8259-B
oxeole	253-8470-B
oxford	252-211424-B
oxiopie	252-211723-B
oxy iodure	252-211875-B
oxybase	252-211970-B
oxybasique	252-212121-B
oxybromure	252-212236-B
oxycarbure	252-212386-B
oxycarbure ee	252-212534-B
oxycephale	252-213564-B
oxychlorate	252-212711-B
oxychlorique	252-212836-B
oxychlorure	252-213014-B
oxycrat	252-213164-B
oxycyanure	252-213413-B
oxydabilite	252-213756-B
oxydable	252-213926-B
oxydant ante	252-214142-B
oxydation	252-214244-B
oxyde	252-214802-B
oxyde ee	252-217628-B
oxyder	252-216619-B
oxydule	252-217040-B
oxydule ee	252-217517-B
oxyecoie	253-7930-B
oxyfluorure	252-217845-B
oxygala	253-0-B
oxygenable	253-2441-B
oxygenant ante	253-2666-B
oxygenation	253-2775-B
oxygene	253-369-B
oxygene ee	253-3922-B
oxygener	253-3081-B
oxygenifere	253-3738-B
oxygone	253-127-B
oxyhydrique	253-4044-B
oxymel	253-4299-B
oxymetrie	253-4731-B
oxymetrique	253-5021-B
oxymuriatique	253-4521-B
oxyosphresie	253-5427-B
oxyote	253-5623-B
oxyphonie	253-5772-B
oxyphosphure	253-5935-B
oxyregmie	253-6038-B
oxyrrhodin	253-6195-B
oxyrrhynque	253-6320-B
oxysaccharum	253-6733-B
oxysel	253-6881-B
oxystyle	253-7034-B
oxysulfure	253-7212-B
oxyton	253-7362-B
oxyure	253-7620-B
oyant ante	253-8567-B
