chemisier iere	62-81532-B
chemosis	65-91549-B
chenaie	65-109324-B
chenal	62-81870-B
chenaler	62-83243-B
chenapan	62-83354-B
chenard	62-83507-B
chenavard	62-83774-B
chene	65-109690-B
chene marin	65-113654-B
cheneau	65-91911-B,65-113810-B
chenet	62-83840-B
cheneteau	65-114122-B
chenette	62-85869-B,65-114315-B
cheneveau	65-64603-B
cheneviere	65-65681-B
chenevis	65-64679-B
chenevotte	65-67404-B
chenevotter	65-68210-B
chenice	65-92498-B
chenier	65-114553-B
cheniere	65-114656-B
chenil	62-86156-B
chenille	62-86909-B
chenillere	62-89028-B
chenillette	62-88749-B
chenin	62-89304-B
chenisque	65-92638-B
chenon	65-114773-B
chenopode	65-92854-B
chenopodee	65-93306-B
chenopodiacee	65-93127-B
chenu ue	62-89453-B
cheptel	62-93092-B
cheptelier	62-95144-B
chepu	65-93475-B
chequage	65-93582-B
cheque	65-68400-B
chequeur	65-94206-B
cher chere	62-95243-B
cherche	62-106531-B
cherche ee	62-122206-B
cherche fiche	62-107548-B
cherche pointe	62-107692-B
chercher	62-107842-B
chercher s 	131-104189-S
chercheur euse	62-119907-B
cherconnee	62-122642-B
chere	62-95243-S,65-70156-B
cherement	65-77616-B
cheri ie	65-94363-B
cherif	65-95318-B,171-109157-S
cherifat	65-95611-B
cherimolier	65-95672-B
cherin	62-122753-B
cherip	65-96174-B
cherir	65-96296-B
cherir s 	131-107107-S
cherissable	65-99028-B
chermotte	62-122857-B
cherolle	65-99504-B
cheron	62-123029-B
cherpille	62-123154-B
chersie	62-123446-B
chersonese	62-123579-B
chersydre	62-123923-B
cherte	62-124063-B
cherub	65-99562-B
cherubin	65-100322-B
cherubique	65-101408-B
chervis	62-125742-B
chester	62-126252-B
chete	65-114939-B
chetif ive	65-101568-B
chetivement	65-106852-B
chetivete	65-107073-B
chetodon	65-107845-B
chetopode	65-108031-B
chetoptere	65-108193-B
chetron	65-108409-B
chetuan	65-108498-B
chevage	62-126393-B,62-126529-B
chevaine	62-126651-B
cheval	62-126707-B,259-238945-S,362-22713-S
chevalee	62-168598-B
chevalement	62-147731-B
chevaler	62-147947-B
chevaleresque	62-150612-B
chevaleresquement	62-151254-B
chevalerie	62-151401-B
chevalet	62-155127-B
chevalier	62-158334-B
chevaline	62-166704-B
chevalis	62-168402-B
chevalon	62-168528-B
chevance	62-168820-B
chevanne	62-171945-B
chevau legers	62-172247-B
chevauchable	62-173067-B
chevauchant ante	62-173345-B
chevauchee	62-180978-B
chevauchement	62-173619-B
chevaucher	62-174175-B
chevaucheur	62-178663-B
chevauchons a	62-180075-B
chevauchure	62-180490-B
cheve ee	62-232477-B
chevecerie	65-80714-B
cheveche	62-232623-B
chevecier	62-182948-B
chevel	62-184060-B
chevelage	62-184129-B
chevele ee	62-189635-B
chevelee	62-189824-B
chevelu ue	62-184320-B
chevelure	62-187570-B
chevelure de	46-141200-S
chever	62-190126-B
chevet	62-190682-B
cheveteau	65-80827-B
chevetre	62-233266-B
chevetrier	62-234972-B
cheveu	62-194879-B
cheveur	62-203740-B
chevillage	62-203906-B
chevillard	62-204585-B
cheville	62-204677-B
cheville ee	62-213858-B
cheviller	62-210326-B,62-210830-B
chevillette	62-211965-B
chevilleur	62-212356-B
chevillier	62-212985-B
chevilliere	62-213078-B
chevilloir	62-213192-B
chevillon	62-213318-B
chevillot	62-213533-B
chevillure	62-213668-B
chevin	62-214990-B
cheviot	62-215036-B
cheviote	62-215551-B
chevir	62-216022-B
chevre	65-81039-B,351-132555-S
chevre pied	65-85865-B
chevreau	62-217689-B
chevrefeuille	65-86531-B
chevrelle	62-218701-B
chevrer	62-218892-B
chevreter	65-87278-B
chevrette	62-219068-B
chevrettiere	62-222157-B
chevreuil	62-222294-B
chevrier	62-223543-B
chevrillard	62-224032-B
chevrin	62-224165-B
chevron	62-224709-B,62-228123-B,62-228517-B,78-15907-S,333-206839-S
chevronnage	62-228585-B
chevronne ee	62-229046-B,78-16105-S
chevronner	62-228748-B
chevrotain	62-229403-B
chevrotant ante	62-229462-B
chevrote ee	62-232256-B
chevrotement	62-229666-B
chevroter	62-230134-B
chevrotin	62-230775-B
chevrotine	62-231995-B
chevrotiner	62-232144-B
chevrue	62-232341-B
chez	62-235116-B
cheze	65-87535-B
chi	62-240094-B
chiaoux	62-240223-B
chiasma	62-240642-B
chiasme	62-240690-B
chiasse	62-241018-B
chibou	62-241373-B
chibouque	62-241504-B
chic	62-241639-B
chica	62-243884-B
chicabaud	62-244066-B
chicane	62-244217-B
chicane ee	62-251797-B
chicaner	62-247603-B
chicanerie	62-249741-B
chicaneur euse	62-250494-B
chicanier iere	62-251507-B
chiche	62-252130-B,62-252928-B
chiche face	62-255912-B
chichement	62-256412-B
chichete	62-257028-B
chicon	62-258053-B
chicoracee	62-258142-B
chicoree	62-258345-B
chicot	62-260236-B
chicoter	62-261560-B
chicotin	62-261820-B
chie ee	63-58780-B
chie en lit	62-262572-B
chien	61-13759-S,90-0-S,229-186908-S,240-109352-S,269-119634-S,363-129840-S,391-251394-S
chien chienne	62-263093-B
chien loup	62-287020-B
chien ou negue fol	243-12454-S
chienaille	63-58838-B
chiendent	62-287148-B
chienne	62-263093-S,62-287855-B
chiennee	62-288526-B
chienner	62-288089-B
chiennerie	62-288341-B
chier	62-288618-B
chieur euse	62-290277-B
chiffe	62-290460-B
chiffle	62-292114-B
chiffler	62-292313-B
chiffon	62-292346-B
chiffonnade	62-294409-B
chiffonnage	62-294472-B
chiffonne ee	63-2902-B
chiffonner	63-0-B
chiffonnerie	63-1511-B
chiffonnier iere	63-1596-B
chiffrable	63-3318-B
chiffrage	63-3643-B
chiffre	63-4063-B
chiffre ee	63-10294-B
chiffre taxe	63-8890-B
chiffrer	63-9428-B
chiffreur	63-10167-B
chignard	63-10465-B
chigner	63-10587-B
chignolle	63-10948-B
chignon	63-11015-B
chigomier	63-12645-B
chiliade	63-12734-B
chiliarchie	63-12837-B
chiliarque	63-13128-B
chiliasme	63-13264-B
chiliaste	63-13531-B
chiliastique	63-13652-B
chiliogone	63-13729-B
chiloglosse	63-13929-B
chilognathe	63-14061-B
chiloplastie	63-14195-B
chiloplastique	63-14415-B
chilopode	63-14537-B
chimer	63-14711-B
chimere	63-21685-B
chimerique	63-24521-B
chimeriquement	63-25664-B
chimeriser	63-26055-B
chimiatre	63-15317-B
chimiatrie	63-15432-B
chimico legal ale	63-15828-B
chimie	384-64594-S
chimie ou chymie	63-16069-B
chimification	63-18322-B
chimique	63-18621-B,366-113877-S,384-64899-S
chimiquement	63-19806-B
chimisme	63-19957-B
chimiste	63-20200-B
chimoine	63-21328-B
chimpanse chimpanze ou chimpanzee	63-21437-B
chimpanze ou chimpanzee	63-21437-S
chimpanzee	63-21437-S
china	63-26617-B,63-26747-B
china grass	63-26817-B
chinage	63-27131-B
chinchard	63-27354-B
chinche	63-27498-B
chinchilla	63-27641-B
chine	63-28152-B
chine ee	63-31564-B
chiner	63-28224-B
chineur	63-28652-B,63-28745-B
chinfreneau	63-29426-B
chinois oise	63-29721-B
chinoiserie	63-30728-B
chinquer	63-30910-B
chint	63-31202-B
chinure	63-31447-B
chio	63-32089-B
chiocoque	63-32273-B
chionanthe	63-32459-B
chiourme	63-32666-B,156-69381-S
chipage	63-34250-B
chipe ee	63-38175-B
chipeau	63-34394-B
chiper	63-34506-B,63-35354-B
chipeur euse	63-35806-B
chipie	63-35951-B
chipolata	63-36338-B
chipolin	63-36861-B
chipoter	63-36992-B
chipotier iere	63-37945-B
chippes	63-38096-B
chique	63-38252-B,63-38516-B
chique ee	63-43592-B
chiquenaude	63-39135-B
chiquenille	63-40933-B
chiquer	63-41188-B,63-41842-B
chiquer se	63-41943-B
chiquet	63-42071-B
chiquetage	63-42838-B
chiqueter	63-42903-B
chiquette	63-43226-B
chiqueur	63-43441-B
chir ou chiro	63-43672-B
chiragre	63-43983-B
chiras	63-44684-B
chiraz	63-44979-B
chirite	63-45185-B
chiro	63-43672-S
chirobaliste	63-45280-B
chirographaire	63-45341-B
chirographairement	63-45984-B
chirographe	63-46272-B
chirogymnaste	63-46946-B
chirologie	63-47165-B
chirologique	63-47358-B
chiromancie	63-47439-B
chiromancien ienne	63-47873-B
chiromys	63-48421-B
chiron	63-48816-B
chironecte	63-49054-B
chironien ienne	63-49204-B
chironnage	63-49597-B
chironne ee	63-49859-B
chironome	63-49980-B
chironomie	63-50282-B
chironomique	63-50485-B
chiroplaste	63-50566-B
chiroptere	63-50746-B
chirotonie	63-51244-B
chirurgical ale	63-51450-B
chirurgie	63-51710-B
chirurgien	63-52386-B
chirurgique	63-56520-B
chiste	63-56960-B
chite	63-57113-B
chitine	63-57457-B
chitineux euse	63-57630-B
chiton	63-57982-B
chiure	63-58476-B
chiyte	63-58602-B
chizerots	63-58664-B
chlamyde	63-59171-B
chlamyphore	63-59338-B
chlamys	63-59514-B
chlenace ee	63-69335-B
chloasma	63-59808-B
chloracide	63-59933-B
chloral	63-60092-B
chloranthe	63-60229-B
chloranthie	63-60389-B
chlorate	63-60625-B
chlore	63-60844-B
chlore ee	63-69222-B
chloreux	63-61490-B
chlorhydrate	63-61977-B
chlorhydrique	63-62202-B
chloribase	63-62521-B
chloride	63-62675-B
chlorique	63-63044-B
chloris	63-63229-B
chloristique	63-63436-B
chlorite	63-63573-B
chloriteux euse	63-63715-B
chloroforme	63-64021-B,391-117785-S
chloroformer	63-64603-B
chloroformique	63-64666-B
chloroformisation	63-64844-B
chloroformiser	63-64973-B
chloroiodure	63-65125-B
chlorometre	63-65538-B
chlorometrie	63-65781-B
chlorometrique	63-65972-B
chlorophane	63-66150-B
chlorophylle	63-66513-B
chlorophyllien ienne	63-66659-B
chlorophyllifere	63-67188-B
chlorose	63-67335-B
chlorosel	63-67770-B
chlorotique	63-67910-B
chloruration	63-68163-B
chlorure	63-68650-B,197-47242-S,333-206990-S
chlorure ee	63-69051-B
chlorurer	63-68925-B
choanoide	63-69506-B
choc	63-69644-B
choche pierre	63-72660-B
choche poule	63-72905-B
chocolat	63-73044-B
chocolatier	63-73707-B
chocolatiere	63-73788-B
chocotte	63-73957-B
choephore	64-68928-B
choeur	20-66026-S,63-74058-B
chogoun	63-78217-B
choin	63-78739-B,63-78870-B
choine	63-78962-B
choir	63-79348-B
choisel	63-88058-B
choisi ie	63-88490-B
choisir	63-89625-B
choisissable	63-97516-B
choisisseur	63-97953-B
choix	63-98131-B
cholagogue	63-103875-B
choledologie	64-0-B
choledoque	64-280-B
cholelithe	64-740-B
cholelogie	64-864-B
cholepoeese	64-996-B
cholera	64-1179-S
cholera morbus ou simplement cholera	64-1179-B
choleriforme	64-2178-B
cholerine	64-2387-B
cholerique	64-2656-B
cholesterate	63-104237-B
cholesterine	63-104359-B
cholesterique	63-104600-B
choliambe	63-104746-B
choliambique	63-105030-B
cholihemie	63-105128-B
chom ou chon	64-3271-B
chomable	65-115419-B
chomage	65-115579-B
chome ee	65-122624-B
chomelie	64-3618-B
chomer	65-116719-B
chomet	64-3571-B
chomeur	65-122372-B
chon	64-3271-S,64-3788-B
chondrille	64-3838-B
chondrine	64-4008-B
chondrite	143-175429-S
chondrographie	64-4229-B
chondroide	64-5175-B
chondrologie	64-4384-B
chondrome	64-4544-B
chondropterygien ienne	64-4685-B
chondrotomie	64-4994-B
chopart	64-5441-B
chope	64-5504-B
chopee	64-10620-B
chopine	64-6038-B
chopiner	64-7868-B
chopinette	64-8407-B
choppement	64-8588-B
chopper	64-8674-B
choppeur	64-10541-B
choquant ante	64-10970-B
choquart	64-11096-B
choque	64-11151-B
choque ee	64-18261-B
choquement	64-11231-B,131-104406-S
choquer	64-11418-B
choquer s 	131-105046-S
choquetage	64-18065-B
choragique	64-18498-B
choraique	64-19275-B
choral ale	64-18832-B
choree	64-23578-B,64-23762-B
chorege	64-24082-B
choregie	64-24619-B
choregique	64-24769-B
choregraphe	64-24846-B
choregraphie	64-25053-B
choregraphique	64-25327-B
choregraphiquement	64-25448-B
choreique	64-25549-B
choremanie	64-25759-B
choreveque	64-25905-B,64-26106-B
choriambe	64-19423-B
choriambique	64-19684-B
chorion	64-19780-B
chorique	64-20113-B
choriste	64-20291-B
chorizonte	64-20802-B
chorographe	64-21020-B
chorographie	64-21105-B
chorographique	64-21469-B
choroide	64-21634-B
choroidien ienne	64-22391-B
choroidite	64-22533-B
chortonomie	64-22711-B
chorus	64-22829-B
chose	64-26304-B
chosette	64-47485-B
chosier	64-48161-B
chott	64-48484-B
chou	64-49538-B,64-57666-B,64-58010-S,362-124604-S
chou chou	64-58010-B
chou fleur	64-58093-B
chou pille	64-58348-B
chou rave	64-58419-B
chouan	64-58470-B
chouanisme	64-59587-B
chouanner	64-59708-B
chouannerie	64-59988-B
chouart	64-60320-B
chouc	64-60381-B
