disexuel elle	101-178733-B
disgrace	101-181718-B
disgracie ee	101-180192-B
disgracier	101-178821-B
disgracieusement	101-179400-B
disgracieux euse	101-179652-B
disgregation	101-185472-B
dishley	101-185937-B
disjoindre	101-186285-B
disjoint ointe	101-187622-B
disjonctif ive	101-188013-B
disjonctiflore	101-189219-B
disjonction	101-189405-B
dislocateur trice	101-190386-B
dislocation	101-190721-B
disloque ee	101-195190-B
disloquement	101-192900-B
disloquer	101-193153-B
disome	101-196037-B
disomose	101-196166-B
dispache	101-196300-B
dispacheur	101-196509-B
disparaissant ante	101-196597-B
disparaitre	101-199452-B
disparate	101-196821-B,101-197702-B
dispareil eille	101-205521-B
disparite	101-206177-B
disparition	101-205740-B
disparu ue	101-207418-B
dispendieusement	101-207861-B
dispendieux euse	101-208004-B
dispensable	101-208544-B
dispensaire	101-208814-B
dispensataire	101-209423-B
dispensateur trice	101-209644-B
dispensatif ive	101-212042-B
dispensation	101-212510-B
dispense	101-214617-B
dispense ee	101-224253-B
dispenser	101-216468-B
dispermatique	101-224507-B
disperme	102-0-B
disperse ee	102-3935-B
disperser	102-154-B
dispersif ive	102-2011-B
dispersion	102-2590-B
dispondee	102-4901-B
disponibilite	102-5132-B
disponible	102-6674-B
dispos	102-7740-B
disposant ante	102-9598-B
dispose ee	102-28530-B
disposer	102-9746-B
disposeur	102-17597-B
dispositif	102-17831-B
dispositif ive	102-18857-B
disposition	102-19159-B
disproportion	102-30044-B
disproportionne ee	102-32952-B
disproportionnel elle	102-31739-B
disproportionnellement	102-31983-B
disproportionnement	102-34491-B
disproportionner	102-32143-B
disputable	102-34652-B
disputailler	102-35331-B
disputaillerie	102-35546-B
disputailleur euse	102-35958-B
disputant	102-36151-B
disputation	102-36607-B
dispute	102-37358-B
dispute ee	102-53526-B
disputer	102-42673-B
disputer s 	132-6289-S
disputeur euse	102-52211-B
disqualifie ee	102-53855-B
disque	102-54074-B
disquisition	102-56123-B
disrespectueux euse	102-56970-B
disruption	102-57346-B
diss	102-57578-B
dissatisfaction	102-58277-B
dissecable	102-119284-B
dissecteur	102-58523-B
dissection	102-58621-B
dissemblable	102-60308-B
dissemblablement	102-62551-B
dissemblance	102-62911-B
dissemblant ante	102-63519-B
dissembler	102-63939-B
disseminateur trice	102-119420-B
dissemination	102-119767-B
dissemine ee	102-121839-B
disseminement	102-120685-B
disseminer	102-120925-B
dissension	102-64414-B
dissent	102-65996-B
dissenter	102-66538-B
dissenterisme	102-68181-B
dissentiment	102-66823-B
dissentir	102-67160-B
dissepale	102-122328-B
dissequant ante	102-122466-B
disseque ee	102-124540-B
dissequer	102-122667-B
dissequeur	102-123743-B
dissertateur	102-68333-B
dissertatif ive	102-68790-B
dissertation	102-68964-B
disserter	102-69790-B
disserteur euse	102-70815-B
dissidence	102-71174-B
dissident ente	102-71397-B
dissigne	102-72217-B
dissimilaire	102-72496-B
dissimilarite	102-73572-B
dissimilation	102-73877-B
dissimilitude	102-74271-B
dissimulateur trice	102-74714-B
dissimulation	102-76007-B
dissimule ee	102-82670-B
dissimuler	102-77687-B
dissipant ante	102-83770-B
dissipateur trice	102-83984-B
dissipation	102-85382-B
dissipe ee	102-93995-B
dissiper	102-87901-B
dissitiflore	102-95882-B
dissitivalve	102-96131-B
dissociable	102-96346-B
dissociation	102-96627-B
dissocie ee	102-97919-B
dissocier	102-97269-B
dissolu ue	102-98076-B
dissolubilite	102-100536-B
dissoluble	102-101310-B
dissolument	102-101855-B
dissolute	102-106935-B
dissolutif ive	102-102199-B
dissolution	102-102721-B
dissolvant ante	102-107063-B
dissonance	102-107727-B
dissonant ante	102-109488-B
dissoner	102-110706-B
dissoudre	102-111105-B
dissous oute	102-116194-B
dissuade ee	102-117257-B
dissuader	102-116614-B
dissuasif ive	102-117380-B
dissuasion	102-117563-B
dissyllabe	102-118139-B
dissyllabique	102-118413-B
dissyllabisme	102-118657-B
dissymetrie	102-119096-B
distachye ee	102-124883-B
distance	102-125089-B
distance ee	102-129562-B
distancer	102-128957-B
distant ante	102-130328-B
distege	102-190731-B
distemone	102-190895-B
distendre	102-132006-B
distendu ue	102-133172-B
distension	102-133289-B
disthene	102-134175-B
distichiase ou distichiasis	102-134407-B
distichiasis	102-134407-S
distichophylle	102-134704-B
distigmate	102-134877-B
distigmatie	102-135017-B
distillable	102-135202-B
distillateur	102-135410-B
distillation	102-136193-B
distillatoire	102-137274-B
distille ee	102-142847-B
distiller	102-137693-B
distillerie	102-142599-B
distinct te	102-143396-B
distinctement	102-144992-B
distinctif ive	102-146619-B
distinction	102-146884-B
distinctivement	102-151875-B
distinguable	102-152239-B
distingue ee	102-160162-B
distinguer	102-152645-B
distinguo	102-159453-B
distique	102-161760-B,102-162312-B
distome	102-162461-B
distordre	102-162766-B
distordu ue	102-163506-B
distors orse	102-163605-B
distorsion	102-163754-B
distractif ive	102-164559-B
distractile	102-164716-B
distraction	102-165001-B
distraire	102-167972-B
distrait aite	102-173662-B
distraitement	102-175539-B
distrayant ante	102-176263-B
distribuable	102-176522-B
distribuant	102-177085-B
distribue ee	102-187874-B
distribuer	102-177248-B
distributaire	102-180568-B
distributeur trice	102-180846-B
distributif ive	102-182089-B
distribution	102-183230-B
distributivement	102-187495-B
district	102-188730-B
distriglyphe	102-190397-B
distyle	102-190458-B,102-190604-B
dit	102-191173-B
dit dite	102-193394-B
dit l academie cuillere	91-15881-S
dit l academie devoument	121-169582-S
dit tantot des personnes qui gardent	156-87551-S
ditaxion	102-195619-B
dite	102-193394-S
ditetraedre	102-200513-B
ditheisme	102-197279-B
dithionique	102-195789-B
dithyrambe	102-196034-B
dithyrambique	102-196748-B
dithyre	102-197139-B
dition	102-197540-B
dito	102-197860-B
ditome	102-198154-B
diton	102-198313-B
ditriglyphe	102-198922-B
ditrinome	102-199074-B
ditrochee	102-199319-B
ditrope	102-199531-B
dittier	102-199763-B
dittologie	102-200319-B
diurese	102-203286-B
diuretique	102-203419-B
diurnal	102-200722-B
diurnal ale	102-201149-B
diurne	102-201578-B,326-149564-S
div	102-204189-B
diva	102-204224-B
divagateur trice	102-204533-B
divagation	102-204695-B
divaguer	102-205612-B
divagueur euse	102-207515-B
divan	103-0-B
divani	103-1244-B
divarication	103-1411-B
divarique ee	103-1609-B
dive	103-2004-B,103-2532-B
divellent ente	103-2726-B
divergence	103-3105-B
divergent ente	103-3521-B
divergentiflore	103-4900-B
diverger	103-5072-B
divergi nerve ee	103-6445-B
divers erse	103-6608-B
diversement	103-10191-B
diversicolore	103-11287-B
diversif ive	103-11505-B
diversifiable	103-11651-B
diversification	103-11776-B
diversifie ee	103-14622-B
diversifier	103-12294-B
diversiflore	103-14990-B
diversifolie ee	103-15241-B
diversiforme	103-15475-B
diversion	103-15674-B
diversispore ee	103-17929-B
diversite	103-18099-B
diverti ie	103-21065-B
diverticule	103-22206-B
divertir	103-22439-B
divertissable	103-27212-B
divertissant ante	103-27373-B
divertissement	103-28242-B
divertisseur	103-30904-B
divest	103-31341-B
dividende	103-31800-B
dividivi	103-32775-B
divin ine	103-32955-B
divinateur trice	103-37404-B
divination	103-38037-B
divinatoire	103-39260-B
divinement	103-39955-B
divinis a	103-41443-B
divinisation	103-41883-B
divinise ee	103-43320-B
diviniser	103-42163-B
divinite	103-43460-B
divis	103-46494-B
divisant ante	103-47055-B
divise	103-47709-B
divise ee	103-67402-B
divisement	103-68513-B
diviser	103-47997-B,333-213947-S
diviseur	103-54289-B
divisibilite	103-55218-B
divisible	103-56235-B
divisiblement	103-57243-B
divisif ive	103-57369-B
division	103-57666-B
divisionnaire	103-65308-B
divisoire	103-66224-B
divitiaire	103-69549-B
divoltain ou divoltin	103-69767-B
divoltin	103-69767-S
divonne	103-69980-B
divorce	103-70430-B
divorce ee	103-75270-B
divorcer	103-73911-B
divulgateur trice	103-75415-B
divulgation	103-75607-B
divulgue ee	103-77469-B
divulguer	103-76278-B
divulsion	103-77639-B
dix	103-78007-B,259-240178-S
dix huit	103-80359-B,186-83907-S
dix huitain	103-81395-B
dix huitieme	103-81858-B
dix huitiemement	103-82296-B
dix neuf	103-82383-B
dix neuvieme	103-82623-B
dix neuviemement	103-83180-B
dix sept	103-83319-B
dix septieme	103-83563-B
dix septiemement	103-84166-B
dixieme	103-84305-B
dixiemement	103-85937-B
dizain	103-86050-B
dizaine	103-86539-B
dizainier	103-87591-S
dizeau	103-87329-B
dizenier ou dizainier	103-87591-B
djaina	103-97553-B
djainisme	103-97615-B
djemaa	103-97690-B
djerid	103-98456-B
djerme	103-98062-B
djinn	103-98193-B
do	103-99024-B
dobeur	103-99325-B
dobule	103-99408-B
docent	280-95720-S
docentisme	280-96031-S
docete	103-128289-B
docetisme	103-128413-B
dochmaique	103-99588-B
dochmiaque	103-99808-B
dochmius	103-99980-B
docile	103-100286-B
docilement	103-102425-B
dociliser	103-102893-B
docilite	103-103022-B
docimasie	103-104014-B
docimastique	103-104479-B
dock	103-105008-B
docte	103-105829-B
doctement	103-108621-B
docteur	103-109253-B
doctissime	103-113950-B
doctoral ale	103-114337-B
doctoralement	103-114943-B
doctorat	103-115211-B
doctorerie	103-115601-B
doctoresse	103-115746-B
doctorifier	103-116224-B
doctrinaire	103-116597-B
doctrinairement	103-118563-B
doctrinal	103-118707-B
doctrinal ale	103-119192-B
doctrinalement	103-120594-B
doctrinarisme	103-120725-B
doctrine	103-121238-B
document	103-125473-B
documentaire	103-126023-B
documentation	103-127099-B
documenter	103-127400-B
dodeca	103-133607-B
dodecacorde	103-133685-B
dodecade	103-133934-B
dodecaedre	103-136697-B,181-2733-S
dodecaedrique	103-137231-B
dodecagonal ale	103-134124-B
dodecagone	103-134395-B
dodecagyne	103-134681-B
dodecagynie	103-134896-B
dodecandre	103-135084-B
dodecandrie	103-135277-B
dodecanome	103-135484-B
dodecapetale	103-135693-B
dodecapetale ee	103-135857-B
dodecarchie	103-136032-B
dodecastyle	103-136225-B
dodecatemorie	103-136406-B
dodecuple	103-137371-B
dodelinement	103-128595-B
dodeliner	103-128833-B
dodinage	103-129403-B
dodine	103-129617-B
dodiner	103-129943-B
dodinette	103-131154-B
dodo	103-131314-B
dodonee	103-132270-B
dodu ue	103-132432-B
dogaresse	103-137512-B
dogat	103-137880-B
doge	103-138486-B
dogesse	103-139814-B
doglinge	103-139925-B
dogmatique	103-140000-B
dogmatiquement	103-142281-B
dogmatiser	103-142617-B
dogmatiseur	103-144335-B
dogmatisme	103-144963-B
dogmatiste	103-145397-B
dogme	103-146987-B
dogre	103-148278-B
dogue	103-148948-B
doguer se	103-150794-B
doguet	103-151029-B
doguin ine	103-151124-B
doigt	103-151499-B
doigt a	213-88659-S
doigte	103-169590-S,103-170781-B
doigte ee	103-170828-B
doigter	103-169018-B
doigter ou doigte	103-169590-B
doigtier	103-169848-B
doigts	330-44758-S
doint	103-171125-B
dois	104-0-B,104-99-S
doit	104-37-B
doit ou dois	104-99-B
doite	104-1134-B
doitee	104-1462-B
dol	104-1987-B,104-2837-B
dolabelle	104-3108-B
dolabre	104-3233-B
dolabriforme	104-3356-B
dolage	104-3589-B
dolbeau	104-3661-B
dolce	104-3931-B
dole ee	104-17468-B
doleance	104-17540-B
doleau	104-4123-B
dolemment	104-4217-B
dolent ente	104-4771-B
doler	104-8177-B
dolerine ou dolerite	104-18801-B
dolerite	104-18801-S
doleritique	104-19105-B
dolet	104-9791-B
dolettes	104-9889-B
doliaire	104-10064-B
dolic ou dolique	104-10149-B
dolichocephale	104-10355-B
dolichocephalie	104-10962-B
dolichocere	104-10824-B
dolichodere	104-11238-B
dolicholithe	104-11366-B
dolichopode	104-11527-B
doliman	104-11659-B
doliole	104-12698-B
dolique	104-10149-S,104-12866-B
dolium	104-13071-B
dollar	104-13188-B
dolman	104-13551-B
dolmen ou dolmin	104-13782-B
dolmenique	104-14559-B
dolmin	104-13782-S
doloir	104-14924-B
doloire	104-15005-B
dolomie ou dolomite	104-16548-B
dolomisation	104-16879-B
dolomite	104-16548-S
dolomitique	104-16988-B
dolorifique	104-17086-B
dolorosa	221-42762-S
dolosif ive	104-17338-B
dom	104-19414-B,122-12494-B
domaine	104-21389-B
domal ale	104-27261-B
domanial ale	104-27578-B
domanialiser	104-27880-B
domanialite	104-28003-B
domanier	104-28174-B
domaniste	104-28608-B
domanite	104-28895-B
dombey	104-28977-B
dombeye	104-29069-B
dome	122-12719-B
domerie	104-29169-B
domestication	104-29475-B
domesticite	104-29790-B
domestique	104-30591-B
domestique ee	104-41647-B
domestiquement	104-39620-B
domestiquer	104-40097-B
domicelle	104-41775-B
domicile	104-41839-B
