a	1-8995-B,1-10606-B,38-89069-S,44-98421-S,49-57419-S,62-180075-S,68-91020-S,77-289694-S,78-9038-S,78-9748-S,78-31234-S,78-56071-S,78-62086-S,79-28636-S,89-47474-S,103-41443-S,117-98332-S,148-186153-S,159-44753-S,161-52164-S,200-230984-S,206-23389-S,213-88659-S,225-57400-S,231-122618-S,277-224526-S,280-46005-S,300-170503-S,316-185738-S,353-141547-S,363-130677-S,365-27961-S,379-33975-B,382-51910-S
a barre	354-446-S
a bas	171-188366-S
a bon compte	379-89357-B
a bord	170-20931-S
a bourre	31-38879-S
a brac	42-71982-S
a bras	144-34854-S
a capella	379-88181-B
a caution	4-23458-S
a col	262-151905-S
a contre	79-52062-S
a coup	379-89482-B
a dieu va	4-121323-S
a epi	387-102075-S
a faux	257-136660-S,379-89890-B
a gauche	356-193392-S
a haut	171-188690-S
a l 	26-66874-S,127-15025-S,133-85015-S,135-78109-S,185-187705-S,185-190425-S,194-26083-S,194-89241-S,194-115341-S,383-127805-S
a l agneau	105-155562-S
a l ane	81-9496-S
a l entour	8-192657-S
a l oeil	323-73543-S
a la	158-33827-S,170-117742-S,216-193004-S,294-70046-S,330-44888-S,331-15545-S
a la francaise imbroille	184-16573-S
a la francaise vendette	370-65668-S
a la houpe	310-5141-S
a la sainte 	235-98136-S
a mi la	1-10670-B
a parte	16-1927-S
a patin	368-145114-S
a pied	216-120647-S
a poco	379-88446-S
a poco a poco ou poco a poco	379-88446-B
a poco ou poco a poco	379-88446-S
a port	40-83594-S
a port ou boute a port	40-83594-S
a posteriori	379-88728-B
a priori	379-88795-B
a propos	379-90221-B
a qu est ce	260-40312-S
a regret	228-114809-S
a ric	309-33728-S
a terre	267-129531-S
a tete	366-82028-S
a tous	383-88690-S
a tout	356-23102-S,369-56502-S
a vau	379-88840-B
a verse	379-89299-B
a vis	374-39683-S
a voir	32-95050-S
ab	197-60199-S,252-205292-S
ab hac	1-10827-S
ab hoc et ab hac	1-10827-B
ab intestat	1-11652-B
ab irato	1-12067-B
ab ovo	1-12273-B
abaca	1-12437-B
abaissant ante	1-13000-B
abaisse	1-13135-B,39-8129-S
abaisse ee	1-28070-B
abaissee	1-29122-B
abaissement	1-13604-B
abaisser	1-18407-B
abaisseur	1-27628-B
abait	1-29389-B
abajoue	1-29867-B
abalourdi ie	1-30351-B
abalourdir	1-30459-B
abandon	1-30573-B
abandonnataire	1-35736-B
abandonne ee	1-52418-B
abandonnement	1-35885-B,1-55677-B
abandonner	1-41098-B
abaque	1-56445-B
abas	1-57195-B,1-57857-S
abasourdi ie	1-57224-B
abasourdir	1-57347-B
abat faim	1-59104-B
abat foin	1-59274-B
abat jour	1-59521-B
abat ou abas	1-57857-B
abat sons	1-60110-B
abat vent	1-60309-B
abat voix	1-60630-B
abatage	1-60869-B
abatant	1-62649-B
abatardi ie	2-110833-B
abatardir	2-111090-B
abatardissement	2-112447-B
abatee	1-79713-B
abatellement	1-62826-B
abatis	1-63035-B
abattable	1-64079-B
abattant	1-64168-B
abattement	1-64305-B
abatteur	1-65745-B
abattis	1-66389-B
abattoir	1-66681-B
abattre	1-66903-B
abattre s 	131-42686-S
abattu ue	1-76571-B
abattue	1-79188-B
abatture	1-79462-B
abbatial ale	1-80364-B
abbatiat	1-80908-B
abbaye	1-81151-B
abbe	1-83450-B
abbesse	1-83005-B
abc	1-86749-B
abcd	1-88063-B
abcede ee	1-90290-B
abceder	1-89480-B
abces	1-88174-B
abcisse	1-88125-B
abdalas	1-90435-B
abdicataire	1-90615-B
abdication	1-90869-B
abdique ee	1-93100-B
abdiquer	1-91376-B
abdomen	1-93208-B
abdominal ale	1-94324-B,86-179644-S,183-102710-S,210-246854-S
abducteur	1-94517-B
abduction	1-94779-B
abeausir s 	1-95457-B
abecedaire	2-113334-B
abecque ou abeque ee	1-96345-B
abecquer ou abequer	1-95556-B
abee	2-114002-B
abeille	1-96453-B
abeille ee	1-100074-B
abeiller	1-99479-B
abeillere	1-99843-B
abeilles	89-102-S
abelien	2-114433-B
abeque ee	1-96345-S
abequer	1-95556-S
abergeage	1-100223-B
aberrant ante	1-100445-B
aberration	1-100921-B
abeti tie	2-114853-B
abetir	2-115039-B
abetissement	2-117492-B
abhorrable	1-102646-B
abhorre ee	1-105921-B
abhorrer	1-102856-B
abigail	1-106751-B
abigeat	1-107868-B
abigoti ie	1-107515-B
abimant ante	2-117628-B
abime	2-117805-B
abime ee	2-130053-B
abimer	2-124762-B
abiotique	1-108203-B
abject ecte	1-108571-B
abjectement	1-112099-B
abjection	1-112226-B
abjuration	1-113633-B
abjuratoire	1-115008-B
abjure ee	1-116354-B
abjurer	1-115128-B
ablactation	1-116497-B
ablais	1-116848-B
ablaqueation	1-117017-B
ablatif	1-117269-B
ablation	1-118352-B
ablativo	1-118894-B
able	1-119101-B
able ou ablette	1-119693-B
ablegat	1-121948-B
ableret	1-120155-B
ablette	1-119693-S
abluant ante	1-120492-B
ablue ee	1-121875-B
abluer	1-120701-B
ablution	1-120976-B
abnegation	1-122219-B
aboi	1-123289-B
aboiement ou aboiment	1-128037-B
aboiment	1-128037-S
abois	1-128760-B
aboli ie	1-128805-B
abolir	1-129366-B
abolissable	1-132931-B
abolissement	1-133051-B
abolitif ive	1-133803-B
abolition	1-134080-B
abolitionniste	1-136323-B
abominable	1-136451-B
abominablement	1-139183-B
abomination	1-139327-B
abominer	1-141332-B
abondamment	1-142248-B
abondance	1-143534-B
abondant	94-87450-S
abondant ante	1-148723-B
abonde	1-151671-B
abonder	1-152018-B
abonnataire	1-155143-B
abonne ee	1-158639-B
abonnement	1-155554-B
abonner	1-156235-B
abonni ie	1-157996-B
abonnir	1-158113-B
abord	1-159142-B,94-87511-S,279-345978-S
abord et de prime abord	279-345978-S
abordable	1-165735-B
abordage	1-165966-B
aborde ee	1-172913-B
abordee d 	1-173440-B
aborder	1-166880-B
aborder s 	131-42914-S
abordeur	1-172671-B
aborigene	1-174460-B
aborne ee	1-175114-B
abornement	1-174804-B
aborner	1-174955-B
abortif ive	1-175212-B
abot	1-176555-B
aboteau	1-176647-B
abouche ee	1-178312-B
abouchement	1-176817-B
aboucher	1-177277-B
abougrissement	1-178772-B
aboukorn	1-178884-B
abouler	1-179141-B
about	1-179399-B
aboutage	1-180321-B
aboute ee	1-185002-B
aboutement	1-180461-B
abouter	1-180601-B
abouti ie	1-180865-B
aboutir	1-181011-B
aboutissant ante	1-183976-B
aboutissement	1-184612-B
aboyant ante	1-185232-B
aboye ee	1-191838-B
aboyer	1-185697-B
aboyeur	1-190641-B
abracadabra	1-192341-B
abras	1-193217-B
abrasion	1-193349-B
abraxas	2-0-B
abrege	2-25956-B
abrege ee	2-29303-B
abregement	2-22087-B,2-29939-B
abreger	2-22791-B
abreuvage	2-204-B
abreuve ee	2-7696-B
abreuvement	2-509-B
abreuver	2-1269-B
abreuvoir	2-6197-B
abreviateur	2-30458-B
abreviatif ive	2-30956-B
abreviation	2-31548-B
abreviativement	2-32652-B
abreviature	2-32796-B
abri	2-8482-B
abricot	2-12570-B
abricote	2-14404-B
abricotier	2-14076-B
abrier	2-14545-B
abrite ee	2-16201-B
abriter	2-14646-B
abrivent	2-16493-B
abrogation	2-16676-B
abroge ee	2-17711-B
abrogeable	2-17043-B
abroger	2-17137-B
abrouti ie	2-17786-B
abroutissement	2-17991-B
abrupt te	2-18340-B
abruptement	2-19123-B
abruption	2-19497-B
abrupto	136-108989-S
abrupto ex	2-19701-B
abruti ie	2-19973-B
abrutir	2-20412-B
abrutissant ante	2-21302-B
abrutissement	2-21457-B
abrutisseur	2-21771-B
abscisse	2-33019-B
absence	2-33546-B
absent ente	2-35950-B
absenteisme	2-40167-B
absenter s 	2-38500-B
absidal ale	2-40615-B
abside	2-40789-B
absidiole	2-41551-B
absinthe	2-41996-B
absinthique	2-43746-B
absinthisme	2-43930-B
absolu ue	2-44387-B
absoluite	2-52051-B
absolument	2-52561-B
absolution	2-55870-B
absolutisme	2-59216-B
absolutiste	2-59381-B
absolutoire	2-59519-B
absorbable	2-59824-B
absorbant ante	2-60133-B
absorbation	2-61534-B
absorbe ee	2-66039-B
absorbement	2-61885-B
absorber	2-62360-B
absorption	2-66910-B
absoudre	2-67628-B
absous absoute	2-72625-B
absoute	2-72625-S,2-72876-B
absteme	2-91731-B
abstenant ante	2-73246-B
abstenir s 	2-73413-B
abstention	2-76136-B
abstentionniste	2-76395-B
abstenu ue	2-76668-B
absterge ee	2-77849-B
abstergent ente	2-76987-B
absterger	2-77405-B
abstersif ive	2-77938-B
abstersion	2-78166-B
abstinence	2-78378-B
abstinent ente	2-80728-B
abstracteur	2-80931-B
abstractif ive	2-81447-B
abstraction	2-81798-B
abstractivement	2-84228-B
abstraire	2-85194-B
abstrait aite	2-87008-B
abstraitement	2-90136-B
abstrus use	2-90358-B
absurde	2-92062-B
absurdement	2-93781-B
absurdite	2-94103-B
abus	2-94869-B
abuse ee	2-108473-B
abuser	2-99988-B
abuseur	2-106688-B
abusif ive	2-107631-B
abusivement	2-108235-B
abuter	2-109062-B
abutilon	2-109810-B
abyme	2-110127-B
abymer	2-110169-B
abyssal ale	2-110215-B
abyssin ine	2-110414-B
abyssinien enne	2-110514-B
acabit	2-132083-B
acacia	2-133233-B
academicien	2-135138-B
academie	2-136558-B
academie boulevart	39-48597-S
academie cuillere	91-15881-S
academie devoument	121-169582-S
academie et mieux hemorrhoidal ale	172-20174-S
academie mais mieux hemorrhagie	181-25310-S
academie squammeux euse	336-69899-S
academique	2-139618-B
academiquement	2-140627-B
academiser	2-140797-B
academisme	2-141187-B
academiste	2-141508-B
acagnarde ee	2-142656-B
acagnarder	2-141942-B
acajou	2-142757-B
acalephe	2-144941-B
acanthe	2-145249-B
acanthologie	2-145789-B
acare	2-146002-B
acariatre	2-146591-B
acaride ou acarien ou acarin	2-146350-B
acarien ou acarin	2-146350-S
acarin	2-146350-S
acatalectique	2-147510-B
acatalepsie	2-147858-B
acataleptique	2-148231-B
acaule	2-148347-B
accablant ante	2-148486-B
accable ee	2-157535-B
accablement	2-149699-B
accabler	2-151598-B
accadien ienne	2-159060-B
accalmie	2-159355-B
accapare ee	2-160602-B
accaparement	2-159503-B
accaparer	2-159683-B
accapareur euse	2-160297-B
accastillage	2-160725-B
accastille ee	2-161319-B
accastiller	2-161114-B
acceder	3-177244-B
accelerateur trice	3-177790-B
acceleration	3-179911-B
accelere ee	3-182687-B
accelerer	3-181543-B
accense	2-161558-B,2-161908-B
accent	2-162378-B
accentuable	2-171157-B
accentuation	2-171302-B
accentue ee	2-172989-B
accentuer	2-171792-B
acceptable	2-173639-B
acceptablement	2-174409-B
acceptant ante	2-174831-B
acceptatif ive	2-175390-B
acceptation	2-175604-B
accepte ee	2-182088-B
accepter	2-176725-B
accepteur	2-180383-B
acceptilation	2-180695-B
acception	2-180943-B
acces	3-172382-B
accessibilite	2-182463-B
accessible	2-182793-B
accession	2-184111-B
accessit	2-185300-B
accessoire	2-185753-B
accessoirement	2-188337-B
accidence	2-188636-B
accident	2-188804-B
accidente ee	2-197185-B
accidentel elle	2-194150-B
accidentellement	2-196027-B
accipitrin ine	2-197426-B
accise	2-197626-B
acclamateur	2-198828-B
acclamation	2-199096-B
acclame ee	2-201429-B
acclamer	2-200289-B
acclampe ee	2-201332-B
acclamper	2-201026-B
acclimatation	2-201569-B
acclimate ee	2-203371-B
acclimatement	2-201788-B
acclimater	2-202286-B
acclimateur	2-203054-B
accline ee	2-203645-B
accoincon	2-210276-B
accointable	2-203830-B
accointance	2-204349-B
accointe	2-206414-B
accointe ee	2-210171-B
accointer s 	2-206619-B
accoise ee	3-2999-B
accoisement	3-0-B
accoiser	3-313-B
accolade	3-3099-B
accolader	3-4466-B
accolage	3-4647-B
accole lee	3-7516-B
accolement	3-4864-B
accoler	3-5448-B
accoler s 	131-43169-S
accolure	3-7311-B
accombant ante	3-8283-B
accommodable	3-8521-B
accommodage	3-8836-B
accommodant ante	3-9172-B
accommodation	3-9893-B
accommode ee	3-22324-B
accommodement	3-11191-B
accommoder	3-13390-B
accompagnage	3-24041-B
accompagnateur trice	3-24163-B
accompagne ee	3-31942-B
accompagnement	3-24464-B
accompagner	3-26426-B
accompli ie	3-33078-B
accomplir	3-35418-B
accomplissement	3-41271-B
accomplisseur	3-42603-B
accon	3-42820-B
acconier	3-43482-B
acconvenancement	3-43804-B
accoquiner	3-44027-B
accorage	3-44086-B
accord	3-44291-B
accordable	3-54789-B
accordailles	3-55496-B
accordant ante	3-55705-B
accorde	3-56551-B,3-75345-B
accorde ee	3-75819-B
accordement	3-56750-B
accordeon	3-76377-B
accorder	3-57050-B
accorder s 	131-43448-S
accordeur	3-74833-B
accordoir	3-75211-B
accore	3-76560-B
accore ee	3-80094-B
accorer	3-77044-B
accorne ee	3-77193-B
accort orte	3-77385-B
accortement	3-79108-B
accortise	3-79646-B
accostable	3-80168-B
accostage	3-80662-B
accostant ante	3-80952-B
accoste	3-81169-B
accoste ee	3-83986-B
accoster	3-81340-B
