menagogue	235-94968-B
menard	222-138007-B
mendaites	222-139193-B
mendiant ante	222-139276-B
mendicite	222-143526-B
mendie ee	222-148225-B
mendier	222-145333-B
mendol	222-148332-B
mene	233-108794-B,235-110092-B
mene ee	222-249578-B
meneau	222-148642-B
menechme	235-97556-B
menee	222-250881-B
menehould sauce a la sainte 	235-98136-B
menelas	235-110267-B
mener	222-149024-B
menestrandie	235-98443-B
menestre	222-172803-B
menestrel	235-98594-B
menetrier	235-110485-B
meneur	222-173451-B
menhir	222-176217-B
meniane	235-100311-B
menianthe	235-100811-B
menidie	235-100949-B
menie ou par alteration megnie	235-101058-B
menil	235-101895-B
menilite	235-102350-B
menille	235-102825-B
menillette	235-102927-B
menin	222-176458-B
meninage	222-177480-B
meninge	235-103163-B
meninge ee	235-105573-B
meningien ienne	245-30639-S
meningine	235-103924-B
meningite	157-3084-S,235-104135-B
meningitique	235-104672-B
meningo encephalite	235-104860-B
meningo gastrique	235-105019-B
meningophylax	235-105229-B
meningose	235-105394-B
menioque	235-105751-B
menippee	235-105856-B,235-106229-B
meniscoide	235-106307-B
menispermees	235-106723-B
menispermine	235-106447-B
menisperminique	235-106558-B
menisque	235-107092-B
mennonisme	222-177687-B
mennoniste ou mennonite	222-177758-B
mennonite	222-177758-S
menole	222-178176-B
menologe	235-108240-B
menon	222-178379-B
menopause	235-108662-B
menoplanie	235-108861-B
menorrhagie	235-109121-B
menorrhagique	235-109354-B
menorrhee	235-109443-B
menostasie	235-109590-B
menotte	222-178810-B
menotte ee	222-180367-B
menottes	222-179552-B
menoxenie	235-109779-B
mense	222-180466-B
mensis	279-325642-S
mensole	222-182070-B
mensonge	222-182251-B
mensonger ere	222-189833-B
mensongerement	222-191654-B
menstruation	222-191871-B
menstrue	222-192001-B
menstruee	222-194604-B
menstruel elle	222-192668-B
menstrues	222-193702-B
mensualite	222-194860-B
mensuel elle	222-195464-B,326-151560-S
mensuellement	222-195754-B
mensurabilite	222-195822-B
mensurable	222-195975-B
mensuraliste	222-196164-B
mensurateur	222-196372-B
mensuration	222-196666-B
ment	1-5410-B
mentagre	222-197512-B
mentagrophyte	222-198328-B
mental ale	222-198520-B,222-200301-B
mentalement	222-200429-B
menterie	222-200686-B
menteur euse	222-201831-B
menthastre	222-206740-B
menthe	222-206978-B
menthe coq	222-207814-B
menthene	222-207967-B
menti ie	147-28825-S
mentiane	222-208114-B
mentie	147-29035-S
mention	222-208189-B
mentionne ee	222-210597-B
mentionner	222-209946-B
mentir	222-210834-B,222-218514-B
mento labial ale	222-218635-B
menton	164-17865-S,222-218870-B
mentonnet	222-222735-B
mentonnier iere	222-224025-B
mentonniere	222-224308-B,334-7083-S
mentor	222-226088-B
mentule marine	222-227095-B
menu	362-103445-S
menu pensee	222-240317-B
menu ue	222-227549-B
menu vair	222-240477-B
menuaille	222-240749-B
menuchon	222-241545-B
menuchon ou menuet	222-245123-B
menuet	222-245123-S
menuisaille	222-245296-B
menuise	222-245373-B
menuise ee	222-249487-B
menuiser	222-245982-B
menuiserie	222-246703-B
menuisier	222-248097-B
menure	235-109942-B
meon	235-112166-B,237-71163-S
mephistopheles	235-112447-B
mephistopheletique	235-113657-B
mephistophelique	235-112206-B
mephite ou mephitis	235-113906-B
mephitique	235-114631-B
mephitis	235-113906-S
mephitise ee	235-115152-B
mephitisme	235-114954-B
meplat	235-115441-B
meprendre se	235-117332-B
mepris	235-119480-B
meprisable	235-125262-B
meprisablement	235-126503-B
meprisamment	235-126705-B
meprisant ante	235-126866-B
meprise	235-127491-B
meprise ee	235-135703-B
mepriser	235-129662-B
mepriseur	235-135127-B
mer	222-253524-B,347-39893-S
merangene	222-109619-S,222-269729-B
mercanette	222-269776-B
mercanti	222-269850-B
mercantile	222-270177-B
mercantilement	222-271191-B
mercantilisme	222-271293-B
mercantille	222-271558-B
mercaptan	222-272011-B
mercapture	222-272213-B
mercator	222-272317-B
mercenaire	223-0-B
mercenairement	223-4430-B
mercenarite	223-4876-B
mercerie	223-5052-B
merci	223-6287-B
mercier iere	223-17146-B
mercoret	223-19069-B
mercredi	223-19250-B
mercure	223-20247-B
mercureux	277-268872-S
mercureux euse	223-26353-B
mercurial	223-26643-B
mercuriale	223-26844-B,223-29410-B
mercurialiser	223-31310-B
mercurialisme	223-31439-B
mercuriaux	223-31540-B
mercurico ammonique	223-31733-B
mercurico ferreux	223-31949-B
mercuriel elle	223-32129-B
mercurifere	223-33246-B
mercurification	223-32903-B
mercurique	223-33395-B,223-33623-S
mercuroso mercurique	223-33623-B
merdaille	223-33772-B
merde	149-11602-S,223-34081-B
merdeux euse	223-37721-B
merdicole	223-38635-B
merdigere	223-38834-B
mere	32-93340-S,107-44119-S,144-181631-S,163-71509-S,233-109208-B,233-122200-B,267-65483-S
mereau	235-136118-B
merelle	235-137723-B
merelle ee	235-137774-B
merenchyme	235-138066-B
merendere	235-138404-B
merenderees	235-138688-B
merger	223-39024-B
mergue	223-39136-B
mericarpe	235-138795-B
meridien	235-139014-B
meridien ienne	235-142861-B,277-182746-S
meridional ale	235-146321-B
meriedrie	235-173444-B
merier blanc	235-147220-B
merille	235-147353-B
merine	235-147498-B
meringue	223-39488-B
meringue ee	223-40307-B
merinos	235-147660-B
merise	223-40589-B
merisier	223-41165-B
merismatique	235-149678-B
merisme	235-149927-B
merita	350-391571-S
meritant ante	235-150132-B
merite	235-150626-B
merite ee	235-173069-B
meriter	235-164744-B
merithalle	235-171239-B
meritoire	235-171454-B
meritoirement	235-172745-B
merl	223-41919-B
merlan	223-42572-B
merle	148-307713-S,223-44347-B
merleau	223-47673-B
merlette	223-47720-B
merlin	223-48528-B,223-49071-B,223-49481-B
merline	223-49719-B
merliner	223-49890-B
merlon	223-49995-B
merlot	223-50585-B,223-50640-B
merluche	223-50696-B
merlus	223-51384-B
merlusine	223-52050-B
merlut	223-52109-B
merocele	133-34030-S,235-173621-B,388-34891-S
merologie	235-173805-B
merolon	223-52488-B
merou	235-173975-B
merovingien ienne	235-174075-B
merrain	223-52678-B
merrien	223-54304-B
mersion	223-54504-B
merule	235-174733-B
merveille	223-54916-B
merveilleusement	223-70383-B
merveilleux euse	223-71909-B
merycique	236-0-B
merycisme	236-202-B
merycologie	236-567-B
mes	223-79888-B,223-79947-B,227-68313-S,233-127830-S
mesair ou mezair	236-736-B
mesaise	236-1055-B
mesalliance	236-2956-B
mesallie ee	236-4511-B
mesallier	236-3371-B
mesange	236-4614-B
mesangere	236-6066-B
mesangette	236-5962-B
mesaraique	236-6142-B
mesarriver	236-6510-B
mesaticephale	236-7191-B
mesaule	236-7454-B
mesavenance	236-7707-B
mesavenant ante	236-7977-B
mesavenir	236-8337-B
mesaventure	236-9045-B
mescolance	223-79992-B
mesedification	236-29096-B
mesedifier	236-29401-B
mesel elle	223-80551-B
mesellerie	236-9899-B
mesembryantheme	236-10097-B
mesembryanthemees	236-10319-B
mesentendre	236-10456-B
mesentendu	236-11003-B
mesentente	236-11477-B
mesentere	236-11730-B
mesenterie	236-12250-B
mesenterin ine	236-12493-B
mesenterique	133-34203-S,236-12699-B,247-86717-S
mesenterite	133-34502-S,236-12873-B
mesestimable	236-12977-B
mesestimation	236-13075-B
mesestime	236-13335-B
mesestime ee	236-15442-B
mesestimer	236-13771-B
mesintelligence	236-15729-B
mesinterpretation	236-16499-B
mesinterpreter	236-16880-B
mesite	236-17474-B
mesitene	236-17731-B
mesitique	236-17575-B
meslier	223-81514-B
mesmerien ienne	223-81641-B
mesmerisme	223-81801-B
meso	236-17876-B
mesobraque	236-17970-B
mesocaecum	236-18216-B
mesocarpe	236-18441-B
mesocephale	236-19224-B
mesocephalique	236-19431-B
mesochilium	236-18669-B
mesoclaste	236-18856-B
mesocolon	236-19525-B
mesocrane	236-19087-B
mesode	236-19863-B
mesoderme	236-20018-B
mesodiscal ale	236-20378-B
mesoffrir	236-20570-B
mesogastre	236-21076-B
mesolabe	236-21416-B
mesolobaire	236-21758-B
mesolobe	236-21838-B
mesologarithme	236-22031-B
mesomacre	236-22258-B
mesomerie	236-22844-B
mesometre	236-22632-B
mesomphale	236-22487-B
mesophragme	236-23018-B
mesophryon	236-23172-B
mesophylle	236-23357-B
mesophyte	236-23533-B
mesopitheque	236-23746-B
mesopotamien enne	236-23932-B
mesorectum	236-24261-B
mesoroptre	236-24443-B
mesorrhinion	236-24862-B
mesoseme	236-25233-B
mesosperme	236-25048-B
mesothenar	236-25950-B
mesotherium	236-26109-B
mesothorax	236-25737-B
mesotype	236-26339-B
mesoxalique	236-26556-B
mesozeugme	236-26822-B
mesozoique	236-27299-B
mesquin ine	223-82038-B
mesquinement	223-84660-B
mesquinerie	223-85336-B
mesquis	223-86205-B
mesquite	223-86701-B
mess	223-86909-B
message	223-87660-B
messager ere	223-89789-B
messagerie	223-94150-B
messagiste	223-96011-B
messalien	223-96475-B
messaline	223-96533-B
messe	223-96971-B
messe ee	223-115423-B
messeance	223-115569-B
messeant ante	223-116570-B
messeniennes	223-117097-B
messeoir	223-106396-B
messer	223-107596-B
messiade	223-108540-B
messianique	223-108654-B
messianisme	223-108728-B
messianiste	223-108851-B
messianite	223-108950-B
messidor	223-109021-B
messie	223-109480-B
messier	223-111871-B,223-112017-B
messieurs	223-112734-B
messire	223-112842-B
mesteque	223-119281-B
mestrance	223-118131-B
mestre	222-100701-S,223-118190-B,292-125247-S
mestre de camp	223-118253-B
mesurable	223-119399-B
mesurage	223-120113-B
mesure	223-120946-B,276-108513-S
mesure ee	223-160419-B
mesurement	223-163241-B
mesurer	223-147382-B
mesurer s 	132-25058-S
mesureur	223-159253-B
mesus	236-27555-B
mesusage	236-27656-B
mesuser	236-27855-B
mesuseur	236-28930-B
met ou meta	236-29751-B
meta	236-29751-S
metabole	236-29895-B,236-30103-B
metabolelogie	236-30653-B
metabolique	236-30245-B
metabolisme	236-30556-B
metacarpe	236-30889-B
metacarpien ienne	90-116331-S,236-31283-B
metacarpo phalangien ienne	236-31469-B
metacentre	236-31692-B
metacentrique	236-31996-B
metacetone	236-32763-B
metacetyle	236-32924-B
metachorese	223-163929-B
metachromatisme	236-32202-B
metachronisme	236-32539-B
metadiere	236-33032-B
metagallique	236-33280-B
metagenese	236-33495-B
metagramme	236-33961-B
metail	236-34135-B
metairie	236-34463-B
metal	144-268768-S,236-35218-B
metalent	236-40461-B
metalepse	236-41287-B
metalepsie	236-41605-B
metalimneen enne	236-41732-B
metaline	236-41995-B
metalleite	236-50797-B
metallescence	236-42212-B
metallescent ente	236-42309-B
metallifere	236-42616-B
metalliforme	236-42474-B
metallin ine	236-42802-B
metallique	182-93062-S,236-43089-B
metalliquement	236-45342-B
metallisage	236-45771-B
metallisation	236-45897-B
metallise ee	236-47558-B
metalliser	236-46734-B
metallo therapie	236-47842-B
metallochimie	236-48294-B
metallochimique	236-48396-B
metallographe	236-48496-B
metallographie	236-48642-B
metallographique	236-48775-B
metalloide	223-164152-B
metalloidique	236-49109-B
metallometre	236-48877-B
metallurge	236-49296-B
metallurgie	236-49473-B
metallurgique	236-50172-B
metallurgiste	236-50437-B
metalogique	236-51169-B
metamargarique	236-51542-B
metamorphique	236-51700-B
metamorphisme	236-52279-B
metamorphiste	236-52465-B
metamorphopsie	236-52753-B
metamorphose	236-52976-B
metamorphose ee	236-56877-B
metamorphoser	236-55545-B
metamorphosique	236-56561-B
metamylene	236-57187-B
metapectine	236-57318-B
metapectique	236-57500-B
metaphore	236-57704-B
metaphorique	236-61206-B
metaphoriquement	236-61901-B
metaphoriser	236-62437-B
metaphoriste	236-62710-B
metaphosphate	236-62861-B
metaphosphorique	236-63051-B
metaphragme	236-63216-B
metaphrase	236-63406-B
metaphraste	236-63748-B
metaphrastique	236-63961-B
metaphysicien	236-64158-B
metaphysiologie	236-65567-B
metaphysiologique	236-65997-B
metaphysiologiste	236-66412-B
metaphysique	236-66902-B
metaphysique ee	236-74154-B
metaphysiquement	236-73025-B
metaphysiquer	236-73281-B
metaphysiquerie	236-73815-B
metaplasme	236-74440-B
metaplastique	236-74765-B
metaptose	236-74925-B
metaschematisme	236-75284-B
metastannate	236-75505-B
metastannique	236-75616-B
metastase	236-75776-B
metastatique	236-76357-B
metasyncrise	236-77293-B
metasyncritique	236-77614-B
metatarse	236-77785-B
metatarsien ienne	236-78023-B,343-44810-S,348-166703-S
metatarso phalangien ienne	236-78270-B
metateur	236-78496-B
metathese	236-78980-B
metathorax	236-78830-B
metatypie	236-79703-B
metayage	236-79831-B
metayer ere	236-79982-B
metazoique	236-81152-B
metecie	237-59794-B
meteil	236-81356-B,259-245654-S
metel	236-82635-B
metempirique	236-82996-B
metempsycose	236-83406-B
metempsycosiste	236-84815-B
metemptose	236-84983-B
metensomatose	236-85390-B
meteore	237-59954-B
meteoride	237-62031-B
meteorine	237-62185-B
meteorique	237-62264-B
meteoriquement	237-63097-B
meteorisation	237-63383-B
meteorise ee	237-64432-B
meteoriser	237-63692-B
meteorisme	237-64117-B
meteorite	237-64686-B
