statutairement	337-33870-B
staurolatre	337-34503-B
staurolithe	337-34325-B
staurophylax	337-34735-B
stauroscope	337-35000-B
staurotide	337-35436-B
steam boat	337-35705-B
steamer	337-35820-B
stearate	338-90650-B
stearate ee	338-90782-B
stearine	338-90976-B
stearinerie	338-91122-B
stearinier	338-91215-B
stearique	338-91287-B
stearone	338-91547-B
stearoptene	338-91723-B
steaschiste	338-91917-B
steatique	338-92079-B
steatite	338-92202-B
steatiteux euse	338-93290-B
steatocele	338-93409-B
steatomateux euse	338-93592-B
steatome	338-94254-B
steatopyge	338-93701-B
steatopygie	338-93827-B
steatorrhee	338-93935-B
steatose	338-94053-B
stechas	338-94589-B
steeple chase	337-35982-B
steganographe	338-94749-B
steganographie	338-94852-B
steganographique	338-95186-B
steganographiquement	338-95289-B
stegnose	337-36138-B
stegnotique	337-36310-B
steinbock	337-36438-B
steinkerke	337-36610-B
stele	338-90213-B
stelegraphie	338-95401-B
stellaire	337-37452-B
stellifere	337-38031-B
stelliforme	337-37905-B
stellinerve ee	337-38205-B
stellion	337-38390-B
stellionat	337-38564-B
stellionataire	337-39308-B
stellite	337-39799-B
stellule	337-39923-B
stemmate	337-40106-B
stenelytres	339-1634-B
steno	338-95565-B
stenocardie	338-95677-B
stenographe	338-95817-B
stenographie	339-0-B
stenographie ee	339-1125-B
stenographier	339-595-B
stenographique	339-851-B
stenographiquement	339-983-B
stenose	133-35345-S,339-1250-B
stentor	337-40278-B
stentore ee	337-41385-B
stentorophonique	337-41184-B
stenure	339-1402-B
step ou stepp	337-41668-B
stephanion	339-1774-B
stephanophore	339-1978-B
stepp	337-41668-S
steppe	337-41770-B
stepper	337-42652-B
steppeur	337-43007-B
sterage	339-2620-B
stercoraire	337-43103-B
stercoral ale	337-44126-B
stercoranisme	337-44481-B
stercoraniste ou stercoriste	337-44566-B
stercoration	337-44857-B
stercoriste	337-44566-S,337-45180-B
stercorite	337-45225-B
sterculiacees	337-45379-B
sterculie	337-45507-B
stere	338-90513-B
stereo	337-51081-B
stereobate	339-11588-B
stereodynamique	339-11777-B
stereographe	339-12012-B
stereographie	339-12430-B
stereographique	339-12536-B
stereographiquement	339-13234-B
stereologie	339-13344-B
stereometrie	339-13498-B
stereometrique	339-13754-B
stereorama	339-13944-B
stereoscope	339-14098-B
stereoscopique	339-14740-B
stereosphere	339-14882-B
stereostatique	339-15007-B
stereotomie	339-15226-B
stereotomique	339-15398-B
stereotypage	339-15494-B
stereotype	339-15791-B
stereotype ee	339-17724-B
stereotyper	339-16481-B
stereotypeur	339-17323-B
stereotypie	339-17405-B
sterer	339-2735-B
sterigmate	339-2965-B
sterigme	339-3137-B
sterile	339-3274-B
sterilement	339-8040-B
sterilisation	339-8239-B
steriliser	339-8439-B
sterilite	339-8700-B
sterlet	337-45961-B
sterling	337-46109-B
sternal ale	83-42719-S,325-63917-S,334-22687-S,337-47408-B
sternalgie	337-47596-B
sterne	337-47815-B
sternebre ee	337-50445-B
sternite	337-47933-B
sterno claviculaire	337-48023-B
sterno clido mastoidien	337-48207-B
sterno humeral ale	337-48544-B
sterno hyoidien	337-48682-B
sterno pterygien ienne	337-48949-B
sterno pubien	337-49152-B
sternum	337-49302-B
sternutatoire	337-49928-B
sterteur	337-50699-B
stertoreux euse	337-50821-B
stethidion	339-17845-B
stethion	339-18019-B
stethometre	339-18196-B
stethoscope	339-18358-B
stethoscopie	339-18670-B
stethoscopique	339-18849-B
sthenie	337-51194-B
sthenique	337-51333-B
sti	337-51426-B
stibial ale	337-51536-B
stibiate	337-51830-B
stibiation	337-51893-B
stibie ee	337-52138-B
stibine	337-51999-B
stibiure	337-52075-B
stichomancie	337-52415-B
stichometrie	337-52794-B
stichometrique	337-53397-B
stick	337-53490-B
stictique	337-53825-B
stigmataire	337-54045-B
stigmate	337-54134-B
stigmatique	337-56950-B
stigmatise ee	337-57910-B
stigmatiser	337-57482-B
stigmatophore	337-58479-B
stigmule	337-58652-B
stil de grain	337-58772-B
stilbinees	337-59013-B
stilbite	337-59148-B
stillant ante	337-59329-B
stillation	337-59572-B
stillatoire	337-59984-B
stillicide	337-60120-B
stillingie	337-60391-B
stimulant ante	79-37573-S,337-60603-B
stimulateur trice	337-61632-B
stimulation	79-37893-S,337-62017-B
stimule	337-62398-B
stimule ee	337-63909-B
stimuler	337-62572-B
stimuleux euse	337-63357-B
stimulisme	79-38012-S
stimuliste	79-38337-S
stimulus	337-63497-B
stinkal	337-64009-B
stipe	337-64521-B,337-64808-B,337-65108-B
stipelle	337-65712-B
stipelle ee	337-65878-B
stipendiaire	337-66000-B
stipendie	337-66722-B
stipendie ee	337-68011-B
stipendier	337-67042-B
stipiforme	337-68240-B
stipite ee	337-68383-B
stipulace ee	337-68512-B
stipulaire	337-68659-B
stipulant ante	337-68815-B
stipulation	337-68953-B
stipule	337-69636-B
stipule ee	337-72383-B,337-72495-B
stipuleen enne	337-72715-B
stipuler	337-70128-B
stipuleux euse	337-72115-B
stipulifere	337-72230-B
stock	337-72850-B
stockfisch	337-73420-B
stoechiologie	337-73837-B
stoechiometrie	337-74010-B
stoff	337-74229-B
stoicien ienne	338-833-B
stoicisme	338-3748-B
stoicite	338-4809-B
stoique	338-5139-B
stoiquement	338-7304-B
stokfiche	337-74537-B
stole	337-74582-B
stolifere	337-75369-B
stoliste	337-75705-B
stolon	337-75905-B
stolonifere	337-76478-B
stolonomie	337-76621-B
stolzite	337-76939-B
stomacace	337-77030-B
stomacal ale	337-77262-B
stomachique	337-77584-B
stomalgie	337-78546-B
stomate	337-78677-B
stomatique	337-78902-B
stomatite	337-79180-B
stomato gastrique	337-79354-B
stomatoplastie	337-79541-B
stomatoscope	337-79743-B
stomide	337-79986-B
stomo gastrique	337-80120-B
stomocephale	337-80316-B
stomocephalie	337-80672-B
stomoxe	337-80761-B
stopper	337-80940-B
stoppeur	337-81594-B
stoquer	337-81838-B
stoqueur	337-81983-B
storax ou styrax	337-82039-B
store	338-0-B
storthing	338-563-B
strabique	338-7581-B
strabisme	338-7763-B
strabotomie	338-8309-B
strabotomiste	338-8508-B
stradivarius	338-8598-B
strafilati	338-8762-B
strafin	338-9334-B
stragule	338-9463-B
strambeau	338-9614-B
stramoine	338-9746-B
stramonine	338-9804-B
stramonium	338-9904-B
strangulation	338-10198-B
strangurie	338-10718-B
strapasse ee	338-12412-B
strapasser	338-11812-B
strapasson	338-12115-B
strapassonne ee	338-12295-B
strapassonner	338-12181-B
strapontin	338-12634-B
stras	338-13850-B
strasse	338-14518-B
stratagematique	338-16672-B
stratageme	338-14980-B
strate	338-16820-B
stratege	338-22768-B
strategie	338-23162-B
strategique	338-24145-B
strategiquement	338-24447-B
strategiste	338-24529-B
strategue	338-24679-B
stratification	338-17240-B
stratifie ee	338-19735-B
stratifier	338-18526-B
stratiforme	338-20116-B
stratigraphie	338-20295-B
stratigraphique	338-20548-B
stratigraphiquement	338-20751-B
stratiome	338-20897-B
stratiotique	338-21027-B
stratocratie	338-21348-B
stratographie	338-21772-B
stratoide	338-22130-B
straton	338-21945-B
stratus	91-149091-S,338-22274-B
stream	167-96156-S
strelet	338-24752-B
strelitz	338-46592-B
stremme	338-24810-B
strepsicere	338-24920-B
strette	338-25087-B
stretto	338-25385-B
striation	338-25619-B
stribord	338-25749-B
stricage	338-25850-B
strict icte	338-25987-B
strictement	338-26612-B
striction	338-26759-B
stricture	338-26952-B
strident ente	338-27229-B
strideur	338-27961-B
stridulants	338-28762-B
stridulation	338-28892-B
striduleux euse	338-29348-B
strie	338-29574-B
strie ee	248-131283-S,338-33606-B
strige	338-30973-B
strigilation	338-32176-B
strigile	338-32333-B
strigiliforme	338-32676-B
striquer	338-32800-B
striqueuse	338-32941-B
striure	338-33216-B
strobilaire	338-34408-B
strobile	338-34481-B
strobiliforme	338-35200-B
strom apparat	338-35304-B
stroma	338-35578-B
stromates	338-35940-B
strombe	338-36165-B
strombite	338-36783-B
stromble	338-36981-B
strongle	338-37116-B
strontiane	338-37372-B
strontianique	338-37517-B
strontianite	338-37601-B
strontique	338-37676-B
strontium	338-37878-B
strophe	338-38024-B
strophule	338-38949-S
strophulus ou strophule	338-38949-B
structural ale	338-39313-B
structure	338-39545-B
structurer	338-42990-B
strume	338-43515-B
strumeux euse	338-43799-B
struthine	338-44137-B
struvite	338-44252-B
strychnate	338-44407-B
strychnees	338-46275-B
strychnine	338-44537-B
strychninique	338-44711-B
strychnique	338-44874-B
strychniser	338-44984-B
strychnisme	338-45367-B
strychnochromine	338-45499-B
strychnos	338-45715-B
stryge	338-46399-B
stuc	338-46959-B
stucateur	338-48143-B
stud book	338-48789-B
studieusement	338-49235-B
studieux euse	338-49720-B
studiosite	338-50564-B
stuffing box	338-51142-B
stupa	338-51457-B
stupefactif ive	338-58427-B
stupefaction	338-58680-B
stupefait aite	338-59181-B
stupefiant ante	338-59691-B
stupefie ee	338-60465-B
stupefier	338-59894-B
stupeur	338-51910-B
stupide	338-53145-B
stupidement	338-55773-B
stupidite	338-56230-B
stupre	338-58106-B
stygial ale	338-61142-B
stygien ienne	338-61544-B
stylaire	338-61786-B
style	338-61867-B
style ee	338-86059-B,338-86175-B
styler	338-79303-B
stylet	338-79830-B
stylidiees	338-81019-B
stylien ienne	338-81262-B
styliforme	338-81466-B
stylisme	338-81605-B
styliste	338-81732-B
stylistique	338-82294-B
stylite	338-82383-B
stylo glosse	338-82782-B
stylo hyoidien dienne	338-82996-B
stylo mastoidien ienne	338-83387-B
stylo maxillaire	338-83700-B
stylo pharyngien ienne	338-83978-B
stylo staphylin	338-84316-B
stylobate	338-84544-B
stylode	338-84732-B
styloide	338-85698-B
stylometre	338-85140-B
stylometrie	338-85294-B
stylommatophore	338-84855-B
stylopode	338-85390-B
stylospore	338-85511-B
styphinique	338-86819-B
stypticite	338-87065-B
styptique	338-87585-B
styraciflue	338-88524-B
styracine	338-88644-B
styracinees	338-88788-B
styrax	337-82039-S,338-88942-B
styrone	338-89616-B
styx	338-89771-B
su	339-18964-B
su ue	339-19988-B
suader	339-20265-B
suage	339-20788-B,339-21053-B
suager	339-21837-B,339-21974-B
suaire	339-22074-B
suant ante	339-23094-B
suasion	339-23430-B
suasoire	339-24001-B
suave	339-24397-B
suavement	339-26376-B
suavite	339-26969-B
sub	339-28523-B
sub egal ale	339-28717-B
subabdominal ale	339-29045-B
subaciculaire	339-29163-B
subaerien ienne	339-34667-B
subagrege ee	339-29269-B
subaigu ue	339-29393-B
subalaire	339-29491-B
subalpin ine	339-29615-B
subalterne	339-29702-B
subalternement	339-32895-B
subalternisation	339-33129-B
subalterniser	339-33387-B
subalternite	339-33514-B
subapennin ine	339-33871-B
subapiculaire	339-34156-B
subaquatique	339-34323-B
subarrondi ie	339-34455-B
subbrachien ienne	339-34809-B
subcalcaire	339-35048-B
subcarene ee	339-35154-B
subcaudal ale	339-35275-B
subclaviforme	339-35362-B
subcomprime ee	339-35453-B
subconique	339-35551-B
subcordiforme	339-35619-B
subcortical ale	339-35708-B
subcostal ale	339-35814-B
subcylindrique	339-36028-B
subdecurrent ente	339-39116-B
subdelegation	339-39233-B
subdelegue ee	339-40125-B
subdeleguer	339-39587-B
subdelirium	339-36118-B
subdeprime ee	339-40547-B
subdiscoide	339-36430-B
subdivise ee	339-38971-B
subdiviser	339-36529-B
subdivisible	339-37659-B
subdivision	339-37814-B
subdivisionnaire	339-38784-B
subelliptique	339-40645-B
suberate	340-47362-B
subereux euse	340-47525-B
suberification	340-48112-B
suberine	340-48432-B
suberique	340-48633-B
suberone	340-48776-B
subfossile	339-40750-B
subfusiforme	339-40925-B
subglobuleux euse	339-41012-B
subgrondation	339-41118-B
subhastation	339-41416-B
subhaster	339-41996-B
subi ie	339-42751-B
subimbrique ee	339-42842-B
subinflammation	339-42934-B
subintrant ante	339-43094-B
subir	339-43461-B
subit ite	339-45810-B
subitement	339-47130-B
subito	339-48341-B
subjacent ente	339-48727-B
subjectif ive	339-49049-B
subjection	339-49902-B
subjectivement	339-50211-B
subjectiver	339-50317-B
subjectivisme	339-50462-B
subjectivite	339-50602-B
subjonctif	339-50749-B
subjugation	339-51450-B
subjugue ee	339-54741-B
subjuguer	339-51777-B
subjugueur	339-54456-B
sublapsaire	339-55655-B
sublimable	339-55917-B
sublimation	339-56025-B
sublimatoire	339-57111-B
sublime	339-57448-B
sublime ee	339-69342-B
sublimement	339-64660-B
sublimer	339-65321-B
sublimiser	339-66959-B
sublimite	339-67312-B
sublingual ale	339-70358-B
sublobe ee	339-70839-B
sublunaire	339-70925-B
subluxation	339-71626-B
sublyre ee	339-71736-B
submental ale	339-71881-B
