iulace ee	199-33188-B
iule	199-33340-B
iuliflore	199-33933-B
iuliforme	199-34082-B
ive	1-133803-S,1-175212-S,2-30956-S,2-77938-S,2-81447-S,2-107631-S,2-175390-S,4-18598-S,4-63845-S,4-101509-S,4-114851-S,4-134306-S,4-148083-S,5-8890-S,5-38474-S,5-105352-S,5-110348-S,5-175210-S,6-2138-S,6-10380-S,6-106388-S,6-109565-S,7-17527-S,7-44384-S,10-45027-S,12-11523-S,12-13476-S,12-15396-S,14-21252-S,16-4862-S,17-38428-S,17-58585-S,17-87675-S,17-109205-S,17-141617-S,17-143751-S,17-149248-S,17-188560-S,17-213116-S,18-35395-S,18-57534-S,21-66943-S,22-0-S,22-40197-S,22-72209-S,22-142687-S,23-120209-S,23-160110-S,24-15024-S,24-78986-S,24-87194-S,49-14185-S,52-71670-S,54-6965-S,56-63832-S,58-66795-S,65-101568-S,66-74410-S,69-15031-S,70-176-S,70-919-S,70-62110-S,70-68601-S,70-139292-S,70-154424-S,70-186632-S,72-88552-S,72-158686-S,72-181927-S,72-188200-S,72-231090-S,72-266036-S,72-268704-S,72-294439-S,72-297700-S,73-22347-S,73-71630-S,73-86678-S,73-142588-S,73-198713-S,74-27547-S,74-92182-S,74-153388-S,75-3011-S,75-54644-S,75-83669-S,75-99512-S,75-104320-S,75-136290-S,75-144507-S,75-155021-S,75-171250-S,76-35753-S,76-42584-S,76-149733-S,76-168541-S,76-208807-S,76-219572-S,76-240519-S,76-280386-S,76-292243-S,77-0-S,77-17125-S,77-38911-S,77-79029-S,77-124870-S,77-203675-S,79-102602-S,80-16858-S,80-76117-S,80-124871-S,80-131469-S,80-141341-S,81-572-S,82-71262-S,82-124089-S,82-167588-S,82-178752-S,82-185469-S,86-158195-S,88-38091-S,90-18233-S,91-147422-S,92-3700-S,92-45149-S,92-48057-S,95-155084-S,97-63408-S,97-115798-S,97-192114-S,99-114524-S,99-119175-S,100-4032-S,100-30947-S,100-85289-S,101-66067-S,101-79265-S,101-163124-S,101-164047-S,101-188013-S,101-212042-S,102-2011-S,102-18857-S,102-68790-S,102-102199-S,102-117380-S,102-146619-S,102-164559-S,102-182089-S,103-11505-S,103-57369-S,104-17338-S,104-53236-S,104-235489-S,106-148940-S,107-18936-S,108-56486-S,109-50231-S,110-59889-S,110-70203-S,110-76988-S,111-753-S,111-123908-S,111-124596-S,111-166006-S,112-60851-S,112-105547-S,112-158004-S,113-69536-S,114-49836-S,114-171948-S,115-70287-S,115-147734-S,115-157720-S,116-87848-S,116-94819-S,116-150194-S,117-55856-S,117-71793-S,117-76589-S,117-82511-S,117-141438-S,119-116243-S,119-116686-S,120-36179-S,120-55138-S,120-136887-S,120-158747-S,121-115665-S,121-135592-S,122-93388-S,136-2623-S,137-11357-S,137-67373-S,137-75108-S,137-83852-S,137-90758-S,137-183637-S,137-196665-S,137-201046-S,138-34212-S,138-39954-S,138-62100-S,138-88677-S,138-91243-S,138-94759-S,138-113209-S,138-120179-S,138-145035-S,138-159999-S,139-10746-S,139-25076-S,139-43165-S,139-111635-S,139-131435-S,140-21555-S,142-41798-S,142-272617-S,143-196901-S,144-57434-S,145-18314-S,148-59198-S,150-184724-S,151-220012-S,152-44235-S,152-69216-S,153-30115-S,153-128820-S,158-151914-S,160-121020-S,163-8145-S,164-35087-S,167-96857-S,168-61900-S,168-131096-S,175-4675-S,180-25930-S,183-105306-S,183-115905-S,183-166399-S,184-15263-S,184-28935-S,184-52988-S,184-102350-S,185-132254-S,185-174277-S,185-176116-S,185-177362-S,186-18804-S,186-33089-S,186-53496-S,186-100242-S,187-21228-S,187-42861-S,187-77170-S,187-95704-S,187-129800-S,189-34017-S,189-50992-S,190-25862-S,190-44070-S,190-63259-S,190-104502-S,191-6086-S,191-92776-S,191-107220-S,191-114266-S,192-92711-S,192-104553-S,193-7719-S,193-38837-S,193-104040-S,194-40319-S,194-57989-S,194-128814-S,194-153212-S,194-166224-S,195-16705-S,195-62117-S,195-66642-S,195-82522-S,195-97677-S,195-118524-S,196-6287-S,196-30651-S,196-43855-S,196-48988-S,196-55898-S,196-132229-S,196-134122-S,196-146931-S,196-160474-S,196-190438-S,197-4479-S,197-16223-S,197-86180-S,197-88182-S,198-10963-S,199-31584-S,201-35836-S,201-283901-S,201-343606-S,202-117533-S,206-9002-S,206-52406-S,206-93797-S,208-193354-S,209-41196-S,210-118781-S,210-129026-S,212-49029-S,213-166755-S,213-197720-S,216-139804-S,217-77244-S,217-170903-S,220-222149-S,221-114716-S,226-2176-S,226-92161-S,227-28672-S,227-153855-S,229-131286-S,232-1318-S,232-114403-S,232-132247-S,234-137995-S,235-52481-S,238-35235-S,238-65443-S,239-22780-S,240-246692-S,241-51419-S,241-92941-S,242-251229-S,242-259706-S,242-267444-S,243-82000-S,244-26686-S,244-177678-S,244-204901-S,245-36159-S,245-128273-S,246-161804-S,246-296444-S,246-308141-S,248-34656-S,248-89029-S,248-102439-S,248-118406-S,249-0-S,251-40578-S,254-52970-S,259-4850-S,259-103486-S,259-365765-S,262-123374-S,263-7541-S,263-132194-S,263-161023-S,264-59676-S,264-72256-S,270-176731-S,271-160831-S,275-76490-S,276-54751-S,277-130790-S,277-148784-S,277-213196-S,277-288386-S,278-258845-S,279-355765-S,280-96328-S,280-170939-S,280-259113-S,281-27386-S,281-90692-S,281-104184-S,281-115888-S,281-141384-S,281-217207-S,282-100608-S,283-26627-S,283-67773-S,283-148256-S,284-8391-S,284-35017-S,284-53455-S,285-18284-S,285-84325-S,285-95892-S,285-164132-S,287-51889-S,287-77028-S,287-109867-S,287-132326-S,287-157968-S,287-164544-S,289-63234-S,289-111693-S,292-12545-S,292-47869-S,297-132720-S,297-210954-S,298-166-S,299-150024-S,300-40181-S,300-117965-S,302-195951-S,303-150829-S,304-51791-S,305-192546-S,306-72949-S,306-88665-S,306-180584-S,306-205868-S,307-5318-S,307-22695-S,307-78756-S,307-89979-S,310-112665-S,312-12715-S,314-62168-S,314-95063-S,314-103157-S,315-26609-S,315-27612-S,315-60018-S,315-62699-S,315-69108-S,315-101325-S,315-134884-S,315-157744-S,315-160106-S,315-204136-S,316-992-S,316-8824-S,316-115996-S,316-135852-S,316-157405-S,316-189204-S,317-50897-S,317-101672-S,317-147102-S,317-237812-S,317-259659-S,317-272798-S,318-1812-S,318-20859-S,318-29331-S,318-37441-S,318-43763-S,318-49933-S,318-51245-S,318-59879-S,318-127484-S,318-144875-S,318-146549-S,322-71820-S,326-146800-S,326-235208-S,328-207190-S,329-46265-S,330-113118-S,331-115700-S,332-46606-S,334-38670-S,336-26310-S,336-37871-S,336-41388-S,336-55695-S,338-58427-S,339-49049-S,339-91119-S,340-11150-S,340-18488-S,340-44110-S,340-56438-S,340-171193-S,341-51625-S,341-57158-S,341-66928-S,341-96032-S,341-117299-S,341-124468-S,341-131507-S,343-81170-S,345-64461-S,345-88000-S,345-100919-S,346-1545-S,348-127009-S,350-300813-S,350-307051-S,350-371084-S,351-156016-S,357-50068-S,357-53254-S,357-63444-S,358-18829-S,358-36193-S,358-47817-S,358-55395-S,358-117200-S,360-28064-S,366-103749-S,366-223768-S,373-150828-S,374-76956-S,374-153174-S,375-356795-S,375-365139-S,376-5863-S,376-201000-S,376-252065-S,377-41558-S,381-58329-S,383-65587-S,384-45273-S,384-66434-S,384-67304-S,385-91898-S,385-102360-S,385-140500-S,386-353-S,386-35943-S,386-61303-S,386-73691-S,389-168915-S,390-16460-S,390-25596-S,392-83618-S,392-114878-S,392-123157-S,392-144399-S,392-150155-S,392-177631-S,393-1954-S
ive ou ivette	199-34204-B
ivette	199-34204-S
ivoire	199-34540-B
ivoirerie	199-38822-B
ivoirier	199-38968-B
ivoirin ine	199-39109-B
ivoride	199-39606-B
ivraie	199-39986-B
ivre	199-42935-B
ivresse	199-46878-B
ivrogne	199-49410-B
ivrogner	199-50854-B
ivrognerie	199-51462-B
ivrognesse	199-52239-B
ixe	284-66284-S
ixia	199-52586-B
ixion	199-52690-B,199-52738-B
ixode	199-52860-B
ixos	199-53109-B
izemien ienne	199-53532-B
j	199-53730-B
j 	197-57874-S
ja	202-135183-B
jabet	199-54470-B
jabiru	199-54569-B
jable	199-54954-B
jable ee	199-55886-B
jabler	199-55513-B
jabliere	199-55616-B
jabloire	199-55825-B
jaborandi	199-55950-B
jabot	199-56410-B
jabotage	199-58170-B
jaboter	199-58241-B
jaboteur	199-59345-B
jabotiere	199-59425-B,199-59514-B
jacamar	199-59693-B
jacara	199-59770-B
jacarini	199-59831-B
jacasse	199-59953-B
jacasser	199-60166-B
jacasserie	199-60432-B
jacee	199-78543-B
jaceinees	199-78812-B
jacent ente	199-60513-B,334-2551-S,343-44049-S
jachere	199-60783-B
jachere ee	199-63454-B
jacherer	199-62883-B
jacinthe	199-63549-B,199-64315-B
jack	199-64859-B
jackal	199-64989-B
jacob	199-65040-B
jacobee	199-68932-B
jacobin ine	199-65537-B
jacobine	199-67429-B
jacobiniere	199-68078-B
jacobiniser	199-67562-B
jacobinisme	199-67670-B
jacobite	199-68225-B
jacobus	199-68713-B
jacoit que	200-95901-B
jaconas	199-69478-B
jacquart	199-69719-B
jacque	199-69912-B
jacquemart	199-69955-B
jacquere	199-74519-B
jacquerette	199-70146-B
jacquerie	199-70261-B
jacques	199-71479-B
jacquet	199-73514-B,199-74068-B
jacquot	199-74334-B
jactance	199-74663-B
jactancieux euse	199-75818-B
jactation	199-75969-B
jacter se	199-76421-B
jactitation	199-76756-B
jaculateur	199-76898-B
jaculation	199-77310-B
jaculatoire	199-77763-B
jacuratu	199-78370-B
jadaique	199-78922-B
jade	199-79095-B
jadeite	199-82435-B
jadien ienne	199-80354-B
jadis	199-80438-B
jadot	199-82316-B
jaffet	199-82662-B
jagre	199-82786-B
jaguar	199-82864-B
jaiet	200-96850-B
jaillir	199-83791-B
jaillissant ante	199-85655-B
jaillissement	199-85848-B
jaina	200-96891-B
jainique	200-97586-B
jainisme	200-97725-B
jais	199-86006-B
jalabre	199-87008-B
jalage	199-87167-B
jalap	199-87298-B
jalapine	199-87922-B
jalapique	199-88048-B
jale	199-88205-B
jalet	199-88597-B
jaleuse	199-89283-B
jallot	199-89449-B
jalon	199-89580-B
jalonne ee	199-91562-B
jalonnement	199-90514-B
jalonner	199-90663-B
jalonneur	199-91136-B
jalouse ee	199-102772-B
jalousement	199-91655-B
jalouser	199-92017-B
jalousie	199-92794-B
jaloux ouse	199-103026-B
jamaicine	199-121524-B
jamais	199-112891-B
jambage	78-44030-S,199-121631-B
jambe	88-85087-S,199-122658-B
jambe ee	199-142264-B
jambelet	199-136928-B
jambes	61-64262-S
jambette	199-137084-B
jambier iere	199-138416-B
jambon	199-139701-B
jambonneau	199-141343-B
jambosier	199-141492-B
jambot	199-141908-B
jamesonite	199-142409-B
jan	78-44255-S,199-142518-B,199-144887-B
janfrederic	199-145000-B
jangle	199-145082-B
janiceps	199-145126-B
janicule	199-145421-B
janissaire	199-145517-B
janniere	199-146755-B
janrinette	199-146948-B
jansenien ienne	199-147021-B
jansenisme	199-147365-B
janseniste	199-148609-B
jante	199-151585-B
janten	200-112669-S
jantiere	200-354-B
jantille	200-0-B
jantiller	200-248-B
janus	200-441-B
janvier	200-1399-B
japet	200-2880-B
japhet	200-3549-B
japhetique	200-3799-B
japon	200-4086-B
japonais	200-4244-B
japonique	200-4347-B
japonisme	200-4577-B
japoniste	200-4916-B
japonner	200-5152-B
jappage	200-5330-B
jappant ante	200-5435-B
jappe	200-5669-B
jappement	200-6076-B
japper	200-6274-B
jappeur	200-7990-B
jaque	200-8086-B,200-9127-B,202-136829-B
jaqueline	200-9175-B
jaquemart	200-9271-B
jaquerie	200-10357-B
jaquet	200-10400-B
jaquet ou patron minet	260-157439-S
jaquet ou potron minet	277-296875-S
jaquette	200-10470-B,200-11744-B
jaquier	200-12035-B
jar ou jard	200-12422-B
jarat	200-12473-B
jaraude	200-12525-B
jarbiere	200-12702-B
jard	200-12422-S
jarde	200-12764-B
jardin	200-13013-B
jardinage	200-20573-B
jardinatoire	200-22685-B
jardinee	200-29749-B
jardinement	200-23264-B
jardiner	200-23460-B
jardinet	200-24935-B
jardineux euse	200-25784-B
jardinier iere	200-25983-B,200-26245-B
jardiniere	200-29189-B
jardiniste	200-29076-B
jardon	200-29881-B
jaret	200-29963-B
jargauder	200-30011-B
jargon	200-30105-B,200-34762-B
jargonelle	200-35240-B
jargonne ee	200-37627-B
jargonner	200-35347-B
jargonnesque	200-37141-B
jargonneur	200-37283-B
jarlot	200-37749-B
jarnac	200-37903-B
jarni	200-38431-S
jarnibleu et par ellipse jarni	200-38431-S
jarnidieu et jarnibleu et par ellipse jarni	200-38431-B
jarnonce	200-39049-B
jarnotte	200-39349-B
jarosse	200-39403-B
jarre	200-39748-B,200-40349-B,200-41419-B
jarre ee	200-51050-B
jarrebosse	200-42099-B
jarret	84-216740-S,200-42250-B
jarrete ee	200-49845-B
jarreter	200-45803-B
jarretier iere	200-46232-B
jarretiere	200-46386-B
jarreux euse	200-50531-B
jarron	200-50885-B
jars	200-51176-B
jarsette	200-52330-B
jas	200-52441-B
jasement	200-53031-B
jaser	200-53131-B
jaseran	200-56384-B,200-57363-B
jaserie	200-57447-B
jaseron	200-57582-B
jaseur euse	200-57633-B
jasione	200-58861-B
jasmin	200-58972-B
jasminees	200-61144-B
jaspagate	200-61396-B
jaspe	200-61509-B
jaspe ee	200-64035-B
jasper	200-62587-B
jasperon	200-63250-B
jaspiller ou jaspiner	200-63334-B
jaspiner	200-63334-S
jaspique	200-63614-B
jaspoide	200-63780-B
jaspure	200-63926-B
jasserie	200-64981-B
jatropha	200-65321-B
jatte	91-94972-S,200-65760-B
jattee	200-66603-B
jauge	200-66715-B
jauge ee	200-72965-B
jaugeage	200-70643-B
jauger	78-44375-S,200-71128-B
jaugeur	200-72407-B
jaumiere	200-73064-B
jaunatre	200-86038-B
jaune	83-99831-S,165-153994-S,200-73208-B
jauneau	200-80794-B
jaunelet	200-80836-B
jaunement	200-80954-B
jaunet ette	200-81222-B
jaunetre	200-86896-B
jauneur	200-81826-B
jauni ie	200-82101-B
jaunifique	200-82275-B
jaunir	200-82460-B
jaunissant ante	200-83614-B
jaunisse	200-84207-B
jaunissement	200-85745-B
jaunoir	200-85889-B
jaunotte	200-85962-B
jautereau	200-87013-B
javanais aise	200-87056-B
javari	200-87322-B
javart	200-87470-B
javeau	200-88139-B
javelage	200-88532-B
javele ee	200-95182-B
javeler	200-88990-B
javeleur euse	200-89507-B
javeline	200-90059-B,200-90165-B
javelle	200-90668-B
javelle eau de	200-93156-B
javelot	200-93599-B
javelotte	200-95426-S
javotte ou javelotte	200-95426-B
jawi	200-95589-B
jayet	200-95675-B
jaz	200-95747-B
je	200-97991-B,202-136935-B,343-31984-S,369-97444-S
je et survecusse je	343-31984-S
je t aime	272-119833-S
je te vois plus je t aime	272-119833-S
je vous aime ou plus je te vois plus je t aime	272-119833-S
je vous vois plus je vous aime ou plus je te vois plus je t aime	272-119833-S
jean	165-154165-S,200-105303-B,285-250057-S
jean de gand	200-112541-B
jean de janten	200-112669-B
jean ee	285-221231-S
jean le blanc	200-112814-B
jeanne	95-52561-S
jeannette	200-113003-B
jeannin	200-113453-B
jeannot	200-114081-B
jeannotisme	200-114444-B
jecoraire	202-137041-B
jectanide	200-114827-B
jectisses	200-115205-B
jehovah	202-137305-B
jehoviste	202-137628-B
jehu	202-137978-B
jejunum	202-138238-B
jemblet	200-115699-B
jennerien ienne	200-116295-B
jenny	200-115768-B,231-171560-S
jeremiade	202-138953-B
jerni	200-116530-B
jerusalem	202-138544-B
jervine	200-116597-B
jesse	200-116717-B
jesuate	202-139329-B
jesuite	202-139677-B
jesuitesse	202-140995-B
jesuitique	202-141111-B
jesuitiquement	202-141683-B
jesuitisme	202-141856-B
jesus	37-72711-S,202-142277-B
jet	78-44523-S,200-116878-B
jetage	200-126482-B
jete	200-178496-B
jete ee	200-179247-B
jetee	200-183079-B
jeter	132-20119-S,200-127113-B
jeton	200-173598-B
jetonne	200-176705-B
jetonnier	200-176932-B
jettature	200-177778-B
jettement	200-178201-B
jettice	200-178357-B
jeu	25-175799-S,200-183840-B
jeudi	200-229714-B
jeumerante	200-230867-B
jeun a	200-230984-B
jeune	200-232512-B,200-256932-B
jeunement	200-244131-B
jeuner	200-261431-B
jeunesse	200-245248-B
jeunet ette	200-256163-B
jeuneur euse	200-264007-B
jevraschka	200-256875-B
jicler	200-264196-B
jiquilite	200-264287-B
joachimisme	200-264540-B
joachimite	200-264623-B
joaillerie	200-264990-B
joaillier iere	200-265234-B
job	200-265667-B
jobard	200-266259-B
jobarderie	200-266849-B
jobelin	200-266933-B
jobet	200-267592-B
joc	200-267671-B
jocasse	200-267739-B
jockey	200-267787-B
jockey club	201-0-B
jocko	201-162-B
joconde	201-800-B
jocrisse	201-1231-B
jog	201-1994-B
johanna	201-2396-B
johannique	201-2504-B
johannisberg	201-2618-B
johannite	201-2830-B
john bull	201-2988-B
joie	201-3136-B,228-92950-S,294-29084-S
joignant ante	201-12316-B
joindre	201-13523-B
joindre s 	132-20272-S
joinquee	201-26944-B
joint	86-66790-S,201-27091-B,271-104498-S
joint ointe	201-29932-B
jointe	201-34292-B
jointe ee	85-187272-S,201-39314-B,211-27448-S
jointee	201-39799-B
jointement	201-35332-B
jointif ive	201-35836-B
jointivement	201-36352-B
jointoiement	201-36596-B
jointoye ee	201-37458-B
jointoyer	201-36743-B
jointure	201-37534-B
joli	228-95946-S
joli ie	201-40103-B
joliade	201-51607-B
jolibois	201-52208-B
jolier	201-52453-B
joliet ette	201-53120-B
joliette	201-53646-B
joliment	201-53733-B
jolivete	201-56539-B
jolivettes	201-56106-B
jomarin	201-57884-B
jonc	201-57982-B,201-61271-B,201-62101-B
joncacees ou joncees	201-62303-B
joncaginees	201-62470-B
joncees	201-62303-S
joncer	201-62534-B
jonchaie	201-62807-B
jonche	201-62889-B
jonche ee	201-67083-B
jonchee	201-67356-B
jonchement	201-63050-B
joncher	201-63206-B
jonchere	201-66593-B
jonchet	201-64906-B
joncheur	201-66313-B
joncier	201-68801-B
jonction	201-68878-B
jondelle	201-70041-B
jongermanniees	201-70115-B
jongler	201-70235-B
jonglerie	201-70597-B
jongleur	201-71574-B
jonque	201-73807-B
jonquille	201-74182-B
josaphat	201-74752-B
joseph	201-74979-B
josephisme	201-75814-B
josephiste	201-76151-B
josse	201-75214-B
jotte	201-76589-B
jottereau	201-76919-B
jottes	201-77129-B
jouable	201-77306-B
jouail	201-77760-B
jouailler	201-77858-B
joubarbe	201-78322-B
joue	201-79538-B
joue ee	201-254527-B
jouee	201-255993-B
jouelle	201-85673-B
jouer	201-85829-B
jouer s 	132-20544-S
jouereau	201-126644-B
jouet	201-126805-B
jouette	201-130357-B
joueur euse	201-130510-B
joufflu ue	201-134121-B
joug	201-135366-B
jouieres	201-141931-S
jouilleres ou jouieres	201-141931-B
jouir	201-142166-B
jouissance	201-151702-B,241-2836-S
jouissant ante	201-154331-B
jouisseur	201-154737-B
joujou	201-155003-B
jour	1-59521-S,32-91551-S,32-92126-S,78-44669-S,201-155367-B
jourd hui	57-71316-S
jourdain	201-223369-B
jourdin	201-223436-B
journal	201-223504-B
journalier iere	201-227755-B
journaliser	201-230787-B
journalisme	201-231128-B
journaliste	201-231403-B
journee	201-233080-B
journel elle	201-232052-B
journellement	201-232744-B
joute	201-243913-B
jouter	201-246649-B
jouteur	201-249174-B
jouvence	201-250155-B
jouvenceau elle	201-251909-B
jouxte	201-253515-B
jovial ale	201-256514-B
jovialement	201-258335-B
jovialite	201-258406-B
jovicentrique	201-258672-B
jovilabe	201-258904-B
joyau	201-259164-B
joyeusement	201-262959-B
joyeusete	201-263253-B
joyeux euse	201-264151-B
juan	104-94797-S
juanique	104-95648-S
jubarte	201-267311-B
jube	201-272650-B
jubilaire	201-267382-B
jubilant ante	201-268038-B
jubilate	201-268123-B
jubilation	201-268334-B
jubile	201-269345-B
jubiler	201-268926-B
jubis	201-272452-B
juc	201-273870-B
juche ee	201-276512-B
jucher	201-274167-B
juchoir	201-275938-B
judaique	201-278387-B
judaiquement	201-280510-B
judaisant ante	201-280587-B
judaiser	201-280875-B
