cyanodermie	92-83837-B
cyanoferrate	92-83977-B
cyanoferre	92-84181-B
cyanoferrique	92-84329-B
cyanoferrure	92-84542-B
cyanogastre	92-84689-B
cyanogene	92-84960-B
cyanogyne	92-84819-B
cyanoide	92-88347-B
cyanoleuque	92-85469-B
cyanomele	92-85607-B
cyanometre	92-85741-B
cyanopathie	92-85927-B
cyanophosphore	92-86051-B
cyanophthalme	92-86240-B
cyanopode	92-86372-B
cyanopotassique	92-86497-B
cyanoptere	92-86645-B
cyanopyge	92-86775-B
cyanopyrrhe	92-86903-B
cyanose	92-87038-B
cyanose ee	92-87631-B
cyanoser	92-87477-B
cyanote	92-87941-B
cyanotique	92-88064-B
cyanoure	92-88228-B
cyanurate	92-88472-B
cyanure	92-88629-B
cyanure ee	92-89125-B
cyanurine	92-88753-B
cyanurique	92-88904-B
cyathe	92-89610-B
cyathiforme	92-89799-B
cyathoide	92-90283-B
cyathophore	92-90116-B
cybelien	92-90970-B
cybernetique	92-90447-B
cybistique	92-90638-B
cyceon	93-4122-B
cyclade	92-91131-B
cycladin	92-91304-B
cyclame ou cyclamen	92-91408-B
cyclamen	92-91408-S
cyclamine	92-91887-B
cyclamor	92-92052-B
cycle	92-92232-B
cyclide	92-95155-B
cyclique	92-95291-B
cyclobranche	92-96597-B
cyclocarpe	92-96755-B
cyclocele	92-96888-B
cyclocephale	92-97039-B
cyclocephalie	92-97327-B
cyclogastre	92-97408-B
cyclographe	92-97546-B
cycloidal ale	93-1911-B
cycloide	93-2737-B
cyclolithe	92-97711-B
cyclometrie	92-97939-B
cyclometrique	92-98195-B
cyclomorphe	92-97804-B
cyclonal ale	92-98285-B
cyclone	92-98657-B
cyclonique	92-100540-B
cyclonomie	92-100799-B
cyclonomique	92-101022-B
cyclonomiste	92-101255-B
cyclonote	92-101444-B
cyclope	92-101584-B
cyclopeen enne	93-0-B
cyclophore	92-103716-B
cyclophylle	92-103878-B
cyclopie	92-104020-B
cyclopien ienne	92-104182-B
cyclopteres	92-104342-B
cyclose	93-749-B
cyclosperme	93-940-B
cyclostome	93-1083-B
cyclothele	93-1388-B
cyclotome	93-1530-B
cyclozoaire	93-1751-B
cyclure	93-3874-B
cycnoide	93-3998-B
cyesiologie	93-43941-B
cygne	32-68755-S,93-4373-B
cylindrace ee	93-9408-B
cylindrage	93-9570-B
cylindre	68-5191-S,93-9726-B
cylindre axe	93-11813-B
cylindrer	93-12142-B
cylindreur	93-12316-B
cylindricite	93-12453-B
cylindricorne	93-12589-B
cylindriflore	93-12746-B
cylindriforme	93-12910-B
cylindrimetre	93-13056-B
cylindrique	93-13227-B,246-245842-S
cylindriquement	93-13464-B
cylindro conique	93-13544-B
cylindro ogival ale	93-14009-B
cylindrocarpe	93-14247-B
cylindroide	93-14659-B
cylindrose	93-14398-B
cylindrosome	93-14515-B
cymaise	93-15120-B
cymation	93-15887-B
cymbalaire	93-16068-B
cymbale	93-16299-B
cymbalier	93-18279-B
cymbaloide	93-18464-B
cymbifolie ee	93-18632-B
cymbiforme	93-18812-B
cyme	93-18961-B
cymette	93-19303-B
cymeux euse	93-19450-B
cynanche ou cynancie	93-19580-B
cynancie	93-19580-S
cynanque	93-19892-B
cynanthemis	93-20444-B
cynanthropie	93-20251-B
cynapine	93-20610-B
cynarees	93-20934-B
cynarocephales	93-20765-B
cynegetique	93-27467-B
cyngalais aise	93-21216-B
cynips	93-21349-B
cynique	93-21571-B
cyniquement	93-24593-B
cynisme	93-24707-B
cynocephale	93-25296-B
cynoglosse	93-25666-B
cynographie	93-25974-B
cynomorphe	93-26103-B
cynophile	93-26233-B
cynorexie	93-26333-B
cynorrhodon	93-26454-B
cynosure	93-26772-B
cyperace ee	93-31489-B
cyperoidees	93-31721-B
cyphelle	93-27741-B
cyphose	93-27890-B
cypres	93-29218-B
cyprien	93-28100-B
cypriere	93-28920-B
cyprin	93-28435-B
cypripede	93-28609-B
cypris	93-28749-B
cypsele	93-31341-B
cyr saint 	93-31865-B
cyrenaique	93-34661-B,93-35149-B
cyrene	93-34218-B
cyrien	320-107355-S
cyrillien ou cyrillique	93-33434-B
cyrillique	93-33434-S
cyropedie	93-33593-B
cyrtocephale	93-33775-B
cyrtometre	93-33937-B
cyrtometrie	93-34090-B
cystalgie	93-35251-B
cysteolithe	93-40451-B
cysteux euse	93-35387-B
cysthepatique	93-35538-B
cystibranche	93-35798-B
cysticerque	93-35981-B
cystidion	93-36202-B
cystine	93-36477-B
cystipathie	93-36606-B
cystique	93-36779-B,181-35240-S
cystique ou fibrokystique	143-175580-S
cystirrhagie	93-37444-B
cystirrhee	93-37597-B
cystite	93-37724-B
cystitome	93-37887-B
cystocele	93-38255-B,133-33250-S
cystodynie	93-38384-B
cystoide	93-40178-B
cystolithique	93-38576-B
cystoplastie	93-38728-B
cystoplegie	93-38936-B
cystoptose	93-39086-B
cystopyique	93-39318-B
cystospastique	93-39467-B
cystotome	93-39637-B
cystotomie	93-39844-B,367-41389-S
cythere	93-40582-B
cytheree	93-41197-B
cytinacees ou cytinees	93-41453-B
cytinees	93-41453-S
cytise	93-41670-B
cytisine	93-42185-B
cytoblaste	93-42286-B
cytoblasteme	93-42516-B
cytotheque	93-42759-B
cyzicene	93-42923-B
czar	93-44113-B
czarienne	93-45507-B
czarine	93-45586-B
czarowitz	93-46042-B
d	94-85366-B
d 	1-173440-S,8-210367-S,11-115223-S,20-16340-S,25-76912-S,123-72931-S,252-68293-S
d abondant	94-87450-B
d abord	94-87511-B
d aile	353-135698-S
d ailleurs	94-87559-B
d ane	32-66281-S
d apres	94-87633-B
d apres l orthographe anglaise krishna	203-6968-S
d apres l usage des botanistes nenuphar	243-131834-S
d argent	32-65736-S
d aronde	79-24183-S
d autant	94-87685-B
d autres kinnor	66-29814-S
d eau	242-145337-S,384-75483-S
d emblee	94-87725-B
d epicier	253-152238-S
d estoc	42-132756-S
d etai	79-50645-S
d etape	267-128268-S
d honneur	321-49539-S
d huis	43-7674-S
d la re	94-87760-B
d oeuvre	62-35642-S,175-206923-S,215-230843-S
d oie	32-65846-S,260-182860-S
d oiseau	32-65946-S
d onze heures	32-91280-S
d ou algeroth poudre d 	8-210367-S
d un jour	32-91551-S
d union et compose soit avec un substantif soit avec un adjectif	96-233500-S
da	94-87854-B,94-90170-B
da capo	94-90291-B
da fe	25-37730-S
dacryadenite	94-90604-B
dacryocyste	94-90826-B
dacryocystite	94-90961-B
dacryoide	94-91770-B
dacryoline	94-91124-B
dacryolithe	94-91264-B
dacryolithiase	94-91406-B
dacryope ee	94-91606-B
dactyle	94-91926-B,94-92001-B,94-92201-B
dactyle ee	95-2035-B
dactylifere	94-93419-B
dactylin ine	94-93620-B
dactylioglyphe	94-93833-B
dactylioglyphie	94-94064-B
dactyliographie	94-94164-B
dactyliographique	94-94670-B
dactyliologie	94-94773-B
dactyliologique	94-94946-B
dactyliomancie	94-95042-B
dactyliomancien enne	94-95223-B
dactylion	94-95356-B
dactyliotheque	94-95557-B
dactylique	94-95769-B
dactylite	94-96297-B,94-96539-B
dactylographe	94-96732-B
dactylographie	95-0-B
dactylographique	95-152-B
dactyloide	95-1874-B
dactylolalie	95-250-B
dactylologie	95-454-B
dactylonomie	95-1017-B
dactylopere	95-1529-B
dactyloptere	95-1196-B
dactylotheque	95-1682-B
dada	95-2213-B
dadais	95-3323-B
dadyle	95-4072-B
daeodactyle	95-4241-B
dagard	95-4284-B
dagon	95-4346-B
dagorne	95-4474-B
dague	95-4686-B
dague ee	95-10950-B
daguer	95-8012-B
daguerreotypage	95-8996-B
daguerreotype	95-9089-B
daguerreotype ee	95-10169-B
daguerreotyper	95-9803-B
daguerreotypie	95-9989-B
daguerrien ienne	95-8844-B
dagues	95-10288-B
daguet	95-10328-B
daguette	95-10841-B
dahlia	95-11094-B
dahline	95-11465-B
dai	95-11559-B
dai co	96-25528-B
daignee	95-14000-B
daigner	95-11608-B
dail	95-14093-B
daille	95-15118-B
daillot	95-15843-B
daim	95-15966-B
daimiat	96-25962-B
daimio	96-26197-B
daine	95-16335-B
daintiers	95-16435-B
dairi ou dairo	96-26265-B
dairo	96-26265-S
dais	95-17593-B,276-100490-S
dalai lama	95-21238-S
dalai lama ou dalai lama	95-21238-B
dalbergie	95-21591-B
daleau	95-21812-B
daleme	95-26793-B
daler	95-21944-B
dallage	95-21986-B
dalle	95-22216-B,95-22886-B,95-23151-B,95-23743-B
dalle ee	95-25137-B
daller	95-24800-B
dalleur	95-24899-B
dalmatique	95-25208-B
daloide	95-26344-B
dalot	95-26119-B
daltonisme	95-26520-B
dam	95-26909-B
damage	95-28959-B
daman	95-29076-B
damar	95-29247-B
damaras	95-29636-B
damarine	95-29700-B
damas	95-29769-B,95-33281-B
damasienne	95-33516-B
damasquette	95-33576-B
damasquin	95-33817-B
damasquinage	95-33939-B
damasquine ee	95-36300-B
damasquiner	95-34042-B
damasquinerie	95-35967-B
damasquineur	95-36072-B
damasquinure	95-36175-B
damassade	95-36877-B
damasse ee	95-37733-B
damasser	95-36977-B
damasserie	95-37259-B
damasseur	95-37358-B
damassin	95-37465-B
damassure	95-37570-B
dame	32-91823-S,37-108316-S,78-24241-S,95-38473-B,95-50441-B,95-51762-B,96-250128-S,241-107219-S
dame aubert	95-52455-B
dame ee	95-77926-B
dame jeanne	95-52561-B
damelot	95-53541-B
damer	95-53595-B,95-55577-B
dameret	95-55674-B,95-57429-B
damerette	95-57536-B
damette	95-57607-B
damianes	95-57668-B
damicorne	95-57832-B
damieniste	95-58994-B
damier	95-57980-B
dammar	95-59410-B
damnable	95-59533-B
damnablement	95-61349-B
damnation	95-61597-B
damne ee	95-69714-B
damnement	95-64729-B
damner	95-65422-B
damocles	95-72055-B
damoiseau	95-72936-B
damoisel	95-76116-B
damoiselle	95-76171-B
danae	95-78104-B
danaide	95-78289-B
dance	79-61850-S,84-142249-S
danche ee	95-78754-B
dandin	95-79022-B,263-195220-S
dandinant ante	95-79847-B
dandinement	95-80243-B
dandiner	95-80359-B
dandy	95-81465-B
dandysme	95-82912-B
danger	95-83006-B
dangereusement	95-92541-B
dangereux euse	95-93352-B
danois	95-99072-B
dans	95-99819-B
dansable	95-111708-B
dansant ante	95-111810-B
danse	79-60843-S,95-112207-B
danse ee	95-124175-B
danser	95-118198-B
danseur euse	95-122907-B
dansotter	95-124054-B
dantesque	95-124253-B
danze	95-124440-B
daphne	95-125062-B
daphneine ou daphnine	95-125709-B
daphnine	95-125709-S
daphnite	95-124573-B
daphnoide	95-124914-B
daphnomancie	95-124708-B
dapifer	95-125859-B
dapiferat	95-126291-B
darade	95-126356-B
daraise	95-126466-B
darbo	95-126552-B
darbon ou derbon	95-126690-B
darce	95-126932-B
dard	95-126972-B
dardanique	95-131797-B
darde ee	95-136564-B
dardement	95-131971-B
darder	95-132262-B
dardiere	95-135910-B
dardille	95-135096-B
dardiller	95-135204-B
dardillon	95-135528-B
dardillonner	95-135660-B
dare	95-136692-B
dari	95-136884-B
darin	95-137038-B
dariole	95-137270-B
dariolet ette	95-137771-B
darioleur	95-138453-B
darique	95-138552-B
darivette ou darivote	95-139471-B
darivote	95-139471-S
darnagasse	95-139614-B
darne	95-139696-B
darnette	95-139963-B
daron	95-140098-B
darse	95-140947-B
dart	95-141270-B
dartos	95-141344-B
dartre	95-141780-B
dartreux euse	95-142994-B
dartrier	95-143260-B
darwinien ienne	95-143380-B
darwinisme	95-143593-B
darwiniste	95-143766-B
dasyanthe	95-143974-B
dasycarpe	95-144134-B
dasycaule	95-144288-B
dasycephale	95-144438-B
dasygastre	95-144584-B
dasymalle	95-144725-B
dasype	95-144889-B
dasyphylle	95-145032-B
dasypleure	95-145178-B
dasystachye ee	95-145347-B
dasystemone	95-145667-B
dasystyle	95-145530-B
dasyure	95-145824-B
data	95-146074-B
dataire	95-146343-B,333-212393-S
date	95-146998-B
date ee	78-24531-S,96-2272-B
dater	78-24403-S,95-152245-B
daterie	95-154495-B
datif	95-154703-B
datif ive	95-155084-B
dation	95-155623-B
datisca	95-155994-B
datiscacee ou datiscinee	95-156114-B
datiscine	95-156294-B
datiscinee	95-156114-S
datisme	96-0-B
datte	96-366-B
dattier	96-1407-B
datura	96-1617-B
daturees	96-2156-B
daturine	96-2034-B
daube	96-2494-B
daube ee	96-6110-B
daubentonie	96-3003-B
dauber	96-3270-B
daubeur	96-5349-B
daubiere	96-5992-B
dauciforme	96-6313-B
daucinees	96-6489-B
daucoide	96-6616-B
daudent	96-6763-B
daulin	96-6816-B
daumont	96-6877-B
dauphin	96-7030-B
dauphine	96-11324-B,96-11518-B,96-11769-B
dauphinelle	96-11827-B,96-11978-B
dauphinerie	96-12180-B
daurade	96-12390-B
daurat	96-12722-B
dauw	96-12807-B
davantage	96-12835-B
david ou davis	96-21721-B
davidique	96-22839-B
davier	96-23369-B
davis	96-21721-S
davyne	96-25169-B
daw	96-25378-B
de	31-133880-S,35-49039-S,43-37375-S,46-141200-S,60-166231-S,96-26591-B,107-97182-B,107-103447-B,107-104420-B,130-154398-S,160-13877-S,161-10842-S,200-93156-S,230-85136-S,256-152193-S,270-267928-S,275-113140-S,332-69304-S,374-112838-S
de bric et de	43-37375-S
de broc en bouche	43-37732-S
de buffle	70-172612-S
de camp	223-118253-S
de cane	32-66437-S
de canon	32-66962-S
de chausse	171-186155-S
de chaussee	308-126531-S
de chausses ou haut de chausse	171-186155-S
