bocage	36-103627-B
bocage ou boccage	36-105162-B
bocager ere	36-105641-B
bocain	36-107088-B
bocal	36-107214-B
bocambre	36-107943-B
bocamelle	36-108012-B
bocane	36-108087-B
bocard	36-108292-B
bocardage	36-108490-B
bocarde ee	36-108681-B
bocarder	36-108601-B
bocassin	36-108759-B
boccage	36-105162-S
bock	36-109038-B
bocquet	36-109473-B
bodee	36-109791-B
bodine	36-109669-B
bodruche	36-109736-B
boesse	40-142668-B,164-15469-S
boesser	40-143049-B,164-16426-S
boeuf	20-105165-S,31-60038-S,36-109911-B,128-109836-S,156-66525-S,269-37516-S,340-96607-S,356-79003-S
boeuvonnage	36-115121-B
boeuvonne	36-115438-B
bog	36-115523-B
boghead	36-115626-B
boghei	36-115953-B
bogue	36-116181-B
boguette	36-116749-B
bohe	36-118457-B
boheme ou bohemien ienne	36-116829-B
bohemien ienne	36-116829-S
bohu	354-158371-S
boiard	40-151050-B,40-151095-B
boire	36-118597-B,36-131211-B,36-131829-B
bois	14-51621-S,14-70187-S,35-85312-S,36-132486-B,47-17511-S,156-66636-S,168-27096-S,208-188303-S,229-186164-S,263-981-S,269-37847-S,283-131202-S,285-28470-S,311-142259-S,327-163808-S,333-204773-S
bois de	332-69304-S
boisage	36-150047-B
boise ee	37-1680-B
boisement	36-150532-B
boiser	36-150612-B
boiserie	36-150974-B
boisettes	36-151100-B
boiseux euse	36-151331-B
boisseau	36-151499-B
boisselage	36-154192-B
boisselee	37-85-B
boisselier	36-154459-B
boisseliere	36-154600-B
boissellerie	36-154689-B
boisselon	37-0-B
boisson	37-329-B
boit tout	37-1873-B
boitage	40-143151-B
boitard	40-143411-B
boite	37-2149-B,40-143519-B
boite ee	40-150833-B
boitement	37-2543-B
boiter	37-2713-B,37-4526-B
boiterie	37-4613-B
boiteux euse	37-4992-B
boitier	40-150172-B
boitillon	40-150667-B
boiton	37-8699-B
boitte ou bouette	37-8930-B
boittee	37-9503-B
boitter	37-9155-B
boivin	37-9559-B
bol	37-9660-B
bol ou bolus	37-9943-B
bolaire	37-10910-B
bolbec	37-11158-B
boldo	37-11435-B
bolduc	37-11725-B
bolero	37-14769-B
bolet	37-11848-B
boletique	37-14998-B
boliche	37-12229-B
bolide	37-12347-B
bolivar	37-13249-B
bollandiste	37-14040-B
bolomancie	37-14233-B
boloretine	37-14483-B
bolus	37-9943-S,37-14728-B
bombage	37-15147-B
bombagiste	37-15272-B
bombance	37-15444-B
bombarde	37-17102-B
bombarde ee	37-21486-B
bombardement	37-19168-B
bombarder	37-19379-B
bombardier	37-20701-B
bombasin	37-21581-B
bombastique	37-21913-B
bombazine	37-22795-B
bombe	37-23000-B
bombe ee	37-27301-B
bombement	37-25886-B
bomber	37-25992-B
bomberie	37-26345-B
bombette	37-26432-B
bombeur	37-26584-B
bombycine	37-26693-B
bombycique	37-26821-B
bombyle	37-27007-B
bombyx	37-27156-B
bome	47-30224-B
bomerie	37-27519-B
bommerang	37-27834-B
bon	37-28119-B,37-34896-B,37-46406-B,308-1071-S
bon air	37-71191-B
bon bonne	37-46970-B
bon chretien	37-71319-B
bon compte	379-89357-S
bon fieux ou bon fils	37-72347-B
bon fils	37-72347-S
bon henri	37-72546-B
bon jesus	37-72711-B
bon plein	37-72908-B
bon quart	37-73093-B
bon tour	37-73173-B
bonace	37-73326-B
bonapartisme	37-74679-B
bonapartiste	37-74838-B
bonard	37-74941-B
bonasse	37-75012-B
bonbanc	37-75768-B
bonbec	37-75889-B
bonbon	37-76094-B
bonbonne	37-76549-B
bonbonniere	37-76811-B
boncore	37-77151-B
bond	37-77205-B
bondax	37-81739-B
bonde	37-81829-B,353-132425-S
bonde ee	37-92545-B
bondel	37-84932-B
bonder	37-85198-B
bondieu	37-85631-B,61-12919-S
bondir	37-85828-B
bondissant ante	37-89255-B
bondissement	37-89962-B
bondon	37-90580-B
bondonne ee	37-92031-B
bondonner	37-91722-B
bondonniere	37-91894-B
bondree	37-92117-B
bonduc	37-92289-B
bongare	37-92615-B
bongo	37-92749-B
bonheur	37-92901-B,276-92463-S,332-275988-S
bonhomie	37-99038-B
bonhomme	37-99738-B
bonhommeau	37-104044-B
boni	37-104200-B
boniau	37-104482-B
boniface	37-104741-B
bonification	37-104852-B
bonifie ee	37-105748-B
bonifier	37-105099-B
boniment	37-105840-B
bonite	37-106085-B
bonjeau	37-106248-B
bonjour	37-106341-B
bonjourier	37-107284-B
bonne	37-46970-S,37-107407-B,165-72272-S,211-143392-S,357-2215-S
bonne dame	37-108316-B
bonne encontre	37-108497-B
bonne ente	37-108786-B
bonne grace	37-108958-B
bonne main	37-109090-B
bonne vilaine	37-109182-B
bonne voglie	37-109286-B
bonneau	37-109800-B,37-110295-B
bonnement	37-110530-B
bonnet	37-112897-B,156-66865-S,276-93101-S
bonnetade	37-122342-B
bonnetage	37-122566-B
bonnete ee	37-126272-B
bonneteau	37-122690-B
bonneter	37-123272-B
bonneterie	37-124262-B
bonneteur	37-124929-B
bonnetier iere	37-125621-B
bonnette	37-125904-B,37-126104-B
bonnier	37-126380-B
bonosien	37-126778-B
bonsoir	37-126998-B
bonte	37-128008-B,171-197663-S,357-2575-S
bontemps	310-152612-S
bonze	37-133084-B
bonzerie	37-133643-B
bonzesse	37-133726-B
book	37-133934-B,172-70239-S,338-48789-S
bootes	37-134194-B
boquet	37-134364-B
boqueteau	37-134459-B
boquette	37-134890-B
boquettier	37-134969-B
boquillon	37-135054-B
boracique	37-135721-B
boracite	37-135792-B
borasseau	37-135946-B
borate	37-136110-B
borate ee	37-136230-B
borax	37-136374-B
borborygme	37-136695-B
bord	30-103723-S,37-137123-B,150-27433-S,170-20931-S,271-38341-S,353-132538-S
bord a	78-9748-S
bord contre	37-146834-B
bord droit	37-146983-B
bord oppose	37-147108-B
bordage	37-147314-B,37-147925-B
bordaille	37-148315-B
bordailler	37-148534-B
bordant ante	37-148624-B
borde	37-148746-B,37-162669-B
borde ee	37-162782-B
borde plats	37-149282-B
bordeau	37-149457-B
bordeaux	37-149686-S
bordeaux vin de ou vulgairement et en termes de commerce bordeaux	37-149686-B
bordee	37-164012-B,78-9948-S
bordel	37-150039-B
bordelaise	37-151465-B
bordelaje	37-151845-B
bordelier	37-152091-B
bordeliere	37-152401-B
bordement	37-152533-B
bordeneau	37-153230-B
border	37-153301-B
bordereau	37-156289-B
borderie	37-158014-B
bordeyer	37-158520-B
bordier	37-158782-B,37-159055-B
bordigue	37-159626-B
bordoyer	37-159940-B
bordure	37-160248-B
bordure ee	37-162551-B
bore	37-165272-B
boreal ale	38-8089-B
boree	38-8942-B
borer	37-165392-B
borgnat	37-165829-B
borgne	37-165897-B
borgnesse	37-169273-B
borgniat	37-169618-B
borin	37-169694-B
borinage	37-169824-B
borique	37-169997-B,197-47011-S
bornage	37-170120-B
bornal	37-170566-B
borne	37-170890-B
borne ee	38-5268-B
borner	38-0-B
bornous	38-3780-B
bornoye ee	38-5184-B
bornoyer	38-3830-B
borochoir	38-7300-B
borraginee	38-7357-B
bort	38-7517-B
borure	38-7800-B
borussien	38-7919-B
bosan	38-9389-B
boscaresque	38-9627-B
boscot otte	38-9846-B
bosel	38-9978-B
bosphore	38-10218-B
bosquet	38-10714-B
bossage	38-11838-B
bosse	38-12277-B,38-17104-B,61-13072-S,96-246576-S,327-163997-S
bosse ee	38-24878-B
bosselage	38-17231-B
bossele ee	38-19608-B
bosseler	38-17332-B
bossellement	38-18918-B
bosselure	38-19278-B
bosseman	38-19787-B
bosser	38-20138-B
bosses ou bossis	38-20233-B
bossetier	38-20494-B
bossette	23-43075-S,38-20753-B
bosseyeur	38-21344-B
bossille ee	38-21632-B
bossis	38-20233-S
bossoir	38-21876-B,276-93288-S
bossu ue	38-22121-B
bossue ee	38-24784-B
bossuelle	38-24215-B
bossuer	38-24548-B
bostangi	38-24950-B
boston	38-25254-B
bostryche	38-25672-B
bot	38-26170-B
botanique	38-26774-B
botaniquement	38-27962-B
botaniser	38-28324-B
botaniste	38-28487-B
botanistes nenuphar	243-131834-S
botanographie	38-28969-B
botanologie	38-29126-B
botanomancie	38-29278-B
botanophage	38-29524-B
botargue	38-29688-B
bothriocephale	38-29742-B
bothrion	38-29983-B
botrylle	38-30146-B
botryoide	38-30291-B
botte	38-30431-B,38-32578-B,38-35889-B,38-37180-B,85-193252-S,96-246722-S,353-132717-S
botte ee	38-43844-B
bottelage	38-38152-B
bottele ee	38-39995-B
botteler	38-38612-B
bottelette	38-39298-B
botteleur	38-39598-B
botteloir	38-39818-B
botter	38-40079-B
botterie	38-41729-B
bottier	38-41819-B
bottillon	38-42012-B
bottine	38-42625-B
bou	38-44191-B
bouard	38-44305-B
boubie	38-44412-B
boubouler	38-44535-B
bouc	38-44600-B,264-196436-S
boucage	38-47240-B
boucan	38-47617-B,38-49066-B
boucanage	38-49900-B
boucane ee	38-51561-B
boucaner	38-50051-B
boucanier	38-50814-B
boucaniere	38-51262-B
boucaro	38-51643-B
boucassin	38-51929-B
boucassine ee	38-52519-B
boucaut	38-52615-B,38-53217-B
bouchage	38-53462-B
bouchales	38-53712-B
boucharde	38-53841-B
bouchari	38-54086-B
bouche	20-64336-S,25-168522-S,38-54166-B,43-37732-S,105-38514-S,230-152120-S,309-190965-S,357-34096-S
bouche ee	38-97143-B,216-119573-S
bouche nez	38-76894-B
bouche trou	38-77049-B
bouchee	38-98049-B
bouchelle	38-77466-B
bouchement	38-77592-B
boucher	38-78025-B,38-83011-B
boucheraie	38-85844-B
bouchere	38-97016-B
boucherie	38-85927-B
bouchet	38-88288-B
boucheton a	38-89069-B
bouchette	38-89748-B
boucheture	38-90014-B
boucheur	38-90137-B
bouchoir	38-90308-B,276-93449-S
bouchon	38-90426-B,38-92535-B,323-71709-S,353-133203-S
bouchonne ee	38-95938-B,353-133979-S
bouchonnement	38-94971-B
bouchonner	38-95152-B
bouchonneux euse	38-95729-B
bouchonnier	38-95827-B
bouchons	233-63863-S
bouchot	38-96079-B
bouchoteur	38-96350-B
bouchure	38-96628-B
boucirolle	38-98999-B
boucle	38-99094-B
boucle ee	38-108694-B
bouclement	38-101507-B
boucler	38-101649-B,353-134105-S
bouclerie	38-104151-B
boucleteau	38-104429-B
bouclette	38-104539-B
bouclier	38-105009-B
boucon	38-109255-B
bouddhique	38-110428-B
bouddhisme	38-110499-B
bouddhiste	38-111328-B
boude ee	38-122025-B
bouder	38-111396-B
bouderie	38-114025-B
boudeur euse	38-115447-B
boudin	38-115695-B
boudinade	38-119272-B
boudinage	38-119412-B
boudine	38-119547-B
boudinee	38-120836-B
boudiner	38-120173-B
boudineuse	38-120272-B
boudinier	38-120472-B
boudiniere	38-120600-B
boudinoir	38-120731-B
boudjou	38-120917-B
boudoir	38-121078-B
boudriere ou boudrine	38-121909-B
boudrillon	38-121451-B
boudrine	38-121909-S
boue	38-122109-B
bouee	40-134375-B
bouement	38-128854-B
bouer	38-129072-B
bouette	37-8930-S,38-129306-B
boueur	38-129370-B
boueux euse	38-129470-B
bouffant ante	38-131163-B
bouffarde	38-131975-B
bouffe	38-132091-B,38-132444-B,38-132580-B
bouffee	38-143980-B
bouffer	38-132890-B
bouffette	38-135451-B
bouffi ie	38-135717-B
bouffir	38-137088-B
bouffissage	38-138223-B
bouffisseur	38-138890-B
bouffissure	38-139225-B
bouffoir	38-139900-B
bouffon	38-140096-B
bouffon onne	38-141461-B
bouffonesque	38-142277-B
bouffonner	38-142422-B
bouffonnerie	38-143241-B
bouffonneur	38-143699-B
bouffron	38-143906-B
bouganese	38-145868-B
bouge	38-145989-B,38-147176-B
bougeage	38-148850-B
bougeoir	38-148961-B
bouger	38-150274-B,38-154561-B
bougerie	38-155354-B
bougette	38-155710-B
bougie	38-156338-B,276-93579-S
bougie ee	38-158374-B
bougier	38-157981-B
bougillon	38-158101-B
bougnou	38-158452-B
bougon	38-158799-B
bougonner	38-159035-B
bougor	38-159660-B
bougraine ou bougrane	38-159778-B
bougran	38-159870-B
bougrane	38-159778-S
bougraner	38-160961-B
bougre	39-0-B
bougrerie	39-2164-B
bouguiere	39-2522-B
bouhaureau	39-2604-B,39-2760-B
bouillaison	39-4817-B
bouillant ante	39-4927-B
bouillard	39-6762-B
bouille	39-6914-B,39-7183-B,39-7769-B
bouille abaisse	39-8129-B
bouilleau	39-8670-B
bouillee	39-29853-B
bouiller	39-8958-B,39-9633-B
bouillerie	39-9819-B
bouillet	39-9929-B
bouilleur	39-10182-B,39-10425-B
bouilli	39-11366-B
bouilli ie	39-12345-B
bouillie	39-12598-B
bouillir	39-13736-B
bouillitoire	39-19526-B
bouilloir	39-19700-B
bouilloire	39-19856-B
bouillon	39-20090-B,85-185782-S
bouillon blanc	39-26197-B
bouillonnant ante	39-27111-B
bouillonne ee	39-29100-B,85-186498-S
bouillonnement	39-27278-B
bouillonner	39-27751-B
bouillotte	39-29230-B
bouillotter	39-29686-B
bouin	39-30147-B
bouine	39-30226-B
bouis	39-30396-B
bouisse	39-30512-B
boujaron	39-30579-B
boujeau	39-30877-B
boujon	39-31010-B
boujonner	39-31788-B
boujonneur	39-31873-B
boulage	39-32379-B
boulaie	39-32657-B
boulange	39-32746-B
boulange ee	39-35786-B
boulangeable	39-32968-B
boulanger	39-33208-B
boulanger ere	39-34039-B
boulangerie	39-35391-B
boular	39-35872-B
boulbene	39-35949-B
bouldure	39-36579-B
boule	39-36656-B,39-41188-B,39-66953-B,85-193734-S
bouleau	39-41743-B
bouledogue	39-43721-B
boulee	39-67018-B
boulejon	39-44090-B
