edictal ale	383-43131-B
edicter	383-43285-B
edicule	383-43769-B
edifiant ante	383-44376-B
edificateur	383-44721-B
edification	383-45523-B
edifice	383-47612-B
edifie ee	383-54578-B
edifier	383-50839-B
edile	383-55191-B
edilitaire	383-55943-B
edilite	383-56250-B
edit	79-54363-S,383-56622-B,383-59507-B
edite ee	383-63217-B
editer	383-60233-B
editeur	383-60915-B
edition	383-62042-B
edolie	383-63420-B
edosser	383-63595-B
edossoyer	383-63903-B
edredon	383-63988-B
educabilite	383-64468-B
educable	383-64771-B
educateur trice	383-64915-B
educatif ive	383-65587-B
education	383-66055-B
educationnel elle	383-71659-B
educte	383-71902-B
edulcoration	383-72069-B
edulcore ee	383-72670-B
edulcorer	383-72314-B
eduquer	383-72760-B
ee	1-28070-S,1-52418-S,1-90290-S,1-93100-S,1-96345-S,1-100074-S,1-105921-S,1-116354-S,1-121875-S,1-158639-S,1-172913-S,1-175114-S,1-178312-S,1-185002-S,1-191838-S,2-7696-S,2-16201-S,2-17711-S,2-29303-S,2-66039-S,2-77849-S,2-108473-S,2-130053-S,2-142656-S,2-157535-S,2-160602-S,2-161319-S,2-172989-S,2-182088-S,2-197185-S,2-201332-S,2-201429-S,2-203371-S,2-203645-S,2-210171-S,3-2999-S,3-22324-S,3-31942-S,3-75819-S,3-77193-S,3-80094-S,3-83986-S,3-86276-S,3-94491-S,3-99057-S,3-110343-S,3-120803-S,3-122833-S,3-127936-S,3-142496-S,3-155757-S,3-159148-S,3-171429-S,3-182687-S,3-184916-S,3-186645-S,3-189600-S,3-197784-S,3-206215-S,3-216298-S,3-222732-S,4-358-S,4-1052-S,4-5640-S,4-10493-S,4-11271-S,4-32057-S,4-45540-S,4-80810-S,4-83950-S,4-88957-S,4-93183-S,4-100877-S,4-103834-S,4-107574-S,4-125498-S,4-136454-S,4-138501-S,5-3191-S,5-17619-S,5-20478-S,5-29499-S,5-32920-S,5-36586-S,5-40755-S,5-51956-S,5-55862-S,5-69046-S,5-86541-S,5-103015-S,5-103110-S,5-157080-S,5-159254-S,5-161118-S,5-161706-S,5-163800-S,5-185476-S,5-190302-S,5-193848-S,5-200910-S,5-206743-S,5-207549-S,5-213196-S,5-213749-S,6-0-S,6-7719-S,6-9921-S,6-19268-S,6-31710-S,6-36086-S,6-36974-S,6-37422-S,6-51968-S,6-52880-S,6-61045-S,6-63509-S,6-66152-S,6-67165-S,6-69830-S,6-75903-S,6-88127-S,6-93297-S,6-98926-S,6-102669-S,6-107422-S,6-112596-S,6-116910-S,6-146667-S,7-10099-S,7-25024-S,7-26512-S,7-28601-S,7-46896-S,7-52432-S,7-52595-S,7-58194-S,7-65474-S,7-94851-S,7-116506-S,7-130078-S,7-142495-S,7-148694-S,7-149224-S,7-155779-S,8-0-S,8-7775-S,8-26363-S,8-111602-S,8-127127-S,8-127267-S,8-133307-S,8-140804-S,8-145706-S,8-156112-S,8-162253-S,8-165693-S,8-170900-S,8-181394-S,8-201923-S,9-17510-S,9-23898-S,9-31408-S,9-40856-S,9-47487-S,9-113946-S,9-127006-S,9-127148-S,9-137220-S,9-145190-S,9-155098-S,9-164964-S,9-166917-S,10-3459-S,10-10048-S,10-10806-S,10-11311-S,10-49303-S,10-62900-S,10-67398-S,10-69595-S,10-71489-S,10-74546-S,10-77489-S,10-77547-S,10-84889-S,10-90898-S,10-99649-S,10-99766-S,11-10024-S,11-38407-S,11-46599-S,11-64335-S,11-70340-S,11-70518-S,11-83303-S,11-96488-S,11-101395-S,11-116927-S,11-120138-S,11-121385-S,11-129659-S,11-139162-S,11-168827-S,12-17267-S,12-19382-S,12-22078-S,12-24759-S,12-25702-S,12-30563-S,12-39102-S,12-40602-S,12-43013-S,12-46602-S,12-48534-S,12-69099-S,12-79243-S,12-87887-S,12-92446-S,13-0-S,13-3682-S,13-12604-S,13-19886-S,13-54276-S,13-60304-S,13-66884-S,13-77140-S,13-78033-S,13-78260-S,13-91713-S,13-100205-S,13-104182-S,13-105690-S,13-115512-S,14-3291-S,14-5852-S,14-14689-S,14-16197-S,14-23852-S,14-23947-S,14-45432-S,14-78694-S,15-625-S,15-3404-S,15-59696-S,15-76948-S,15-84152-S,16-801-S,16-20006-S,16-25809-S,16-27593-S,16-29134-S,16-39804-S,16-65280-S,16-70992-S,16-73540-S,16-74133-S,16-98660-S,16-115070-S,17-2389-S,17-18580-S,17-40215-S,17-44393-S,17-70471-S,17-79436-S,17-86606-S,17-88832-S,17-102810-S,17-102941-S,17-107958-S,17-127864-S,17-136924-S,17-139776-S,17-140977-S,17-146194-S,17-148691-S,17-160541-S,17-173326-S,17-179000-S,17-189701-S,17-211405-S,17-213690-S,18-22694-S,18-40959-S,18-44647-S,18-44926-S,18-63411-S,18-95647-S,19-22773-S,19-43879-S,19-48590-S,19-52985-S,19-62848-S,19-65264-S,19-77790-S,19-112195-S,19-120953-S,19-126075-S,19-133175-S,20-0-S,20-5914-S,20-13949-S,20-15315-S,20-27349-S,20-30840-S,20-37317-S,20-39723-S,20-43686-S,20-45077-S,20-45493-S,20-53434-S,20-78107-S,20-94406-S,20-122024-S,20-133247-S,20-155097-S,20-169277-S,21-1668-S,21-7934-S,21-20228-S,21-23159-S,21-58186-S,21-62595-S,21-72245-S,21-74183-S,21-87652-S,21-96857-S,21-111822-S,21-121232-S,21-132220-S,22-38853-S,22-43591-S,22-55023-S,22-58980-S,22-64747-S,22-66339-S,22-71986-S,22-83034-S,22-101073-S,22-123582-S,22-135615-S,23-5089-S,23-13762-S,23-27190-S,23-34154-S,23-34540-S,23-36051-S,23-55823-S,23-67437-S,23-69193-S,23-87226-S,23-126013-S,23-126820-S,23-133329-S,23-136160-S,23-138701-S,23-146801-S,23-149816-S,23-151074-S,24-6466-S,24-8695-S,24-16320-S,24-17149-S,24-20129-S,24-23428-S,24-91235-S,24-95987-S,24-121127-S,24-126862-S,24-134514-S,24-137248-S,24-144998-S,24-146400-S,25-37536-S,25-45069-S,25-61051-S,25-124309-S,25-126001-S,25-144705-S,25-196380-S,25-204952-S,26-33817-S,26-67002-S,26-79123-S,26-101443-S,26-103916-S,26-107549-S,26-146772-S,26-152164-S,26-158922-S,26-162101-S,26-162844-S,26-163857-S,26-168019-S,26-182324-S,26-186109-S,27-5366-S,27-6880-S,27-58857-S,27-68096-S,27-90395-S,27-90480-S,27-107177-S,28-15787-S,28-30440-S,28-38683-S,28-39895-S,28-48964-S,28-78807-S,28-90100-S,28-93079-S,28-99825-S,28-104663-S,28-126657-S,28-131776-S,29-29101-S,29-35097-S,29-52161-S,29-77374-S,29-86513-S,29-88847-S,29-92521-S,29-113509-S,29-120643-S,29-130652-S,30-0-S,30-3428-S,30-13374-S,30-13494-S,30-25458-S,30-65147-S,30-70831-S,30-109140-S,31-26270-S,31-32899-S,31-34448-S,31-35703-S,31-52718-S,31-144419-S,32-75512-S,32-75798-S,32-123785-S,33-4740-S,33-12366-S,33-56119-S,33-78293-S,33-78701-S,33-78894-S,33-84876-S,33-85115-S,33-85249-S,33-87071-S,33-87818-S,33-87949-S,33-89132-S,33-91448-S,33-131933-S,33-137265-S,34-2439-S,34-5651-S,34-6188-S,34-6655-S,34-7582-S,34-8837-S,34-15934-S,34-18703-S,34-29172-S,34-29709-S,34-33120-S,34-33318-S,34-33495-S,34-40108-S,34-50166-S,34-60773-S,34-73859-S,34-74350-S,34-74540-S,34-75051-S,34-76707-S,34-79878-S,34-82320-S,34-82905-S,34-86162-S,34-88746-S,34-89543-S,34-89763-S,34-91828-S,35-1483-S,35-12348-S,35-20322-S,35-28074-S,35-34974-S,35-35468-S,35-35772-S,35-35861-S,35-63375-S,35-86610-S,36-7296-S,36-13178-S,36-14703-S,36-30787-S,36-44305-S,36-46489-S,36-64753-S,36-70587-S,36-77918-S,36-84682-S,36-101902-S,36-108681-S,37-1680-S,37-21486-S,37-27301-S,37-92031-S,37-92545-S,37-105748-S,37-126272-S,37-136230-S,37-162551-S,37-162782-S,38-5184-S,38-5268-S,38-19608-S,38-21632-S,38-24784-S,38-24878-S,38-39995-S,38-43844-S,38-51561-S,38-52519-S,38-95938-S,38-97143-S,38-108694-S,38-122025-S,38-158374-S,39-29100-S,39-35786-S,39-47927-S,39-56724-S,39-63678-S,39-66427-S,39-76600-S,39-80170-S,39-103093-S,39-103351-S,39-121120-S,40-20765-S,40-30677-S,40-50485-S,40-52249-S,40-54931-S,40-125789-S,40-128539-S,40-131109-S,40-150833-S,40-154997-S,41-184-S,41-1653-S,41-10058-S,41-12229-S,41-24743-S,41-33331-S,41-56217-S,41-57384-S,41-63788-S,41-70956-S,41-85194-S,41-90895-S,41-108867-S,41-109300-S,41-111101-S,41-123309-S,41-123432-S,42-0-S,42-18666-S,42-21845-S,42-30850-S,42-50848-S,42-52264-S,42-55464-S,42-69289-S,42-90195-S,42-110825-S,42-116425-S,42-125472-S,42-127223-S,42-135971-S,43-5812-S,43-27450-S,43-41086-S,43-44981-S,43-60726-S,43-68923-S,43-82525-S,43-90074-S,43-96088-S,43-119571-S,43-127151-S,44-3673-S,44-10329-S,44-18165-S,44-37339-S,44-54983-S,44-62575-S,44-71133-S,44-79551-S,44-88135-S,44-91747-S,44-117166-S,44-124356-S,45-10080-S,45-35874-S,45-36018-S,45-36190-S,45-50671-S,45-56157-S,45-62017-S,45-69468-S,45-88155-S,45-96103-S,45-96790-S,45-97879-S,46-4603-S,46-9336-S,46-10342-S,46-17042-S,46-57695-S,46-58048-S,46-66026-S,46-83024-S,46-140959-S,47-15154-S,47-38107-S,47-52591-S,47-74181-S,47-85195-S,47-108111-S,47-112760-S,48-4509-S,48-13397-S,48-17663-S,48-29312-S,48-70508-S,48-76503-S,48-88399-S,48-89385-S,48-103492-S,48-111774-S,49-1739-S,49-6461-S,49-9376-S,49-17856-S,49-43740-S,49-45651-S,49-49782-S,49-55809-S,49-55916-S,49-75174-S,49-84385-S,50-1649-S,50-7491-S,50-9229-S,50-9321-S,50-23677-S,50-25824-S,50-56176-S,50-58542-S,50-59684-S,50-60712-S,50-67912-S,50-70419-S,50-90683-S,50-91869-S,50-97507-S,51-6749-S,51-37499-S,51-46258-S,51-48974-S,51-70715-S,51-76528-S,51-83906-S,51-96894-S,51-99143-S,51-117529-S,52-5131-S,52-7909-S,52-29395-S,52-31381-S,52-42103-S,52-42261-S,52-42760-S,52-43166-S,52-47632-S,52-54039-S,52-63205-S,52-65859-S,52-81629-S,52-83574-S,52-83684-S,52-83767-S,52-87020-S,52-103543-S,52-118838-S,53-15880-S,53-20882-S,53-20986-S,53-34186-S,53-35867-S,53-36751-S,53-37896-S,53-50720-S,53-61619-S,53-61953-S,53-67818-S,53-70289-S,53-81314-S,53-81628-S,53-82491-S,54-7579-S,54-18649-S,54-20351-S,54-24701-S,54-62463-S,54-89580-S,54-95117-S,54-123542-S,55-7669-S,55-46793-S,55-51771-S,55-60785-S,55-99625-S,55-119167-S,56-3888-S,56-7130-S,56-14124-S,56-46271-S,56-52255-S,56-59241-S,56-88105-S,56-91179-S,56-101018-S,56-105573-S,57-21074-S,57-33950-S,57-34100-S,57-82341-S,57-92201-S,57-110152-S,57-129191-S,57-140939-S,57-158097-S,57-158207-S,57-182100-S,58-3903-S,58-5727-S,58-30150-S,58-49359-S,58-70669-S,58-82732-S,58-93788-S,58-122308-S,58-122406-S,58-154332-S,59-19885-S,59-27841-S,59-55593-S,59-82414-S,59-84876-S,59-94727-S,59-95308-S,59-139290-S,59-166844-S,59-182056-S,59-214136-S,59-214252-S,59-215296-S,59-218795-S,60-40247-S,60-46332-S,60-57437-S,60-63075-S,60-63758-S,60-64591-S,60-75521-S,60-87067-S,60-89106-S,60-90855-S,60-133832-S,60-164992-S,60-183838-S,60-210404-S,60-224254-S,60-229084-S,61-1921-S,61-38185-S,61-67054-S,61-83813-S,61-126691-S,61-129647-S,61-136154-S,61-155620-S,61-173088-S,62-16670-S,62-122206-S,62-189635-S,62-213858-S,62-229046-S,62-232256-S,62-232477-S,62-251797-S,63-2902-S,63-10294-S,63-31564-S,63-38175-S,63-43592-S,63-49859-S,63-58780-S,63-69051-S,63-69222-S,63-69335-S,64-18261-S,64-68780-S,64-74517-S,64-79945-S,64-84013-S,65-13850-S,65-53111-S,65-61342-S,65-63984-S,65-122624-S,65-137815-S,66-4804-S,66-7377-S,66-14364-S,66-24637-S,66-28917-S,66-29035-S,66-41562-S,66-47351-S,66-47624-S,66-70115-S,66-111257-S,66-112508-S,66-113686-S,66-116091-S,66-124651-S,67-11170-S,67-23801-S,67-30889-S,67-46087-S,67-82120-S,67-91852-S,67-118881-S,67-122816-S,67-127095-S,67-128998-S,67-149165-S,68-3818-S,68-4969-S,68-7124-S,68-9219-S,68-10038-S,68-10306-S,68-45844-S,68-53805-S,68-77459-S,68-79475-S,68-101888-S,68-102066-S,68-107672-S,68-135137-S,68-135368-S,68-146036-S,69-447-S,69-13677-S,69-18820-S,69-21553-S,69-23087-S,69-26503-S,69-52188-S,69-64672-S,69-65881-S,70-60563-S,70-60884-S,70-70087-S,70-75983-S,70-96231-S,70-120867-S,70-146660-S,70-175419-S,70-184370-S,70-189522-S,70-192532-S,71-5466-S,71-26978-S,71-36842-S,71-56697-S,71-56892-S,71-64313-S,71-66323-S,71-78803-S,71-110874-S,71-125142-S,71-127887-S,72-0-S,72-111-S,72-41605-S,72-59896-S,72-109458-S,72-176350-S,72-178810-S,72-183901-S,72-189913-S,72-242386-S,72-257742-S,72-273085-S,72-278257-S,73-0-S,73-11642-S,73-12892-S,73-13406-S,73-17562-S,73-23209-S,73-26667-S,73-31389-S,73-52858-S,73-75062-S,73-139423-S,73-144606-S,73-183608-S,73-186709-S,73-188158-S,73-193909-S,73-212736-S,73-224955-S,74-14252-S,74-58464-S,74-58715-S,74-78100-S,74-89514-S,74-94677-S,74-119147-S,74-123458-S,74-153784-S,74-160461-S,74-160738-S,74-160922-S,74-174805-S,74-195570-S,74-200965-S,75-13313-S,75-19924-S,75-24994-S,75-49359-S,75-60051-S,75-64639-S,75-87651-S,75-96308-S,75-99328-S,75-101883-S,75-103897-S,75-105676-S,75-109217-S,75-122481-S,75-135641-S,75-148977-S,75-172207-S,75-184426-S,76-44265-S,76-76135-S,76-133390-S,76-163536-S,76-184221-S,76-184602-S,76-192706-S,76-222615-S,76-223400-S,76-239064-S,76-255780-S,76-256158-S,76-265744-S,76-268540-S,76-272037-S,76-274052-S,76-290884-S,77-28451-S,77-35034-S,77-69171-S,77-87191-S,77-93119-S,77-129716-S,77-146576-S,77-186540-S,77-190154-S,77-195978-S,77-208882-S,77-209828-S,77-249396-S,77-254604-S,77-266289-S,78-3909-S,78-4316-S,78-4738-S,78-11110-S,78-11694-S,78-12415-S,78-15368-S,78-16105-S,78-19825-S,78-24531-S,78-28893-S,78-32735-S,78-32924-S,78-33672-S,78-38486-S,78-39468-S,78-40088-S,78-42182-S,78-45938-S,78-47908-S,78-48092-S,78-50550-S,78-53005-S,78-56900-S,78-59644-S,79-3271-S,79-16648-S,79-19733-S,79-20164-S,79-30115-S,79-35629-S,79-47383-S,79-47480-S,79-52977-S,79-54885-S,79-56195-S,79-60709-S,79-88857-S,79-90500-S,79-109337-S,79-114983-S,80-2833-S,80-11413-S,80-14353-S,80-18277-S,80-108746-S,80-123398-S,80-125239-S,80-126258-S,80-127997-S,80-130600-S,80-137637-S,80-140558-S,80-145671-S,80-165309-S,81-0-S,81-28241-S,81-52663-S,81-72330-S,81-74276-S,81-74710-S,81-85047-S,81-121206-S,81-128986-S,81-143316-S,81-143591-S,81-143751-S,81-147506-S,82-45289-S,82-56860-S,82-57011-S,82-57121-S,82-60392-S,82-63232-S,82-77314-S,82-149859-S,82-150145-S,82-153612-S,82-154524-S,82-173931-S,83-7062-S,83-35872-S,83-47035-S,83-47516-S,83-59601-S,83-60276-S,83-69247-S,83-77909-S,83-92351-S,83-93062-S,84-38789-S,84-53557-S,84-63249-S,84-131444-S,84-139611-S,84-224049-S,84-243695-S,84-260010-S,84-260206-S,84-264637-S,84-269353-S,85-17157-S,85-29966-S,85-107113-S,85-127580-S,85-186498-S,85-187272-S,85-187906-S,85-193120-S,85-217080-S,85-239352-S,85-265206-S,86-24132-S,86-90891-S,86-93536-S,86-101671-S,86-103219-S,86-130125-S,86-172521-S,87-9527-S,87-33879-S,87-34456-S,87-34614-S,87-43747-S,87-50026-S,87-68528-S,87-82081-S,87-96791-S,87-119977-S,88-12399-S,88-39677-S,88-41037-S,88-56090-S,88-60901-S,88-75000-S,88-75532-S,88-101493-S,88-151873-S,88-165003-S,89-12934-S,89-21514-S,89-21687-S,89-23224-S,89-30185-S,89-58850-S,89-118170-S,89-140062-S,89-143827-S,90-48244-S,90-65618-S,90-66556-S,90-71189-S,90-73145-S,90-73414-S,90-76037-S,90-79967-S,90-82981-S,90-93378-S,90-102925-S,90-107634-S,90-118844-S,90-121008-S,90-122207-S,90-124406-S,90-125197-S,91-34821-S,91-58586-S,91-73063-S,91-73150-S,91-103580-S,91-117446-S,91-135588-S,91-137447-S,91-137616-S,91-149600-S,91-151616-S,91-160240-S,91-160599-S,91-163417-S,92-48508-S,92-49092-S,92-49285-S,92-49624-S,92-50544-S,92-55685-S,92-62115-S,92-62596-S,92-62916-S,92-67091-S,92-74479-S,92-79571-S,92-87631-S,92-89125-S,93-9408-S,93-18632-S,93-31489-S,93-49711-S,93-52415-S,93-73146-S,93-91622-S,94-434-S,94-3939-S,94-9863-S,94-10483-S,94-20655-S,94-43000-S,94-47827-S,94-49902-S,94-60269-S,94-67919-S,94-91606-S,95-2035-S,95-10169-S,95-10950-S,95-25137-S,95-36300-S,95-37733-S,95-69714-S,95-77926-S,95-78754-S,95-124175-S,95-136564-S,95-145347-S,96-2272-S,96-6110-S,96-153466-S,96-154033-S,96-168817-S,96-202331-S,96-232685-S,96-260487-S,96-283920-S,96-315362-S,96-318231-S,96-322491-S,97-34032-S,97-80418-S,97-84964-S,97-86140-S,97-87436-S,97-98205-S,97-103841-S,97-120198-S,97-125934-S,97-127393-S,97-127632-S,97-128685-S,97-130259-S,97-165201-S,97-175898-S,97-185240-S,97-215766-S,98-19008-S,98-66807-S,98-114598-S,98-175198-S,98-190865-S,98-191623-S,98-193076-S,98-201662-S,98-208565-S,99-0-S,99-23307-S,99-26673-S,99-49366-S,99-93460-S,99-114277-S,99-115559-S,99-120939-S,99-130536-S,99-139207-S,99-144626-S,100-11173-S,100-11644-S,100-12644-S,100-12879-S,100-13026-S,100-13281-S,100-13785-S,100-36226-S,100-43328-S,100-46013-S,100-47303-S,100-56058-S,100-57939-S,100-72845-S,100-73221-S,100-76234-S,100-76364-S,100-80909-S,100-88402-S,101-7572-S,101-7877-S,101-8084-S,101-8888-S,101-12762-S,101-12933-S,101-77346-S,101-88959-S,101-105608-S,101-110602-S,101-144608-S,101-151301-S,101-162986-S,101-167842-S,101-180192-S,101-195190-S,101-224253-S,102-3935-S,102-28530-S,102-32952-S,102-53526-S,102-53855-S,102-82670-S,102-93995-S,102-97919-S,102-117257-S,102-121839-S,102-124540-S,102-124883-S,102-129562-S,102-142847-S,102-160162-S,102-187874-S,103-1609-S,103-6445-S,103-14622-S,103-15241-S,103-17929-S,103-43320-S,103-67402-S,103-75270-S,103-77469-S,103-95401-S,103-135857-S,103-170828-S,104-17468-S,104-41647-S,104-45731-S,104-67257-S,104-84676-S,104-110007-S,104-180716-S,104-210048-S,104-216527-S,104-241626-S,104-245517-S,105-3900-S,105-10381-S,105-57268-S,105-80166-S,105-163944-S,105-173450-S,105-188079-S,105-191873-S,106-24057-S,106-47552-S,106-64982-S,106-132142-S,106-133028-S,106-134296-S,107-0-S,107-1457-S,107-20413-S,107-21244-S,107-24430-S,107-70703-S,107-109395-S,107-115358-S,107-116124-S,107-116342-S,107-117679-S,107-118370-S,108-1323-S,108-2890-S,108-5731-S,108-8624-S,108-10598-S,108-30645-S,108-35095-S,108-42675-S,108-56908-S,108-61073-S,108-62131-S,108-64119-S,108-66164-S,108-66262-S,108-84175-S,108-88142-S,108-94568-S,108-94813-S,108-95967-S,108-100127-S,108-101875-S,108-102306-S,108-104299-S,108-106014-S,108-110681-S,108-111047-S,108-113175-S,108-114414-S,108-116409-S,108-118992-S,108-127660-S,108-132519-S,108-134991-S,108-137553-S,108-140734-S,109-296-S,109-1403-S,109-3274-S,109-11445-S,109-12434-S,109-13545-S,109-15456-S,109-21422-S,109-26434-S,109-28193-S,109-28674-S,109-30609-S,109-34095-S,109-37790-S,109-39481-S,109-42137-S,109-56076-S,109-69014-S,109-86777-S,109-90715-S,109-96168-S,109-99994-S,109-105705-S,110-4066-S,110-10864-S,110-13434-S,110-27389-S,110-36434-S,110-48123-S,110-57784-S,110-58822-S,110-76158-S,110-90680-S,110-94391-S,110-114085-S,110-119649-S,110-123713-S,110-127348-S,110-133176-S,110-134216-S,110-134386-S,110-137609-S,110-142101-S,110-148610-S,110-152081-S,110-156054-S,110-168239-S,110-172651-S,110-173751-S,110-173913-S,110-178094-S,111-5568-S,111-11182-S,111-12465-S,111-15486-S,111-22439-S,111-30645-S,111-33268-S,111-36353-S,111-37699-S,111-74236-S,111-92842-S,111-94619-S,111-100638-S,111-105686-S,111-105768-S,111-108777-S,111-114102-S,111-118421-S,111-119567-S,111-122584-S,111-128132-S,111-137787-S,111-157362-S,111-160722-S,111-161866-S,111-165737-S,112-41027-S,112-110249-S,112-114794-S,112-117319-S,112-127086-S,112-144687-S,112-152230-S,112-152472-S,112-164003-S,112-166049-S,112-168630-S,112-174095-S,112-177265-S,112-182102-S,112-187503-S,112-190515-S,112-191768-S,112-192630-S,112-194296-S,112-198214-S,112-199765-S,112-208093-S,113-10795-S,113-16852-S,113-17924-S,113-27046-S,113-30193-S,113-33586-S,113-34326-S,113-37228-S,113-38978-S,113-46772-S,113-48619-S,113-67596-S,113-78832-S,113-79307-S,113-80827-S,113-84826-S,113-88102-S,113-91443-S,113-96797-S,113-96891-S,113-97432-S,113-102249-S,113-112008-S,113-113465-S,113-122907-S,113-125658-S,113-127222-S,113-128023-S,113-129457-S,113-133693-S,113-141173-S,114-5535-S,114-6696-S,114-6786-S,114-13533-S,114-16715-S,114-25028-S,114-28532-S,114-31900-S,114-35594-S,114-36875-S,114-39713-S,114-47279-S,114-48452-S,114-58252-S,114-58882-S,114-84157-S,114-100996-S,114-113001-S,114-113252-S,114-125924-S,114-126558-S,114-130242-S,114-138647-S,114-149249-S,114-150673-S,114-151452-S,114-154598-S,114-160949-S,114-163653-S,114-170080-S,114-170770-S,115-0-S,115-2384-S,115-4461-S,115-7358-S,115-14235-S,115-34602-S,115-42295-S,115-50929-S,115-86505-S,115-86642-S,115-88651-S,115-89734-S,115-97505-S,115-98657-S,115-100856-S,115-117567-S,115-119985-S,115-120967-S,115-124400-S,115-128474-S,115-133975-S,115-134291-S,115-140617-S,115-142140-S,115-147071-S,115-150891-S,115-159642-S,115-161321-S,115-166033-S,116-854-S,116-3792-S,116-9492-S,116-10107-S,116-12136-S,116-13919-S,116-16080-S,116-21449-S,116-40149-S,116-42783-S,116-43109-S,116-43345-S,116-44058-S,116-46921-S,116-50924-S,116-53823-S,116-88113-S,116-93031-S,116-93788-S,116-96400-S,116-98954-S,116-99116-S,116-100509-S,116-111765-S,116-113649-S,116-117576-S,116-133381-S,116-135213-S,116-135308-S,116-140771-S,116-148117-S,116-149770-S,116-156386-S,116-169572-S,117-16106-S,117-17042-S,117-17156-S,117-19942-S,117-20366-S,117-40470-S,117-50120-S,117-63785-S,117-69733-S,117-69994-S,117-74882-S,117-79364-S,117-82314-S,117-85062-S,117-90478-S,117-106118-S,117-108320-S,117-118788-S,117-121292-S,117-131364-S,117-133128-S,117-134113-S,117-134891-S,117-137528-S,117-154899-S,117-168523-S,118-1744-S,118-3936-S,118-8831-S,118-16006-S,118-21437-S,118-23335-S,118-26848-S,118-27741-S,118-30557-S,118-31477-S,118-32492-S,118-34382-S,118-35551-S,118-42711-S,118-43927-S,118-48510-S,118-51486-S,118-54717-S,118-56380-S,118-56766-S,118-59131-S,118-62548-S,118-64086-S,118-64730-S,118-67335-S,118-74240-S,118-81256-S,118-83916-S,118-103547-S,119-5107-S,119-6613-S,119-7734-S,119-9266-S,119-10866-S,119-15922-S,119-16113-S,119-17174-S,119-22125-S,119-24535-S,119-26829-S,119-29825-S,119-32059-S,119-38162-S,119-40212-S,119-41374-S,119-41675-S,119-42136-S,119-44996-S,119-48852-S,119-67196-S,119-84294-S,119-92826-S,119-94345-S,119-94474-S,119-97742-S,119-109709-S,119-111857-S,119-115981-S,119-121125-S,120-1260-S,120-3065-S,120-4605-S,120-7406-S,120-27616-S,120-35580-S,120-36774-S,120-41244-S,120-43454-S,120-52828-S,120-56628-S,120-59034-S,120-67985-S,120-69767-S,120-74151-S,120-75582-S,120-84270-S,120-85818-S,120-98622-S,120-98751-S,120-113067-S,120-115282-S,120-120268-S,120-133928-S,120-149457-S,120-158412-S,120-166209-S,120-168115-S,120-168894-S,120-169010-S,121-4127-S,121-7055-S,121-8767-S,121-29435-S,121-37543-S,121-37701-S,121-42407-S,121-47393-S,121-47522-S,121-65626-S,121-66647-S,121-70543-S,121-82458-S,121-85269-S,121-90590-S,121-90796-S,121-93083-S,121-104961-S,121-106390-S,121-108384-S,121-113505-S,121-122195-S,121-126819-S,121-127284-S,121-128292-S,121-131406-S,121-151688-S,121-174565-S,121-178677-S,122-60951-S,122-81180-S,122-84299-S,122-89779-S,122-90782-S,122-98903-S,122-121301-S,122-134130-S,122-134298-S,122-134740-S,122-135767-S,122-140690-S,122-148367-S,122-168139-S,122-172676-S,122-178523-S,122-186388-S,123-10127-S,123-15215-S,123-18864-S,123-19266-S,123-20562-S,123-28722-S,123-39864-S,123-47312-S,123-52679-S,123-55729-S,123-63891-S,123-64018-S,123-67381-S,123-77561-S,123-81642-S,123-82726-S,123-90052-S,123-91294-S,123-94562-S,123-97352-S,123-98413-S,123-102015-S,123-102290-S,123-106696-S,124-344-S,124-2445-S,124-6342-S,124-7535-S,124-10047-S,124-12719-S,124-19727-S,124-20406-S,124-21362-S,124-22550-S,124-28134-S,124-34743-S,124-37416-S,124-37739-S,124-38625-S,124-45010-S,124-48702-S,124-52472-S,124-53403-S,124-54769-S,124-56197-S,124-57297-S,124-60932-S,124-61030-S,124-63923-S,124-65299-S,124-66115-S,124-66214-S,124-66611-S,124-68325-S,124-69862-S,124-71456-S,124-75590-S,124-78522-S,124-78639-S,124-80024-S,124-80939-S,124-81190-S,124-82604-S,124-83962-S,125-4767-S,125-6160-S,125-9291-S,125-13328-S,125-15572-S,125-16577-S,125-17568-S,125-19564-S,125-23801-S,125-25569-S,125-43686-S,125-47880-S,125-48277-S,125-49279-S,125-70653-S,125-73171-S,125-78022-S,125-81539-S,125-92179-S,125-94137-S,125-94259-S,125-121697-S,125-126254-S,125-127264-S,125-128734-S,125-141091-S,125-149035-S,125-159866-S,125-169096-S,125-182996-S,125-188597-S,126-1987-S,126-3185-S,126-5997-S,126-7666-S,126-12309-S,126-12848-S,126-16274-S,126-17996-S,126-20280-S,126-24224-S,126-25198-S,126-26567-S,126-28145-S,126-30924-S,126-48073-S,126-49898-S,126-58654-S,126-60426-S,126-61652-S,126-64049-S,126-72542-S,126-74813-S,126-77214-S,126-78587-S,126-82017-S,126-91722-S,126-96094-S,126-110291-S,127-1255-S,127-2075-S,127-5050-S,127-13459-S,127-31463-S,127-36099-S,127-41075-S,127-46601-S,127-49934-S,127-52429-S,127-52879-S,127-53247-S,127-54056-S,127-54738-S,127-61196-S,127-63744-S,127-66417-S,127-67765-S,127-69126-S,127-71792-S,127-74027-S,127-77309-S,127-81161-S,127-95233-S,127-95650-S,127-100771-S,128-152-S,128-28075-S,128-29507-S,128-32198-S,128-67641-S,128-69559-S,128-70366-S,128-71317-S,128-84336-S,128-88057-S,128-99262-S,128-107363-S,128-125233-S,128-141054-S,128-145361-S,128-154165-S,128-157445-S,128-161996-S,128-169463-S,128-191419-S,128-198081-S,128-200167-S,128-212224-S,128-212707-S,128-216999-S,128-221837-S,128-222404-S,128-231271-S,128-233064-S,128-236104-S,128-242606-S,128-244530-S,129-2906-S,129-13405-S,129-14438-S,129-17230-S,129-22124-S,129-22285-S,129-23774-S,129-24268-S,129-25312-S,129-26053-S,129-28009-S,129-28392-S,129-29091-S,129-29211-S,129-33004-S,129-35222-S,129-36254-S,129-36346-S,129-43591-S,129-49816-S,129-50744-S,129-51139-S,129-53674-S,129-55346-S,129-57662-S,129-61286-S,129-61729-S,129-64983-S,129-78698-S,129-81691-S,129-82689-S,129-87966-S,129-90341-S,129-121835-S,129-129922-S,129-140207-S,130-3220-S,130-10042-S,130-16723-S,130-16916-S,130-19952-S,130-21471-S,130-36021-S,130-37503-S,130-38349-S,130-40744-S,130-44959-S,130-46146-S,130-47690-S,130-49767-S,130-54383-S,130-80875-S,130-81418-S,130-94392-S,130-96852-S,130-97010-S,130-108451-S,130-111561-S,130-116101-S,130-117443-S,130-118701-S,130-129371-S,130-131831-S,130-137113-S,130-145545-S,130-150528-S,130-205987-S,130-212405-S,131-5101-S,131-18495-S,131-21475-S,131-28098-S,131-28206-S,131-30683-S,131-34493-S,131-41546-S,131-74018-S,131-78392-S,131-83412-S,131-84557-S,131-102601-S,131-114957-S,132-16730-S,132-30676-S,132-32780-S,132-47764-S,132-58371-S,132-63594-S,132-66520-S,132-67869-S,132-77902-S,132-80137-S,133-7999-S,133-9702-S,133-23640-S,133-24935-S,133-32147-S,133-38238-S,133-45949-S,133-64900-S,133-72844-S,133-75836-S,133-75923-S,133-111045-S,133-117387-S,133-124422-S,133-124636-S,133-127137-S,133-127628-S,133-131376-S,133-131810-S,133-141136-S,133-144438-S,133-155611-S,133-170761-S,133-183285-S,134-20274-S,134-26964-S,134-53175-S,134-77982-S,134-82919-S,134-87686-S,134-100416-S,134-110125-S,134-118140-S,135-4332-S,135-66144-S,135-89952-S,135-97909-S,135-101803-S,135-111855-S,135-115520-S,135-127658-S,135-144431-S,135-144986-S,135-155495-S,135-155930-S,135-157757-S,135-165259-S,135-174661-S,135-182732-S,135-182978-S,136-17403-S,136-35446-S,136-36123-S,136-42941-S,136-45747-S,136-46461-S,136-54382-S,137-1646-S,137-17012-S,137-18694-S,137-24765-S,137-34259-S,137-36769-S,137-38675-S,137-39986-S,137-66995-S,137-83031-S,137-96966-S,137-101911-S,137-103873-S,137-110935-S,137-127256-S,137-138496-S,137-161761-S,137-181127-S,137-185363-S,137-191678-S,137-195893-S,137-200703-S,137-205999-S,137-207147-S,137-208715-S,138-689-S,138-7413-S,138-19617-S,138-28902-S,138-37311-S,138-44570-S,138-59551-S,138-60868-S,138-74520-S,138-86574-S,138-90264-S,138-100598-S,138-117979-S,138-136230-S,138-138013-S,138-147075-S,138-149133-S,138-166284-S,138-179033-S,138-184862-S,139-0-S,139-1953-S,139-6524-S,139-8396-S,139-20790-S,139-32779-S,139-35202-S,139-38988-S,139-39212-S,139-42431-S,139-49521-S,139-74483-S,139-102025-S,139-112437-S,139-122077-S,139-139391-S,139-160920-S,139-183825-S,140-0-S,140-28489-S,140-28665-S,140-53483-S,140-230576-S,140-312607-S,140-317001-S,140-319649-S,140-326462-S,140-354766-S,140-365193-S,141-37828-S,141-77669-S,141-81217-S,141-83711-S,141-90407-S,141-99586-S,141-105595-S,141-106614-S,141-106872-S,141-141280-S,141-163170-S,142-5164-S,142-25345-S,142-103206-S,142-103963-S,142-135087-S,142-143253-S,142-192990-S,142-204842-S,142-220993-S,142-249521-S,142-250277-S,142-277898-S,142-305819-S,143-15504-S,143-22330-S,143-38601-S,143-42087-S,143-46905-S,143-49174-S,143-143351-S,143-148745-S,143-157891-S,143-167515-S,143-177818-S,143-183305-S,143-194715-S,143-196545-S,144-13889-S,144-20706-S,144-42073-S,144-86279-S,144-89976-S,144-195115-S,144-210481-S,144-211503-S,144-267599-S,145-36771-S,145-48234-S,145-50758-S,145-60769-S,145-67425-S,145-73002-S,145-91721-S,145-105492-S,145-121366-S,145-121886-S,145-123720-S,145-150300-S,145-188412-S,146-5036-S,146-20045-S,146-21627-S,146-44449-S,146-48118-S,146-86800-S,146-91218-S,146-105852-S,146-106393-S,146-123655-S,146-166194-S,147-0-S,147-67975-S,147-83012-S,147-84246-S,147-89426-S,147-100362-S,147-115794-S,147-116519-S,147-203597-S,147-240867-S,147-282752-S,148-3877-S,148-39942-S,148-43082-S,148-47320-S,148-51680-S,148-117381-S,148-117779-S,148-118199-S,148-185362-S,148-221041-S,148-230839-S,148-250851-S,148-278313-S,148-299384-S,148-313964-S,149-23033-S,149-53150-S,149-75378-S,149-90258-S,149-94949-S,149-156270-S,149-176584-S,149-186547-S,149-189123-S,149-203660-S,149-208167-S,149-210189-S,150-1128-S,150-1370-S,150-4193-S,150-50573-S,150-57511-S,150-89165-S,150-115891-S,150-116965-S,150-129255-S,150-129668-S,150-142002-S,150-152416-S,150-169372-S,150-169454-S,150-181711-S,150-191000-S,151-29615-S,151-29770-S,151-49504-S,151-58242-S,151-112843-S,151-130389-S,151-143275-S,151-173206-S,151-185256-S,151-188815-S,151-221291-S,152-111-S,152-3119-S,152-8890-S,152-50102-S,152-58112-S,152-65449-S,152-65724-S,152-66590-S,152-77496-S,152-108028-S,152-137684-S,152-141241-S,152-141669-S,152-159609-S,153-0-S,153-10622-S,153-39305-S,153-49804-S,153-56200-S,153-56677-S,153-56917-S,153-78553-S,153-96588-S,153-123765-S,153-128718-S,153-131225-S,153-146680-S,153-160222-S,154-1090-S,154-13512-S,154-15703-S,154-32898-S,154-54874-S,154-60244-S,154-66506-S,154-128884-S,154-131464-S,154-192522-S,154-197304-S,155-22079-S,155-32409-S,155-35175-S,155-40719-S,155-82246-S,155-83421-S,155-90580-S,155-102921-S,156-4503-S,156-122437-S,156-135348-S,156-174598-S,156-175602-S,156-191378-S,156-197351-S,157-40797-S,157-50686-S,157-77746-S,157-84489-S,157-89584-S,157-90711-S,158-9650-S,158-15300-S,158-20959-S,158-28485-S,158-37057-S,158-48192-S,158-129784-S,158-132436-S,158-154361-S,158-156834-S,158-169377-S,159-28543-S,159-32606-S,159-61821-S,159-64725-S,159-70597-S,159-71370-S,159-97635-S,159-105883-S,159-112564-S,159-114326-S,160-1005-S,160-1177-S,160-7566-S,160-37459-S,160-49627-S,160-89218-S,160-104317-S,160-118829-S,160-119697-S,160-122635-S,161-550-S,161-11961-S,161-28881-S,161-31149-S,161-49051-S,161-77976-S,161-85439-S,161-91176-S,162-26023-S,162-37718-S,162-43053-S,162-92562-S,162-102924-S,162-132853-S,162-166662-S,162-198920-S,163-2001-S,163-8054-S,163-19213-S,163-57964-S,163-129135-S,163-140182-S,163-146527-S,163-160447-S,164-8544-S,164-28233-S,164-73287-S,164-96500-S,164-112702-S,164-115705-S,164-133041-S,164-134636-S,164-138553-S,164-162068-S,165-277-S,165-3100-S,165-17227-S,165-21298-S,165-21788-S,165-35702-S,165-44606-S,165-45341-S,165-49411-S,165-60586-S,165-70935-S,165-84354-S,165-84637-S,165-87787-S,165-87900-S,165-106108-S,165-117366-S,166-21988-S,166-37075-S,166-48437-S,166-53244-S,166-55728-S,166-117121-S,166-130570-S,166-131286-S,166-143023-S,166-158109-S,166-201260-S,166-213910-S,167-3278-S,167-38024-S,167-46665-S,167-53469-S,167-58037-S,167-62094-S,167-67866-S,167-75738-S,167-86114-S,167-95716-S,167-116968-S,167-140070-S,167-147186-S,168-13572-S,168-26267-S,168-47568-S,168-61597-S,168-67395-S,168-81541-S,168-127517-S,169-44018-S,169-65032-S,169-74540-S,169-91259-S,169-103692-S,169-140459-S,169-141534-S,169-142511-S,169-159291-S,170-18840-S,170-37842-S,170-60112-S,170-69766-S,170-78780-S,170-83059-S,170-108770-S,170-117335-S,170-127363-S,170-132786-S,170-136254-S,171-835-S,171-44916-S,171-69889-S,171-70049-S,171-70543-S,171-101638-S,171-108074-S,171-108399-S,171-130323-S,171-131142-S,171-217918-S,172-31731-S,172-34333-S,172-66380-S,172-67531-S,172-77255-S,172-85395-S,173-502-S,173-6444-S,173-81410-S,173-89849-S,173-117894-S,174-10675-S,174-47584-S,174-64772-S,174-77042-S,174-97025-S,174-105053-S,174-122674-S,174-130089-S,175-8034-S,175-28025-S,175-115629-S,175-152203-S,175-219578-S,176-2715-S,176-20981-S,176-21579-S,176-26211-S,176-35271-S,176-42212-S,176-42806-S,176-42906-S,176-43771-S,176-45958-S,176-54094-S,176-91651-S,176-126277-S,176-142986-S,177-8200-S,177-13903-S,177-19895-S,177-37908-S,177-38411-S,177-45744-S,177-46191-S,177-67430-S,177-85120-S,178-44017-S,179-5386-S,179-5839-S,179-10066-S,179-11512-S,179-16632-S,179-30559-S,179-35999-S,179-38888-S,179-50635-S,180-1298-S,180-15265-S,180-30125-S,180-42217-S,180-48760-S,180-52989-S,180-66173-S,180-77224-S,181-9760-S,181-10226-S,181-41849-S,181-53146-S,181-53444-S,181-70480-S,182-87394-S,183-25049-S,183-83451-S,183-84242-S,183-103276-S,183-104927-S,183-105170-S,183-107145-S,183-112160-S,183-121673-S,183-141144-S,183-146194-S,184-6901-S,184-7184-S,184-12681-S,184-16270-S,184-36388-S,184-36783-S,184-39933-S,184-43763-S,184-52598-S,184-54528-S,184-56729-S,184-59608-S,184-65487-S,184-70057-S,184-71872-S,184-80530-S,184-89579-S,184-101482-S,184-102557-S,184-116865-S,184-119346-S,184-119922-S,184-125093-S,184-126736-S,184-131791-S,184-131970-S,184-132133-S,184-134134-S,184-148100-S,184-150201-S,185-0-S,185-9058-S,185-9502-S,185-15190-S,185-15584-S,185-28236-S,185-28346-S,185-41746-S,185-42215-S,185-48760-S,185-52411-S,185-54407-S,185-56928-S,185-57967-S,185-85890-S,185-86996-S,185-121747-S,185-128218-S,185-151238-S,185-169791-S,185-177051-S,185-181084-S,185-186513-S,185-187477-S,185-192238-S,185-198579-S,186-0-S,186-529-S,186-1475-S,186-13081-S,186-22352-S,186-31524-S,186-43491-S,186-52815-S,186-73141-S,186-89830-S,186-90205-S,186-90355-S,186-91549-S,186-91955-S,186-96164-S,186-96696-S,186-98095-S,186-99084-S,186-99229-S,186-106711-S,186-106837-S,186-108030-S,186-109719-S,186-113364-S,187-340-S,187-4107-S,187-4675-S,187-7094-S,187-8962-S,187-10594-S,187-10743-S,187-11519-S,187-11818-S,187-14078-S,187-15822-S,187-17162-S,187-20312-S,187-22520-S,187-25100-S,187-25454-S,187-25899-S,187-26811-S,187-28183-S,187-28334-S,187-28895-S,187-29054-S,187-30516-S,187-40435-S,187-47732-S,187-58313-S,187-64036-S,187-75256-S,187-78276-S,187-88928-S,187-98801-S,187-103452-S,187-106654-S,187-125366-S,188-7489-S,188-19769-S,188-24067-S,188-29435-S,188-37459-S,188-40700-S,188-42400-S,188-54753-S,188-55873-S,188-56851-S,188-58528-S,188-72821-S,188-77952-S,188-78783-S,188-85483-S,188-85831-S,188-86042-S,188-88678-S,188-90760-S,188-95734-S,188-96085-S,188-100509-S,188-113171-S,188-118037-S,188-125410-S,188-127187-S,189-411-S,189-9230-S,189-14057-S,189-22262-S,189-24629-S,189-26550-S,189-36407-S,189-36866-S,189-38571-S,189-44492-S,189-46502-S,189-100726-S,189-112127-S,189-119262-S,189-121137-S,189-128942-S,189-131479-S,189-136777-S,189-137835-S,189-142370-S,189-147942-S,190-5584-S,190-6727-S,190-18809-S,190-56604-S,190-60810-S,190-61075-S,190-66467-S,190-67237-S,190-71411-S,190-76660-S,190-77212-S,190-77540-S,190-78571-S,190-82169-S,190-82471-S,190-82789-S,190-92971-S,190-93118-S,190-93286-S,190-93781-S,190-96178-S,190-102685-S,190-104805-S,190-106442-S,190-106527-S,190-106715-S,190-107076-S,190-107165-S,190-107387-S,190-107516-S,190-107941-S,190-115545-S,190-117501-S,190-118932-S,190-120265-S,190-120371-S,190-122811-S,190-122931-S,190-123432-S,191-1093-S,191-3944-S,191-4759-S,191-5251-S,191-7434-S,191-10270-S,191-15944-S,191-35588-S,191-37853-S,191-48249-S,191-49462-S,191-55395-S,191-58283-S,191-59089-S,191-68658-S,191-70368-S,191-102049-S,191-103139-S,191-115647-S,191-120355-S,191-124625-S,191-136990-S,191-141853-S,191-148577-S,191-151707-S,191-159314-S,192-5571-S,192-15378-S,192-15564-S,192-18263-S,192-33965-S,192-59087-S,192-59317-S,192-63104-S,192-63193-S,192-72158-S,192-73622-S,192-80424-S,192-84173-S,192-97323-S,192-103467-S,192-120222-S,192-126735-S,192-149062-S,192-150968-S,192-152013-S,192-152966-S,192-157138-S,192-157270-S,192-160189-S,193-0-S,193-6478-S,193-8181-S,193-18217-S,193-19582-S,193-25109-S,193-27631-S,193-30683-S,193-36018-S,193-52575-S,193-63284-S,193-90595-S,193-95131-S,193-102179-S,193-113362-S,193-137034-S,193-150402-S,194-7195-S,194-17051-S,194-17367-S,194-25255-S,194-32153-S,194-32857-S,194-41084-S,194-55922-S,194-90740-S,194-95958-S,194-105982-S,194-106579-S,194-111773-S,194-121123-S,194-123630-S,194-125693-S,194-160040-S,194-181752-S,194-182822-S,194-188237-S,194-191887-S,194-196997-S,195-13896-S,195-14549-S,195-19528-S,195-22392-S,195-29870-S,195-33002-S,195-51119-S,195-56313-S,195-56462-S,195-58893-S,195-64915-S,195-79879-S,195-88633-S,195-106451-S,195-138761-S,195-140112-S,195-143430-S,195-148858-S,196-557-S,196-1222-S,196-2003-S,196-10494-S,196-10648-S,196-24180-S,196-43216-S,196-45391-S,196-65947-S,196-68899-S,196-77740-S,196-113665-S,196-119544-S,196-122454-S,196-129223-S,196-138138-S,196-156573-S,196-156796-S,196-163102-S,196-183763-S,196-195671-S,197-3733-S,197-4369-S,197-4732-S,197-6028-S,197-8467-S,197-12184-S,197-15817-S,197-16658-S,197-17147-S,197-17860-S,197-29864-S,197-34587-S,197-35059-S,197-37309-S,197-37743-S,197-40247-S,197-44284-S,197-48926-S,197-49022-S,197-63529-S,197-71588-S,197-77894-S,197-82188-S,197-83314-S,197-86073-S,197-87629-S,198-18340-S,198-22794-S,198-25756-S,198-29295-S,198-31308-S,198-50376-S,198-65715-S,198-84429-S,198-84848-S,198-94938-S,199-25745-S,199-33188-S,199-55886-S,199-63454-S,199-91562-S,199-102772-S,199-142264-S,200-37627-S,200-49845-S,200-51050-S,200-64035-S,200-72965-S,200-95182-S,200-179247-S,201-37458-S,201-39314-S,201-67083-S,201-254527-S,201-276512-S,201-341633-S,201-364342-S,202-5739-S,202-33470-S,202-33945-S,202-115874-S,202-129216-S,202-134526-S,203-24206-S,203-30937-S,203-47350-S,203-64942-S,203-65253-S,203-78258-S,203-81031-S,203-85567-S,203-87586-S,204-37105-S,204-90564-S,204-112103-S,204-113679-S,204-113896-S,204-136311-S,204-148076-S,204-148311-S,204-155261-S,204-158673-S,204-162939-S,204-175900-S,204-176265-S,205-5529-S,205-7063-S,205-72927-S,205-86329-S,205-86467-S,205-109309-S,205-110374-S,205-123554-S,205-123635-S,205-131604-S,205-137378-S,205-143764-S,205-151707-S,205-174419-S,206-945-S,206-3304-S,206-20097-S,206-25811-S,206-37327-S,206-48564-S,206-50357-S,206-50931-S,206-58366-S,206-59964-S,206-92584-S,206-99270-S,207-2217-S,207-3509-S,207-25183-S,207-35179-S,207-75057-S,207-75203-S,207-96537-S,207-142974-S,207-145867-S,207-147219-S,207-184718-S,207-202395-S,207-287879-S,208-18480-S,208-27174-S,208-161377-S,208-170451-S,208-170739-S,208-172478-S,208-201088-S,208-215650-S,209-15476-S,209-29232-S,209-47549-S,209-51532-S,209-75543-S,209-90934-S,209-122656-S,209-122988-S,209-128860-S,210-21914-S,210-76358-S,210-96530-S,210-108737-S,210-108843-S,210-175965-S,211-0-S,211-2072-S,211-27448-S,211-34134-S,211-34563-S,211-34727-S,211-53721-S,211-53891-S,211-64744-S,211-74937-S,211-77935-S,211-85517-S,211-91566-S,211-121530-S,211-181199-S,212-16520-S,212-16627-S,212-17617-S,212-18598-S,212-36382-S,212-148640-S,212-152356-S,212-152880-S,212-171071-S,213-11863-S,213-19983-S,213-30271-S,213-53426-S,213-87064-S,213-113508-S,213-121386-S,213-180457-S,213-187058-S,213-197644-S,214-10843-S,214-30123-S,214-43076-S,214-77416-S,214-97548-S,214-101997-S,215-8050-S,215-12139-S,215-66122-S,215-70312-S,215-74963-S,215-129510-S,215-260915-S,216-67429-S,216-119573-S,216-119652-S,216-146236-S,216-153245-S,216-154487-S,216-172444-S,216-232772-S,216-242981-S,217-6245-S,217-20861-S,217-30968-S,217-33789-S,217-37004-S,217-77535-S,217-86297-S,217-97641-S,217-102338-S,217-142771-S,217-181478-S,217-183750-S,218-7013-S,218-36715-S,218-40210-S,218-51291-S,218-67454-S,218-106397-S,218-109755-S,218-132019-S,218-144735-S,218-158617-S,218-171867-S,218-190752-S,218-205115-S,219-26454-S,219-97733-S,219-101425-S,219-111863-S,219-120501-S,219-133871-S,219-134845-S,219-173725-S,219-182603-S,219-201355-S,219-211625-S,219-221721-S,220-2854-S,220-9982-S,220-47642-S,220-59289-S,220-81267-S,220-107987-S,220-138711-S,220-189358-S,220-199416-S,221-4115-S,221-5315-S,221-9434-S,221-32431-S,221-123180-S,221-123363-S,221-127489-S,221-173552-S,222-12658-S,222-77963-S,222-110620-S,222-110989-S,222-114003-S,222-125630-S,222-136970-S,222-148225-S,222-180367-S,222-210597-S,222-249487-S,222-249578-S,223-40307-S,223-115423-S,223-160419-S,223-234601-S,223-276995-S,224-33082-S,224-67786-S,224-79968-S,224-87914-S,224-163481-S,225-99623-S,225-100202-S,225-104642-S,225-123128-S,225-138342-S,225-154415-S,225-156484-S,226-5198-S,226-12267-S,226-20953-S,226-25000-S,226-26796-S,226-35489-S,226-51058-S,226-78192-S,226-84563-S,226-95842-S,226-103096-S,226-121052-S,226-224376-S,226-247561-S,226-248113-S,227-4392-S,227-28511-S,227-29843-S,227-35627-S,227-54637-S,227-154906-S,227-155684-S,227-179687-S,227-181964-S,227-183040-S,228-3619-S,228-12612-S,228-13091-S,228-28662-S,228-31316-S,228-32226-S,228-48087-S,228-184599-S,228-188995-S,228-208087-S,229-19265-S,229-39262-S,229-60313-S,229-73748-S,229-74324-S,229-114041-S,229-117540-S,229-129826-S,229-133197-S,229-222727-S,230-79282-S,230-84873-S,230-128846-S,230-129846-S,230-134499-S,230-134793-S,230-149109-S,230-161167-S,230-196381-S,230-202078-S,230-202302-S,231-5835-S,231-37176-S,231-75703-S,231-85478-S,231-109415-S,231-113745-S,231-126293-S,231-126820-S,231-162847-S,231-167835-S,231-184289-S,231-184624-S,231-185712-S,231-185914-S,231-186124-S,231-186311-S,231-187598-S,231-187765-S,231-188312-S,231-188890-S,232-10837-S,232-11487-S,232-11867-S,232-12227-S,232-12993-S,232-13286-S,232-17149-S,232-56123-S,232-56412-S,232-57126-S,232-67747-S,232-70145-S,232-88138-S,232-91254-S,232-103844-S,232-127614-S,232-132544-S,232-146802-S,232-155475-S,233-567-S,233-1003-S,233-25645-S,233-27602-S,233-34524-S,233-78452-S,233-80687-S,233-80784-S,233-92442-S,233-101268-S,233-102373-S,234-38214-S,234-43216-S,234-58345-S,234-73171-S,234-93351-S,234-109009-S,234-111673-S,234-148432-S,234-149909-S,234-197548-S,235-2964-S,235-5302-S,235-95138-S,235-105573-S,235-115152-S,235-135703-S,235-137774-S,235-173069-S,236-4511-S,236-15442-S,236-47558-S,236-56877-S,236-74154-S,237-40612-S,237-64432-S,237-90756-S,237-158737-S,238-30194-S,238-40665-S,238-50391-S,238-58367-S,238-87075-S,238-95578-S,238-163946-S,238-170826-S,239-2191-S,239-73008-S,239-94200-S,239-97967-S,239-98153-S,239-131416-S,239-149119-S,239-231340-S,239-235049-S,239-241897-S,239-258155-S,239-258526-S,239-275920-S,240-5884-S,240-12390-S,240-19132-S,240-20010-S,240-30364-S,240-35233-S,240-169472-S,240-234658-S,240-258336-S,241-35094-S,241-71610-S,241-94630-S,241-103489-S,241-108356-S,242-103283-S,242-111168-S,242-140740-S,242-175906-S,242-181711-S,242-187528-S,242-187696-S,242-259407-S,242-270427-S,243-41943-S,243-71606-S,243-106472-S,243-123564-S,244-19748-S,244-19910-S,244-20483-S,244-22626-S,244-35545-S,244-78393-S,244-78597-S,244-94860-S,244-96253-S,244-101642-S,244-102085-S,244-159434-S,244-174399-S,244-179150-S,244-179984-S,244-186111-S,244-187396-S,244-197515-S,244-198836-S,244-199220-S,244-199370-S,244-205096-S,245-2020-S,245-24426-S,245-31465-S,245-60713-S,245-66462-S,245-67548-S,245-83034-S,245-84468-S,245-87731-S,245-88409-S,245-94045-S,245-94432-S,245-99060-S,246-8812-S,246-100618-S,246-150399-S,246-164321-S,246-238790-S,246-292744-S,246-318076-S,247-15508-S,247-17944-S,247-18036-S,247-20506-S,247-31681-S,247-69753-S,247-139893-S,247-145794-S,247-146304-S,247-161894-S,247-162613-S,247-165716-S,247-166587-S,248-17619-S,248-20812-S,248-33397-S,248-35392-S,248-63116-S,248-88779-S,248-89491-S,248-94739-S,248-106317-S,248-112799-S,248-131283-S,249-10057-S,249-58686-S,249-78558-S,249-96159-S,249-143640-S,249-156030-S,249-260263-S,249-282519-S,249-282644-S,249-290150-S,249-323706-S,249-335753-S,250-2054-S,250-40122-S,250-67581-S,250-100307-S,250-103725-S,250-109094-S,251-9849-S,251-33172-S,251-35174-S,251-46424-S,251-49448-S,251-61928-S,251-87087-S,251-113757-S,252-13113-S,252-21943-S,252-30436-S,252-46665-S,252-63279-S,252-66286-S,252-73589-S,252-118750-S,252-176601-S,252-197545-S,252-200086-S,252-203158-S,252-208331-S,252-208457-S,252-212534-S,252-217517-S,252-217628-S,253-3922-S,253-10985-S,253-11722-S,253-51626-S,253-82266-S,253-115383-S,253-120740-S,254-45855-S,254-48889-S,254-59057-S,254-61710-S,254-62024-S,254-62196-S,254-62538-S,254-74680-S,254-77577-S,254-77801-S,254-91626-S,254-92171-S,254-96875-S,254-97131-S,255-11959-S,255-26553-S,255-49317-S,255-58844-S,255-89807-S,255-103669-S,255-111224-S,256-19238-S,256-19405-S,256-24183-S,256-34464-S,256-44399-S,256-75549-S,256-83948-S,256-86346-S,256-94215-S,256-100787-S,256-164340-S,256-168680-S,257-1144-S,257-1635-S,257-25654-S,257-28387-S,257-35004-S,257-53395-S,257-108457-S,257-134889-S,257-152411-S,258-24218-S,258-32750-S,258-45914-S,258-46138-S,258-53250-S,258-131398-S,258-148602-S,258-218633-S,258-219680-S,258-229348-S,258-288689-S,259-1024-S,259-19467-S,259-23378-S,259-43300-S,259-111021-S,259-121010-S,259-126748-S,259-224233-S,259-266380-S,259-395780-S,260-6692-S,260-15958-S,260-57276-S,260-58744-S,260-63699-S,260-67719-S,260-109423-S,260-164043-S,260-164323-S,260-168966-S,260-187019-S,261-3349-S,261-3510-S,261-3662-S,261-15079-S,261-69267-S,261-73982-S,261-85958-S,261-138491-S,261-174252-S,261-179084-S,261-195278-S,261-243688-S,261-256953-S,261-257262-S,261-265979-S,262-18469-S,262-18585-S,262-21482-S,262-22123-S,262-26863-S,262-28052-S,262-46001-S,262-85659-S,262-87395-S,262-88058-S,262-92068-S,262-95317-S,262-135015-S,262-136328-S,263-39824-S,263-47716-S,263-126937-S,263-131023-S,263-134343-S,263-148441-S,263-164453-S,263-168987-S,263-177865-S,263-181735-S,263-191504-S,263-193258-S,263-194042-S,264-5163-S,264-15757-S,264-17581-S,264-58364-S,264-71229-S,264-76550-S,264-86310-S,264-163128-S,264-167464-S,264-251959-S,265-74407-S,265-75183-S,265-80043-S,266-3796-S,266-10703-S,266-11429-S,266-28063-S,266-41311-S,266-41550-S,266-45507-S,267-9244-S,267-53861-S,267-55602-S,268-6210-S,268-39229-S,268-45680-S,268-57048-S,268-57136-S,268-60637-S,268-61509-S,268-97491-S,268-101780-S,268-106550-S,268-110866-S,268-123644-S,269-358-S,269-20208-S,269-71006-S,269-75122-S,269-127317-S,269-133273-S,270-57305-S,270-65996-S,270-110369-S,270-118019-S,270-125998-S,270-142309-S,270-212568-S,270-258168-S,270-295423-S,270-303418-S,271-7221-S,271-15316-S,271-75425-S,271-138112-S,271-180176-S,271-182952-S,272-2571-S,272-18464-S,272-21588-S,272-29057-S,272-39863-S,272-66284-S,272-71114-S,272-82449-S,272-82766-S,272-82940-S,272-145413-S,272-149384-S,273-15043-S,273-16094-S,273-49066-S,273-180628-S,273-185633-S,273-229809-S,273-242671-S,273-252253-S,273-272275-S,274-12261-S,274-24049-S,274-27577-S,274-54461-S,275-7430-S,275-23383-S,275-26645-S,275-29343-S,275-49559-S,275-49974-S,275-66459-S,275-66633-S,275-67356-S,275-67472-S,275-75416-S,275-111111-S,275-113556-S,275-125704-S,275-133581-S,276-26920-S,276-28929-S,276-29828-S,277-100386-S,277-158984-S,277-179718-S,277-185673-S,277-212169-S,277-222669-S,277-228999-S,277-269638-S,277-273377-S,277-279985-S,278-27856-S,278-38664-S,278-135423-S,278-155150-S,278-155539-S,278-271425-S,279-24247-S,279-62151-S,279-272429-S,279-272530-S,279-291977-S,280-488-S,280-644-S,280-78130-S,280-81415-S,280-93470-S,280-113025-S,280-117001-S,280-122216-S,280-122762-S,280-151753-S,280-169492-S,280-193698-S,280-199391-S,280-215656-S,280-236718-S,280-255147-S,281-26409-S,281-40133-S,281-46183-S,281-87288-S,281-107716-S,281-131271-S,281-150421-S,281-165180-S,281-201380-S,281-208367-S,281-220829-S,281-226610-S,281-234756-S,281-253436-S,282-17069-S,282-50784-S,282-103027-S,282-147630-S,282-154591-S,282-156784-S,282-182277-S,282-185554-S,282-185813-S,282-197631-S,283-10032-S,283-10960-S,283-22983-S,283-42369-S,283-64403-S,283-71601-S,283-93376-S,283-136370-S,283-143686-S,283-152633-S,283-198514-S,284-237-S,284-2170-S,284-8054-S,284-11403-S,284-20777-S,284-22776-S,284-27281-S,284-45783-S,284-50765-S,284-50946-S,284-52978-S,284-78082-S,284-88801-S,284-94302-S,284-100440-S,284-101817-S,284-108845-S,284-109974-S,284-112536-S,284-123436-S,284-131153-S,284-135869-S,285-13692-S,285-21478-S,285-22682-S,285-24072-S,285-28078-S,285-32051-S,285-32165-S,285-82992-S,285-88067-S,285-95022-S,285-111298-S,285-136547-S,285-206416-S,285-221231-S,285-253705-S,285-260555-S,285-264158-S,286-5408-S,286-65871-S,287-37528-S,287-49405-S,287-51380-S,287-54257-S,287-54590-S,287-60695-S,287-130100-S,287-139221-S,287-167387-S,288-2090-S,288-15112-S,288-44727-S,288-61595-S,288-90333-S,288-105015-S,289-37291-S,289-38462-S,289-38786-S,289-51863-S,289-54088-S,289-58564-S,289-82841-S,289-104454-S,289-123687-S,290-8704-S,290-9339-S,290-33898-S,290-73189-S,290-78519-S,291-7549-S,291-8188-S,291-12029-S,291-23236-S,291-23386-S,291-36165-S,291-61936-S,291-77967-S,291-82040-S,291-82787-S,291-82972-S,291-83132-S,291-83277-S,291-83570-S,291-84112-S,291-84283-S,291-84744-S,291-84895-S,291-85791-S,291-92001-S,291-92378-S,291-94172-S,291-96065-S,291-96234-S,291-96770-S,292-5536-S,292-17438-S,292-65600-S,292-136708-S,292-137443-S,292-291319-S,292-314245-S,293-749-S,293-61310-S,293-69746-S,293-84492-S,293-84679-S,293-85058-S,293-85271-S,293-85901-S,293-86896-S,293-105395-S,293-111297-S,293-118580-S,293-125421-S,293-152493-S,294-8639-S,294-21615-S,294-63021-S,294-68676-S,294-74636-S,294-74748-S,294-88220-S,294-92403-S,294-102149-S,294-102937-S,294-105789-S,294-130440-S,294-152626-S,294-160702-S,294-161620-S,294-168112-S,294-172044-S,295-27315-S,295-36853-S,295-40018-S,295-40094-S,295-41639-S,295-54730-S,295-58855-S,295-66107-S,295-94530-S,295-100499-S,295-100715-S,295-102669-S,295-103526-S,295-121582-S,295-122431-S,295-195929-S,296-10403-S,296-16330-S,296-23789-S,296-25571-S,296-28926-S,296-34538-S,296-51799-S,296-54791-S,296-70626-S,296-84153-S,296-86762-S,296-100986-S,296-113042-S,296-132183-S,296-132409-S,296-132777-S,296-179347-S,296-186742-S,297-5483-S,297-12522-S,297-12680-S,297-15230-S,297-17366-S,297-29100-S,297-33174-S,297-33364-S,297-34537-S,297-35062-S,297-53933-S,297-97608-S,297-111449-S,297-113429-S,297-131944-S,297-136460-S,297-166877-S,297-173360-S,297-182195-S,297-186476-S,297-188703-S,297-189509-S,297-202192-S,297-213593-S,298-83-S,298-11861-S,298-17905-S,298-24030-S,298-28153-S,298-28620-S,298-28996-S,298-39845-S,298-48899-S,298-55314-S,298-62978-S,298-84406-S,298-85817-S,298-110664-S,298-114503-S,298-125563-S,298-126311-S,298-129096-S,298-144463-S,298-154626-S,299-72-S,299-2312-S,299-4390-S,299-11319-S,299-12723-S,299-13204-S,299-13618-S,299-14558-S,299-22054-S,299-37985-S,299-44377-S,299-45378-S,299-47615-S,299-48459-S,299-53909-S,299-55153-S,299-55404-S,299-55986-S,299-101992-S,299-104737-S,299-106705-S,299-124441-S,299-131876-S,299-137793-S,299-143260-S,299-144283-S,299-147332-S,299-161417-S,299-167672-S,299-170522-S,299-171371-S,300-47661-S,300-49480-S,300-53690-S,300-54859-S,300-58375-S,300-66974-S,300-68945-S,300-92988-S,300-93661-S,300-95837-S,300-96905-S,300-108360-S,300-111393-S,300-113790-S,300-123380-S,300-125734-S,300-172749-S,300-177305-S,300-180875-S,300-187541-S,301-30151-S,301-31301-S,301-40211-S,301-50103-S,301-62780-S,301-81033-S,301-85888-S,301-86334-S,301-102773-S,301-108671-S,301-111911-S,301-118039-S,301-123458-S,301-127689-S,301-139534-S,301-142086-S,302-13783-S,302-21266-S,302-66088-S,302-84132-S,302-86045-S,302-93847-S,302-101194-S,302-118961-S,302-130063-S,302-149190-S,302-170952-S,302-176467-S,302-178570-S,302-189237-S,302-192431-S,302-206280-S,302-207245-S,302-210357-S,302-213291-S,302-257065-S,303-3210-S,303-6423-S,303-12745-S,303-34393-S,303-43797-S,303-51499-S,303-54954-S,303-64965-S,303-66199-S,303-67469-S,303-69845-S,303-72216-S,303-74033-S,303-78591-S,303-80085-S,303-85089-S,303-89768-S,303-94847-S,303-135860-S,303-148524-S,303-150000-S,303-185318-S,303-185571-S,303-197599-S,303-202961-S,303-208991-S,303-214361-S,303-247037-S,304-0-S,304-1357-S,304-1603-S,304-2631-S,304-6644-S,304-7235-S,304-8617-S,304-35255-S,304-37500-S,304-54815-S,304-56339-S,304-74405-S,304-74520-S,304-81404-S,304-87730-S,304-109932-S,304-110459-S,304-120038-S,304-185030-S,304-190085-S,304-197615-S,304-201041-S,304-205411-S,304-214675-S,304-217198-S,304-219969-S,304-221371-S,304-222568-S,304-223476-S,304-233774-S,304-241100-S,305-1476-S,305-24400-S,305-26500-S,305-29282-S,305-42977-S,305-61649-S,305-65543-S,305-87533-S,305-112727-S,305-114798-S,305-148847-S,305-150871-S,305-171039-S,305-177338-S,305-180531-S,305-182085-S,305-185224-S,305-197018-S,305-200387-S,305-204171-S,305-213872-S,306-2929-S,306-3222-S,306-18041-S,306-71476-S,306-81893-S,306-117881-S,306-130283-S,306-134477-S,306-149538-S,306-152854-S,306-184385-S,306-199655-S,306-207815-S,306-213212-S,306-216707-S,306-233163-S,306-234251-S,306-257689-S,306-284058-S,307-13478-S,307-15606-S,307-28473-S,307-70690-S,307-82245-S,307-83388-S,307-86200-S,307-87260-S,307-98330-S,307-141979-S,307-167110-S,307-182138-S,307-194809-S,307-240993-S,307-246132-S,307-271693-S,307-287472-S,307-290380-S,307-293054-S,307-297209-S,307-305216-S,307-318710-S,308-8227-S,308-73373-S,308-79744-S,308-139057-S,309-1947-S,309-2121-S,309-9895-S,309-64216-S,309-95519-S,309-96563-S,309-190714-S,309-196046-S,309-199674-S,310-5016-S,310-42483-S,310-44592-S,310-80352-S,310-141871-S,310-167136-S,310-171222-S,311-101245-S,311-134312-S,311-151702-S,311-165262-S,312-2387-S,312-2887-S,312-5399-S,312-6113-S,312-11805-S,312-22109-S,312-22245-S,312-33313-S,312-36621-S,312-97407-S,312-140723-S,312-159191-S,313-5580-S,313-14121-S,313-46971-S,313-61699-S,313-82484-S,313-90692-S,313-110170-S,313-137379-S,313-139471-S,313-149210-S,313-159258-S,313-192097-S,314-217-S,314-6197-S,314-11127-S,314-29721-S,314-73473-S,314-82364-S,314-88705-S,314-89164-S,314-92560-S,314-93659-S,314-105239-S,314-121155-S,314-128925-S,314-133615-S,315-13873-S,315-26054-S,315-27465-S,315-32669-S,315-35926-S,315-36036-S,315-44934-S,315-57303-S,315-75367-S,315-76169-S,315-78983-S,315-79352-S,315-84185-S,315-88092-S,315-96199-S,315-97511-S,315-136362-S,315-150010-S,315-196966-S,315-208932-S,316-5950-S,316-12225-S,316-18567-S,316-36442-S,316-36690-S,316-47110-S,316-93050-S,316-117598-S,316-140858-S,316-145187-S,316-146092-S,316-146641-S,316-147284-S,316-148616-S,316-151007-S,316-156030-S,316-160329-S,316-192158-S,317-565-S,317-7395-S,317-8244-S,317-49735-S,317-54832-S,317-65881-S,317-104470-S,317-109475-S,317-115576-S,317-138745-S,317-159132-S,317-159731-S,317-178806-S,317-206597-S,317-230397-S,317-231966-S,318-0-S,318-1083-S,318-28361-S,318-37296-S,318-45569-S,318-45959-S,318-49264-S,318-53054-S,318-59443-S,318-97416-S,318-103291-S,318-114491-S,318-125363-S,318-138435-S,318-138739-S,318-143813-S,318-155308-S,318-171097-S,318-172808-S,319-30531-S,319-90950-S,319-91054-S,319-106636-S,319-110026-S,319-111563-S,319-139088-S,319-142105-S,319-197392-S,319-210318-S,320-8236-S,320-41862-S,320-58691-S,320-176429-S,320-188287-S,321-15154-S,321-44228-S,321-51052-S,321-69707-S,321-70951-S,321-131349-S,322-15162-S,322-19324-S,322-30358-S,322-63488-S,322-67473-S,322-74630-S,322-82612-S,323-6717-S,323-25647-S,323-42904-S,323-44083-S,323-52011-S,323-56745-S,323-99488-S,323-144421-S,323-166025-S,323-221693-S,323-226576-S,323-241054-S,324-3786-S,324-18617-S,324-20862-S,324-32276-S,324-54018-S,324-84606-S,324-123054-S,324-133907-S,325-13295-S,325-19937-S,325-22183-S,325-55254-S,325-61302-S,325-63088-S,325-145495-S,325-172785-S,326-72715-S,326-73000-S,326-150063-S,326-153963-S,326-159743-S,326-167678-S,326-245471-S,326-256470-S,327-58735-S,327-61100-S,327-61294-S,327-75876-S,327-104977-S,327-113371-S,327-113470-S,327-119576-S,327-127702-S,327-150880-S,327-156546-S,327-157570-S,327-187037-S,327-193786-S,327-202587-S,328-1334-S,328-134313-S,328-137503-S,328-143777-S,328-144141-S,328-149117-S,328-246286-S,329-240-S,329-15239-S,329-53961-S,329-54489-S,329-76253-S,329-78330-S,329-79428-S,329-79993-S,329-92423-S,329-133136-S,329-143385-S,329-149797-S,329-152217-S,329-154600-S,329-175157-S,329-191263-S,329-196278-S,329-207634-S,330-2108-S,330-18371-S,330-37867-S,330-90162-S,330-138863-S,330-186127-S,331-1549-S,331-21549-S,331-21816-S,331-44589-S,331-51657-S,331-55577-S,331-69296-S,331-73202-S,331-108702-S,331-179052-S,331-179346-S,331-179455-S,331-220118-S,331-243735-S,332-28363-S,332-44493-S,332-217773-S,332-223022-S,332-261595-S,332-266551-S,332-304238-S,332-314095-S,333-10106-S,333-18973-S,333-32255-S,333-41547-S,333-63713-S,333-84261-S,333-100349-S,333-121144-S,333-199039-S,333-200865-S,333-212075-S,333-215190-S,333-216569-S,334-0-S,334-5063-S,334-17534-S,334-25683-S,334-27438-S,334-38469-S,334-102392-S,334-152249-S,334-157306-S,335-2190-S,335-4800-S,335-11440-S,335-13380-S,335-14970-S,335-36974-S,335-37988-S,335-42082-S,335-66073-S,335-69200-S,335-74837-S,335-80152-S,336-14727-S,336-19635-S,336-28462-S,336-28563-S,336-52004-S,336-67213-S,336-70880-S,336-98192-S,337-18901-S,337-33996-S,337-38205-S,337-41385-S,337-50445-S,337-52138-S,337-57910-S,337-63909-S,337-65878-S,337-68011-S,337-68383-S,337-68512-S,337-72383-S,337-72495-S,338-12295-S,338-12412-S,338-19735-S,338-33606-S,338-60465-S,338-86059-S,338-86175-S,338-90782-S,339-1125-S,339-17724-S,339-29269-S,339-35154-S,339-35453-S,339-38971-S,339-40125-S,339-40547-S,339-42842-S,339-54741-S,339-69342-S,339-70839-S,339-71736-S,339-74112-S,339-77539-S,339-77642-S,339-81405-S,339-87554-S,339-87809-S,339-88654-S,339-93874-S,339-100461-S,339-108753-S,340-5990-S,340-15877-S,340-33549-S,340-38402-S,340-38599-S,340-38791-S,340-71341-S,340-77512-S,340-88135-S,340-115377-S,340-117299-S,340-160076-S,340-175174-S,340-185229-S,341-286-S,341-10609-S,341-31128-S,341-56217-S,341-57957-S,341-72324-S,341-82324-S,341-85909-S,341-96630-S,341-109193-S,341-122608-S,341-131150-S,341-133267-S,341-135606-S,341-145640-S,341-208613-S,341-209963-S,342-1670-S,342-4882-S,342-6651-S,342-11987-S,342-14391-S,342-15762-S,342-16295-S,342-24485-S,342-25359-S,342-49758-S,342-59196-S,342-62124-S,342-70175-S,342-75028-S,342-81430-S,342-86409-S,342-91343-S,342-93040-S,342-96791-S,343-3628-S,343-10029-S,343-13898-S,343-16234-S,343-24043-S,343-32273-S,343-34055-S,343-63145-S,343-64722-S,343-64955-S,343-65280-S,343-66033-S,343-89447-S,343-93286-S,343-97814-S,343-100574-S,343-101181-S,344-34278-S,344-38664-S,344-39424-S,344-50694-S,344-64816-S,345-28170-S,345-51718-S,345-54265-S,345-57340-S,345-99568-S,345-105384-S,345-126590-S,346-23141-S,346-46535-S,346-75021-S,346-83995-S,346-146459-S,346-228918-S,346-231626-S,347-427-S,347-16224-S,347-65797-S,347-87643-S,347-128416-S,347-132993-S,347-152050-S,347-156480-S,347-161894-S,347-167341-S,348-10398-S,348-97394-S,348-100793-S,348-100987-S,348-107991-S,348-108622-S,348-108892-S,348-111043-S,348-114570-S,348-151655-S,348-164535-S,348-167415-S,348-172253-S,349-11056-S,349-11219-S,349-24190-S,349-29157-S,349-56816-S,349-75632-S,349-84739-S,349-113815-S,350-2372-S,350-107257-S,350-131037-S,350-305157-S,350-329019-S,350-343705-S,350-345895-S,350-378411-S,350-385379-S,350-390314-S,351-1269-S,351-9751-S,351-97618-S,351-106286-S,351-109537-S,351-121913-S,351-125526-S,351-132719-S,352-40147-S,352-100709-S,353-16160-S,353-39179-S,353-41808-S,353-47855-S,353-48610-S,353-57038-S,353-73467-S,353-85096-S,353-103255-S,353-103337-S,353-106005-S,353-123027-S,353-127334-S,353-133979-S,354-83504-S,354-96859-S,354-110506-S,354-116479-S,354-118714-S,354-139071-S,354-187950-S,354-210884-S,354-293265-S,355-24981-S,355-38881-S,355-47269-S,355-60310-S,355-74612-S,355-93891-S,355-106092-S,355-114534-S,355-137938-S,355-138206-S,355-156445-S,355-156655-S,356-865-S,356-67974-S,356-155432-S,356-180559-S,356-282570-S,356-296378-S,357-9811-S,357-25465-S,357-51232-S,357-77852-S,357-210786-S,357-218302-S,357-225714-S,357-238486-S,357-256663-S,357-271041-S,358-350-S,358-16999-S,358-24088-S,358-29360-S,358-33494-S,358-38321-S,358-60604-S,358-77581-S,358-86674-S,358-93222-S,358-96788-S,358-114294-S,358-120738-S,358-124883-S,358-128803-S,358-149449-S,359-1677-S,359-45377-S,359-56368-S,359-93474-S,359-116647-S,359-143782-S,359-143900-S,359-160623-S,359-178328-S,359-183864-S,359-200380-S,360-38065-S,360-42688-S,360-47158-S,360-54367-S,360-62436-S,360-63001-S,360-70143-S,360-71736-S,360-72264-S,360-73407-S,360-80084-S,360-81611-S,360-85521-S,360-87837-S,360-93059-S,360-95310-S,361-33147-S,361-43363-S,361-44822-S,361-46558-S,361-55420-S,361-57711-S,361-67509-S,361-85124-S,361-85594-S,361-93494-S,361-101353-S,361-102175-S,361-103201-S,361-103381-S,362-50904-S,362-54701-S,362-61998-S,362-67032-S,362-73033-S,362-100627-S,362-152238-S,362-184799-S,362-214607-S,362-216292-S,362-241142-S,362-247146-S,363-20149-S,363-21828-S,363-22244-S,363-29059-S,363-30626-S,363-48215-S,363-53683-S,363-92663-S,363-123043-S,363-126072-S,363-126390-S,363-152553-S,363-159653-S,364-12400-S,364-13732-S,364-18081-S,364-22534-S,364-23365-S,364-24905-S,364-47899-S,364-58512-S,364-73205-S,364-80470-S,364-87904-S,364-99405-S,364-104396-S,364-122224-S,365-27721-S,365-30101-S,365-62716-S,365-93850-S,365-97220-S,365-120112-S,365-134733-S,366-106591-S,366-168084-S,366-177104-S,366-180240-S,366-180369-S,366-180671-S,366-181939-S,366-189291-S,366-189585-S,366-191100-S,366-201622-S,366-215738-S,366-221273-S,367-20407-S,367-64082-S,367-81323-S,367-106655-S,367-107018-S,367-117400-S,367-128544-S,368-21645-S,368-54469-S,368-104954-S,368-164816-S,368-170844-S,368-211754-S,368-211861-S,369-12697-S,369-28983-S,369-38734-S,369-56402-S,369-88816-S,369-123139-S,369-144220-S,370-20630-S,370-32947-S,370-45151-S,370-50791-S,370-65182-S,370-106669-S,370-110108-S,370-205763-S,370-210715-S,370-236159-S,370-247045-S,371-29535-S,371-38812-S,371-39549-S,371-42406-S,371-47808-S,371-50644-S,371-57251-S,371-75802-S,371-100274-S,371-101884-S,371-141408-S,371-144445-S,371-164041-S,371-170792-S,372-2839-S,372-13084-S,372-45240-S,372-71841-S,372-72793-S,372-108465-S,372-174287-S,372-177423-S,373-12142-S,373-102393-S,373-147496-S,373-149967-S,373-173716-S,373-196742-S,373-221442-S,374-22845-S,374-31267-S,374-105155-S,374-112745-S,374-114454-S,374-139553-S,374-145963-S,374-149341-S,374-150323-S,374-154718-S,374-183890-S,374-228299-S,375-99389-S,375-101190-S,375-101581-S,375-181033-S,375-241443-S,375-247699-S,375-319887-S,375-342344-S,375-342683-S,375-343195-S,375-343286-S,375-343381-S,375-343652-S,376-11666-S,376-65097-S,376-65492-S,376-94966-S,376-129502-S,376-246623-S,376-256117-S,377-24972-S,377-26060-S,377-76028-S,378-67711-S,378-73121-S,379-347-S,379-11640-S,379-17703-S,379-106558-S,379-131709-S,379-158971-S,379-170894-S,379-188372-S,379-195363-S,379-197877-S,379-198648-S,379-200270-S,379-201038-S,379-204090-S,379-212595-S,380-311-S,380-946-S,380-6679-S,380-7652-S,380-9137-S,380-12570-S,380-14973-S,380-16860-S,380-20938-S,380-30949-S,380-33441-S,380-36058-S,380-42573-S,380-53012-S,380-63649-S,380-66675-S,380-68116-S,380-76528-S,380-79030-S,380-81397-S,380-84119-S,380-94360-S,380-103999-S,380-128821-S,380-136084-S,380-137410-S,380-144993-S,380-149332-S,381-5258-S,381-18101-S,381-47062-S,381-48802-S,381-52579-S,381-67655-S,381-68017-S,381-68119-S,381-69428-S,381-87327-S,381-92150-S,381-97282-S,381-101354-S,381-134499-S,381-138348-S,381-167444-S,381-176763-S,381-183216-S,381-183520-S,381-184975-S,382-2518-S,382-23036-S,382-42050-S,382-63035-S,382-64083-S,382-71605-S,382-71910-S,382-75054-S,382-80317-S,382-91602-S,382-94496-S,382-111965-S,382-114980-S,382-122640-S,382-170685-S,382-174501-S,382-174856-S,382-175551-S,382-179691-S,382-181367-S,383-10260-S,383-11078-S,383-22715-S,383-30798-S,383-34912-S,383-42470-S,383-54578-S,383-63217-S,383-72670-S,383-74739-S,383-74829-S,383-74928-S,383-99203-S,383-105026-S,383-105307-S,383-124420-S,383-124532-S,383-133639-S,383-155610-S,383-163988-S,383-168549-S,383-173409-S,383-174348-S,383-177231-S,384-1299-S,384-2816-S,384-4013-S,384-6856-S,384-7348-S,384-8842-S,384-10103-S,384-15118-S,384-15301-S,384-18387-S,384-26671-S,384-42964-S,384-63467-S,384-76072-S,384-96441-S,384-101468-S,384-105428-S,384-105634-S,384-106729-S,385-19637-S,385-35263-S,385-62396-S,385-81004-S,385-90832-S,385-96848-S,385-97213-S,385-98952-S,385-99113-S,385-100642-S,385-100889-S,385-104039-S,385-108187-S,385-112493-S,385-117288-S,385-126102-S,385-130238-S,385-131798-S,385-142730-S,385-142801-S,385-152209-S,386-6779-S,386-10252-S,386-16279-S,386-17117-S,386-18072-S,386-36811-S,386-39980-S,386-53805-S,386-63942-S,386-72867-S,386-75778-S,386-96817-S,386-97834-S,386-105071-S,386-136800-S,386-140176-S,386-148184-S,387-15680-S,387-23542-S,387-38027-S,387-57561-S,387-66254-S,387-73099-S,387-75592-S,387-86314-S,387-98070-S,387-105644-S,387-106075-S,388-49451-S,388-49938-S,388-72841-S,388-73145-S,388-74086-S,388-75518-S,388-81742-S,388-84598-S,388-89979-S,389-6300-S,389-6656-S,389-7302-S,389-8315-S,389-9082-S,389-10503-S,389-19924-S,389-20497-S,389-32135-S,389-52541-S,389-60948-S,389-62452-S,389-74118-S,389-84403-S,389-126855-S,389-148276-S,389-149262-S,389-151128-S,389-167675-S,389-170136-S,389-172928-S,390-1882-S,390-5598-S,390-11354-S,390-11913-S,390-13196-S,390-16227-S,390-64758-S,390-72786-S,390-93394-S,390-100592-S,390-100749-S,390-102079-S,390-110434-S,390-110595-S,390-116744-S,391-3946-S,391-45297-S,391-97040-S,391-119111-S,391-131765-S,391-134312-S,391-142106-S,391-144134-S,391-154555-S,391-171477-S,391-191364-S,391-205822-S,391-215576-S,391-257295-S,391-259786-S,391-260509-S,392-11430-S,392-21281-S,392-22435-S,392-24123-S,392-24769-S,392-40307-S,392-40728-S,392-46383-S,392-64163-S,392-73705-S,392-82829-S,392-88100-S,392-91027-S,392-94700-S,392-107701-S,392-120268-S,392-124787-S,392-130068-S,392-137068-S,392-147140-S,392-148537-S,392-163497-S,392-165834-S,392-173761-S,392-182337-S,392-182562-S,393-1659-S,393-124126-S
ee et antimonifere	15-14080-S
ee et mafflu ue	215-13210-S
ee et scrobiculeux euse	325-35433-S
ee ou admonete ee	5-20478-S
ee ou bisexuel elle	35-19822-S
ee ou corymbeux euse	83-20933-S
ee ou cuniculeux euse	91-150808-S
ee ou fetoye ee	143-49174-S
ee ou hirudiniforme	174-8338-S
ee ou multinervie ee	231-188890-S
ee ou nectareen enne	239-57250-S
ee ou obcordiforme	244-20269-S
ee ou paraphe ee	257-1635-S
ee ou parinervie ee	258-45914-S
ee ou paripinne ee	258-46138-S
ee ou pistillifere	269-133386-S
ee ou renfrogne ee	301-127689-S
ee ou teille ee	353-57038-S
ee ou tete ee	351-132719-S
eenne	209-5959-S
efaufile ee	383-74739-B
efaufiler	383-74431-B
effacable	122-92385-B
effacage	122-92564-B
efface ee	122-81180-B
effacement	122-71411-B
effacer	122-71873-B
effaceur euse	122-81018-B
effacure	122-92868-B
effanage	122-83471-B
effane ee	122-84299-B
effaner	122-83574-B
effaneur euse	122-83750-B
effanures	122-83898-B
effarade	122-84389-B
effare ee	122-90782-B
effarement	122-84565-B
effarer	122-84994-B
effarouchant ante	122-85630-B
effarouche ee	122-89779-B
effarouchement	122-85772-B
effaroucher	122-86328-B
effarvatte	122-90691-B
effauchetter	122-92174-B
effautage	122-92325-B
effectif ive	122-93388-B
effection	122-95642-B
effectivement	122-95970-B
effectrice	122-96903-B
effectuation	122-97116-B
effectue ee	122-98903-B
effectuer	122-97300-B
effelure	122-184390-B
effemeller	122-99046-B
effemination	122-184662-B
effemine ee	122-186388-B
effeminement	122-187471-B
effeminer	122-184853-B
effendi	122-99663-B
efferent ente	122-187556-B
effervescence	122-99987-B
effervescent ente	122-102240-B
effet	122-102772-B
effeuillage	122-118790-B
effeuillaison	122-119033-B
effeuille ee	122-121301-B
effeuillement	122-119328-B
effeuiller	122-119549-B
effeuilleur euse	122-120690-B
effeuillure	122-121151-B
efficace	122-121446-B,122-122524-B
efficacement	122-124352-B
efficacien	122-124782-B
efficacite	122-125066-B
efficient ente	122-125593-B
effigial ale	122-126218-B
effigie	122-126300-B
effigie ee	383-74829-B
effigier	122-128832-B
effilage	122-129427-B
effile ee	122-134298-B,122-134740-B
effiler	122-129536-B,122-130298-B
effileur	122-131402-B
effilochage	122-131587-B
effiloche ou effiloque	122-132055-B
effilochee	122-133271-B
effilocher	122-132586-B
effilocheur euse ou effiloqueur euse	122-132830-B
effiloque	122-132055-S
effiloque ee	122-134130-B
effiloquement	122-133473-B
effiloquer	122-133754-B
effiloques	122-134000-B
effiloqueur	122-134065-B
effiloqueur euse	122-132830-S
effilure	122-134197-B
effioler	122-135053-B
efflanque ee	122-135767-B
efflanquer	122-135295-B
effleurage	122-136865-B
effleure ee	122-140690-B
effleurement	122-136975-B
effleurer	122-137356-B
effleuri ie	122-140070-B
effleurir s 	122-140146-B
effleuroir	122-140387-B
effleurure	122-140554-B
effloraison	122-140908-B
efflorescence	122-141327-B
efflorescent ente	122-142518-B
effluence	122-143145-B
effluent ente	122-143331-B
effluve	122-143770-B
effluxion	122-144549-B
effondre ee	122-148367-B
effondrement	122-145092-B
effondrer	122-145533-B
effondreur	122-147928-B
effondrilles	122-148040-B
efforcer s 	122-148511-B
effort	78-26212-S,122-152927-B
effraction	122-162523-B
effraie	122-163037-B
effranger	122-163326-B
effrayant ante	122-163623-B
effraye ee	122-168139-B
effrayer	122-164935-B
effrene ee	122-178523-B
effrenement	122-178368-B,122-180767-B
effrite	122-169691-B
effritement	122-168745-B
effriter	122-168879-B
effroi	122-169900-B
effronte ee	122-172676-B
effrontement	122-175090-B
effronterie	122-172252-B
effroyable	122-175614-B
effroyablement	122-177481-B
effruiter	122-178203-B
effumer	122-181059-B
effusion	122-181505-B
eflagelle ee	383-74928-B
efourceau	383-75097-B
egagre	383-75371-B
egagropile	383-75514-B
egagropiliforme	383-75726-B
egail	383-75888-B
egailler	383-75965-B
egal	216-121007-S
egal a tous	383-88690-B
egal ale	339-28717-S,383-76276-B
egalable	383-88931-B
egalade	383-89064-B
egale ee	383-105026-B,383-105307-B
egalement	383-89141-B,383-89641-B
egaler	383-91645-B
egalir	383-95981-B
egalisage	334-28475-S,383-96359-B
egalisation	383-96978-B
egalise ee	383-99203-B
egaliser	334-28566-S,383-97138-B
egaliseur	383-98245-B
egalisoir	334-28666-S,383-98699-B
egalissage	383-98813-B
egalisures	383-99028-B
egalitaire	383-99460-B
egalite	383-99797-B
egalure	383-104755-B
egard	383-105470-B,383-112764-B
egare ee	383-124532-B
egarement	383-113498-B
egarer	383-116706-B
egarrotte ee	383-124420-B
egarrotter	383-124281-B
egaud a l 	383-127805-B
egauler	383-128296-B
egaye ee	383-133639-B
egayement	383-128391-B,383-128608-B
egayer	383-128799-B,383-133455-B
egayoir	383-133487-B
egerie	384-6544-B
egermage	383-134400-B
egide	383-134571-B
egilope	383-135668-B
egilops	383-135768-B
egine	383-136019-B
egipan	383-136204-B
eglander	383-136603-B
eglant	383-136735-B
eglantier	383-136813-B
eglantine	383-137882-B
egle	383-149546-B
eglefin	383-139035-B
eglise	383-139172-B
eglisier	383-147695-B
eglogaire	383-147907-B
eglogue	383-148087-B
ego	10-42183-S
egoger	383-149713-B
egohine ou egoine	383-149848-B
egoine	383-149848-S
egoiser	383-164163-B
egoisme	383-164331-B
egoiste	383-165476-B
egoistement	383-166410-B
egoistique	383-166548-B
egoistiquement	383-166668-B
egomiste	383-150024-B
egophonie	383-150559-B
egopode	383-150853-B
egorge ee	383-155610-B
egorgement	131-62309-S,383-150966-B
egorgeoir	383-151246-B
egorger	383-151368-B
egorger s 	131-62881-S
egorgeur euse	383-155332-B
egosiller s 	383-156140-B
egotisme	383-157314-B
egotiste	383-157788-B
egouen	383-157899-B
egougeoire	383-157976-B
egout	383-158168-B
egoutier	383-160721-B
egouttage	383-160849-B
egoutte ee	383-163988-B
egouttement	383-161069-B
egoutter	383-161269-B
egouttoir	383-162907-B
egoutture	383-163621-B
egrain ou egrin	383-166792-B
egrainer	383-167027-B
egraineuse	383-167063-B
egrappage	383-167633-B
egrappe ee	383-168549-B
egrapper	383-167757-B
egrappoir	383-168320-B
egrateronnage	383-168753-B
egratigne ee	383-173409-B
egratigner	383-169003-B
egratigner s 	131-63674-S
egratigneur euse	383-171341-B
egratignoir	383-171911-B
egratignure	383-172033-B
egrattonnage	383-173951-B
egravillonne ee	383-174348-B
egravillonner	383-174095-B
egravoir	383-174469-B
egrefin	383-174551-B
egrenage	383-174974-B
egrene	384-2895-B
egrene ee	383-177231-B
egrenement	384-3031-B
egrener	383-175281-B
egreneur	383-176670-B
egreneuse	383-177012-B
egrenoir	383-177091-B
egrillard	383-177835-B
egrillard arde	383-177910-B
egrilloir	384-0-B
egrin	383-166792-S
egrisage	384-201-B
egrise ee	384-1299-B
egrisee	384-1379-B
egriser	384-420-B
egrisoir	384-1117-B
egruge ee	384-2816-B
egrugeoir	384-1580-B
egruger	384-1938-B
egrugeure	384-2686-B
egueule ee	384-4013-B
egueulement	384-3229-B
egueuler	384-3363-B
eguille	384-4446-B
egyptiac	384-4499-B
egyptiaques	384-4824-B
egyptien ienne	384-5229-B
egyptologie	384-6173-B
egyptologique	384-6275-B
egyptologue	384-6426-B
ehanche ee	384-6856-B
eherber	384-7150-B
ehonte ee	384-7348-B
ehontement	384-8220-B
ehoupe ee	384-8842-B
ehouper	384-8408-B
eh 	122-187899-B
eider	122-189354-B
eidotrope	122-189574-B
eille	101-205521-S,116-12582-S,184-126873-S,241-31861-S,257-137359-S,371-42837-S
ein	122-190039-B
eine	271-75492-S,271-104128-S,327-82129-S
einte	22-142138-S,23-76281-S,25-217443-S,116-53301-S,120-118977-S,125-132182-S,126-32169-S,128-161203-S,142-154422-S,261-241445-S,298-19129-S,305-157197-S,307-78006-S,307-99322-S,349-99698-S,389-37406-S,391-58737-S,392-4106-S
eissaugue	122-190110-B
ejaculateur	384-8922-B
ejaculation	384-9203-B
ejacule ee	384-10103-B
ejaculer	384-9817-B
ejamber	384-10168-B
ejarrage	384-10310-B
ejarrer	384-10396-B
ejecteur	384-10714-B
ejection	384-11230-B
ejointage	384-11626-B
ejointer	384-11920-B
ejouir s 	384-12313-B
elaborant ante	384-13167-B
elaborateur trice	384-13290-B
elaboration	384-13464-B
elabore ee	384-15118-B
elaborer	384-13895-B
elabre ee	384-15301-B
elaeerine	384-16015-B
elaeolithe	384-15467-B
elaeometre	384-15615-B
elaeoptene	384-15814-B
elagage	384-16179-B
elague ee	384-18387-B
elaguer	384-16293-B
elagueur	384-18283-B
elaidine	384-43538-B
elaidique	384-43738-B
elaine	384-43912-B
elaique	384-44013-B
elais	384-44068-B
elaiser	384-18565-B
elan	384-18671-B,384-19683-B
elance ee	384-26671-B
elancement	384-21672-B
elancer	384-23756-B
elanceur	384-26612-B
elane	384-28493-B
elangueur	384-28619-B
elaphebolion	384-29494-B
elaphien ienne	384-28917-B
elaphographie	384-29052-B
elaphornithe	384-29174-B
elaphre	384-29353-B
elaps	384-29756-B
elargi ie	384-29979-B
elargir	384-30287-B
elargissement	384-35451-B
elargissure	384-37083-B
elasmie	384-37577-B
elaste	384-37755-B
elasticine	384-37956-B
elasticite	384-38122-B
elastique	384-38959-B
elater	384-40885-B
elatere	384-41181-B
elaterie	384-41683-B
elaterine	384-41900-B
elaterite	384-42032-B
elaterium	384-42199-B
elaterometre	384-42766-B
elatobranches	384-40998-B
elave ee	384-42964-B
elbeuf	122-190218-B
elcesaite	122-190430-B
eldorado	122-190688-B
eleates	385-45091-B
eleatique	385-45225-B
eleatisme	385-45820-B
electeur	384-44382-B
electif ive	384-45273-B
election	384-46790-B
electionner	384-52613-B
electivement	384-52920-B
electivite	384-53126-B
electoral ale	384-53239-B
electoralement	384-53833-B
electorat	384-54119-B
electragogue	384-54366-B
electre	384-54567-B
electrice	384-54718-B
electricien	384-54780-B
electricisme	384-55638-B
electricite	182-93305-S,351-156762-S,384-55897-B
electrification	384-58249-B
electrique	88-56554-S,182-93419-S,215-75149-S,266-12146-S,351-156966-S,384-58462-B
electriquement	384-60756-B
electrisable	384-61178-B
electrisant ante	384-61386-B
electrisation	384-61547-B
electrise ee	384-63467-B
electriser	384-62104-B
electriseur	384-62982-B
electro	384-63616-B
electro aimant	384-63723-B
electro capillaire	384-64035-B
electro capillarite	384-64302-B
electro chimie	384-64594-B
electro chimique	384-64899-B
electro dynamique	384-65001-B
electro dynamisme	384-65445-B
electro galvanique	384-65642-B
electro galvanisme	384-65829-B
electro magnetique	384-66014-B
electro magnetisme	384-66194-B
electro negatif ive	384-66434-B
electro physiologique	384-66671-B
electro polaire	384-67045-B
electro positif ive	384-67304-B
electro puncture	384-67537-B
electro statique	384-67789-B
electro therapeutique	384-68020-B
electro therapie	384-68181-B
electro vital ale	384-68348-B
electro vitalisme	384-68597-B
electrode	384-68903-B
electrogene	384-69304-B
electrogenese ou electrogenie	384-69601-B
electrogenie	384-69601-S
electrographe	384-69157-B
electrologie	384-69808-B
electrolysable	384-70026-B
electrolysation	384-70181-B
electrolyse	384-70321-B
electrolyser	384-70784-B
electrolyte	384-70959-B
electrolytique	384-71164-B
electrometre	384-71863-B
electrometrie	384-72435-B
electrometrique	384-72627-B
electromoteur trice	384-71376-B
electron	384-72730-B
electrophore	384-73082-B
electroscope	384-73687-B
electroscopie	384-73894-B
electrotype	384-73999-B
electrotypie	384-74116-B
electrum	384-74377-B
electuaire	384-74668-B
eledone	385-45903-B
elef d eau	384-75483-B
elegamment	385-46025-B
elegance	385-46842-B
elegant ante	385-48988-B
elegi	385-50643-B
elegiambique	385-50863-B
elegiaque	385-51052-B
elegie	385-51770-B
elegiographe	385-53122-B
elegir	385-53247-B
elegissement	385-53430-B
eleide	385-53531-B
eleison	203-11443-S
eleme	385-40802-B
element	334-28851-S,385-53611-B
elementaire	385-59813-B
elemente ee	385-62396-B
elemi	385-62752-B
elemifere	385-63021-B
elemine	385-63188-B
elenctique	384-75716-B
eleodendron	385-63295-B
eleole	385-63520-B
eleophage	385-63686-B
eleoptene	385-63822-B
elephant	385-64001-B
elephante	385-67638-B
elephanteau	385-67815-B
elephantiaque	385-68093-B
elephantiasis	385-68328-B
elephantide	385-69214-B
elephantin ine	385-69491-B,385-70085-B
elephantique	385-70212-B
elephantographie	385-70566-B
