analyser	12-78336-B
analyseur	12-78510-B
analyste	12-78870-B
analytique	12-79477-B
analytiquement	12-79853-B
anamartesie	12-80810-B
anamnestique	12-80984-B
anamorphose	12-81282-B
ananas	12-81751-B
anandre	12-82098-B
ananthe	12-82274-B
anapeste	12-82388-B
anapestique	12-82607-B
anaphonese	12-82755-B
anaphore	12-83074-B
anaphrodisiaque	12-83472-B
anaphrodisie	12-83646-B
anaphrodite	12-83842-B
anaplastie	12-84041-B
anaplastique	12-84346-B
anaplerotique	12-84505-B
anapnographe	12-84798-B
anarchie	12-85023-B
anarchique	12-85596-B
anarchiser	12-85927-B
anarchiste	12-86168-B
anarmostique	12-86247-B
anaryen enne	12-86476-B
anasarque	12-86822-B
anastomose	12-87215-B
anastomose ee	12-87887-B
anastomoser s 	12-87778-B
anastomotique	12-87999-B
anastrophe	12-88084-B
anathematise ee	12-92446-B
anathematiser	12-91756-B
anathematisme	12-92060-B
anatheme	12-88414-B
anatife	12-92582-B
anatocisme	12-92990-B
anatomie	12-93229-B
anatomique	12-97017-B
anatomiquement	12-97393-B
anatomise ee	13-0-B
anatomiser	12-97535-B
anatomisme	12-98694-B
anatomiste	12-99024-B
anatrope	13-189-B
ancetre	13-20746-B
ancetres	13-21109-B
anche	13-1055-B,13-3904-B
ancheau	13-2200-B
ancher	13-2284-B
anchiflure	13-2363-B
anchilops	13-2519-B
anchois	13-2809-B
anchoite ee	13-3682-B
anchuse	13-3799-B
ancien ienne	13-4012-B
anciennat	13-8890-B
anciennement	13-9305-B
anciennete	13-11059-B
ancile	13-12264-B
ancipite ee	13-12604-B
ancoeur	13-12900-B
ancolie	13-12992-B
ancon	13-14017-B
ancone	13-14585-B
ancrage	13-14758-B
ancre	13-15109-B
ancre ee	13-19886-B
ancrer	13-18012-B
ancrure	13-19641-B
ancyloglosse	13-20500-B,13-104768-S
ancyroide	13-20570-B
andabate	13-25759-B
andaillot	13-26010-B
andain	13-26165-B
andalous	13-27978-B
andamento	13-28121-B
andante	13-28357-B
andantino	13-28680-B
ande	58-147859-S,150-171559-S,162-82995-S,163-72588-S,219-178-S,241-46326-S,293-191656-S,311-35639-S,362-220567-S
andelle	13-28926-B
anders	13-29184-B
andicole	13-29270-B
andouille	13-29603-B
andouiller	13-31025-B,341-201731-S
andouillette	13-31777-B
andr	13-31937-B
andre saint	13-35619-B
andrienne	13-32051-B
andrinople	13-32341-B
androecie	13-32821-B
androgynat	13-33128-B
androgyne	13-33530-B
androide	13-35418-B
andromede	13-34341-B
andron	13-34759-B
androphobe	13-35088-B
androphore	13-35262-B
ane	6-75980-S,8-204112-S,10-71870-S,13-58305-S,18-22970-S,32-66281-S,34-26223-S,42-48433-S,55-106328-S,56-0-S,66-125364-S,66-125594-S,67-379-S,67-510-S,81-9496-S,94-24376-S,155-7457-S,167-27937-S,215-84605-S,232-133417-S,234-94614-S,251-69870-S,270-240909-S,292-126486-S,309-11283-S,311-26727-S,351-978-S,355-159239-S,358-78678-S,358-121229-S,379-121224-B
ane ou alzan ane	8-204112-S
aneanti ie	15-61804-B
aneantir	15-62387-B
aneantissement	15-65704-B
anecdote	13-35933-B
anecdotier	13-36588-B
anecdotique	13-37048-B
anecdotiser	13-37278-B
anee	379-131970-B
anelectrique	15-66560-B
aneme	15-61601-B
anemie	15-66888-B
anemique	15-67256-B
anemocorde	15-67388-B
anemographe	15-67569-B
anemographie	15-67892-B
anemometre	15-68066-B
anemone	15-68331-B
anemoscope	15-69377-B
anemotrope	15-69617-B
anencephale	13-37533-B
anencephalie	13-37681-B
anepigraphe	15-69769-B
anerie	379-127928-B
aneroide	15-70402-B
anesse	379-128541-B
anesthesie	13-37799-B
anesthesique	13-38118-B
aneth	13-38342-B
anevrismal et mieux anevrysmal ale	15-70596-B
anevrisme et mieux anevrysme	15-70856-B
anevrysmal ale	15-70596-S
anevrysmatique	15-71497-B
anevrysme	15-70856-S
anfractueux euse	13-38732-B
anfractuosite	13-39394-B
angar	13-40087-B
angarier	13-40128-B
ange	13-40682-B
angelina	13-47479-B
angelique	13-78647-B,13-79129-B,13-80565-B
angeliquement	13-81293-B
angelolatrie	13-81423-B
angelot	13-47576-B,13-48449-B,13-48802-B
angelus	13-48878-B
angemme ou angenne	13-49422-B
angenne	13-49422-S
angine	13-49925-B
angineux euse	13-50393-B
angiocarpe	13-50555-B
angiographie	13-50776-B
angioleucite	13-51110-B
angiologie	13-51283-B
angiosperme	13-51644-B
angiospermie	13-51821-B
angiotenique	13-52027-B
anglais aise	13-52232-B
anglaise	13-53190-B,96-245077-S
anglaise ee	13-54276-B
anglaise krishna	203-6968-S
anglaiser	13-54058-B
angle	13-54359-B
angle ee	13-60304-B
angler	13-57107-B
anglet	13-57305-B
angleterre	13-57900-B
angleux euse	13-58137-B
anglican ane	13-58305-B
anglicanisme	13-58682-B
angliciser	13-58784-B
anglicisme	13-59001-B
anglo saxon onne	13-59123-B
anglois	13-59754-B
anglomane	13-59814-B
anglomanie	13-59931-B
anglophobe	13-60149-B
angoisse	13-60462-B
angoisse ee	13-66884-B
angoisser	13-64826-B
angoisseux euse	13-66188-B
angon	13-67001-B
angora	13-67825-B
angrec	13-68707-B
angrois	13-68885-B
angroise ou angroisse	13-69010-B
angroisse	13-69010-S
angui	13-69365-B
anguichure	13-69452-B
anguiforme	13-69580-B
anguillade	13-69782-B
anguille	13-70397-B
anguiller	13-74021-B
anguilliere	13-74361-B
anguilliforme	13-74209-B
anguillule	13-74511-B
anguinee	13-74741-B
angulaire	13-74965-B
angulairement	13-76342-B
angularite	13-76471-B
angule ee	13-77140-B
anguleux euse	13-76594-B
angusticlave	13-77302-B
angustie	13-77902-B
angustie ee	13-78260-B
angustifolie ee	13-78033-B
angusture	13-78391-B
anharmonique	13-81550-B
anhelation	13-82460-B
anheler	13-83037-B
anheleux euse	13-83174-B
anhemie	13-83378-B
anhiste	13-82074-B
anhydre	13-82224-B
anicroche	13-83429-B
anide	13-84425-B
anidrose	13-84620-B
aniecer	13-104259-B
anier iere	379-129465-B
anil	13-84760-B
aniline	13-85029-B
anille	13-85257-B
animadversion	13-85630-B
animal	13-86797-B
animal ale	13-89002-B,376-208404-S
animalcule	13-90298-B
animalculisme	13-90712-B
animalculiste	13-90882-B
animalier	13-90967-B
animalisable	13-91092-B
animalisation	13-91190-B
animalise ee	13-91713-B
animaliser	13-91447-B
animalite	13-91806-B
animateur trice	13-92385-B
animation	13-92510-B
anime	13-100035-B
anime ee	13-100205-B
animelle	13-93123-B
animer	13-93476-B
animeusement	13-98005-B
animisme	13-98237-B
animiste	13-98539-B,326-147316-S
animosite	13-98602-B
anis	13-101937-B
anise ee	13-104182-B
aniser	13-102478-B
anisette	13-102572-B
anisique	13-102708-B
anisodonte	13-102860-B
anisomere	13-103092-B
anisopetale	13-103463-B
anisophylle	13-103296-B
anisotrope	13-103651-B
ankyloglosse ou ancyloglosse	13-104768-B
ankylose	13-105081-B
ankylose ee	13-105690-B
ankyloser	13-105469-B
ankyroide	13-105773-B
annal ale	13-105966-B
annales	13-106594-B
annaliste	13-107352-B
annalite	13-107449-B
annate	13-107753-B
anne	312-30802-S,320-109052-S
anneau	13-108602-B
annee	14-24091-B
annele ee	13-115512-B
anneler	13-113542-B
annelet	13-114348-B
annelides	14-27309-B
annelure	13-115330-B
annexation	14-0-B
annexe	14-257-B
annexe ee	14-3291-B
annexer	14-1837-B
annexion	14-2964-B
annexionniste	14-3061-B
annihilation	14-3528-B
annihile ee	14-5852-B
annihiler	14-3847-B
annille	14-5954-B
anniversaire	14-6253-B
annomination	14-7409-B
annonaire	14-7755-B
annonce	14-8081-B
annonce ee	14-14689-B
annoncement	14-8801-B
annoncer	14-9048-B
annonceur	14-12320-B
annonciade	14-12735-B
annonciateur	14-13201-B
annonciation	14-13763-B
annone	14-14923-B
annotateur	14-15124-B
annotation	14-15233-B
annote ee	14-16197-B
annoter	14-15890-B
annuaire	14-16297-B
annualite	14-16550-B
annuel	14-16640-B
annuel elle	14-16935-B,326-147609-S
annuellement	14-18774-B
annuite	14-19119-B
annulabilite	14-19815-B
annulable	14-20041-B
annulaire	14-20160-B,326-147706-S,350-389774-S
annulatif ive	14-21252-B
annulation	14-21392-B
annule ee	14-23852-B,14-23947-B
annulement	14-21791-B
annuler	14-21909-B
annulifere ou annuligere	14-23622-B
annuligere	14-23622-S
anobli ie	14-27481-B
anoblir	14-27768-B
anoblissement	14-29782-B
anodin ine ou anodyn yne	14-29978-B
anodinement	14-30889-B
anodonte	14-31257-B
anodontie	14-31525-B
anodyn yne	14-29978-S
anodynie	14-31718-B
anolis	14-31821-B
anomal ale	14-31968-B
anomalie	14-32760-B
anomalipede	14-33915-B
anomalistique	14-34073-B
anomie	14-34659-B
anomocarpe	14-34932-B
anomocephale	14-35100-B
anon	379-130122-B
anonacees	14-35329-B
anone	14-35679-B
anonne ee	379-131709-B
anonnement	379-130701-B
anonner	379-130792-B
anonymat	14-35795-B
anonyme	14-36270-B
anonymement	14-36811-B
anonymie	14-37183-B
anophthalme	14-37295-B
anoplothere	14-37660-B
anordie	14-37899-B
anordir	14-37975-B
anorexie	14-38090-B
anormal ale	14-38307-B
anormalement	14-38883-B
anosmie ou anosphresie	14-39171-B
anosphresie	14-39171-S
anosteozoaires	14-39389-B
anotte	14-39608-B
anotto	14-39708-B
anouart	14-39808-B
anoure	14-39913-B
anousvara ou anusvara	14-40079-B
anse	14-40521-B,14-41449-B
anse ee	14-45432-B
anseate	14-45604-B
anseatique	14-46004-B
anselle	14-43449-B
anser	14-43901-B
anserine	14-46070-B,14-46289-B
ansette	14-43961-B
ansiere	14-44144-B
anspect	14-44271-B
anspessade	14-44460-B
ant	1-1915-B
antagonique	14-46632-B
antagonisme	14-47265-B
antagoniste	14-47801-B
antan	14-48506-B
antanaclase	14-49464-B
antanagoge	14-49787-B
antanier ere	14-49971-B
antapodose	14-50123-B
antarctique	14-50437-B
antares	14-50905-B
ante	1-13000-S,1-100445-S,1-120492-S,1-148723-S,1-183976-S,1-185232-S,2-21302-S,2-60133-S,2-73246-S,2-117628-S,2-148486-S,2-174831-S,3-8283-S,3-9172-S,3-55705-S,3-80952-S,3-147218-S,3-207800-S,3-227265-S,4-753-S,4-9469-S,4-81079-S,4-108388-S,4-138888-S,4-146238-S,5-7517-S,5-66488-S,5-70145-S,5-123301-S,5-130694-S,5-165735-S,6-8502-S,6-14375-S,6-26319-S,6-94810-S,6-108623-S,6-112949-S,6-137347-S,6-139729-S,7-6344-S,7-69931-S,7-146852-S,8-6737-S,8-148463-S,8-169330-S,9-45224-S,9-47685-S,9-165500-S,10-43944-S,10-56679-S,10-94146-S,11-27341-S,11-48850-S,11-123732-S,11-126588-S,12-15060-S,12-30826-S,12-43804-S,14-51029-B,14-51356-S,14-74582-S,17-9035-S,17-25648-S,17-41977-S,17-112368-S,17-181837-S,20-30944-S,20-81672-S,21-37370-S,21-61029-S,21-66257-S,21-66408-S,21-84095-S,21-92824-S,22-5843-S,22-39841-S,22-50799-S,22-55337-S,22-67219-S,22-74409-S,22-80803-S,22-86522-S,22-90392-S,22-98911-S,23-36598-S,23-88293-S,23-89615-S,23-108565-S,23-142838-S,24-6625-S,24-16481-S,24-21114-S,26-1366-S,26-55368-S,26-76211-S,26-145711-S,28-110568-S,31-28056-S,31-70579-S,32-97388-S,33-134591-S,33-137881-S,33-141383-S,33-157146-S,33-162738-S,35-103307-S,36-21396-S,36-43834-S,36-61911-S,36-72023-S,36-95356-S,37-89255-S,37-148624-S,38-131163-S,39-4927-S,39-27111-S,39-53462-S,39-99521-S,40-121554-S,41-71042-S,42-52764-S,42-111160-S,42-123736-S,43-8362-S,43-100415-S,44-0-S,44-22609-S,44-45045-S,44-66414-S,44-95025-S,45-22675-S,45-99075-S,46-12190-S,46-60194-S,46-62877-S,46-80106-S,47-15244-S,47-40769-S,48-69613-S,49-13611-S,49-68167-S,49-85719-S,52-76283-S,53-13743-S,53-62651-S,55-63886-S,56-22672-S,56-63513-S,56-63678-S,58-84393-S,58-120551-S,59-104256-S,59-147093-S,59-188089-S,60-115162-S,60-166845-S,61-74005-S,61-84169-S,61-136747-S,62-173345-S,62-229462-S,64-10970-S,65-14046-S,65-136312-S,66-84758-S,66-121879-S,67-96220-S,67-113838-S,67-150986-S,68-52706-S,69-18454-S,69-26166-S,69-26649-S,69-71122-S,70-49364-S,70-74724-S,70-137276-S,70-192948-S,71-0-S,71-47574-S,71-127971-S,71-145376-S,72-60151-S,72-75769-S,72-110348-S,72-156331-S,72-158006-S,72-230587-S,72-264332-S,72-267881-S,72-279011-S,72-290934-S,73-31503-S,73-73694-S,73-77353-S,73-208853-S,73-209039-S,74-9236-S,74-20267-S,74-36293-S,74-39566-S,74-46453-S,74-91488-S,74-96165-S,74-180127-S,75-14892-S,75-30795-S,75-54340-S,75-104132-S,75-106091-S,76-12080-S,76-52049-S,76-58430-S,76-134420-S,76-168344-S,76-196857-S,76-205937-S,76-219192-S,76-244185-S,76-249289-S,76-261102-S,76-270236-S,76-272826-S,76-274826-S,77-29058-S,77-99848-S,77-100195-S,77-139551-S,77-187570-S,77-197492-S,77-220156-S,77-249807-S,77-260337-S,78-32149-S,78-43713-S,78-61506-S,79-25343-S,79-28423-S,79-37573-S,79-70328-S,79-91243-S,79-106956-S,80-18392-S,80-36984-S,80-64963-S,80-92552-S,80-136998-S,80-144733-S,80-149521-S,82-137873-S,82-141671-S,82-151017-S,82-153719-S,83-74231-S,84-7767-S,84-78515-S,84-199112-S,85-0-S,85-13874-S,85-76314-S,86-101949-S,87-112083-S,88-11258-S,88-54068-S,88-76617-S,88-159840-S,88-198959-S,89-32237-S,89-56412-S,89-59306-S,89-68001-S,89-110370-S,90-85584-S,91-43174-S,91-108707-S,93-62319-S,95-79847-S,95-111810-S,96-181541-S,96-203201-S,97-35004-S,97-36729-S,97-115438-S,97-162044-S,97-206014-S,99-85030-S,100-37263-S,100-47821-S,100-81114-S,101-74688-S,101-78058-S,101-96597-S,101-112593-S,101-120584-S,101-147917-S,101-196597-S,102-9598-S,102-63519-S,102-83770-S,102-107063-S,102-109488-S,102-122466-S,102-130328-S,102-176263-S,103-27373-S,103-47055-S,104-47650-S,104-110167-S,104-217172-S,105-19412-S,107-643-S,108-39344-S,108-48597-S,108-64236-S,108-74110-S,108-139055-S,109-58154-S,110-14147-S,110-103810-S,110-138807-S,110-143724-S,111-10363-S,111-20126-S,111-34193-S,111-36709-S,111-51023-S,111-92689-S,111-97101-S,111-162896-S,112-7216-S,112-125232-S,112-139098-S,112-199853-S,113-54110-S,113-62175-S,113-69369-S,113-115650-S,114-28690-S,114-37438-S,114-49613-S,114-101275-S,114-103868-S,115-88840-S,115-121309-S,115-137977-S,116-59520-S,116-94714-S,116-127718-S,116-152243-S,117-155-S,117-45462-S,117-65795-S,117-93790-S,117-173668-S,118-4099-S,118-41747-S,118-49801-S,118-100803-S,119-76771-S,119-104917-S,119-121668-S,120-3173-S,120-18102-S,120-31895-S,120-35824-S,120-39608-S,120-44164-S,120-55034-S,120-75031-S,120-83926-S,120-87924-S,120-109377-S,120-134711-S,121-274-S,121-79641-S,121-137613-S,122-85630-S,122-163623-S,123-23796-S,123-34087-S,123-60804-S,123-115653-S,124-39226-S,125-78117-S,125-83937-S,125-136087-S,125-170986-S,126-9095-S,127-8057-S,127-32824-S,127-51451-S,127-82340-S,128-12377-S,128-14785-S,128-171872-S,128-199433-S,128-206168-S,128-243317-S,129-7420-S,129-18764-S,129-36889-S,129-112925-S,129-131446-S,130-4268-S,130-56665-S,130-112131-S,130-154605-S,131-38609-S,131-72327-S,131-74298-S,131-78675-S,132-80586-S,133-51892-S,133-54786-S,133-114130-S,133-160742-S,133-163328-S,135-83758-S,135-152033-S,137-10340-S,137-18925-S,137-36948-S,137-74046-S,137-132930-S,137-182936-S,137-186385-S,137-200817-S,138-9655-S,138-23815-S,138-38033-S,138-43097-S,138-53597-S,138-100704-S,139-2390-S,139-15436-S,139-69361-S,139-110728-S,140-82352-S,140-104448-S,140-230930-S,141-134651-S,142-10798-S,142-144487-S,142-250441-S,142-272514-S,143-20930-S,143-153195-S,143-183650-S,144-56352-S,144-56627-S,144-117777-S,144-206359-S,144-296221-S,145-67970-S,145-74360-S,145-89220-S,145-93804-S,145-118485-S,146-16184-S,146-53689-S,146-68607-S,146-90748-S,146-91341-S,146-100767-S,146-159641-S,146-159968-S,147-64734-S,147-113933-S,147-144494-S,148-178137-S,148-292292-S,149-31132-S,149-111480-S,149-182173-S,149-220076-S,150-69682-S,150-117445-S,151-9682-S,151-52719-S,151-173893-S,151-188970-S,152-34088-S,152-53938-S,152-96829-S,152-102570-S,152-110608-S,153-33381-S,153-81005-S,153-106983-S,153-117302-S,154-92759-S,154-172016-S,156-4944-S,157-82864-S,157-85375-S,158-0-S,158-141541-S,159-64976-S,160-9329-S,160-17150-S,160-23726-S,160-106117-S,160-114852-S,162-109598-S,162-135961-S,163-133283-S,164-62122-S,164-99932-S,165-32940-S,165-39300-S,165-80251-S,165-98515-S,165-109893-S,166-16439-S,166-28758-S,166-184444-S,166-214806-S,167-46321-S,167-48764-S,168-53109-S,168-73528-S,168-123403-S,169-38791-S,169-52552-S,169-89396-S,169-93167-S,169-116787-S,170-40679-S,170-109871-S,170-131334-S,170-133309-S,172-26386-S,173-96264-S,173-114658-S,176-140947-S,176-172523-S,177-29095-S,177-66471-S,179-42194-S,180-46570-S,181-113963-S,183-72799-S,183-114647-S,183-130117-S,183-165662-S,184-16089-S,184-56027-S,184-117848-S,184-146450-S,185-49404-S,185-63576-S,185-87422-S,185-147570-S,185-173578-S,186-2913-S,186-15631-S,186-69971-S,186-105357-S,186-117433-S,187-69266-S,187-99389-S,187-108831-S,187-110959-S,188-7791-S,188-12786-S,188-22156-S,188-37193-S,188-38112-S,188-54391-S,188-54883-S,188-57711-S,188-75941-S,188-82861-S,188-98393-S,188-105777-S,188-125222-S,188-125562-S,189-4943-S,189-5333-S,189-22477-S,190-87001-S,190-123575-S,191-23185-S,191-28493-S,191-40930-S,191-126893-S,192-59976-S,192-160661-S,193-23131-S,193-42748-S,193-101782-S,193-102492-S,193-118221-S,193-140748-S,193-150519-S,194-23999-S,194-74692-S,194-94168-S,194-97341-S,194-157384-S,195-80669-S,195-106870-S,195-114206-S,195-135942-S,195-147503-S,196-11991-S,196-64384-S,196-69396-S,196-121490-S,196-184678-S,197-33154-S,198-8776-S,198-9825-S,198-90230-S,199-7515-S,199-30796-S,199-85655-S,200-5435-S,200-83614-S,201-12316-S,201-154331-S,201-268038-S,201-280587-S,202-116311-S,204-160562-S,205-4084-S,205-81752-S,205-194886-S,206-12386-S,206-35136-S,206-38871-S,207-186096-S,208-159536-S,209-50035-S,210-47-S,212-80112-S,213-27985-S,214-6105-S,215-72263-S,216-156483-S,216-158454-S,216-165163-S,216-168501-S,216-248413-S,216-253265-S,217-0-S,217-12199-S,217-104698-S,218-53812-S,218-71961-S,219-26707-S,220-11035-S,220-191171-S,222-138139-S,222-139276-S,223-116570-S,223-225629-S,223-259831-S,223-273231-S,224-61343-S,224-117163-S,225-53172-S,225-138221-S,225-152546-S,226-91478-S,226-98185-S,228-25102-S,228-110457-S,229-65486-S,229-68907-S,229-106608-S,229-215728-S,230-207168-S,230-255910-S,231-32483-S,231-42276-S,231-154395-S,232-527-S,232-57277-S,234-22189-S,234-47922-S,234-60720-S,234-135995-S,234-152238-S,234-161706-S,235-126866-S,235-150132-S,236-7977-S,237-147714-S,237-166112-S,237-196671-S,238-64021-S,238-97521-S,239-0-S,239-146628-S,239-242212-S,239-250984-S,239-272072-S,241-9350-S,241-17606-S,242-34680-S,242-208947-S,242-265282-S,244-65398-S,244-182653-S,244-195248-S,244-225979-S,245-36946-S,245-43110-S,245-125568-S,245-130576-S,246-150797-S,247-12826-S,247-32490-S,247-135160-S,247-140517-S,248-75606-S,248-108441-S,248-148374-S,249-276558-S,251-614-S,251-8289-S,252-37446-S,252-64732-S,252-119785-S,252-214142-S,253-2666-S,253-8567-S,253-182466-S,254-88411-S,255-111779-S,257-31919-S,257-44073-S,258-59767-S,259-3846-S,259-224483-S,259-389355-S,260-109644-S,261-87358-S,261-175846-S,261-198053-S,262-38336-S,262-53835-S,262-96522-S,263-46420-S,263-52748-S,263-123768-S,263-131713-S,264-18760-S,264-67053-S,264-76665-S,264-90473-S,264-114299-S,264-121074-S,264-127132-S,267-48467-S,268-64583-S,269-24745-S,270-4541-S,270-116921-S,270-130221-S,270-149761-S,270-200157-S,271-65236-S,271-115613-S,271-158973-S,272-5032-S,272-23810-S,273-41866-S,273-248521-S,273-293751-S,276-26354-S,276-53005-S,277-214786-S,278-173005-S,278-180886-S,278-207755-S,279-31437-S,279-82775-S,279-223001-S,279-305861-S,280-161143-S,280-195334-S,281-56223-S,281-127574-S,282-174182-S,283-2562-S,283-23611-S,283-66716-S,284-44297-S,284-44828-S,284-46828-S,284-51107-S,284-54579-S,284-78992-S,284-119436-S,284-137073-S,285-16464-S,285-113992-S,285-151629-S,285-179668-S,286-33726-S,287-28998-S,287-44468-S,287-75828-S,287-131613-S,288-56218-S,288-96213-S,289-109243-S,290-15120-S,290-74802-S,291-16108-S,291-33439-S,291-48424-S,292-45881-S,292-311120-S,294-66375-S,295-8393-S,295-17558-S,295-75316-S,295-98749-S,295-182977-S,296-5808-S,296-108258-S,296-113135-S,297-15509-S,297-40110-S,297-78422-S,297-134443-S,297-141796-S,297-161213-S,297-183037-S,298-35979-S,298-76293-S,298-104595-S,298-152726-S,299-29295-S,299-107068-S,299-167974-S,300-13355-S,300-39825-S,300-82368-S,300-117533-S,301-31432-S,301-96222-S,301-136679-S,302-40179-S,302-86161-S,302-153450-S,302-218076-S,303-6602-S,303-11231-S,303-13220-S,303-90081-S,303-152039-S,303-216837-S,304-10354-S,304-60790-S,304-111261-S,305-2032-S,305-45973-S,305-67625-S,305-162012-S,305-232288-S,306-6727-S,306-85269-S,306-137190-S,306-185420-S,306-201680-S,306-221316-S,306-282519-S,307-5080-S,307-15975-S,307-16423-S,307-17626-S,307-71868-S,307-128717-S,307-290696-S,308-0-S,308-168898-S,309-20651-S,309-172811-S,310-112586-S,311-39653-S,311-135314-S,311-142757-S,312-35307-S,312-85540-S,312-103372-S,313-60848-S,313-113222-S,313-144760-S,313-154223-S,314-3972-S,314-11413-S,314-72337-S,314-101901-S,315-3359-S,315-14753-S,315-33156-S,315-80275-S,315-127906-S,315-178322-S,316-0-S,316-22788-S,316-73511-S,316-74831-S,316-101895-S,316-141153-S,316-171076-S,316-187561-S,317-104597-S,317-142162-S,317-211687-S,317-247347-S,317-270509-S,317-274783-S,317-281257-S,317-300146-S,318-52321-S,318-99750-S,318-118476-S,318-138970-S,319-143062-S,320-46330-S,320-63879-S,320-138697-S,320-205033-S,320-206595-S,321-63545-S,321-114320-S,322-98149-S,322-105126-S,323-70636-S,323-93800-S,323-147895-S,324-91468-S,324-123332-S,325-156864-S,326-153793-S,326-246722-S,327-140066-S,328-150355-S,328-200151-S,328-212082-S,328-226427-S,329-45392-S,331-159497-S,332-1497-S,332-83911-S,332-209467-S,332-225006-S,332-274291-S,333-432-S,333-11136-S,333-21884-S,333-92716-S,333-165611-S,334-53425-S,334-147798-S,335-75006-S,336-91306-S,337-59329-S,337-60603-S,337-68815-S,338-59691-S,339-23094-S,339-43094-S,339-80086-S,339-103245-S,340-147710-S,340-154932-S,340-215378-S,341-72535-S,341-86216-S,341-102741-S,341-131389-S,341-133487-S,341-205042-S,342-52196-S,342-61336-S,342-72738-S,342-95629-S,342-100300-S,343-14693-S,343-17284-S,343-26899-S,344-15654-S,345-26640-S,345-31705-S,345-85747-S,345-107543-S,346-658-S,346-216568-S,347-81232-S,348-4846-S,348-157505-S,350-95960-S,350-132131-S,350-139855-S,350-305264-S,351-2377-S,354-139999-S,354-203366-S,354-213513-S,354-335868-S,355-5958-S,355-130859-S,355-151228-S,356-12495-S,356-152861-S,356-170638-S,356-187442-S,356-273403-S,357-18454-S,357-229694-S,357-269747-S,358-1471-S,358-38995-S,358-103854-S,358-169287-S,359-24538-S,359-57004-S,359-58205-S,359-122119-S,359-141546-S,359-146072-S,361-6015-S,361-36007-S,361-90376-S,362-127979-S,363-10811-S,363-113024-S,365-93735-S,365-118606-S,366-215819-S,366-221137-S,367-38487-S,367-65744-S,368-10374-S,368-38111-S,368-52513-S,368-54976-S,368-77440-S,369-70574-S,370-5094-S,370-55759-S,371-2679-S,371-4520-S,371-117257-S,372-40417-S,372-64066-S,373-7347-S,373-45069-S,374-7726-S,374-87381-S,374-163354-S,374-179857-S,375-17562-S,375-230062-S,375-313247-S,376-18419-S,376-81308-S,376-189865-S,376-199473-S,376-242314-S,377-29517-S,379-184001-S,379-198019-S,381-6900-S,381-108272-S,381-120069-S,381-152468-S,382-1461-S,382-51465-S,382-95391-S,382-117560-S,382-164133-S,383-11213-S,383-44376-S,384-13167-S,384-61386-S,384-110856-S,385-48988-S,385-126203-S,386-18238-S,386-49521-S,386-94540-S,386-119884-S,389-62842-S,389-118159-S,389-121496-S,389-148750-S,389-153986-S,391-122841-S,391-176739-S,391-194243-S,391-227706-S,391-250762-S,392-83066-S,392-113398-S
ante bois	14-51621-B
ante et assujettissant ante	22-98911-S
ante ou ante	14-51356-B
ante ou hilariant ante	173-114658-S
antecedemment	15-50644-B
antecedence	15-50781-B
antecedent	15-51346-B
antecedent ente	15-52543-B
antecesseur	15-50091-B
antechrist	14-51802-B
antecien ou antoecien	15-50271-B
antediluvien ienne	15-52838-B
antefixe	15-53166-B
antegrammatical ale	15-53423-B
antehistorique	15-53915-B
antemoral ale	15-54002-B
antenais	14-52876-B
antenais aise	14-54704-S
antennaire	14-52928-B
antennal ale	14-53033-B
antenne	14-53313-B
antennifere	14-54426-B
antennule	14-54567-B
antenois oise ou antenais aise	14-54704-B
antenuptial ale	15-54440-B
anteoccupation	15-54867-B
antepenultieme	15-55302-B
antepredicament	15-55126-B
anterieur eure	15-55708-B
anterieurement	15-57171-B
anteriorite	15-57410-B
anteversion	15-57998-B
anthelie	14-68527-B
anthelix	14-68728-B
anthelminthique	14-55563-B
anthemis	14-68988-B
anthere	14-68107-B
antheridie	14-69111-B
antherifere	14-69261-B
antherin ine	14-69406-B
antherologie	14-69571-B
antherophage	14-69761-B
anthese	14-68334-B
anthiverner	14-55728-B
anthologie	14-55942-B
anthophage	14-56405-B
anthophile	14-56564-B
anthophore	14-56719-B
anthore	14-56876-B
anthorisme	14-57172-B
anthostome	14-57469-B
anthozoaire	14-57699-B
anthracifere	14-57891-B
anthracite	14-58064-B
anthraciteux euse	14-58463-B
anthracolithe	14-58569-B
anthracothere	14-58712-B
anthraflavone	14-58938-B
anthrapurpurine	14-59144-B
anthrax	14-59349-B
anthrene	14-67321-B
anthropeien	14-67112-B
anthropocentrique	14-59814-B
anthropoforme	14-60323-B
anthropographie	14-60611-B
anthropoide	14-66909-B
anthropokaie	14-60844-B
anthropolatrie	14-62978-B
anthropolithe	14-61130-B
anthropologie	14-61602-B
anthropologique	14-62510-B
anthropologiste	14-62881-B
anthropomagnetisme	14-63361-B
anthropomancie	14-63458-B
anthropometrie	14-64642-B
anthropomorphe	14-63693-B
anthropomorphisme	14-63906-B
anthropomorphiste	14-64068-B
anthropomorphite	14-64403-B
anthroponomie	14-65168-B
anthropopathie	14-65421-B
anthropophage	14-65684-B
anthropophagie	14-66403-B
anthyllide	14-67525-B
anthyllis	14-67682-B
anthypophore	14-67901-B
anti	14-69915-B
anti bois	14-70187-B
anti obesique	14-70243-B
antiapoplectique	14-70517-B
antiar	14-70701-B
antiarine	14-70751-B
antiaristocrate	14-70844-B
antibacchiaque	14-70974-B
antibacchius ou antibacque	14-71121-B
antibacque	14-71121-S
antibulle	14-71394-B
anticabinet	14-71487-B
antichambre	14-71591-B
antichrese	14-73078-B
antichresiste	14-73517-B
antichretien ienne	14-73921-B
antichristianisme	14-72634-B
antichthone	14-74277-B
anticipant ante	14-74582-B
anticipation	14-74880-B
anticipe ee	14-78694-B
anticiper	14-76230-B
anticivique	14-79109-B
anticivisme	14-79380-B
anticlerical ale	14-80048-B
anticlinale	14-79749-B
anticoeur	25-169562-S
anticomanie	14-80233-B
anticombustible	14-80426-B
anticoncordataire	14-80677-B
anticonstitutionnel elle	14-80968-B
anticontagionniste	14-81134-B
anticrepuscule	14-81375-B
antidactyle	14-81592-B
