claircage	67-98050-B
clairce	67-83065-B
claircee	67-83313-B,67-98526-S
claircer	67-83167-B
claire	67-65893-S,67-83368-B
claire etoffe	67-84665-S,67-86412-B
claire sainte 	67-84208-B
claire soudure ou claire etoffe	67-84665-B
claire voie	67-84842-B
clairee ou claircee	67-98526-B
clairement	67-86487-B
clairer	67-88987-B
clairet	67-89070-B
clairette	67-90598-B
clairier	67-91012-B
clairiere	67-91096-B
clairiere ee	67-91852-B
clairon	67-92235-B,67-94567-B
claironner	67-94925-B
clairure	67-95173-B
clairvoyance	67-95326-B
clairvoyant ante	67-96220-B
clamable	67-98735-B
clamant	67-98874-B
clameaux	67-99045-B
clameur	67-99578-B
clameux euse	67-103638-B
clamp	67-104080-B
clampe	67-104373-B
clampin	67-104488-B
clamponnier	67-104734-B
clan	67-104904-B,67-105241-B
clan ou cland	67-105403-B
clanculaire	67-105473-B
cland	67-105403-S
clandestin ine	67-105772-B
clandestine	67-106904-B
clandestinement	67-107175-B
clandestinite	67-108242-B
clangueur	67-108927-B
clapee	67-114621-B
clapet	67-109122-B,276-97291-S
clapi ie	67-109962-B
clapier	67-110052-B
clapir	67-113227-B
clapis	67-113485-B
clapotage	67-113617-B
clapotant ante	67-113838-B
clapoter	67-113930-B
clapoteux euse	67-114124-B
clapotis	67-114261-B
clappement	67-114315-B
clapper	67-114505-B
claquade	67-114810-B
claquart	67-115003-B
claque	67-115084-B,67-116326-B
claque ee	67-122816-B
claque oreille	67-116784-B
claquebois	67-116928-B
claquedent	67-117178-B
claquement	67-117623-B
claquemure ee	67-118881-B
claquemurer	67-118108-B
claquer	67-119092-B
claquet	67-120456-B
claqueter	67-121307-B
claquette	67-122097-B
claqueur	67-122639-B
clarence	67-123459-B
clarequet	67-123733-B
claret	67-123806-B
clarette	67-124099-B
claricorde	67-124178-B
clariere	67-129753-B
clarificateur trice	67-124324-B
clarification	67-124602-B
clarifie ee	67-127095-B
clarifier	67-125420-B
clarine	67-127203-B
clarine ee	67-128998-B
clarinette	67-127886-B
clarinettiste	67-128833-B
clarisse	67-129143-B
clarissimat	67-129291-B
clarissime	67-129412-B
clarte	67-129921-B
classe	67-136750-B,333-207168-S
classe ee	67-149165-B
classement	67-142584-B
classer	67-142997-B
classeur	67-143963-B
classicisme	67-144056-B
classificateur	67-144256-B
classification	67-144387-B
classificatoire	67-145267-B
classifier	67-145724-B
classique	67-146190-B
classiquement	67-148879-B
clastique	67-149934-B
clathre	67-150277-B
clatir	67-150404-B
claude	67-150592-B,67-150937-B,302-147007-S
claudicant ante	67-150986-B
claudication	67-151237-B
claujot	67-151644-B
clause	67-151722-B
clausiconque	67-154195-B
clausoir	67-154340-B
claustral ale	67-154484-B
claustration	67-155141-B
claustre ou clostre	67-155305-B
clausule	67-155538-B
clavai	67-156412-B
clavaire	67-156632-B
clavalier	67-157048-B
clavandier	68-0-B
clave ee	68-10038-B,68-10306-B
claveau	68-136-B,68-1177-B
clavecin	68-1619-B
clavecin ou clavesin	68-2719-B
claveciniste	68-2933-B
clavel	68-3275-B
clavelade	68-3358-B
clavele ee	68-3818-B
clavelee	68-4097-B
clavelisateur	68-10503-B
clavelisation	68-3474-B
claveliser	68-3678-B
clavesin	68-2719-S,68-4414-B
clavet	68-4486-B
clavete ee	68-4969-B
clavette	68-4622-B,78-16665-S
clavi cylindre	68-5191-B
clavi harpe	68-5384-B
clavi lyre	68-5600-B
clavicorde	68-5733-B
clavicorne	68-5865-B
claviculaire	68-6149-B,83-42518-S,333-207276-S,337-48023-S
clavicule	68-6367-B
clavicule ee	68-7124-B
clavier	68-7282-B
clavier iere	333-207570-S
claviere	68-9953-B
clavifolie ee	68-9219-B
claviforme	68-9397-B
clavigere	68-9534-B
clavin	68-9679-B
clavipalpe	68-9772-B
clayer	68-10670-B
clayere	68-12870-B
clayette	68-10910-B
claymore	68-11054-B
clayon	68-11289-B
clayonnage	68-11949-B
clayonner	68-12487-B
cle	68-13171-S,69-412-B
cleche ee	69-447-B
cledal	69-685-B
clef	78-16824-S,96-249361-S
clef ou cle	68-13171-B
clefs	276-97443-S,330-44577-S
cleido	68-28648-B
clematite	69-1240-B
clemence	69-1470-B
clement ente	69-2757-B
clementines	69-3673-B
clenche	68-28898-B
clenchette	68-29166-B
cleonien	69-3981-B
clephte	68-29224-B
clepsydre	68-29732-B
cleptomanie	68-30399-B
clerc	68-31107-B
clerge	68-43338-B
clergeon	68-40452-B
clergesse	68-41345-B
clergie	68-41647-B
clerical ale	69-4131-B
clericalement	69-5485-B
clericalisation	69-5703-B
clericaliser	69-5932-B
clericalisme	69-6563-B
clericat	69-6821-B
clericature	69-6904-B
clerodendron	69-7483-B
cleromancie	69-7721-B
cleromancien	69-7953-B
cleronomie	69-8043-B
clichage	68-44269-B
cliche ee	68-45844-B
clicher	68-44380-B
clicherie	68-45450-B
clicheur	68-45741-B
clido mastoidien	337-48207-S
clidomancie	68-46136-B
client	68-46372-B
clientele	68-48287-B
clifoire	68-49377-B
cligne ee	68-53805-B
cligne musette	68-49603-B
clignement	68-50281-B
cligner	68-50729-B
clignot	68-52658-B
clignotant ante	68-52706-B
clignotement	68-53207-B
clignoter	68-53425-B
climactere	68-53889-B
climat	68-54305-B
climaterique	68-59315-B
climatologie	68-58225-B
climatologique	68-58449-B
climatorial ale	68-58592-B
climature	68-59102-B
climax	68-61120-B
clin	68-61268-B,68-61469-B
clinamen	68-63558-B
clinanthe	68-63817-B
clincaille et clincaillerie et clincaillier	68-63985-B
clincaillerie et clincaillier	68-63985-S
clincaillier	68-63985-S
clinche	68-64185-B
clinfoc	68-64233-B
clinicien	68-64425-B
clinique	68-64621-B
clinoide	68-66422-B
clinometre	68-65521-B
clinopode	68-65893-B
clinorhombique	68-66097-B
clinoscope	68-66312-B
clinquant	68-66896-B
clinquanter	68-69518-B
clio	68-69787-B,68-70103-B
clipper	68-70266-B
cliquart	68-70303-B
clique	68-70466-B
cliquer	68-71901-B
cliquet	68-72379-B
cliqueter	68-73152-B
cliquetis	68-73805-B
cliquette	68-74924-B
cliseometre	68-77814-B
clisse	68-76185-B
clisse ee	68-77459-B
clisser	68-76933-B
clisson	68-77316-B
clister ou clistrer	68-77691-B
clistrer	68-77691-S
clitoridien ienne	68-78029-B
clitorien ienne	198-77266-S
clitoris	68-78145-B
clitorisme	68-78335-B
clivable	68-78418-B
clivage	68-78515-B
clive ee	68-79475-B
cliver	68-79141-B
cloacal ale	68-79546-B
cloaque	68-79641-B
cloche	68-82497-B,246-287734-S
cloche pied a	68-91020-B
clochement	68-91404-B
clocher	68-91504-B,68-93981-B,68-94170-B
clocheteur	68-97183-B
clocheton	68-97417-B
clochette	68-97729-B
cloison	68-99612-B
cloisonnage	68-101689-B
cloisonne ee	68-101888-B
cloitre	68-137376-B
cloitre ee	68-102066-B
cloitrer	68-141413-B
cloitrier	68-142216-B
clonique	68-102314-B
clopant	68-102692-S
clopee	68-106329-B
clopemanie	68-106486-B
clopeur ou clopeux	68-102488-B
clopeux	68-102488-S
clopin	68-102647-B
clopin clopant	68-102692-B
clopiner	68-103886-B
clopineux euse	68-104766-B
cloporte	68-104918-B
cloque	68-106654-B
cloque ee	68-107672-B
cloquet	68-107369-B
cloquetier	68-107534-B
clore	68-108010-B,131-107415-S
clos	68-116003-B,273-80369-S
clos close	68-116908-B
closage	68-120469-B
close	68-116908-S
closeau	68-121003-B
closement	68-121085-B
closerie	68-121380-B
closet	68-121743-B
closier	68-121834-B
closoir	68-122290-B
clossement	68-122478-B
closser	68-122538-B
clostre	67-155305-S,68-122586-B
clotho ou clothon	68-122859-B
clothon	68-122859-S
clotoir	68-123743-B
cloture	69-8216-B
cloturer	69-11362-B
cloturier	69-11826-B
clou	68-123791-B,353-135588-S
clouage	68-131265-B
cloucourde	68-131391-B
cloudet	68-131464-B
cloue ee	68-135368-B
clouement	68-131527-B
clouer	68-131681-B
clouet	68-133929-B
clouiere	68-133987-B
cloute ee	68-135137-B
clouter	68-134096-B
cloutere	68-135033-B
clouterie	68-134439-B
cloutier	68-134648-B
cloutiere ou clouviere	68-134827-B
clouure	68-135229-B
clouviere	68-134827-S
clovisse	68-136257-B
clown	68-136628-B
cloyere	68-136944-B
club	68-142967-B,201-0-S
clubiste	68-144551-B
clunipede	68-144793-B
cluniste	68-144983-B
cluny	68-145052-B
clupee	68-145312-B
clupeide	68-145505-B
cluse	68-145568-B
cluser	68-145743-B
clymene	68-145886-B
clypeace ee	68-146036-B
clypeastre	68-146206-B
clypeiforme	68-146393-B
clysmien ienne	68-146552-B
clysoir	68-146732-B
clysopompe	68-147035-B
clysse	68-147206-B
clystere	68-147358-B
clysterisation	69-0-B
clysteriser	69-85-B
clytie	69-275-B
cnef	69-11940-B
cnemide	69-12328-B
cnidose	69-12181-B
co	96-25528-S
co auteur	69-12735-B
co bourgeois	69-13083-B
co ou com ou con	69-12504-B
co sujet	69-13251-B
coaccuse ee	69-13677-B
coacher	69-13912-B
coacquereur	69-14423-B
coacquisition	69-14171-B
coacteur	69-14821-B
coactif ive	69-15031-B
coaction	69-15481-B,240-279141-S
coactivite	69-16083-B
coadjuteur	69-16207-B
coadjutorerie	69-17832-B
coadjutrice	69-18317-B
coadjuvant ante	69-18454-B
coadne ee	69-18820-B
coagulabilite	69-18968-B
coagulable	69-19255-B
coagulant	69-19505-B
coagulateur trice	69-19646-B
coagulation	69-19795-B
coagule ee	69-21553-B
coaguler	69-20326-B
coagulum	69-21316-B
coaille	69-21754-B
coailler	69-21940-B
coalescence	69-22121-B
coalescent ente	69-22534-B
coalise ee	69-23087-B
coaliser se	69-22746-B
coalition	69-23459-B
coaltar	69-24803-B
coaltarement	69-25173-B
coaltarer	69-25462-B
coaptation	69-25920-B
coarctant ante	69-26166-B
coarctation	69-26326-B
coarcte ee	69-26503-B
coassant ante	69-26649-B
coassement	69-26753-B
coasser	69-27145-B
coassocie	69-28146-B
coassurance	69-28325-B
coati	69-28693-B
cobaea	69-28994-B
cobalt	69-29296-B,286-399-S
cobaltide	69-29892-B
cobaltifere	69-30025-B
cobaltique	69-30142-B
cobaltiser	69-30284-B
cobaye	69-30414-B
cobe	69-30504-B
cobee	69-31677-B
cobier	69-30645-B
cobolt	69-30827-B
cobourg	69-31052-B
cobre	69-31610-B
coca	69-31721-B
cocagne	69-32042-B,69-34911-B
cocaine	69-39866-B
cocard	69-35516-B
cocarde	69-35560-B
cocardeau	69-36577-B
cocarderie	69-36956-B
cocasse	69-37162-B,69-38193-B
cocatre	69-78703-B
cocatrix	69-39115-B
cocaution	69-39515-B
cocceiens	69-41472-B
coccifere	69-39998-B
coccigrue	69-40162-B
coccine	69-40351-B
coccinelle	69-40494-B
coccolithe	69-40808-B
coccygien enne	69-41025-B
coccygien gienne	198-77451-S
coccygien ienne	319-207712-S,343-43358-S
coccyx	69-41154-B
coche	69-42269-B,69-43198-B,69-44349-B,69-47101-B,69-49013-B,69-49576-B
coche ee	69-65881-B,94-47827-B
cochee	69-66219-B
cochelet	69-50228-B
cochelivier	69-50428-B
cochene	69-64988-B
cochenillage	69-50574-B
cochenille	69-50775-B
cochenille ee	69-52188-B
cocheniller	69-51824-B
cochenillier	69-52053-B
cocher	69-52275-B,69-52362-B,94-46453-B
cochere	69-65072-B
cocherelle	69-53857-B
cochet	69-54092-B
cochevis	69-55151-B
cochinchinois oise	69-56824-B
cochleaire	69-57274-B
cochlearia	69-57620-B
cochleariforme	69-58030-B
cochlee	69-58198-B
cochleiforme	69-58349-B
cochoir	69-58498-B
cochois	69-58682-B
cochon	69-58791-B
cochonnaille	69-62943-B
cochonne ee	69-64672-B
cochonnee	69-64778-B
cochonner	69-63137-B
cochonnerie	69-63593-B
cochonnet	69-63879-B
cochouan ou cochuan	69-64872-B
cochuan	69-64872-S
cockney	69-66555-B
coco	69-67158-B,69-67712-B,69-68705-B
cocoin ou cocouan	69-69186-B
cocon	69-69267-B
coconille	69-70282-B
coconnage	69-70431-B
coconner	69-70520-B
coconnier iere	69-70624-B
coconniere	69-70745-B
cocontractant ante	69-71122-B
cocorli	69-71355-B
cocote	69-71403-B,69-72616-B
cocoterie	69-73026-B
cocotier	69-73342-B
cocouan	69-69186-S
cocreancier	69-73712-B
cocrete	69-73597-B
coction	69-73895-B
cocu	69-74777-B
cocuage	69-77883-B
cocufier	69-78201-B
cocyte	69-78525-B
coda	69-78829-B
code	69-79161-B
codebiteur	69-84092-B
codecimateur	69-84477-B
codeine	69-84628-B
codemandeur	69-81841-B
codepute	69-84774-B
codetenteur	69-84917-B
codetenu	69-85110-B
codex	69-82031-B
codicillaire	69-82167-B
codicillant	69-82327-B
codicille	69-82403-B
codificateur	69-82914-B
codification	69-83010-B
