badigeonnage	27-58435-B
badigeonne ee	27-58857-B
badigeonner	27-58508-B
badigeonneur	27-58737-B
badillon	27-58944-B
badin ine	27-59165-B
badinage	27-61635-B
badinant	27-63685-B
badine	27-63949-B
badinement	27-64081-B
badiner	27-64291-B
badinerie	27-65773-B
badingue	27-66634-B
badours	27-66722-B
badree	27-67178-B
badrouille	27-66882-B
bafoue ee	27-68096-B
bafouer	27-67377-B
bafre	46-10486-B
bafree	46-11734-B
bafrer	46-10548-B
bafreur	46-11597-B
bagace	27-68226-B
bagage	27-68272-B
bagarre	27-69977-B
bagasse	27-70456-B,27-70692-B
bagatelier	27-72088-B
bagatelle	27-72400-B
bagaudes	27-76071-B
bagne	27-76406-B,27-76907-B
bagnole	27-77003-B
bagnolet	27-77549-B
bagnolette	27-77709-B
bagou	27-77802-B
baguage	27-78156-B
bague	27-78385-B,27-90233-B
bague ee	27-90395-B,27-90480-B
baguenaude	27-81280-B
baguenauder	27-82822-B
baguenauderie	27-83459-B
baguenaudier	27-83767-B,27-84013-B
baguer	27-84451-B,27-85552-B,27-85672-B
bagues	27-85807-B
baguette	27-87136-B,276-90816-S
bagueur	27-89936-B
baguier	27-90025-B
bahut	27-90568-B
bahutier	27-92221-B
bahutte	27-92629-B
bah 	27-93012-B
bai baie	27-93129-B
baianisme	31-147578-S,32-1069-B
baiart	31-147923-S
baie	27-93129-S,27-94042-B,27-95461-B,27-95904-B,27-97139-B
baifin	32-1277-B
baignade	27-98151-B
baignage	27-98431-B
baignant	27-98571-B
baignante	27-98782-B
baigne ee	27-107177-B
baigner	27-98938-B
baigneur euse	27-105104-B
baignoir	27-106130-B
baignoire	27-106562-B
bail	27-107848-B,333-203099-S
baile	27-110289-B
baillant ante	46-12190-B
baillard	27-110834-B,27-111146-B
baille	28-0-B,28-381-B,28-510-B
baille ble	28-872-B
baille ee	28-15787-B,131-102601-S
baillee	28-15983-B
baillement	46-12500-B,131-101440-S
bailler	28-1057-B,46-13193-B,131-101723-S
bailleresse	28-7029-B
baillet	28-7127-B,297-200120-S
baillette	28-7975-B
bailleul	28-8827-B
bailleur eresse	28-9776-B
bailleur euse	46-15295-B,333-203265-S
bailli	28-10439-B,372-90097-S
bailliage	28-12315-B
bailliager ere	28-13406-B
baillie	28-13596-B
baillival ale	28-14892-B
baillive	28-15226-B
baillon	46-15481-B
baillonne ee	46-17042-B
baillonner	46-16555-B
bailloque	28-15429-B
baillotte	28-15640-B
bain	28-16223-B,96-245705-S
baionnette	32-1646-B,276-92086-S
baioque	32-4625-B
bairam ou beiram	28-20788-B
baisailler	28-21086-B
baise ee	28-39895-B
baisemain	28-21379-B
baisement	28-22197-B
baiser	28-22364-B,28-28680-B
baiser s 	131-98189-S
baiseur euse	28-29730-B
baisotte ee	28-30440-B
baisotter	28-29853-B
baisse	28-30503-B
baisse ee	28-38683-B
baissement	28-31303-B
baisser	28-31601-B
baissier	28-37828-B,28-37946-B
baissiere	28-38055-B
baissoir	28-38546-B
baisure	28-39776-B
baite	28-40003-B
baitre	28-40400-B
bajoire	28-40454-B
bajoue	28-40689-B
bajoyer	28-41177-B
bakchich	28-41749-B
bal	28-42372-B
baladin ine	28-44924-B
baladinage	28-46177-B
balafre	28-46731-B
balafre ee	28-48964-B
balafrer	28-48310-B
balai	28-49088-B
balais	28-53752-B
balance	28-54618-B,276-90995-S
balance ee	28-78807-B,78-3909-S
balancelle	28-65062-B
balancement	28-65376-B
balancer	28-66856-B,78-2347-S
balanceur	28-75657-B
balancier	28-75773-B,28-77815-B
balancine	28-78595-B
balancoire	28-82523-B
balancon	28-83448-B
balandran ou balandras	28-79857-B
balandras	28-79857-S,28-80250-B
balandre	28-80307-B
balanifere	28-80555-B
balanite	28-80748-B
balanoide	28-81190-B
balanophage	28-80899-B
balanophore	28-81041-B
balant	28-81348-B
balantine	28-81886-B
balata	28-83658-B
balauste	28-83819-B
balaustier	28-84239-B
balayage	28-84328-B
balaye ee	28-90100-B
balayement	28-84541-B
balayer	28-84627-B
balayette	28-88523-B
balayeur euse	28-88764-B
balayure	28-89318-B
balbutie	28-90248-B
balbutie ee	28-93079-B
balbutiement	28-90852-B
balbutier	28-91172-B
balbutieur	28-92868-B
balbuzard	28-93169-B
balcon	28-93824-B
balconier	28-95692-B
baldaquin	28-96326-B
bale	28-96914-B,28-117734-S,46-17482-B
bale ou bale	28-117734-S
baleine	28-96939-B
baleine ee	28-99825-B
baleineau	28-98949-B
baleinier	28-99070-B
baleiniere	28-99635-B
balenas	28-99911-B
balenide	28-145333-B
balerit	28-100011-B
baleron ou balerong	28-145532-B
balerong	28-145532-S
balevre	28-142941-B
bali	46-17544-B
balicorne ou baliscorne	28-100197-B
baline	28-100322-B
balique	28-100655-B
balisage	28-100962-B
baliscorne	28-100197-S
balise	28-101086-B,28-101136-B
balise ee	28-104663-B
balisement	28-102469-B
baliser	28-102693-B
baliseur	28-103170-B
balisier	28-103341-B
baliste	28-103632-B
balistique	28-104405-B
balivage	28-104741-B
baliveau	28-104895-B
baliverne	28-106738-B
baliverner	28-108206-B
ballade	28-108632-B
ballage	28-110441-B
ballant ante	28-110568-B
ballarin	28-110881-B
ballast	28-111015-B
ballastage	28-111255-B
ballaster	28-111352-B
ballastiere	28-111460-B
balle	28-111524-B,28-116171-B,28-117547-B,259-237760-S,268-78408-S,276-91202-S,353-131704-S,361-58250-S
balle ou bale ou bale	28-117734-B
balle queue	28-118714-B
baller	28-118830-B,28-120454-B
ballet	28-120782-B
balletant	28-122027-B
ballier	28-122304-B
balliere	28-122483-B
ballon	28-122668-B,28-124654-B,28-124807-B,28-125310-B,105-155810-S
ballonne ee	28-126657-B
ballonnement	28-125429-B
ballonner	28-125603-B
ballonnet	28-126248-B
ballonnier	28-126544-B
ballot	28-126758-B,84-210580-S
ballote	28-127760-B
ballotin	28-128042-B
ballottade	28-128138-B
ballottage	28-128348-B
ballotte	28-128645-B,28-129323-B
ballotte ee	28-131776-B
ballottement	28-129402-B
ballotter	28-129770-B,28-129852-B
balme	28-132451-B,31-131795-S
balneaire	28-132493-B
balneation	28-132725-B
balneatoire	28-132848-B
baloire	28-133019-B
baloise	28-133145-B
balourd ourde	28-133206-B
balourdise	28-134663-B
balsamier	28-135070-B
balsamifere	28-135125-B
balsamine	28-135275-B
balsamique	28-135640-B
balsamite	28-136217-B
balse	28-136562-B
baltadji	28-136669-B
balthasar	28-137146-B
baluette	28-137647-B
balustrade	28-137771-B
balustre	28-138172-B
balustrer	28-139573-B
balyk	28-139641-B
balzac	28-139923-B
balzan	28-140184-B
balzane	28-142392-B
bambelle	28-145840-B
bambin ine	28-145919-B
bambochade	28-146351-B
bamboche	28-146642-B
bambocher	28-147175-B
bambocheur euse	28-147329-B
bambou	28-147471-B
ban	20-61155-S,28-147862-B,363-111993-S
ban ban	363-111993-S
banal ale	28-153488-B
banalement	28-154364-B
banaliser	28-154463-B
banalite	28-154924-B
banane	28-155486-B
bananerie	28-155687-B
bananier	28-155756-B
banat	29-0-B
banatte	29-110-B
banc	29-235-B
bancable	29-5156-B
bancal ale	29-5403-B
bancasse	29-6838-B
bancelle	29-6953-B
banche	29-7524-B
banchee	29-7923-B
banco	29-8034-B
bancoule	29-8332-B
bancoulier	29-8722-B
bancroche	29-8863-B
bandage	29-9331-B,85-185676-S
bandagiste	29-10268-B
bande	29-10406-B,29-15272-B,29-18428-B,78-4089-S,96-245983-S,131-99250-S,271-42458-S,333-203395-S
bande ee	29-35097-B,78-4316-S
bandeau	29-18518-B,276-91602-S
bandelette	29-21854-B
bander	29-22537-B
bandereau	29-27484-B
banderole	29-27613-B
banderole ee	29-29101-B
bandeur	29-29263-B
bandiere	29-32517-B
bandine	29-29639-B
bandingue	29-29704-B
bandins	29-30109-B
bandiote	29-30250-B
bandit	29-30650-B
bandite	29-31237-B
banditisme	29-32400-B
bandoir	29-33084-B
bandolier ou bandoulier	29-33271-B
bandoulier	29-33271-S
bandouliere	29-34074-B
bandure	29-34913-B
bang	29-35498-B
bangard	29-35808-B
bangon	29-35940-B
banians	29-36041-B
bank	29-36554-B
bank note	29-36751-B
bankoul	29-36915-B
bankoulier	29-36979-B
banks	29-37056-B
banlieue	29-37376-B
bannasse	29-38269-B
banne	29-38435-B
banne ee	29-52161-B
banneau	29-39690-B
bannelle	29-40294-B
banner	29-40403-B
banneret	29-40480-B
banneton	29-41224-B
bannette	29-41673-B
banni ie	29-41780-B
bannie	29-42738-B
banniere	29-47497-B
bannir	29-43125-B
bannissable	29-46054-B
bannissement	29-46255-B
bannisseur	29-47316-B
banquais	29-52247-B
banque	29-52384-B
banquer	29-56333-B
banquereau	29-56465-B
banqueroute	29-56952-B
banqueroutier iere	29-61035-B
banquet	29-63024-B
banqueter	29-64940-B
banqueteur	29-65700-B
banquetiere	29-65814-B
banquette	29-66100-B
banquier	29-67611-B,29-69327-B
banquiere	29-69915-B
banquise	29-69476-B
banquiste	29-69815-B
bans	29-70210-B
banse	29-70304-B
bantam	29-70648-B
banteng	29-70935-B
banvin	29-71288-B
banzo	29-71599-B
baobab	29-71751-B
baphomet	29-71872-B
baphometique	29-72436-B
bapteme	29-77482-B
baptise ee	29-77374-B
baptiser	29-72683-B
baptiseur	29-74882-B
baptismal ale	29-75113-B
baptisme	29-75721-B
baptistaire	29-76121-B
baptistere	29-76476-B
baquenure	27-49644-S
baquet	29-79581-B
baquetage	29-81060-B
baqueter	29-81338-B
baqueteuse	29-81477-B
baquettes	29-81592-B
baquetures	29-81681-B
bar	29-81834-B,29-82002-B,29-82156-B,29-82592-B
baracon	29-82731-B
baradeau	29-82872-B
baragnon	29-83273-B
baragouin	29-83523-B
baragouinage	29-85526-B
baragouine ee	29-86513-B
baragouiner	29-85658-B
baragouineur euse	29-86292-B
baralipton	29-86610-B
barandage	29-86821-B
barange	29-86948-B
baraque	29-87049-B
baraque ee	29-88847-B
baraquement	29-88485-B
baraquer	29-88656-B
barat	29-88974-B
barate	29-89203-B
baraterie	29-89309-B
barathre	29-90985-B
barathrometre	29-91124-B
baraton	29-91314-B
barattage	29-91488-B
baratte	29-91610-B
baratte ee	29-92521-B
baratter	29-92405-B
barbacane	29-92612-B
barbacole	29-94136-B
barbacolle	29-94477-B
barbacou	29-94540-B
barbajan	29-94637-B
barbantane	29-94733-B
barbara	29-94816-B
barbarasse	29-94932-B
barbare	29-95039-B,226-36077-S
barbaree	29-102161-B
barbarement	29-97302-B
barbaresque	29-97571-B
barbarie	29-97987-B
barbarine	29-100039-B
barbariser	29-100446-B
barbarisme	29-101004-B
barbarolexie	29-102010-B
barbe	29-102229-B,29-110053-B,29-110653-B,29-111474-B,320-109145-S,333-203609-S,353-132277-S
barbe ee	30-3428-B
barbeau	29-111677-B,29-112781-B
barbele ee	29-113509-B
barbelet	29-113071-B
barbelle	29-113181-B
barbelure	29-113301-B
barberie	29-114289-B
barberon	29-114568-B
barbet ette	29-114639-B
barbets	29-115772-B
barbette	29-116610-B
barbeyer	29-118034-B
barbiche	29-118186-B
barbiche ou barbichet ou barbichon	29-118625-B
barbichet ou barbichon	29-118625-S
barbichon	29-118625-S
barbier	29-119140-B
barbifere	29-120734-B
barbifie ee	29-120643-B
barbifier	29-120302-B
barbille	29-120875-B
barbillon	29-120997-B
barbillonner	29-122395-B
barbin	29-122680-B
barbion	29-122820-B
barbirostre	29-122940-B
barbiste	29-123081-B
barbiton	29-123363-B
barblau	29-123519-B
barboche	29-123669-B
barbon	29-123927-B
barbot	29-125010-B
barbotage	29-125166-B
barbote	29-125673-B,29-125885-B
barbote ee	29-130652-B
barboteau	29-125945-B
barbotement	29-126063-B
barboter	29-126156-B
barboteur	29-129171-B
barboteuse	29-129589-B
barbotiere	29-130339-B
barbotin	29-129695-B
barbotine	29-129870-B
barbotte	29-130456-B
barbouillage	29-130766-B
barbouille ee	30-0-B
barbouiller	29-131375-B
barbouilleur	29-134881-B
barbouillon	29-135775-B
barbouler	30-492-B
barbouquet	30-717-B
barbouquine	30-830-B
barboute	30-900-B
barbu ue	30-1006-B
barbue	30-1930-B
barbule	30-2355-B
barbuquet	30-2511-B
barbure	30-3305-B
barcalon	30-3665-B
barcarolle	30-3821-B
barcasse	30-4796-B
barcelle	30-4932-B
barcelonnette	30-5066-B
bard	30-5536-B
bardache	30-6786-B
bardage	30-7143-B
bardane	30-7252-B
barde	30-7661-B,30-7886-B
barde ee	30-13374-B,30-13494-B
bardeau	30-9345-B
bardee	30-13762-B,30-13850-B
bardelle	30-10151-B,30-10554-B
bardennes	30-10639-B
barder	30-10764-B,30-10907-B
bardeur	30-11638-B
bardis	30-11793-B
bardit	30-12005-B
bardoire	30-12212-B
bardot	30-12287-B
barege	30-76636-B
baregine	30-77556-B
bareme	30-77672-B
barfoul	30-13967-B
barge	30-14117-B,30-14517-B
barguette	30-15461-B
barguignage	30-15593-B
barguigner	30-16034-B
