definitif ive	112-158004-B
definition	112-160277-B
definitivement	112-163344-B
definitoire	112-163830-B
deflagrateur	112-164121-B
deflagration	112-164465-B
deflagrer	112-165090-B
deflechi ie	112-169867-B
deflechir	112-170158-B
deflegmation	112-165449-B
deflegme ee	112-166049-B
deflegmer	112-165720-B
defleuraison	112-166139-B
defleuri ie	112-166257-B
defleurir	112-166444-B
deflexion	112-167132-B
defloraison	112-167377-B
deflorateur	112-167456-B
defloration	112-167668-B
deflore ee	112-168630-B
deflorement	112-167878-B
deflorer	112-168075-B
defluxion	112-168897-B
defoliation	112-170836-B
defoncage	112-174562-B
defonce	112-171299-B
defonce ee	112-174095-B
defoncement	112-171422-B
defoncer	112-171734-B
defonceuse	112-173988-B
deforestation	112-174668-B
deformable	112-174930-B
deformateur trice	112-175128-B
deformation	112-175266-B
deforme ee	112-177265-B
deformement	112-175684-B
deformer	112-176061-B
deformeur	112-176842-B
deformite	112-177021-B
defortifier	112-177523-B
defortune	112-177939-B,112-178343-B
defouetter	112-178819-B
defouir	112-179019-B
defoul	112-179769-B
defournage	112-180050-B
defourne ee	112-182102-B
defournement	112-180353-B
defourner	112-180474-B
defournir	112-180945-B
defournis	112-181605-B
defourrer	112-182199-B
defrai	112-182446-B
defraichir	112-187696-B
defranciser	112-182786-B
defraudation	112-182935-B
defrauder	112-183126-B
defraye ee	112-187503-B
defrayement	112-183509-B
defrayer	112-183792-B
defrayeur	112-187127-B
defrichage	112-188012-B
defriche ee	112-190515-B
defrichement	112-188121-B
defricher	112-188535-B
defricheur	112-190409-B
defrise ee	112-191768-B
defrisement	112-190823-B
defriser	112-190928-B
defronce ee	112-192630-B
defroncement	112-191947-B
defroncer	112-192084-B
defroque	112-192720-B
defroque ee	112-194296-B
defroquer	112-193431-B
defruiter	112-194674-B
defubler	112-194927-B
defuner	112-195820-B
defunt unte	112-195970-B
degage ee	113-10795-B
degagement	78-25313-S,113-0-B
degager	78-25495-S,113-1972-B
degaine	113-13895-B
degaine ee	113-16852-B
degainement	113-14391-B
degainer	113-14705-B
degaineur	113-16580-B
degalage	113-16941-B
degaler	113-17029-B
degalonner	113-17239-B
degante ee	113-17924-B
deganter	113-17659-B
degarni ie	113-18010-B
degarnir	113-18372-B
degarnissage	113-21319-B
degarnissement	113-21664-B
degasconner	113-21903-B
degat	113-113567-B
degauchi ie	113-22303-B
degauchir	113-22403-B
degauchissage	113-23266-B
degauchissement	113-23374-B
degazer	113-23509-B
degazonnement	113-23651-B
degazonner	113-23788-B
degel	113-24248-B
degele ee	113-27046-B
degelee	113-27300-B
degelement	113-115489-B
degeler	113-24965-B
degener	113-123290-B
degenerant ante	113-115650-B
degeneratif ve	113-116024-B
degeneration	113-116245-B
degenere ee	113-122907-B
degenerer	113-117068-B
degenerescence	113-122109-B
degenerescent ente	113-122628-B
degermer	113-27431-B
degingande ee	113-30193-B
degingandement	113-27754-B
degingander	113-28526-B
degiter	113-123623-B
deglacer	113-31040-B
deglander	113-31648-B
deglouteronner	113-31921-B
deglue ee	113-33586-B
degluement	113-32084-B
degluer	113-32224-B
deglutiner	113-32766-B
deglutition	113-32933-B
degobillage	113-33667-B
degobille ee	113-34326-B
degobiller	113-34008-B
degobillis	113-34185-B
degognade	113-34459-B
degogner se	113-34747-B
degoise ee	113-37228-B
degoisement	113-35000-B
degoiser	113-35545-B
degommage	113-37328-B
degommer	113-37747-B
degonder	113-38027-B
degonfle ee	113-38978-B
degonflement	113-38355-B
degonfler	113-38566-B
degor	113-39193-B
degorge ee	113-46772-B
degorgeage	113-39324-B
degorgement	113-40046-B
degorgeoir	113-41319-B
degorger	113-42102-B
degote ee	113-48619-B
degoter	113-47267-B
degoudronnage	113-48710-B
degoudronneur	113-49088-B
degoupiller	113-49226-B
degourdi	113-49362-B
degourdi ie	113-49858-B
degourdir	113-50298-B
degourdissement	113-52818-B
degout	113-53108-B,113-58031-B
degoutamment	113-62045-B
degoutant ante	113-62175-B
degoute ee	113-67596-B
degoutement	113-63752-B
degouter	113-64445-B
degouttant ante	113-54110-B
degouttement	113-54693-B
degoutter	113-55018-B
degoutture	113-57840-B
degradant ante	113-69369-B
degradatif ive	113-69536-B
degradation	113-69817-B,113-72006-B
degrade ee	113-78832-B,113-79307-B
degradement	113-73379-B
degrader	113-73666-B,113-77702-B
degrafe ee	113-80827-B
degrafer	113-80423-B
degraissage	113-80917-B
degraisse	113-81223-B
degraisse ee	113-84826-B
degraissement	113-81358-B
degraisser	113-81469-B
degraisseur euse	113-84107-B
degraissis	113-84339-B
degraissoir	113-84467-B
degrapper	113-85030-B
degrappiner	113-85241-B
degrappoir	113-85417-B
degras	113-85496-B
degrat	113-86233-B
degraveler	113-86979-B
degraver	113-87201-B
degravoiement ou degravoiment	113-87343-B
degravoiment	113-87343-S
degravoye ee	113-88102-B
degravoyer	113-87535-B
degre	96-137535-B
degreage	113-94745-B
degree ee	113-96891-B
degreement	113-94809-B
degreer	113-94974-B
degrenage	113-95646-B
degrener	113-95802-B
degreve ee	113-96797-B
degrevement	113-94547-B
degrever	113-96058-B
degriller	113-88226-B
degringolade	113-88512-B
degringoler	113-88676-B
degrise ee	113-91443-B
degrisement	113-90396-B
degriser	113-90523-B
degrossage	113-91549-B
degrosser	113-91647-B
degrossi	113-91807-B
degrossi ie	113-91966-B
degrossir	113-92348-B
degrossissage	113-93486-B
degrossissement	113-94070-B
degrossisseur	113-94215-B
degu	113-96978-B
deguenille ee	113-97432-B
degueniller	113-97042-B
deguerpi ie	113-97932-B
deguerpir	113-98149-B
deguerpissement	113-100491-B
deguerpisseur	113-100923-B
degueulement	113-101081-B
degueuler	113-101449-B
degueulis	113-101842-B
deguignonne ee	113-102249-B
deguignonner	113-101957-B
deguisable	113-102357-B
deguise ee	113-112008-B
deguisement	113-102481-B
deguiser	113-105088-B
deguiseur	113-111786-B
degustateur	113-112663-B
degustation	113-112846-B
deguste ee	113-113465-B
deguster	113-113229-B
dehait	96-152984-B
dehaite ee	96-153466-B
dehale ee	96-154033-B,113-129457-B
dehaler	113-123847-B,113-124108-B
dehanche ee	113-125658-B
dehanchement	113-125063-B
dehancher se	113-125251-B
deharder	113-126299-B
deharnache ee	113-127222-B
deharnachement	113-126603-B
deharnacher	113-126717-B
dehiscence	113-127319-B
dehiscent ente	113-127674-B
dehonte ee	113-128023-B
dehors	24-25548-S,96-154111-B,170-20724-S
dehors ou boute hors	40-82729-S
dehortatoire	113-129062-B
dehouillement	113-129285-B
dei	7-3042-S
deicide	113-129540-B,113-130254-B
deicole	113-130764-B
deification	113-131108-B
deifie ee	113-133693-B
deifier	113-131552-B
deifique	113-133415-B
deiforme	113-133999-B
deipnosophistes	96-164788-B
deisme	113-134251-B
deiste	113-134800-B
deite	113-135571-B
deja	114-8537-B
dejanire	113-137562-B
dejaugement	113-137754-B
dejauger	113-137881-B
dejection	113-138125-B
dejete ee	113-141173-B
dejeter se	113-139292-B
dejettement	113-141006-B
dejeune	114-0-S,114-2107-B
dejeuner	113-141387-B
dejeuner ou dejeune	114-0-B
dejeuneur	114-1816-B
dejoindre	114-2166-B
dejoint ointe	114-3465-B
dejoue ee	114-5535-B
dejouer	114-3948-B
dejour	114-5393-B
dejuc	114-5677-B
dejuche ee	114-6696-B
dejucher	114-5856-B
dejudaise ee	114-6786-B
dejuger se	114-7042-B
dekkele	96-165426-B
dela	24-25946-S,96-171321-B
delabre ee	114-13533-B
delabrement	114-11393-B
delabrer	114-12099-B
delace ee	114-16715-B
delacer	114-15414-B
delai	114-16797-B
delaine	96-165900-B
delainer	114-19187-B
delais	114-19366-B
delaisse ee	114-25028-B
delaissement	114-19518-B
delaisser	114-21336-B
delaitage	114-27311-B
delaitement	114-27497-B
delaiter	114-27571-B
delampourdage	114-27689-B
delarde ee	114-28532-B
delardement	114-27918-B
delarder	114-28038-B
delassant ante	114-28690-B
delasse ee	114-31900-B
delassement	114-28796-B
delasser	114-29600-B
delateur	114-32116-B
delation	114-34340-B
delatte ee	114-35594-B
delatter	114-35239-B
delavage	114-35677-B
delave ee	114-36875-B
delaver	114-35782-B
delayable	114-37197-B
delayage	114-37319-B
delayant ante	114-37438-B
delaye ee	114-39713-B
delayement	114-37744-B
delayer	114-37838-B,114-39284-B
delayure	114-39560-B
deleatur	96-166033-B
delebile	114-151529-B
delectabilite	114-39867-B
delectable	114-40169-B
delectablement	114-42264-B
delectation	114-42531-B
delecte ee	114-47279-B
delecter	114-44803-B
delegant	114-151731-B
delegataire	114-151842-B
delegateur trice	114-151992-B
delegation	114-152139-B
delegatoire	114-153176-B
delegue ee	114-154598-B,333-216569-S
deleguer	114-153354-B,333-216491-S
delestage	114-47462-B
deleste ee	114-48452-B
delester	114-47844-B
delesteur	114-48239-B
deletere	114-155335-B
deliaison	114-48540-B
deliaque	114-49038-B
delibation	114-49327-B
deliberant ante	114-49613-B
deliberatif ive	114-49836-B
deliberation	114-50762-B
deliberativement	114-52128-B
deliberatoire	114-52384-B
delibere	114-57782-B
delibere ee	114-58252-B,114-58882-B
deliberement	114-60772-B
deliberer	114-52558-B,114-57556-B
delicat ate	114-61367-B
delicate ee	114-84157-B
delicatement	114-72437-B
delicater	114-73900-B
delicatesse	114-74287-B,241-2078-S
delice	114-84253-B
delicieusement	114-91159-B
delicieux euse	114-92198-B
delicoter	114-95316-B
delictueux euse	114-95603-B
delie ee	114-126558-B,114-130242-B
deliees	114-130902-B
deliement	114-95781-B
delier	114-95899-B
delies	114-99718-B
deligation	114-99903-B
deligatoire	114-100088-B
delimitateur	114-100196-B
delimitation	114-100297-B
delimite ee	114-100996-B
delimiter	114-100812-B
delimoner	114-101098-B
delineament	114-102281-B
delineateur	114-102591-B
delineation	114-102710-B
delineer	114-103236-B
delinquant ante	114-101275-B
delinquer	114-101615-B
deliot	114-103356-B
deliquescence	114-103410-B
deliquescent ente	114-103616-B
deliquium	96-166498-B
delirant ante	114-103868-B
delire	114-104970-B
delirer	114-106356-B
delirium tremens	96-166718-B
delissage	114-106892-B
delisser	114-107091-B
delisseur euse	114-107683-B
delissoir	114-107842-B
delit	114-107920-B,114-108751-B,292-132755-S
delitage	114-110481-B
delitation	114-110612-B
delite ee	114-113001-B,114-113252-B
delitement	114-110766-B
deliter	114-110829-B
delitescence	114-111779-B,114-112330-B
deliteur euse	114-112808-B
delitoir	114-112919-B
delivrance	114-113532-B
delivre	114-117420-B,114-117695-B,114-117839-B
delivre ee	114-125924-B
delivrer	114-118019-B
delivreur	114-125075-B
delocaliser	114-131020-B
deloge ee	114-138647-B
delogement	114-131321-B
deloger	114-133049-B,114-138356-B
delonger	114-138873-B
delot	114-139037-B
delover	114-139361-B
deloyal ale	114-139517-B
deloyalement	114-141174-B
deloyaute	114-142030-B
delphinal ale	96-166962-B
delphinaptere	96-167436-B
delphine	96-167639-B
delphine ee	96-168817-B
delphinette	96-167686-B
delphinien ienne	96-167871-B
delphinine	96-168043-B
delphinium	96-168209-B
delphinoide	96-168650-B
delphinorrhinque	96-168357-B
delphique	96-169038-B
delta	96-169261-B
deltaique	96-170159-B
deltocarpe	96-170452-B
deltoide	96-170604-B
deltoidien ienne	96-171034-B
delture	96-171183-B
deluge	114-143500-B
delure ee	114-149249-B
delusoire	114-149751-B
delustre ee	114-150673-B
delustrer	114-150178-B
delutage	114-150768-B
delute ee	114-151452-B
deluter	114-150876-B
deluteur	114-151003-B
demacadamiser	114-155688-B
demaclage	114-155933-B
demacler	114-156024-B
demaconner	115-8148-B
demagogie	114-156110-B
demagogique	114-156520-B
demagogiser	114-156669-B
demagogisme	114-156875-B
demagogue	114-157014-B
demaigri ie	114-158413-B,114-158512-B
demaigrir	114-158674-B,114-159099-B
demaigrissement	114-159358-B
demailler	114-159595-B
demaillote ee	114-160949-B
demailloter	114-160021-B
demain	17-204069-S,96-176267-B
demanche	114-163515-B
demanche ee	114-163653-B
demanchement	114-161062-B
demancher	114-161377-B,114-161538-B
demandant ante	96-181541-B
demande	96-181949-B
demande ee	96-202331-B
demander	96-186830-B
demander s 	132-475-S
demanderesse	96-200680-B
demandeur euse	96-200748-B
demangeaison	114-164009-B
demanger	114-165755-B
demanillage	114-168088-B
demantele ee	114-170080-B
demantelement	114-170907-B
demanteler	114-168265-B
demantibule ee	114-170770-B
demantibuler	114-170294-B
demarauder	114-171577-B
demarcatif ive	114-171948-B
demarcation	114-172111-B
demarche	114-173122-B
demarchie	114-177117-B
demarger	114-177228-B
demarguer	114-177406-B
demariage	114-177720-B
demarie ee	115-0-B
demarier	114-177951-B
